RESNR	RESTYPE	RESCHAIN	PROT_IDX_LIST	RESNR_LIG	RESTYPE_LIG	RESCHAIN_LIG	DIST	PROTISPOS	LIG_GROUP	LIG_IDX_LIST	LIGCOO	PROTCOO
57	LYS	C	6873	17	A	D	5.02	True	Phosphate	13016,13016,13017,13018,13019	(-60.069, -27.46, -1.689)	(-58.76, -27.871, -6.523)
278	ARG	C	8390,8392,8393	19	A	D	5.04	True	Phosphate	13060,13060,13046,13061,13062,13063	(-63.444, -28.077, 9.904)	(-58.90133333333333, -28.830666666666662, 11.946666666666665)
336	LYS	C	8842	18	A	D	4.21	True	Phosphate	13038,13038,13024,13041,13040,13039	(-63.137, -26.294, 3.588)	(-63.543, -22.172, 2.841)
376	ARG	C	9147,9149,9150	7	A	D	5.16	True	Phosphate	12956,12956,12958,12957,12942,12959	(-19.123, -26.865, -1.394)	(-19.382, -31.090999999999998, 1.5623333333333331)
534	LYS	C	10412	1	A	D	4.31	True	Phosphate	12824,12824,12823,12825,12826,12827	(-14.177, -5.198, -12.621)	(-15.723, -3.074, -16.035)
567	LYS	C	10657	1	A	D	3.43	True	Phosphate	12824,12824,12823,12825,12826,12827	(-14.177, -5.198, -12.621)	(-11.193, -6.886, -12.461)
567	LYS	C	10657	3	A	D	4.63	True	Phosphate	12868,12868,12854,12869,12870,12871	(-11.254, -9.914, -8.962)	(-11.193, -6.886, -12.461)
571	LYS	C	10689	1	A	D	4.04	True	Phosphate	12824,12824,12823,12825,12826,12827	(-14.177, -5.198, -12.621)	(-12.283, -5.241, -16.192)
713	HIS	C	11793,11796	8	A	D	5.45	True	Phosphate	12978,12978,12980,12979,12964,12981	(-25.258, -27.537, -0.583)	(-25.811, -32.567, -2.6035000000000004)
754	HIS	C	12120,12123	6	A	D	4.12	True	Phosphate	12934,12934,12920,12936,12937,12935	(-14.936, -25.647, -4.748)	(-12.269, -27.195, -7.4805)
762	ARG	C	12174,12176,12177	7	A	D	4.22	True	Phosphate	12956,12956,12958,12957,12942,12959	(-19.123, -26.865, -1.394)	(-21.102333333333334, -27.24733333333333, -5.102666666666667)
793	ARG	C	12440,12442,12443	4	A	D	4.80	True	Phosphate	12890,12890,12891,12876,12893,12892	(-11.614, -15.724, -9.102)	(-13.406333333333334, -12.332333333333333, -11.988666666666667)
793	ARG	C	12440,12442,12443	3	A	D	4.43	True	Phosphate	12868,12868,12854,12869,12870,12871	(-11.254, -9.914, -8.962)	(-13.406333333333334, -12.332333333333333, -11.988666666666667)
