RESNR	RESTYPE	RESCHAIN	PROT_IDX_LIST	RESNR_LIG	RESTYPE_LIG	RESCHAIN_LIG	DIST	PROTISPOS	LIG_GROUP	LIG_IDX_LIST	LIGCOO	PROTCOO
41	ARG	A	1509,1511,1512	9	A	M	5.40	True	Phosphate	174,174,176,177,160,175	(29.061, 126.819, 8.688)	(28.643666666666665, 122.157, 11.371333333333334)
89	ARG	A	1903,1905,1906	8	A	M	4.37	True	Phosphate	152,152,153,138,155,154	(27.171, 129.943, 14.466)	(23.224999999999998, 129.7, 12.594)
104	LYS	A	2020	2	A	M	4.83	True	Phosphate	20,20,23,21,6,22	(32.013, 146.542, 42.106)	(27.819, 144.922, 43.861)
