RESNR	RESTYPE	RESCHAIN	PROT_IDX_LIST	RESNR_LIG	RESTYPE_LIG	RESCHAIN_LIG	DIST	PROTISPOS	LIG_GROUP	LIG_IDX_LIST	LIGCOO	PROTCOO
41	ARG	A	240,242,243	9	A	B	5.16	True	Phosphate	1550,1550,1552,1553,1551,1536	(-1.277, 52.72, 8.848)	(-6.026666666666666, 52.934000000000005, 10.860333333333335)
89	ARG	A	634,636,637	8	A	B	4.33	True	Phosphate	1528,1528,1529,1514,1531,1530	(-0.213, 47.393, 13.015)	(1.5543333333333333, 50.58633333333333, 15.337666666666669)
179	ARG	A	1338,1340,1341	2	A	B	3.94	True	Phosphate	1396,1396,1382,1397,1398,1399	(1.589, 15.751, 20.215)	(4.326999999999999, 18.102333333333334, 21.802333333333333)
