RESNR	RESTYPE	RESCHAIN	PROT_IDX_LIST	RESNR_LIG	RESTYPE_LIG	RESCHAIN_LIG	DIST	OFFSET	PROTCHARGED	LIG_GROUP	LIG_IDX_LIST	LIGCOO	PROTCOO
41	ARG	C	3985,3987,3988	7	A	O	4.39	1.27	True	Aromatic	488,489,490,491,497	(24.5758, 136.7952, -2.5708)	(20.934, 135.33900000000003, -0.6053333333333334)
94	ARG	C	4419,4421,4422	4	A	O	3.56	0.61	True	Aromatic	422,423,424,425,431	(9.2244, 142.327, -5.287000000000001)	(6.440666666666666, 141.22033333333334, -7.206333333333333)
41	ARG	C	3985,3987,3988	7	A	O	4.52	1.67	True	Aromatic	491,492,494,495,496,497	(24.173833333333334, 138.406, -1.3166666666666667)	(20.934, 135.33900000000003, -0.6053333333333334)
