RESNR	RESTYPE	RESCHAIN	RESNR_LIG	RESTYPE_LIG	RESCHAIN_LIG	PROT_IDX_LIST	CENTDIST	ANGLE	OFFSET	TYPE	LIG_IDX_LIST	LIGCOO	PROTCOO
102	PHE	H	1	A	T	10648,10649,10650,10651,10652,10653	3.79	6.78	1.46	P	1133,1134,1135,1136,1142	(-3.899, 97.1442, -28.3818)	(-6.579666666666667, 99.61683333333333, -27.363833333333332)
102	PHE	H	1	A	T	10648,10649,10650,10651,10652,10653	3.36	7.40	0.50	P	1136,1137,1139,1140,1141,1142	(-4.891333333333333, 96.82066666666667, -26.5805)	(-6.579666666666667, 99.61683333333333, -27.363833333333332)
142	PHE	H	2	A	T	10849,10850,10851,10852,10853,10854	3.70	3.66	1.53	P	1155,1156,1157,1158,1164	(-0.8002, 105.04339999999999, -22.316)	(-2.6940000000000004, 104.15583333333335, -25.371333333333336)
14	TYR	H	4	A	T	9949,9950,9951,9952,9953,9954	3.85	9.70	1.60	P	1199,1200,1201,1202,1208	(6.2128, 111.02060000000002, -16.4892)	(4.589666666666667, 114.26933333333334, -17.764666666666667)
56	TYR	H	6	A	T	10280,10281,10282,10283,10284,10285	3.81	10.22	1.34	P	1243,1244,1245,1246,1252	(12.065, 117.6892, -10.7392)	(9.408, 116.92683333333332, -13.354)
