RESNR	RESTYPE	RESCHAIN	PROT_IDX_LIST	RESNR_LIG	RESTYPE_LIG	RESCHAIN_LIG	DIST	OFFSET	PROTCHARGED	LIG_GROUP	LIG_IDX_LIST	LIGCOO	PROTCOO
41	ARG	H	10159,10161,10162	7	A	T	4.04	0.87	True	Aromatic	1265,1266,1267,1268,1274	(18.9134, 121.72819999999999, -15.860800000000001)	(15.950000000000001, 120.83833333333332, -13.261666666666668)
94	ARG	H	10593,10595,10596	4	A	T	3.49	0.82	True	Aromatic	1199,1200,1201,1202,1208	(6.2128, 111.02060000000002, -16.4892)	(5.4816666666666665, 107.96333333333332, -14.967666666666666)
41	ARG	H	10159,10161,10162	7	A	T	4.17	1.34	True	Aromatic	1268,1269,1271,1272,1273,1274	(17.265833333333333, 122.56733333333331, -16.816333333333336)	(15.950000000000001, 120.83833333333332, -13.261666666666668)
