RESNR	RESTYPE	RESCHAIN	PROT_IDX_LIST	RESNR_LIG	RESTYPE_LIG	RESCHAIN_LIG	DIST	PROTISPOS	LIG_GROUP	LIG_IDX_LIST	LIGCOO	PROTCOO
41	ARG	E	6529,6531,6532	8	A	Q	5.15	True	Phosphate	800,800,786,801,803,802	(27.204, 110.725, 2.158)	(23.912333333333333, 108.17766666666667, -0.8773333333333334)
89	ARG	E	6923,6925,6926	7	A	Q	4.34	True	Phosphate	778,778,781,779,764,780	(25.565, 106.133, 6.89)	(23.248666666666665, 109.44233333333334, 8.473333333333334)
