RESNR	RESTYPE	RESCHAIN	RESNR_LIG	RESTYPE_LIG	RESCHAIN_LIG	PROT_IDX_LIST	CENTDIST	ANGLE	OFFSET	TYPE	LIG_IDX_LIST	LIGCOO	PROTCOO
39	TYR	m	125	A	L	7369,7370,7371,7372,7373,7374	3.90	16.81	1.02	P	6240,6241,6242,6243,6249	(292.7688, 315.3198, 418.3026)	(294.4826666666667, 317.66749999999996, 415.70966666666664)
39	TYR	m	125	A	L	7369,7370,7371,7372,7373,7374	3.93	16.33	0.99	P	6243,6244,6246,6247,6248,6249	(294.535, 315.8958333333333, 419.2178333333333)	(294.4826666666667, 317.66749999999996, 415.70966666666664)
25	TRP	m	133	G	L	7259,7261,7262,7263,7264,7265	5.01	70.38	0.34	T	6410,6411,6412,6413,6420	(294.3148, 329.884, 430.89639999999997)	(296.6545, 325.4728333333333, 431.2511666666667)
