RESNR	RESTYPE	RESCHAIN	PROT_IDX_LIST	RESNR_LIG	RESTYPE_LIG	RESCHAIN_LIG	DIST	PROTISPOS	LIG_GROUP	LIG_IDX_LIST	LIGCOO	PROTCOO
81	LYS	C	605	12	A	D	5.38	True	Phosphate	879,879,880,881,882,865	(150.195, 193.124, 181.275)	(147.235, 188.749, 180.28)
81	LYS	C	605	11	A	D	5.40	True	Phosphate	857,857,858,859,860,845	(145.737, 193.571, 182.195)	(147.235, 188.749, 180.28)
85	ARG	C	641,643,644	17	U	D	4.15	True	Phosphate	987,987,988,989,990,975	(144.281, 171.831, 171.355)	(145.34333333333333, 174.38433333333333, 168.262)
