RESNR	RESTYPE	RESCHAIN	PROT_IDX_LIST	RESNR_LIG	RESTYPE_LIG	RESCHAIN_LIG	DIST	PROTISPOS	LIG_GROUP	LIG_IDX_LIST	LIGCOO	PROTCOO
579	LYS	Z	3203	32	A	P	5.10	True	Phosphate	43,43,29,44,45,46	(113.674, 152.182, 165.101)	(116.48, 155.831, 167.298)
619	ARG	Z	3523,3525,3526	30	U	P	4.59	True	Phosphate	1,1,2,3,4	(104.029, 151.897, 170.749)	(101.58833333333332, 155.12633333333335, 172.912)
