RESNR	RESTYPE	RESCHAIN	RESNR_LIG	RESTYPE_LIG	RESCHAIN_LIG	PROT_IDX_LIST	CENTDIST	ANGLE	OFFSET	TYPE	LIG_IDX_LIST	LIGCOO	PROTCOO
53	TYR	g	126	A	a	4600,4601,4602,4603,4604,4605	3.47	13.82	0.45	P	3444,3445,3446,3447,3453	(125.09880000000001, 130.7166, 206.34920000000002)	(126.80616666666667, 130.63533333333334, 209.37216666666666)
53	TYR	g	126	A	a	4600,4601,4602,4603,4604,4605	4.00	13.82	1.69	P	3447,3448,3450,3451,3452,3453	(124.37683333333332, 128.81016666666667, 206.77183333333335)	(126.80616666666667, 130.63533333333334, 209.37216666666666)
