RESNR	RESTYPE	RESCHAIN	RESNR_LIG	RESTYPE_LIG	RESCHAIN_LIG	SIDECHAIN	DIST_H-A	DIST_D-A	DON_ANGLE	PROTISDON	DONORIDX	DONORTYPE	ACCEPTORIDX	ACCEPTORTYPE	LIGCOO	PROTCOO
55	ASN	E	126	A	1	True	2.09	3.07	172.99	True	363	Nam	1382	Nar	(-45.223, -32.176, 46.019)	(-48.284, -32.325, 45.915)
80	LYS	E	126	A	1	True	2.92	3.59	124.11	True	565	N3	1382	Nar	(-45.223, -32.176, 46.019)	(-44.094, -34.907, 43.973)
37	GLU	E	133	G	1	True	3.19	4.10	156.10	False	1522	O3	216	O3	(-39.817, -34.457, 29.276)	(-42.692, -35.14, 26.44)
83	ASN	E	133	G	1	True	3.22	4.06	144.79	False	1532	Npl	584	O2	(-43.649, -34.689, 34.246)	(-46.557, -36.555, 36.381)
06, -24.048)
