RESNR	RESTYPE	RESCHAIN	RESNR_LIG	RESTYPE_LIG	RESCHAIN_LIG	PROT_IDX_LIST	CENTDIST	ANGLE	OFFSET	TYPE	LIG_IDX_LIST	LIGCOO	PROTCOO
53	TYR	l	126	A	L	7429,7430,7431,7432,7433,7434	3.65	3.36	0.55	P	6273,6274,6275,6276,6282	(294.9058, 322.683, 415.1232)	(295.56233333333336, 324.7141666666667, 412.16383333333334)
53	TYR	l	126	A	L	7429,7430,7431,7432,7433,7434	3.86	4.38	1.45	P	6276,6277,6279,6280,6281,6282	(296.3591666666666, 323.9635, 415.86866666666674)	(295.56233333333336, 324.7141666666667, 412.16383333333334)
