RESNR	RESTYPE	RESCHAIN	RESNR_LIG	RESTYPE_LIG	RESCHAIN_LIG	SIDECHAIN	DIST_H-A	DIST_D-A	DON_ANGLE	PROTISDON	DONORIDX	DONORTYPE	ACCEPTORIDX	ACCEPTORTYPE	LIGCOO	PROTCOO
53	SER	6	1638	U	B	True	3.23	3.80	119.34	True	220	O3	26485	O3	(141.679, 203.896, 117.521)	(145.413, 203.256, 117.823)
52	ARG	6	1636	A	B	False	2.75	3.55	139.97	False	26452	O3	207	O2	(146.797, 210.832, 118.369)	(146.925, 207.517, 119.622)
