RESNR	RESTYPE	RESCHAIN	RESNR_LIG	RESTYPE_LIG	RESCHAIN_LIG	SIDECHAIN	DIST_H-A	DIST_D-A	DON_ANGLE	PROTISDON	DONORIDX	DONORTYPE	ACCEPTORIDX	ACCEPTORTYPE	LIGCOO	PROTCOO
53	SER	6	1638	U	B	True	3.05	3.66	122.37	True	220	O3	26485	O3	(141.554, 202.295, 117.277)	(145.148, 201.748, 117.681)
52	ARG	6	1636	A	B	False	2.90	3.69	139.08	False	26452	O3	207	O2	(146.269, 209.348, 118.378)	(146.39, 205.91, 119.715)
