RESNR	RESTYPE	RESCHAIN	PROT_IDX_LIST	RESNR_LIG	RESTYPE_LIG	RESCHAIN_LIG	DIST	PROTISPOS	LIG_GROUP	LIG_IDX_LIST	LIGCOO	PROTCOO
32	LYS	N	3597	136	G	3	5.13	True	Phosphate	4749,4749,4752,4735,4750,4751	(-99.434, 1.149, -34.008)	(-101.408, 1.632, -29.295)
32	LYS	N	3597	135	A	3	4.15	True	Phosphate	4727,4727,4715,4728,4729,4730	(-97.942, 3.679, -28.269)	(-101.408, 1.632, -29.295)
