RESNR	RESTYPE	RESCHAIN	RESNR_LIG	RESTYPE_LIG	RESCHAIN_LIG	SIDECHAIN	DIST_H-A	DIST_D-A	DON_ANGLE	PROTISDON	DONORIDX	DONORTYPE	ACCEPTORIDX	ACCEPTORTYPE	LIGCOO	PROTCOO
16	ASN	G	163	G	H	False	2.20	3.03	141.37	True	3186	Nam	2689	O2	(176.502, 111.031, 121.923)	(173.496, 111.334, 122.146)
88	LYS	G	164	C	H	False	2.30	3.28	171.36	True	3480	Nam	2709	O2	(176.242, 119.133, 131.647)	(174.334, 119.334, 134.304)
45	ALA	G	167	U	H	False	2.17	3.11	160.13	True	3302	Nam	2777	O2	(177.653, 126.439, 120.46)	(175.912, 123.904, 120.934)
45	ALA	G	167	U	H	False	2.07	2.93	145.41	False	2775	Nar	3305	O2	(179.617, 126.04, 119.42)	(177.919, 123.716, 118.875)
47	LYS	G	170	C	H	False	2.90	3.45	116.68	False	2832	O3	3313	O2	(185.95, 117.15, 114.507)	(183.089, 117.786, 116.327)
50	LYS	G	163	G	H	False	1.72	2.68	174.08	False	2682	O3	3325	O2	(182.749, 113.705, 126.249)	(182.65, 115.14, 123.982)
86	TYR	G	164	C	H	False	1.92	2.85	157.47	False	2712	Npl	3475	O2	(173.797, 115.381, 132.484)	(171.547, 117.091, 132.877)
