#Chain_ID	ResNum_ResIcode	Propensity
A	12	0.04079
A	13	0.02170
A	14	0.05316
A	15	0.00137
A	16	0.00110
A	17	0.00606
A	18	0.00593
A	19	0.00356
A	20	0.00481
A	21	0.01133
A	22	0.02287
A	23	0.05034
A	24	0.01034
A	25	0.06143
A	26	0.14378
A	27	0.03271
A	28	0.00662
A	29	0.05243
A	30	0.00272
A	31	0.00436
A	32	0.00602
A	33	0.03021
A	34	0.01032
A	35	0.00818
A	36	0.02977
A	37	0.00582
A	38	0.02635
A	39	0.00353
A	40	0.00326
A	41	0.01325
A	42	0.00362
A	43	0.00738
A	44	0.00072
A	45	0.00968
A	46	0.00683
A	47	0.00894
A	48	0.00736
A	49	0.00158
A	50	0.00471
A	51	0.00340
A	52	0.02619
A	53	0.01039
A	54	0.07776
A	55	0.24458
A	56	0.13992
A	57	0.03856
A	58	0.19805
A	59	0.27129
A	60	0.01741
A	61	0.02793
A	62	0.02262
A	63	0.01420
A	64	0.00203
A	65	0.00195
A	66	0.00475
A	67	0.00333
A	68	0.00997
A	69	0.00678
A	70	0.07099
A	71	0.11019
A	72	0.00833
A	73	0.04294
A	74	0.08114
A	75	0.07017
A	76	0.00186
A	77	0.01050
A	78	0.01845
A	79	0.01726
A	80	0.00709
A	81	0.00607
A	82	0.00068
A	83	0.00342
A	84	0.01533
A	85	0.05485
A	86	0.04348
A	87	0.05839
A	88	0.08961
A	89	0.03164
A	90	0.00982
A	91	0.01015
A	92	0.01554
A	93	0.01066
A	94	0.06409
A	95	0.01496
A	96	0.02123
A	97	0.03596
A	98	0.00495
A	99	0.00675
A	100	0.02082
A	101	0.00513
A	102	0.01494
A	103	0.00055
A	104	0.00590
A	105	0.00158
A	106	0.00760
A	107	0.00099
A	108	0.03039
A	109	0.01808
A	116	0.01767
A	117	0.00732
A	118	0.00221
A	119	0.00424
A	120	0.00078
A	121	0.00286
A	122	0.00047
A	123	0.00451
A	124	0.01151
A	125	0.00876
A	126	0.00818
A	127	0.00412
A	128	0.00229
A	129	0.01585
A	130	0.00164
A	131	0.01592
A	132	0.00553
A	133	0.00115
A	134	0.00174
A	135	0.00215
A	136	0.00098
A	137	0.00151
A	138	0.00158
A	139	0.00691
A	140	0.01400
A	141	0.00402
A	142	0.03506
A	143	0.00974
A	144	0.00127
A	145	0.00232
A	146	0.01120
A	147	0.00375
A	148	0.00192
A	149	0.00320
A	150	0.02726
A	151	0.00144
A	152	0.00158
A	153	0.01356
A	154	0.00186
A	155	0.00087
A	156	0.00414
A	157	0.01647
A	158	0.00852
A	159	0.00311
A	160	0.00857
A	161	0.02124
A	162	0.01852
A	163	0.06164
A	164	0.04007
A	165	0.04955
A	166	0.02866
A	167	0.07969
A	168	0.38327
A	169	0.52507
A	170	0.02092
A	171	0.03524
A	172	0.02049
A	173	0.01777
A	174	0.00976
A	175	0.00681
A	176	0.02405
A	177	0.01551
A	178	0.11037
A	179	0.04803
A	180	0.03317
A	181	0.02173
A	182	0.01270
A	183	0.04334
A	184	0.00836
A	185	0.00515
A	186	0.01247
A	187	0.01418
A	188	0.00931
A	189	0.01832
A	190	0.01070
A	191	0.03004
A	192	0.01753
A	193	0.02858
A	194	0.06352
A	195	0.16552
A	196	0.00738
A	197	0.08237
A	198	0.00625
A	199	0.01211
A	200	0.01004
A	201	0.02716
A	202	0.01961
A	203	0.00975
A	204	0.00960
A	205	0.00493
A	206	0.15914
A	207	0.01272
A	208	0.03998
A	209	0.01143
A	210	0.15921
A	211	0.03384
A	212	0.11501
A	213	0.02142
A	214	0.06326
A	215	0.03469
A	216	0.07778
A	217	0.00352
A	218	0.00746
A	219	0.00671
A	220	0.00332
A	221	0.00199
A	222	0.00511
A	223	0.00504
A	224	0.00694
A	225	0.00147
A	226	0.00309
A	227	0.00189
A	228	0.00171
A	229	0.01396
A	230	0.00529
A	231	0.03338
A	232	0.02311
A	233	0.02549
A	238	0.07683
A	239	0.01199
A	240	0.02002
A	241	0.11004
A	242	0.15467
A	243	0.05952
A	244	0.00619
A	245	0.05813
A	246	0.03368
A	247	0.03458
A	248	0.00215
A	249	0.02657
A	250	0.14389
A	251	0.01245
A	252	0.00345
A	253	0.08706
A	254	0.04118
A	255	0.01467
A	256	0.07952
A	257	0.01009
A	258	0.01363
A	259	0.00744
A	267	0.52782
A	268	0.09364
A	269	0.18266
A	270	0.29929
A	271	0.02552
A	272	0.02277
A	273	0.18378
A	274	0.01500
A	275	0.05552
A	276	0.34341
A	277	0.38168
A	278	0.01457
A	279	0.00965
A	280	0.03794
A	281	0.12411
A	282	0.02403
A	283	0.02186
A	284	0.02476
A	285	0.01335
A	286	0.01864
A	294	0.05098
A	295	0.01726
A	296	0.00211
A	297	0.02851
A	298	0.01105
A	299	0.01216
A	300	0.07588
A	301	0.15355
A	302	0.02986
A	303	0.02858
A	304	0.05129
A	305	0.05835
A	306	0.10153
A	307	0.04310
A	308	0.01342
A	309	0.09523
A	310	0.02037
A	311	0.14994
A	312	0.03166
A	313	0.00679
A	314	0.01633
A	315	0.01456
A	316	0.04902
A	317	0.00539
A	318	0.01086
A	319	0.05182
A	320	0.07749
A	327	0.11505
A	328	0.12663
A	329	0.01764
A	330	0.00838
A	331	0.00456
A	332	0.02012
A	333	0.00382
A	334	0.00449
A	335	0.03762
A	336	0.03060
A	337	0.04604
A	338	0.05929
A	339	0.05152
A	340	0.05174
A	341	0.15142
A	342	0.01119
A	343	0.08902
A	344	0.11399
A	345	0.28965
A	346	0.17540
A	347	0.18154
A	348	0.19543
A	349	0.15414
A	350	0.04019
A	351	0.05421
A	352	0.13980
A	353	0.03196
A	354	0.02946
A	355	0.09575
A	356	0.21894
A	357	0.01530
A	358	0.07679
A	359	0.02826
A	360	0.08205
A	361	0.04596
A	362	0.02404
A	363	0.01308
A	364	0.02957
A	365	0.04123
A	366	0.01120
A	367	0.01148
A	368	0.00673
A	369	0.00487
A	370	0.00651
A	371	0.03394
A	372	0.00801
A	373	0.00321
A	374	0.01400
A	375	0.01722
A	382	0.03700
A	383	0.01265
A	384	0.00411
A	385	0.02156
A	386	0.01153
A	387	0.03603
A	388	0.00284
A	389	0.00247
A	390	0.01098
A	391	0.00185
A	392	0.00469
A	393	0.00302
A	394	0.01863
A	395	0.02596
A	396	0.01186
A	397	0.00723
A	398	0.00446
A	399	0.01510
A	400	0.00145
A	401	0.02696
A	402	0.00863
A	403	0.07561
A	404	0.00660
A	405	0.01629
A	406	0.01718
A	407	0.00533
A	408	0.01307
A	409	0.02664
A	410	0.00497
A	411	0.01143
A	412	0.02603
A	413	0.02072
A	414	0.01494
A	415	0.04591
A	416	0.03154
A	417	0.14130
A	418	0.04599
A	419	0.00608
A	420	0.00640
A	421	0.01438
A	422	0.00343
A	423	0.07473
A	424	0.01987
A	425	0.01007
A	426	0.00642
A	427	0.04632
A	428	0.02839
A	429	0.00595
A	430	0.13308
A	431	0.01893
A	432	0.01261
A	433	0.01368
A	434	0.00455
A	435	0.03438
A	436	0.00118
A	437	0.00700
A	438	0.00088
A	439	0.00360
A	440	0.00256
A	441	0.02924
A	442	0.00070
A	443	0.01506
A	444	0.00309
A	445	0.00469
A	446	0.00338
A	447	0.00754
A	448	0.02020
A	449	0.00835
A	450	0.03946
A	451	0.05866
A	452	0.08262
A	453	0.03202
A	454	0.00682
A	455	0.07980
A	456	0.01861
A	457	0.01985
A	458	0.00491
A	459	0.00499
A	460	0.03018
A	461	0.01125
A	462	0.00631
A	463	0.00276
A	464	0.00744
A	465	0.02779
A	466	0.00424
A	467	0.02431
A	468	0.03734
A	469	0.00405
A	470	0.00447
A	471	0.02346
A	472	0.02148
A	473	0.00205
A	474	0.01367
A	475	0.00214
A	476	0.00195
A	477	0.00334
A	478	0.01465
A	479	0.00274
A	480	0.02242
A	481	0.00944
A	482	0.00429
A	483	0.00879
A	484	0.01809
A	485	0.07044
A	486	0.04496
A	487	0.00800
A	488	0.09344
A	489	0.05711
A	490	0.01659
A	491	0.03537
A	492	0.01424
A	493	0.00188
A	494	0.02551
A	495	0.00523
A	496	0.00856
A	497	0.01040
A	498	0.01912
A	499	0.02804
A	500	0.00249
A	501	0.05525
A	502	0.02246
A	503	0.00986
A	504	0.03115
A	505	0.01409
A	506	0.00989
A	507	0.00322
A	508	0.02219
A	509	0.00448
A	510	0.00266
A	511	0.00327
A	512	0.00420
A	513	0.00615
A	514	0.01901
A	515	0.08525
A	516	0.04750
A	517	0.29604
A	518	0.05170
A	519	0.05653
A	520	0.01534
A	521	0.34245
A	522	0.02649
A	523	0.00576
A	524	0.00332
A	525	0.06722
A	526	0.02569
A	527	0.00133
A	528	0.00288
A	529	0.00814
A	530	0.01599
A	531	0.00385
A	532	0.00639
A	533	0.03227
A	534	0.00877
A	535	0.00365
A	536	0.02700
A	537	0.12101
A	538	0.05380
A	539	0.01365
A	540	0.12288
A	541	0.00494
A	542	0.18031
A	543	0.07739
A	544	0.00795
A	545	0.00524
A	546	0.17239
A	547	0.06668
A	548	0.07281
A	549	0.07316
A	550	0.13381
A	551	0.05345
A	552	0.00640
A	553	0.01666
A	554	0.19217
A	555	0.00879
A	556	0.00577
A	557	0.05195
A	558	0.22127
A	559	0.01471
A	560	0.06346
A	561	0.02029
A	562	0.17894
A	563	0.04569
A	564	0.09636
A	565	0.03908
A	566	0.01262
A	567	0.09748
A	568	0.03312
A	569	0.00593
A	570	0.01598
A	571	0.02283
A	572	0.06827
A	573	0.09362
A	574	0.03791
A	575	0.02309
A	576	0.00566
A	577	0.01903
A	578	0.00757
A	579	0.01849
A	580	0.06990
A	581	0.04048
A	582	0.01421
A	583	0.00320
A	584	0.00237
A	585	0.00594
A	586	0.00208
A	587	0.06675
A	588	0.02395
A	589	0.02548
A	590	0.01356
A	591	0.14675
A	592	0.44276
A	593	0.12923
A	594	0.10302
A	599	0.28167
A	600	0.16285
A	601	0.05115
A	602	0.12720
A	603	0.02799
A	604	0.01792
A	605	0.05247
A	606	0.01074
A	607	0.01530
A	608	0.01927
A	609	0.11781
A	610	0.03019
A	611	0.03872
A	612	0.02926
A	613	0.03945
A	614	0.00311
A	615	0.01345
A	616	0.05271
A	617	0.04063
A	618	0.01084
A	619	0.01447
A	620	0.02789
A	621	0.01238
A	622	0.23834
A	623	0.02812
A	624	0.16437
A	625	0.47803
A	636	0.13947
A	637	0.08267
A	638	0.13640
A	639	0.03327
A	640	0.00105
A	641	0.01992
A	642	0.02198
A	643	0.00946
A	644	0.00325
A	645	0.01531
A	646	0.03765
A	647	0.00818
A	648	0.00154
A	649	0.02536
A	650	0.01082
A	651	0.00341
A	652	0.00722
A	653	0.01654
A	654	0.01178
A	655	0.00687
A	656	0.05328
A	657	0.09135
A	658	0.01867
A	659	0.00521
A	660	0.03070
A	661	0.02665
A	662	0.01151
A	663	0.01246
A	664	0.01219
A	665	0.04584
A	666	0.01529
A	667	0.00947
A	668	0.01600
A	669	0.05698
A	670	0.13290
A	671	0.03502
A	672	0.30627
A	673	0.17692
A	674	0.64679
A	675	0.18625
A	676	0.18514
A	677	0.11385
A	678	0.00705
A	679	0.01821
A	680	0.01535
A	681	0.00331
A	682	0.00223
A	683	0.00767
A	684	0.00373
A	685	0.00901
A	686	0.00588
A	687	0.00859
A	688	0.00366
A	689	0.00412
A	690	0.05995
A	691	0.03435
A	692	0.01540
A	693	0.00549
A	694	0.01354
A	695	0.01768
A	696	0.00527
A	697	0.01852
A	698	0.02598
A	699	0.00940
A	700	0.01433
A	701	0.07207
A	702	0.02400
A	703	0.01496
A	704	0.00797
A	705	0.01536
A	706	0.00986
A	707	0.01747
A	708	0.03412
A	709	0.06259
A	710	0.19881
A	711	0.80688
A	712	0.96420
A	713	0.51840
A	714	0.30918
A	715	0.09800
A	716	0.33923
A	717	0.01017
A	718	0.03618
A	719	0.00432
A	720	0.00309
A	721	0.00773
A	722	0.04235
A	723	0.00936
A	724	0.00331
A	725	0.01474
A	726	0.01423
A	727	0.07566
A	728	0.25304
A	729	0.02836
A	730	0.01493
A	731	0.12347
A	732	0.00936
A	733	0.01772
A	734	0.02815
A	735	0.10164
A	736	0.12455
A	737	0.01756
A	738	0.01666
A	739	0.07954
A	740	0.01554
A	741	0.02357
A	742	0.01016
A	743	0.01398
A	744	0.01126
A	745	0.00088
A	746	0.00061
A	747	0.00088
A	748	0.00168
A	749	0.00388
A	750	0.00886
A	751	0.02125
A	752	0.01210
A	753	0.01018
A	754	0.05558
A	755	0.08765
A	756	0.01626
A	757	0.15866
A	758	0.24180
A	759	0.68617
A	760	0.34522
A	761	0.46710
A	762	0.13873
A	763	0.51247
A	764	0.12812
A	765	0.10920
A	766	0.10879
A	767	0.17943
A	768	0.01904
A	769	0.00971
A	770	0.00762
A	771	0.01057
A	772	0.01175
A	773	0.00656
A	774	0.00408
A	775	0.01154
A	776	0.00869
A	777	0.02561
A	778	0.00465
A	779	0.00901
A	780	0.00206
A	781	0.00243
A	782	0.01164
A	783	0.00235
A	784	0.00184
A	785	0.00896
A	786	0.01530
A	787	0.01011
A	788	0.01083
A	789	0.02945
A	790	0.02654
A	791	0.00648
A	792	0.15814
A	793	0.01850
A	794	0.20464
A	795	0.00956
A	796	0.01764
A	797	0.08354
A	798	0.04501
A	799	0.03218
A	800	0.17363
A	801	0.08435
A	802	0.04922
A	803	0.01366
A	804	0.05840
A	805	0.04353
A	806	0.24089
A	807	0.16486
A	808	0.05989
A	809	0.14347
A	810	0.02796
A	811	0.02199
A	812	0.05780
A	813	0.13996
A	814	0.30101
A	815	0.01888
A	816	0.17782
A	817	0.04722
A	818	0.02242
A	819	0.01043
A	820	0.01409
A	821	0.01142
A	822	0.00826
A	823	0.01939
A	839	0.12110
A	840	0.05037
A	841	0.08455
A	842	0.21139
A	843	0.02311
A	844	0.01620
A	845	0.02182
A	846	0.11614
A	847	0.00968
A	848	0.01128
A	849	0.09709
A	850	0.01201
A	851	0.22238
A	852	0.17384
A	853	0.01370
A	854	0.00980
A	855	0.01535
A	856	0.03258
A	857	0.00696
A	858	0.02444
A	859	0.03053
A	860	0.01396
A	861	0.01216
