RESNR	RESTYPE	RESCHAIN	PROT_IDX_LIST	RESNR_LIG	RESTYPE_LIG	RESCHAIN_LIG	DIST	PROTISPOS	LIG_GROUP	LIG_IDX_LIST	LIGCOO	PROTCOO
956	LYS	A	2034	3	U	B	5.33	True	Phosphate	2824,2824,2809,2825,2826,2827	(-10.437, 16.092, 3.396)	(-6.333, 18.51, 1.005)
963	GLU	A	2086,2087	2	G	B	4.12	False	Guanidine	2819,2821,2822	(-6.793, 16.799, 10.949)	(-5.74, 15.2035, 14.5935)
