#Chain_ID	ResNum_ResIcode	Propensity
L	65	0.14509
L	66	0.05200
L	67	0.00406
L	68	0.01127
L	69	0.01600
L	70	0.02026
L	71	0.00436
L	72	0.00424
L	73	0.00514
L	74	0.08771
L	75	0.01845
L	76	0.03178
L	77	0.02116
L	78	0.22640
L	79	0.05600
L	80	0.06143
L	81	0.02014
L	82	0.01314
L	83	0.07723
L	84	0.06172
L	85	0.01000
L	86	0.02390
L	87	0.01874
L	88	0.00716
L	89	0.00970
L	90	0.01501
L	91	0.06404
L	92	0.00352
L	93	0.00242
L	94	0.00711
L	95	0.00573
L	96	0.01354
L	97	0.03103
L	98	0.02278
L	99	0.20805
L	100	0.08401
L	101	0.25095
L	102	0.02055
L	103	0.05458
L	104	0.03417
L	105	0.09025
L	106	0.00771
L	107	0.03191
L	108	0.04601
L	109	0.01679
L	110	0.05765
L	111	0.03537
L	112	0.00528
L	113	0.02047
L	114	0.04181
L	115	0.00258
L	116	0.00114
L	117	0.00778
L	118	0.07898
L	119	0.01186
L	120	0.03113
L	121	0.03895
L	122	0.07473
L	123	0.10972
L	124	0.09171
L	125	0.01389
L	126	0.01816
L	127	0.00370
L	128	0.14470
L	129	0.02186
L	130	0.00786
L	131	0.02736
L	132	0.07550
L	133	0.09831
L	134	0.04154
L	135	0.20716
L	136	0.03523
L	137	0.17169
L	138	0.02149
L	139	0.02043
L	140	0.01605
L	141	0.03247
L	142	0.11145
L	143	0.01048
L	144	0.03676
L	145	0.12584
L	146	0.12600
L	147	0.36996
L	148	0.55960
L	149	0.14103
L	150	0.40421
L	151	0.16082
L	152	0.22960
L	153	0.30952
L	154	0.67143
L	155	0.18521
L	156	0.11277
L	157	0.14642
L	158	0.22909
L	159	0.09267
L	160	0.06599
L	161	0.09742
L	162	0.10360
L	163	0.47620
L	164	0.19725
L	165	0.36007
L	166	0.11035
L	167	0.05787
L	168	0.25255
L	169	0.31522
L	170	0.04445
L	171	0.25439
L	172	0.12541
L	173	0.36121
L	174	0.22960
L	175	0.21731
L	176	0.06774
L	177	0.01458
L	178	0.01672
L	179	0.05556
L	180	0.06581
L	181	0.00448
L	182	0.00229
L	183	0.02570
L	184	0.01754
L	185	0.04891
L	186	0.07281
L	187	0.02306
L	188	0.04485
L	189	0.01797
L	190	0.02837
L	191	0.01014
L	192	0.00710
L	193	0.01359
L	194	0.03639
L	195	0.18852
