RESNR	RESTYPE	RESCHAIN	PROT_IDX_LIST	RESNR_LIG	RESTYPE_LIG	RESCHAIN_LIG	DIST	PROTISPOS	LIG_GROUP	LIG_IDX_LIST	LIGCOO	PROTCOO
116	ARG	E	36769,36771,36772	27	A	7	5.48	True	Phosphate	37753,37753,37754,37755,37756,37749	(192.668, 186.483, 226.817)	(187.532, 184.96833333333333, 227.976)
116	ARG	E	36769,36771,36772	28	A	7	4.06	True	Phosphate	37765,37765,37761,37768,37766,37767	(189.262, 181.316, 227.632)	(187.532, 184.96833333333333, 227.976)
143	ARG	E	36971,36973,36974	26	A	7	5.47	True	Phosphate	37741,37741,37744,37737,37742,37743	(197.514, 188.362, 226.382)	(201.895, 188.84266666666667, 229.61566666666667)
148	LYS	E	37012	25	A	7	4.61	True	Phosphate	37729,37729,37730,37731,37732,37725	(197.094, 192.965, 226.52)	(193.136, 194.24, 228.503)
