RESNR	RESTYPE	RESCHAIN	RESNR_LIG	RESTYPE_LIG	RESCHAIN_LIG	SIDECHAIN	DIST_H-A	DIST_D-A	DON_ANGLE	PROTISDON	DONORIDX	DONORTYPE	ACCEPTORIDX	ACCEPTORTYPE	LIGCOO	PROTCOO
99	LYS	E	2	C	F	True	1.99	2.99	167.36	True	1627	N3	2274	Nar	(35.725, 27.275, -39.82)	(35.663, 30.25, -39.527)
105	ASN	E	3	A	F	True	2.36	2.86	110.28	True	1686	Nam	2289	O3	(31.41, 21.018, -32.047)	(32.616, 18.887, -30.571)
102	ASN	E	3	A	F	True	2.02	3.00	176.35	True	1660	Nam	2299	Nar	(32.667, 24.758, -31.419)	(32.658, 22.404, -29.552)
118	ASP	E	2	C	F	True	1.83	2.80	170.81	False	2276	Npl	1793	O2	(37.462, 27.115, -41.296)	(38.246, 29.771, -40.869)
