RESNR	RESTYPE	RESCHAIN	RESNR_LIG	RESTYPE_LIG	RESCHAIN_LIG	SIDECHAIN	DIST_H-A	DIST_D-A	DON_ANGLE	PROTISDON	DONORIDX	DONORTYPE	ACCEPTORIDX	ACCEPTORTYPE	LIGCOO	PROTCOO
99	LYS	A	2	C	B	True	1.81	2.81	165.72	True	85	N3	732	Nar	(-17.613, -20.673, 6.781)	(-19.924, -20.3, 8.329)
107	TYR	A	3	A	B	True	2.69	3.54	151.40	True	160	O3	743	O3	(-10.501, -23.734, 9.176)	(-7.292, -22.625, 8.169)
105	ASN	A	3	A	B	True	1.76	2.72	166.15	True	144	Nam	747	O3	(-8.059, -23.319, 11.018)	(-5.454, -23.746, 11.685)
102	ASN	A	3	A	B	True	2.19	3.14	162.53	True	118	Nam	757	Nar	(-11.125, -22.255, 13.311)	(-8.12, -22.611, 14.147)
118	ASP	A	2	C	B	True	1.88	2.85	167.85	False	734	Npl	251	O2	(-18.398, -19.274, 5.11)	(-20.446, -18.007, 6.628)
153	LYS	A	1	U	B	False	3.16	3.62	110.90	False	700	O3	528	O2	(-13.428, -18.631, 0.992)	(-13.563, -17.038, -2.259)
