RESNR	RESTYPE	RESCHAIN	RESNR_LIG	RESTYPE_LIG	RESCHAIN_LIG	PROT_IDX_LIST	CENTDIST	ANGLE	OFFSET	TYPE	LIG_IDX_LIST	LIGCOO	PROTCOO
247	PHE	A	3	U	E	38,39,40,41,42,43	3.52	6.93	0.62	P	2399,2400,2402,2403,2405,2406	(222.00116666666665, 43.846, 50.96699999999999)	(222.162, 41.098333333333336, 48.76833333333334)
249	TYR	A	2	U	E	57,58,59,60,61,62	3.53	10.37	0.39	P	2379,2380,2382,2383,2385,2386	(226.19449999999998, 38.7915, 53.840666666666664)	(226.72333333333336, 36.830666666666666, 50.94733333333334)
