RESNR	RESTYPE	RESCHAIN	RESNR_LIG	RESTYPE_LIG	RESCHAIN_LIG	DIST	LIGCARBONIDX	PROTCARBONIDX	LIGCOO	PROTCOO
67	PRO	A	17	C	B	3.60	6773	377	(54.024, 8.617, -3.495)	(56.216, 8.366, -0.65)
294	PHE	A	21	U	B	3.77	6817	2100	(37.718, 8.543, -16.464)	(34.662, 6.331, -16.518)
529	TYR	A	1	U	B	3.35	6439	3893	(49.216, -25.887, 23.074)	(47.589, -24.969, 25.853)
