RESNR	RESTYPE	RESCHAIN	RESNR_LIG	RESTYPE_LIG	RESCHAIN_LIG	DIST	LIGCARBONIDX	PROTCARBONIDX	LIGCOO	PROTCOO
353	ILE	A	10	U	R	3.35	6648	2560	(25.857, 17.635, 65.628)	(28.955, 17.936, 66.856)
529	TYR	A	1	U	R	3.40	6456	3944	(23.698, 39.838, 72.911)	(20.386, 40.184, 73.615)
