#Chain_ID	ResNum_ResIcode	Propensity
F	36	0.11682
F	37	0.33401
F	38	0.21690
F	39	0.09747
F	40	0.04671
F	41	0.34120
F	42	0.01355
F	43	0.12991
F	44	0.17413
F	45	0.10258
F	46	0.01806
F	47	0.08404
F	48	0.10809
F	49	0.05872
F	50	0.09556
F	51	0.01691
F	52	0.03515
F	53	0.01506
F	54	0.02532
F	55	0.04607
F	56	0.25454
F	57	0.13722
F	58	0.17142
F	59	0.02882
F	60	0.01841
F	61	0.00855
F	62	0.03711
F	63	0.08282
F	64	0.02876
F	65	0.06867
F	66	0.10425
F	67	0.04712
F	68	0.05167
F	69	0.06556
F	70	0.01995
F	71	0.12699
F	72	0.05453
F	73	0.18763
F	74	0.03418
F	75	0.02460
F	76	0.00742
F	77	0.04156
F	78	0.06820
F	79	0.13237
F	80	0.19476
F	81	0.07922
F	82	0.14027
F	83	0.37178
F	84	0.26012
F	85	0.39265
F	86	0.35101
F	87	0.61575
F	88	0.43470
F	89	0.80096
F	90	0.14721
F	91	0.49460
F	92	0.30124
F	93	0.44307
F	94	0.02639
F	95	0.04555
F	96	0.27207
F	97	0.02533
F	98	0.04140
F	99	0.01549
F	100	0.03484
F	101	0.02829
F	102	0.00715
F	103	0.01857
F	104	0.05330
F	105	0.01816
F	106	0.04073
F	107	0.03850
F	108	0.00835
F	109	0.11308
F	110	0.13329
F	111	0.06410
F	112	0.02992
F	113	0.04654
F	114	0.22851
F	115	0.09662
F	116	0.14207
F	117	0.49147
F	118	0.21294
F	119	0.10762
F	120	0.12859
F	121	0.13858
F	122	0.29428
F	123	0.02572
F	124	0.03019
F	125	0.11846
