start,end,avg_zscore_deltaSVM_deltaDNN_deltaProteinBERT_pvalue
403,422,0.0005012857996719506
404,423,0.00044205688836018237
405,424,0.0004518025634328293
406,425,0.0005246884800673469
407,426,0.0010467355696283328
408,427,0.0008589798173124312
409,428,0.001184760853582626
410,429,0.0012639514641080761
411,430,0.001241154214026271
412,431,0.0008606987708495228
413,432,0.0010025730028754684
414,433,0.0011298606939269546
415,434,0.00033862121585796946
416,435,0.0014150814630851122
417,436,0.0012088694851686978
418,437,0.0012062433583943574
419,438,0.0009682676910852056
420,439,0.0006506796796723579
421,440,0.0007919573289713365
422,441,0.0009570314700945019
424,443,0.016230205808949173
428,447,0.030267742569618745
554,573,0.03833112792269003
573,592,0.046169822202334926
574,593,0.039384550719552734
575,594,0.01725471513025259
