start,end,avg_zscore_deltaSVM_deltaDNN_deltaProteinBERT_pvalue
0,19,3.1369243809069136e-05
1,20,0.0034097573422217017
2,21,0.0009289118080184009
3,22,0.0032921525789922214
4,23,0.0005781586915323804
5,24,0.0003442019330545389
6,25,0.000395560821952511
7,26,0.0002859800799753518
8,27,0.0045919611199161285
9,28,0.0014831546376528565
10,29,0.007010661511511845
40,59,0.030891124944356897
43,62,0.011611061109162123
44,63,0.007326103872492904
45,64,0.007668806059818025
46,65,0.004497538318501512
47,66,0.002992687574496799
48,67,0.0005556951839198479
49,68,0.0016203458904572705
50,69,0.00015360499771750814
51,70,0.0005013909238947563
52,71,0.0017060539079431598
53,72,0.0008578455928231537
54,73,0.0021648372315419663
55,74,0.006462462294638272
56,75,0.021747891167602108
57,76,0.04863890578409845
58,77,0.022745810097837136
59,78,0.026753659026593216
60,79,0.015756098168593552
61,80,0.0009801356482993279
62,81,0.0018610932540395345
63,82,0.00035639730596325397
64,83,0.037039079042245716
65,84,0.016544157200805168
68,87,0.007034120043654083
75,94,0.004004569654403054
