start,end,avg_zscore_deltaSVM_deltaDNN_deltaProteinBERT_pvalue
79,98,0.039779698002917085
80,99,0.02194415918901457
81,100,0.020539448199041875
82,101,0.015115334141789415
83,102,0.016539299980952743
84,103,0.03698848404999577
85,104,0.034128971867281005
86,105,0.026392090959985005
87,106,0.031032809685192203
88,107,0.018921810756570585
245,264,0.03398584526616808
246,265,0.014000673354719675
247,266,0.01386506020993275
248,267,0.0057518710961916115
249,268,0.02235422635681238
250,269,0.020965955151261352
251,270,0.020022374141555034
252,271,0.02056723491678072
253,272,0.031988589223277505
254,273,0.02791243740506389
255,274,0.007119737913703951
256,275,0.013094522817079806
257,276,0.01321110856437027
258,277,0.015833610719883023
259,278,0.016058684111606294
260,279,0.01732030281869032
262,281,0.045858547064523685
263,282,0.027616751075160248
376,395,0.04295123358503681
377,396,0.04851126715722329
378,397,0.04157820747716144
380,399,0.037015535830944774
381,400,0.029535838923774083
382,401,0.03122777528604593
383,402,0.02778301743760395
384,403,0.0372592465093539
385,404,0.03188244589818258
386,405,0.019892374609497485
387,406,0.025295507753440454
388,407,0.04662782209452124
