start,end,avg_zscore_deltaSVM_deltaDNN_deltaProteinBERT_pvalue
61,80,6.499036322677456e-05
62,81,5.201880618412927e-05
63,82,6.18740058978492e-05
64,83,0.02205904367348492
65,84,0.00047877020260168114
66,85,4.885406580029757e-05
67,86,7.315807572911538e-05
68,87,0.0007759822705735828
69,88,0.0016194107092238228
70,89,0.0015083303389134854
71,90,0.0012575388032125862
72,91,0.0008530929740525108
73,92,0.004865669837679662
74,93,0.009753560368677519
75,94,0.005998503699377027
76,95,0.0067855412221455216
77,96,0.010746719265530643
78,97,0.0026109223906563114
79,98,0.0033563714070944856
80,99,0.002395618900349031
81,100,0.0020310591623957284
82,101,0.03300891757987971
83,102,0.013203593674636081
84,103,0.0020703905411537916
