start,end,min_of_avg_zscore_deltaSVM_deltaDNN_deltaProteinBERT_pvalues
172.0,192.0,0.020725507684359653
259.0,299.0,0.008814223059085174
419.0,438.0,0.008814223059085174
548.0,569.0,0.0030928100238755674
682.0,721.0,5.447137210151788e-06
733.0,856.0,8.581086168808817e-27
987.0,1029.0,8.581086168808817e-27
1041.0,1066.0,8.581086168808817e-27
1069.0,1089.0,8.581086168808817e-27
1222.0,1246.0,8.581086168808817e-27
