start,end,min_of_avg_zscore_deltaSVM_deltaDNN_deltaProteinBERT_pvalues
125.0,165.0,0.000841025234189185
305.0,346.0,2.0413776700360562e-06
347.0,382.0,2.0413776700360562e-06
540.0,570.0,2.0413776700360562e-06
