start,end,avg_zscore_deltaSVM_deltaDNN_deltaProteinBERT_pvalue
53,72,0.048514069329813815
84,103,0.012874302955329367
85,104,0.029613131229271453
86,105,0.027949344032766357
87,106,0.02384909335389807
88,107,0.015142060068829035
89,108,0.0124726262651552
90,109,0.005448682019319324
91,110,0.021963265211601506
133,152,0.02537686748353276
134,153,0.013929513424619922
