start,end,avg_zscore_deltaSVM_deltaDNN_deltaProteinBERT_pvalue
1,20,0.04413214273140646
2,21,0.02711887198100589
3,22,0.010353976158139233
4,23,0.0021807037855888175
5,24,0.005067153762455481
6,25,0.0039617279732333645
7,26,0.022556426122797162
8,27,0.0026201909689266443
9,28,0.002574322566375184
10,29,0.0033114901452047036
11,30,0.00315134564900399
16,35,0.03380303360715233
18,37,0.03153875226706706
20,39,0.023299653012763065
21,40,0.026982319230338798
31,50,0.03740396982032668
32,51,0.04433837345742206
