start,end,avg_zscore_deltaSVM_deltaDNN_deltaProteinBERT_pvalue
9,28,0.0020188635271720544
10,29,0.0018509997512957082
11,30,0.00028757395376288
12,31,0.0005865377430402909
13,32,0.000970945494047451
16,35,0.0002306054871594902
17,36,0.0009073637689401704
18,37,0.009127615578437805
19,38,0.00016773098150531785
20,39,4.248827615585935e-05
21,40,3.9565758975728794e-05
22,41,0.0010163714374379507
23,42,0.00010071412326433575
24,43,2.748636522559904e-06
25,44,7.182902003970188e-05
26,45,0.000517471652636828
27,46,4.679279857870467e-05
28,47,1.0656951098085613e-06
29,48,7.171388874558689e-08
33,52,2.3328778362922473e-05
34,53,0.0033126486216334913
35,54,0.049351133300348606
44,63,0.016494278183698707
45,64,0.029947937382866198
