start,end,avg_zscore_deltaSVM_deltaDNN_deltaProteinBERT_pvalue
0,19,0.000845940587677466
1,20,0.00032896737517555864
2,21,0.0002343506915898366
3,22,0.0003703813157292145
4,23,0.0006928822235590743
5,24,0.0002719433256094781
6,25,0.00014030354372757608
7,26,0.0001197680874024899
8,27,0.00023995420857783327
9,28,3.1513037284629846e-05
10,29,0.00010663363299996075
11,30,0.0004182793982262773
12,31,0.004745536475968891
13,32,0.003294160573594125
14,33,0.006019966329621433
15,34,0.011608611925026584
16,35,0.042906822066440205
17,36,0.0297595920270217
18,37,0.04151322369647716
133,152,0.04713285479925652
134,153,0.0018736921729250234
135,154,0.005985754524106912
136,155,0.0005955672634728581
137,156,0.0004241966210999422
138,157,0.000458605123047182
139,158,0.0006755694971503141
140,159,0.00028028558770811044
