start,end,avg_zscore_deltaSVM_deltaDNN_deltaProteinBERT_pvalue
56,75,0.015549139390306126
57,76,0.0014546395422878828
58,77,0.0009453838977549054
59,78,0.0010161868060215983
60,79,0.0011973418155147592
61,80,0.0012115152922281443
62,81,0.0030196255163305865
63,82,0.0024329369206321123
64,83,0.0026033206477046192
65,84,0.005771935369985722
66,85,0.00591910825841527
67,86,0.005834535684466003
68,87,0.006812494929272735
69,88,0.005977768226148435
70,89,0.006201144669087704
71,90,0.0055493419621681726
72,91,0.005527590143987654
73,92,0.0010773318934039317
74,93,0.0010735604809494694
75,94,0.0010581499144534632
80,99,0.004615615967814756
81,100,0.014233826058249214
