start,end,avg_zscore_deltaSVM_deltaDNN_deltaProteinBERT_pvalue
5,24,0.02803740548067605
6,25,0.028450848941227777
7,26,0.034747944503534585
8,27,0.030419161396621246
9,28,0.018263654352950215
10,29,0.01769441849441833
11,30,0.01011805057800127
12,31,0.007490663410180776
13,32,0.001967940947441261
14,33,0.0013888936436988468
15,34,0.0009351570964000568
16,35,0.002842504598827793
17,36,0.0013028601715054462
18,37,0.005795868120854741
19,38,0.014697187190300927
20,39,0.010468509496505641
40,59,0.013898890114017093
41,60,0.005895501865221603
78,97,0.032753899457566744
458,477,0.01934472125641551
459,478,0.017921223733865843
460,479,0.039668977676928285
461,480,0.0387068793376297
462,481,0.049598437079333986
472,491,0.044542477806553744
473,492,0.04361890018681571
603,622,0.040931163234675876
605,624,0.01399127449651179
606,625,0.04270060638062833
607,626,0.0214764025787616
608,627,0.025776255346835322
609,628,0.014048508054700823
610,629,0.04104704265091706
611,630,0.027770674705070206
772,791,0.0474310706483017
773,792,0.03735483170657776
774,793,0.04759771022719284
775,794,0.045623297291683726
776,795,0.03002576096020081
777,796,0.01416948391933147
778,797,0.010996549832758372
779,798,0.020437044304300607
780,799,0.012701073689353113
781,800,0.02343277173184117
783,802,0.03495880413977221
784,803,0.03454055595567034
786,805,0.039694115196078815
787,806,0.044238043969252655
789,808,0.035652899260291734
801,820,0.04029938433622455
1000,1019,0.043636969363163434
1001,1020,0.044818892419673295
1002,1021,0.039978963995919325
1003,1022,0.019259346247977024
1006,1025,0.026834345254380318
1007,1026,0.022710039121674422
1008,1027,0.021175137857716617
1009,1028,0.01353767226016595
1010,1029,0.02576552553564507
1011,1030,0.022726811617596453
1012,1031,0.042215170893867705
1013,1032,0.041660835917914196
1014,1033,0.04063768962943278
1015,1034,0.04805170479638309
1016,1035,0.04657928342054505
1111,1130,0.026606384070109488
1112,1131,0.04555590804756318
1113,1132,0.027865937886233077
1114,1133,0.04754424086597491
1151,1170,0.0007258423298450369
1152,1171,1.2733223493098595e-05
1153,1172,0.044876785766841475
1155,1174,0.00037542868323779655
1156,1175,0.00011898511533756502
1157,1176,7.954209245406618e-05
1158,1177,0.00027261620884032155
1159,1178,0.0002477768144284576
1160,1179,0.00011257988237506331
1161,1180,0.00036479946959487163
1162,1181,0.0003264748938702144
1163,1182,0.0004718257445721794
1164,1183,0.00023147814165921736
1165,1184,0.00024038285298599553
1166,1185,0.0010720084305594951
1167,1186,0.0012446816484071408
1168,1187,0.0007134979022795503
1169,1188,5.53393555997773e-05
1170,1189,9.257406988925793e-05
1171,1190,0.0011548728931750072
1172,1191,0.0016959873803332618
1173,1192,0.000677859654783929
1174,1193,0.0037148066216395694
1177,1196,0.0008311305990979637
1178,1197,0.0015887600208983243
1179,1198,0.00016715224049513807
1180,1199,1.0940723202500465e-05
1181,1200,2.931482063667942e-07
1182,1201,4.68703132143489e-06
1183,1202,1.618318751822977e-05
1184,1203,0.00029436781356109075
1185,1204,0.0003661675120539935
1186,1205,0.0005514195025287734
1187,1206,0.046191954395530456
1206,1225,0.0033804826872554385
1207,1226,0.007470848837630115
1208,1227,0.00043143353184575884
1209,1228,5.31928529836183e-05
1210,1229,0.00018149649501577242
1211,1230,0.0005257936565607999
1212,1231,0.002036325257357161
1213,1232,0.00499760384051217
1214,1233,0.0025604067374192818
1215,1234,0.008696179368100734
1216,1235,0.0170030773768246
1217,1236,0.026968518097762312
1218,1237,0.019850375144437125
1219,1238,0.013467017181680488
1220,1239,0.012848466736632844
1221,1240,0.01719818753876482
1222,1241,0.020216933200614774
1223,1242,0.024479922208265007
1224,1243,0.023146265507169816
1225,1244,0.027908139417324163
1226,1245,0.02770479078116807
