start,end,avg_zscore_deltaSVM_deltaDNN_deltaProteinBERT_pvalue
27,46,0.02969883782712897
38,57,0.002232514600329364
39,58,0.00042634286626539694
40,59,0.0031646442486219484
52,71,0.04390455234544412
53,72,0.010585828190165165
54,73,0.03220094043278913
141,160,0.027298638542789223
142,161,0.00032441144877513823
143,162,8.438533150383292e-05
144,163,0.00013515499766330385
145,164,3.297357007782064e-05
146,165,4.263498344522278e-05
147,166,5.937621221516762e-05
148,167,0.00022018523775703584
149,168,0.0001227617027880857
150,169,0.0012205443576560485
151,170,0.0012180355528779731
152,171,0.000342910087211382
153,172,0.0003424706823249281
154,173,0.0004157620889807484
155,174,0.00015526485532832462
156,175,0.002942812537368374
157,176,0.007837772384687346
158,177,0.029179706265891954
159,178,0.006223115272445482
160,179,0.017705113988502958
161,180,0.016136120874970242
204,223,0.018730003076102855
205,224,0.01808377392265074
206,225,0.013860551393807496
207,226,0.029317941103652198
208,227,0.011011290834404417
209,228,0.01388411319392953
210,229,0.04127067407129792
211,230,0.03788757266118541
212,231,0.02154825072275692
213,232,0.027882675308566803
214,233,0.03575654432152415
216,235,0.029826506582971982
219,238,0.032668410218479146
223,242,0.046432515239869764
224,243,0.04312362107147469
225,244,0.0491826081958547
261,280,0.04958496468328202
262,281,0.02404396600622384
263,282,0.01421138804569868
264,283,0.01001505714432151
265,284,0.007632735897360729
266,285,0.006459495181640935
268,287,0.034854019753041275
269,288,0.03204545354886249
271,290,0.04119273144163723
