start,end,avg_zscore_deltaSVM_deltaDNN_deltaProteinBERT_pvalue
0,19,0.01555358195938872
1,20,0.01605205647827115
2,21,0.022483129425459464
3,22,0.015082577831234373
4,23,0.014804402109270655
5,24,0.01708752886147769
6,25,0.024883065791133075
13,32,0.0012154313559397682
14,33,0.0013609907215301907
15,34,0.0018799351414316777
16,35,0.0010776330852340385
17,36,0.0016280073660116098
18,37,0.004885071874283259
19,38,0.005700722888127075
20,39,0.019833149840122695
