start,end,min_of_avg_zscore_deltaSVM_deltaDNN_deltaProteinBERT_pvalues
5.0,25.0,0.013799969700043702
40.0,60.0,0.013799969700043702
65.0,97.0,0.013799969700043702
105.0,156.0,0.002469066152166823
231.0,250.0,0.002469066152166823
647.0,686.0,0.0006183778776873862
793.0,823.0,0.0006183778776873862
963.0,1001.0,0.0006183778776873862
1069.0,1130.0,0.0006183778776873862
1181.0,1230.0,0.0006183778776873862
1367.0,1398.0,0.0003349375929166673
