start,end,avg_zscore_deltaSVM_deltaDNN_deltaProteinBERT_pvalue
32,51,0.03965780330868114
54,73,0.0386031831386144
118,137,0.02694635821229163
119,138,0.04123386784928226
281,300,0.025157101584666736
283,302,0.00742093691604823
292,311,0.041550697134878266
293,312,0.027705904830428587
321,340,0.021125023690817674
322,341,0.011132654925173156
323,342,0.0073424649389537315
324,343,0.01229455576106528
325,344,0.022627461177426464
326,345,0.01731511195925554
327,346,0.013200132778848505
328,347,0.017816466119905526
329,348,0.016644940720271097
330,349,0.025387796275701265
331,350,0.015615566463010204
332,351,0.016402637661362445
333,352,0.022474882193413898
334,353,0.012305513945047544
335,354,0.013641010080781
336,355,0.030652520933109686
337,356,0.016567455145137057
338,357,0.009064880904094505
339,358,0.010075772929936024
340,359,0.0074233181561136185
341,360,0.0050613641415901195
342,361,0.007985965573846149
343,362,0.030242906401375728
349,368,0.04477753071342581
350,369,0.031266688828135325
351,370,0.02786169542737553
352,371,0.01918071184681785
353,372,0.011352891491277156
354,373,0.010625619642882004
355,374,0.008014080754538844
356,375,0.008552349471872786
357,376,0.01287530150955652
358,377,0.023147934237582754
