start,end,avg_zscore_deltaSVM_deltaDNN_deltaProteinBERT_pvalue
66,85,0.002025660887347523
67,86,0.002078213869756132
68,87,0.000870843987883745
69,88,9.919427119023433e-05
70,89,0.000146370719426103
71,90,0.00013979726052962797
72,91,0.00014748706314700034
73,92,4.503020431861453e-05
74,93,5.972800765611305e-05
75,94,3.773038342280723e-05
76,95,2.7853265555038343e-05
77,96,2.2690093770832314e-05
78,97,6.538393634580179e-05
79,98,1.4987115328538944e-05
80,99,0.0004001877606167548
81,100,0.01084708408462258
82,101,0.022468105661064525
83,102,0.006721365547168595
84,103,0.006837069204057031
85,104,0.005451214279847194
86,105,0.0043925271797219945
87,106,0.03253207805854661
88,107,0.04299149368593161
89,108,0.014213569182964458
91,110,0.012569979683982218
92,111,0.03383335799958945
93,112,0.04448482950105985
