start,end,avg_zscore_deltaSVM_deltaDNN_deltaProteinBERT_pvalue
155,174,0.011214829864800439
156,175,0.0059714149817753385
157,176,0.010474994092037256
158,177,0.008808560871595497
159,178,0.01404638981846605
160,179,0.0036789508790248224
161,180,0.003494283822042948
162,181,0.036698108634504144
163,182,0.00414169367184722
164,183,0.005109649677944003
165,184,0.004106749504970709
166,185,0.004121292390000222
