start,end,min_of_avg_zscore_deltaSVM_deltaDNN_deltaProteinBERT_pvalues
0.0,31.0,0.0012456641931265975
35.0,65.0,0.0012456641931265975
73.0,154.0,3.0804745418570546e-09
156.0,176.0,3.0804745418570546e-09
190.0,209.0,3.0804745418570546e-09
