start,end,avg_zscore_deltaSVM_deltaDNN_deltaProteinBERT_pvalue
10,29,0.005667668829918885
11,30,0.0015293879017880356
32,51,0.016012915099630452
33,52,0.0033840817606490834
34,53,0.001359192058143341
35,54,0.0001504265528577312
36,55,7.256507408468398e-05
37,56,6.002852114734044e-05
38,57,0.0002195871951705439
39,58,0.000152047479582618
40,59,8.743065826128525e-05
41,60,5.689399876450872e-05
42,61,0.0004023547876433643
43,62,0.001140306003581319
44,63,0.0005163506683326676
45,64,0.0007741081273022212
46,65,0.002988861329638177
47,66,0.008611926000895715
48,67,0.010842726124403288
49,68,0.032634604622242866
50,69,0.040373601308303975
79,98,0.04132518413808696
83,102,0.035438566759740345
84,103,0.0065933628485936565
85,104,0.005854888537083405
86,105,0.0002812596961431272
87,106,4.79237974720562e-06
88,107,9.136031550231864e-05
89,108,0.0010355961707446308
90,109,0.00013017590879360946
91,110,4.647699530719244e-05
92,111,2.6442170501707373e-05
93,112,0.0002520922264216362
94,113,0.036327502571298666
107,126,0.020948368972772326
108,127,0.012210004754587764
109,128,0.018308563775351075
110,129,0.006369550826459578
111,130,0.003268888786936141
112,131,0.0004537601506505707
113,132,0.00013541389364307558
114,133,0.001744416231871042
115,134,0.021495863551193588
117,136,7.004117914416261e-05
118,137,4.141146438579735e-06
119,138,2.6122540799566254e-06
120,139,8.985778219312214e-07
121,140,2.4538268445399146e-06
122,141,2.506399224210827e-06
123,142,7.44550633643771e-06
124,143,1.4627605235799454e-08
125,144,4.70877187055247e-06
126,145,0.0002946664693600101
127,146,1.3742373680031702e-06
128,147,0.001668673714568142
129,148,0.0033640847894463965
130,149,0.010388856289018982
131,150,0.008003514962391657
132,151,0.00017413555865635705
133,152,0.007526198020053554
139,158,0.00033838665986456033
140,159,0.025566978386221427
141,160,0.00539327697488311
142,161,0.002184049336351601
143,162,0.0003545605956345581
144,163,3.8037554799131916e-06
145,164,5.136453576116333e-05
146,165,1.0974147183940236e-05
147,166,0.0050019087897684245
148,167,0.0022121801779580023
149,168,0.00012963504259120285
150,169,0.0017757062146063541
151,170,0.0005555980225781912
152,171,0.0004791409619712134
153,172,0.0011423263152107
154,173,0.0006985071021126227
155,174,0.00028020015023853167
156,175,0.0005754565031980964
157,176,0.0010708559471408507
158,177,0.0022142323462354357
159,178,0.0046920465406977575
160,179,0.0026522999081044127
161,180,0.0008263611620976259
162,181,0.003190457858504614
163,182,0.000585540001729231
164,183,1.05656418045827e-06
165,184,5.642422948916899e-06
166,185,5.242608646568299e-06
167,186,1.598954600365037e-05
168,187,0.005649464649063384
169,188,0.0008485756986588281
170,189,0.0002866480796643198
171,190,0.010918286394943829
172,191,0.010827944741247413
173,192,0.011866761724019785
174,193,0.018461262281235923
175,194,0.0180219944975183
176,195,0.032716046102449055
181,200,0.03153311697237232
