start,end,min_of_avg_zscore_deltaSVM_deltaDNN_deltaProteinBERT_pvalues
62.0,83.0,0.022049239151681672
135.0,189.0,0.001752277280246069
287.0,306.0,0.001752277280246069
332.0,370.0,0.001752277280246069
429.0,472.0,4.04373370390221e-06
536.0,555.0,4.04373370390221e-06
621.0,653.0,4.04373370390221e-06
717.0,757.0,4.04373370390221e-06
