start,end,avg_zscore_deltaSVM_deltaDNN_deltaProteinBERT_pvalue
79,98,0.012254037839888626
87,106,0.016904938083456222
88,107,0.002694865428778899
89,108,0.0002895381790192089
90,109,4.714058102996289e-05
91,110,1.5246457525833945e-05
92,111,0.00013483640989995924
101,120,0.036050364255068905
104,123,0.033278515232378326
105,124,0.012868941253452707
156,175,0.04869471044439755
157,176,0.015299006985536306
158,177,0.010732903844258785
159,178,0.015949823773556485
161,180,0.01742912028810625
162,181,0.007884732631239748
163,182,0.026030565209812055
165,184,0.04855014672478419
180,199,0.036756695030476745
181,200,0.015842305848161747
182,201,0.021841312464463494
183,202,0.02456710103767108
184,203,0.026357454155517455
185,204,0.009338065582789044
186,205,0.02172104155700513
187,206,0.0038170645432587147
188,207,0.0016107778375806178
189,208,0.002199466250881136
190,209,0.001370957796995079
191,210,0.0025129401082478416
192,211,0.001527839881734549
193,212,0.004672111104510883
194,213,7.400225882207266e-05
195,214,1.571789009397737e-05
196,215,4.397434052471258e-07
197,216,4.011382787699281e-05
198,217,3.538053319258191e-05
199,218,0.0006326903445051791
200,219,0.00046259217693113235
201,220,4.693926993080728e-05
202,221,0.0005654830268481389
204,223,0.004080225067716128
205,224,0.013380367177103026
207,226,0.03956885064552046
211,230,0.012610782409452579
212,231,0.004246485421982585
213,232,0.011908191923166458
214,233,0.0031496283407267027
215,234,0.01429639818919263
216,235,0.023230271530135092
217,236,0.04583223396599852
218,237,0.02280342269722416
219,238,0.005067716347451913
220,239,0.0006595709093938128
221,240,0.0027033367017901782
222,241,0.0016929917944731453
223,242,0.0017536731597569146
224,243,0.0012283523988474664
225,244,0.002648060158296623
226,245,0.001520320090868534
227,246,9.290000400961703e-05
228,247,0.0001697411093440864
229,248,0.0002074308947988954
230,249,8.774666795456482e-05
231,250,6.489190800538997e-05
232,251,1.5583805463178885e-05
233,252,8.68887338981864e-07
234,253,4.6810939223289535e-07
235,254,0.0013773538201292672
238,257,0.00240638832711087
241,260,0.020419704033087724
242,261,0.02977794422753625
267,286,0.0177358488061707
