start,end,avg_zscore_deltaSVM_deltaDNN_deltaProteinBERT_pvalue
390,409,0.04799013753707233
421,440,0.040431436513816074
422,441,0.026759176715938977
423,442,0.03246410516673337
425,444,0.029447349016796326
432,451,0.033831911495625734
433,452,0.0437347407911149
434,453,0.027118036000560272
448,467,0.026723748725457793
449,468,0.005356979857462633
450,469,0.00480483170363551
451,470,0.005033961853656193
452,471,0.00747619964352503
453,472,0.005917415276649674
454,473,0.01014390996271313
455,474,0.002668819950022347
456,475,0.005359088170069468
457,476,0.0041217161375467284
458,477,0.008126409711196787
459,478,0.011901680815448777
460,479,0.013223871000358857
461,480,0.01541393739562895
462,481,0.01611456654268639
463,482,0.015744959981067782
464,483,0.02000966780974426
465,484,0.025910852661642357
466,485,0.04164142252944107
544,563,0.04673132897329381
545,564,0.028039848788221786
546,565,0.02244509090146456
547,566,0.029838456434445878
548,567,0.02298013434452532
600,619,0.026715056262070366
601,620,0.040692010444929365
