start,end,avg_zscore_deltaSVM_deltaDNN_deltaProteinBERT_pvalue
175,194,0.04253365840228204
230,249,0.016933644544261942
231,250,0.013376827626593028
232,251,0.013484961661109539
233,252,0.01468325751925821
234,253,0.01366166822571109
235,254,0.013900193346427045
236,255,0.013965525098052354
237,256,0.013807534449317448
238,257,0.012711218877742252
239,258,0.011298366093605284
240,259,0.019811651816861977
241,260,0.023340636988967198
242,261,0.03167763452412162
243,262,0.031629171642443145
244,263,0.03205879670642312
245,264,0.029885179010522747
246,265,0.030539464047217628
368,387,0.013608620599163143
369,388,0.036782550996143394
370,389,0.03732959236982338
371,390,0.04850265223842663
372,391,0.04837616557608922
373,392,0.04875635822097863
374,393,0.048608620347540356
377,396,0.04805753196480884
378,397,0.04781829462611739
379,398,0.04808874978220007
380,399,0.04714315213283818
381,400,0.0475288894006145
382,401,0.047941931929954947
383,402,0.047670067371834074
