start,end,avg_zscore_deltaSVM_deltaDNN_deltaProteinBERT_pvalue
12,31,0.04009919760905073
13,32,0.019905041191978404
14,33,0.027898647153544995
15,34,0.019804872467981436
16,35,0.006501255715152133
17,36,0.0043977120145071704
18,37,0.001652880725030051
19,38,0.0015826600460032507
20,39,0.0020525731714250853
21,40,0.004297715847627047
22,41,0.006949366618376192
23,42,0.0019776060697422756
24,43,0.009851425270314752
26,45,0.04232908664765282
34,53,0.041846447967558834
35,54,0.023496961629001074
59,78,0.04416022345088797
60,79,0.02680954818941034
61,80,0.03102902138142918
69,88,0.02288893283279807
70,89,0.02894156548695107
73,92,0.024781548718906313
74,93,0.01477908589821193
75,94,0.00841261864847004
77,96,0.019953850241821048
81,100,0.021030205323668442
82,101,0.01943196120196895
83,102,0.00012189076829214173
84,103,0.0006583476737250533
85,104,0.0009747213705749926
86,105,0.004588121181807404
87,106,0.007835116046549143
88,107,0.03831720795943564
92,111,0.013243523647522234
93,112,0.0016573675851404453
94,113,0.006476922437993959
95,114,0.016066673733080263
96,115,0.0021604070289122914
97,116,0.0013627302751738916
98,117,0.004007384220805803
99,118,0.030306253354492607
100,119,0.01825113574946798
101,120,0.0059898002315770015
102,121,0.0024294537935959024
103,122,0.0010835236955952941
104,123,0.002261906178875684
105,124,0.033698306652065226
116,135,0.04066598612861453
117,136,0.026342808817642817
125,144,0.04319408672363403
126,145,0.023011403512516362
127,146,0.03109970846891292
128,147,0.03960689660881477
129,148,0.015437566059242758
130,149,0.0006524499011028118
131,150,0.0009999977330344323
132,151,0.000253617885529455
136,155,0.004215450035096797
137,156,0.012748202477812233
138,157,0.00861979808073339
139,158,0.010224312837434872
140,159,0.017007453605633664
141,160,0.04479264185102168
142,161,0.037857239173039396
143,162,0.006609298024553812
144,163,0.022576413994258717
146,165,0.035529284757124
169,188,0.04437906983611926
210,229,0.027892105475508456
211,230,0.03312230577373985
212,231,0.037507474238828796
223,242,0.0009449073983443324
232,251,0.035699282296630344
233,252,0.034216708749766796
234,253,0.014068051989733116
235,254,0.005656772766879142
236,255,0.011041187265966345
237,256,0.0008785233371948149
238,257,0.0011855552594081994
239,258,0.0002526446954432234
240,259,0.0004985576471857874
241,260,0.0014141063141868196
242,261,0.01078849863302727
243,262,0.00807397265690003
244,263,0.013946309239021482
245,264,0.0076009224411000016
246,265,0.008810667662914693
247,266,0.005817794341398883
248,267,0.0043679286556576056
249,268,0.002479307186066947
250,269,0.0021069271480472105
251,270,0.0032949408176135026
252,271,0.01106945578391228
277,296,0.011500722095715489
281,300,0.02688724178284596
282,301,0.023793878960573906
283,302,0.015172363309667668
285,304,0.045314803469861206
286,305,0.017893651817190295
287,306,0.015846871440583065
288,307,0.00539148761849913
289,308,0.019081160646841067
290,309,0.006906940941006549
291,310,0.01623580877052445
292,311,0.016511067902456694
293,312,0.020244038016529416
294,313,0.024333167150703744
295,314,0.023906923221148912
296,315,0.02053289844984027
297,316,0.02024853230345569
298,317,0.027513902650456296
