start,end,avg_zscore_deltaSVM_deltaDNN_deltaProteinBERT_pvalue
88,107,0.02236532725278131
99,118,0.01728577502562568
100,119,0.012131108694064668
101,120,0.019808673264564154
102,121,0.023983257291141227
103,122,0.03932301870796517
175,194,0.01745666538942574
178,197,0.0045161282282251275
179,198,0.0009398957698085644
181,200,2.3743381755140913e-05
182,201,2.047591792396734e-06
183,202,4.425648733583422e-05
184,203,0.0002371219545608221
185,204,8.514500410154628e-08
186,205,8.782356493122457e-08
187,206,4.38620224511447e-08
188,207,1.463511457281362e-07
189,208,1.4624311512254845e-07
190,209,8.943639602055021e-07
191,210,1.7172979821218638e-06
192,211,2.605503001618716e-07
193,212,2.507917448102584e-07
194,213,2.0409493994188173e-07
195,214,2.348735056613623e-07
196,215,1.7513892128688235e-05
197,216,8.448555909352372e-06
198,217,0.01094497751157535
199,218,7.82732450687623e-06
200,219,1.2611611580717907e-06
201,220,1.1072084906982404e-05
202,221,0.0005152640635189723
203,222,7.498828502201029e-05
347,366,0.017657532854539127
348,367,0.041087210279795845
