start,end,avg_zscore_deltaSVM_deltaDNN_deltaProteinBERT_pvalue
0,19,0.0020425950523151543
5,24,0.020305784781887264
6,25,0.0018480718596013614
7,26,0.002037993794671138
8,27,0.008166158981118086
9,28,0.03360401833031323
10,29,0.03483408271713832
13,32,0.04800594750035501
14,33,0.03247277877505307
15,34,0.026990618360865297
49,68,0.01161254483535792
50,69,0.026725700487501763
51,70,0.012545509444684496
54,73,0.034941089865285165
55,74,0.03875135714969896
56,75,0.02097606685248735
57,76,0.015257860395836
59,78,0.03325329202660372
84,103,0.02914483536228291
88,107,0.02714461953552063
