start,end,avg_zscore_deltaSVM_deltaDNN_deltaProteinBERT_pvalue
0,19,1.8184710108813962e-07
1,20,3.0801189238241716e-07
2,21,1.6844690304251993e-07
3,22,2.8086437193619428e-08
4,23,1.2115366272407798e-07
5,24,4.1567284252042074e-08
6,25,1.5596911620395286e-05
7,26,8.591944009829484e-06
8,27,1.0939543860059314e-07
9,28,3.590195279981949e-07
10,29,1.1272394678311263e-07
11,30,7.873767639964392e-08
12,31,6.383006664937917e-08
13,32,0.011014858157663995
92,111,0.03715193044824477
120,139,0.03967759971234475
123,142,0.00392114552914373
124,143,0.0005413061184162772
125,144,0.00043001113090210984
126,145,0.00012596772833456504
127,146,0.0058351365297330295
128,147,0.01004027226151332
129,148,0.0026287996117731935
130,149,0.010373960131904425
131,150,0.012783868178649333
132,151,0.01369613810316406
134,153,0.033752651031149376
135,154,0.017609803840334826
136,155,0.027640972556604484
137,156,0.0391953709112359
