start,end,avg_zscore_deltaSVM_deltaDNN_deltaProteinBERT_pvalue
0,19,0.04545343530160804
10,29,0.019675749028997616
11,30,0.0299374928923899
12,31,0.044832144345643685
43,62,0.048352599682481595
44,63,0.022311461525802413
45,64,0.040239730393436056
47,66,0.024107788805128944
48,67,0.026172007293392793
50,69,0.025788522869259152
51,70,0.006418623330735457
52,71,0.003916920471079344
56,75,0.04933739286578962
87,106,0.049471974484049205
91,110,0.016458622975723102
92,111,0.00560058318245705
93,112,0.0007552335259697027
94,113,8.910460807997558e-05
95,114,2.3347044087325653e-05
96,115,3.2498198605644374e-05
97,116,0.00022595581299550177
98,117,0.0009824427552728586
99,118,0.0004690408042425671
100,119,0.0007712550632638353
101,120,0.003378306245231886
102,121,0.0002695537723309982
103,122,0.000609274831392802
104,123,0.000540020229302864
105,124,0.0004762033625829347
106,125,0.01535333621477113
107,126,0.03872154035826528
108,127,0.005825613317726683
109,128,0.0009795948187648396
110,129,0.014514165849799164
111,130,0.003795888929063503
112,131,0.004665228886356705
113,132,0.0010429953714580008
114,133,0.004169913464699438
115,134,0.002639144789526421
116,135,0.014345745774967084
120,139,0.03052891653275039
121,140,0.04903683549738458
159,178,0.01357599457391426
160,179,0.018332897884863978
161,180,0.024010202528381812
162,181,0.023117876073588884
163,182,0.015671398966927937
164,183,0.04508318474829946
165,184,0.02472563366853622
166,185,0.032694817631711115
167,186,0.03275644924781045
175,194,0.022093340654657026
183,202,0.01702559934887667
184,203,0.00838401253671514
185,204,0.002933932874821148
186,205,0.0061687105825485155
187,206,0.007364207031406932
188,207,0.004853783904312079
189,208,0.0008218251672801025
190,209,0.002983393510569584
191,210,0.004281940798666927
192,211,0.0014571303096466155
193,212,0.005496214157651896
194,213,0.00944866430613683
195,214,0.00890951989075274
196,215,0.04053077634829472
198,217,0.04609201849127537
199,218,0.01948406009005168
200,219,0.01114314539897842
201,220,0.0011149711123615025
202,221,0.0012169690104438695
203,222,0.0033649565178832256
204,223,0.005474125050728747
205,224,0.04243764018075994
222,241,0.04443947732754283
223,242,0.04519233862403508
224,243,0.0324460979480772
225,244,0.03727361340719721
231,250,0.0032315256263451245
232,251,0.0016800603796612806
233,252,0.001940680446989781
234,253,2.0544628374119548e-05
235,254,6.605460019360131e-07
236,255,1.8018928779550129e-06
237,256,2.9611052406997723e-06
238,257,6.017353480991298e-06
239,258,7.090205578395046e-05
240,259,9.970973710513314e-06
241,260,5.252568816857972e-06
242,261,9.190615636746297e-06
243,262,3.0194073651356652e-06
244,263,3.6039167304456535e-06
245,264,1.227865534847659e-05
246,265,1.45138521218271e-05
247,266,1.8335262433257478e-05
248,267,1.5479650752760688e-05
249,268,1.1957582438036163e-05
250,269,2.9531822450859753e-06
251,270,1.6934319523089934e-06
252,271,2.5355334111160015e-06
253,272,1.7565552390748972e-05
254,273,0.0042069342651052605
255,274,0.009125784494687463
