start,end,min_of_avg_zscore_deltaSVM_deltaDNN_deltaProteinBERT_pvalues
1.0,23.0,0.010173688521946533
50.0,92.0,0.00659643873237733
467.0,488.0,0.0002218740706718466
646.0,683.0,0.00016516291159504148
