start,end,min_of_avg_zscore_deltaSVM_deltaDNN_deltaProteinBERT_pvalues
31.0,56.0,0.012709386284451852
159.0,197.0,0.0024135359815023044
225.0,286.0,4.3652197727842266e-05
307.0,344.0,4.3652197727842266e-05
354.0,375.0,4.3652197727842266e-05
449.0,486.0,4.3652197727842266e-05
567.0,587.0,4.3652197727842266e-05
692.0,718.0,4.3652197727842266e-05
721.0,752.0,4.3652197727842266e-05
764.0,800.0,4.3652197727842266e-05
849.0,882.0,4.3652197727842266e-05
887.0,924.0,4.3652197727842266e-05
950.0,969.0,4.3652197727842266e-05
985.0,1023.0,4.3652197727842266e-05
