start,end,avg_zscore_deltaSVM_deltaDNN_deltaProteinBERT_pvalue
9,28,0.03111153906062993
10,29,0.021427421340878303
14,33,0.03350356775571835
15,34,0.014225117724978076
16,35,0.0035062901833921864
17,36,0.015226665456353131
21,40,0.0010168027939629562
22,41,4.5375104489473834e-05
23,42,0.00030586513992272087
24,43,0.0186222310797022
25,44,0.013109710358675586
26,45,0.009821527933330965
27,46,0.014074833008071639
28,47,0.0003643666340493202
29,48,0.0001158488281161088
30,49,0.0003503527567003045
31,50,0.0021468113316947778
32,51,0.0013398099752116453
33,52,0.0006377324748215486
34,53,0.0002949288788654944
35,54,0.00034011473613301525
36,55,0.00012742188492356104
37,56,0.0001666224081257184
38,57,0.0025636232218277538
39,58,0.004922231334378615
40,59,0.0041011003179904065
41,60,0.015208274689592816
