start,end,avg_zscore_deltaSVM_deltaDNN_deltaProteinBERT_pvalue
23,42,0.025872750734184997
27,46,0.023841780735378456
28,47,0.028076815315281327
30,49,0.01949990288873192
32,51,0.008434653655822579
76,95,0.045822311357203445
82,101,1.1893680328811002e-05
83,102,1.8281824899155175e-06
84,103,1.5699476238368241e-07
85,104,2.4956099845587026e-06
86,105,1.0477319533982136e-05
87,106,1.5939157656393418e-06
88,107,0.0020203729037312425
89,108,7.648353601466267e-05
90,109,0.00011963298113492947
91,110,2.2293268389748823e-08
92,111,7.939126000232012e-10
93,112,3.905712166390443e-11
94,113,6.386707044867243e-06
95,114,3.988955610274136e-06
96,115,3.9690833740233876e-05
97,116,4.9767894748649236e-05
98,117,1.8182018237950073e-05
99,118,1.003068317074932e-05
100,119,5.014091649942955e-07
101,120,1.5929774537391476e-07
102,121,3.1396571977857326e-05
103,122,0.03946512748492074
115,134,0.006773139657032619
116,135,0.020122412036609395
117,136,0.005193649797149667
118,137,0.017526866944635844
141,160,0.003976320601046207
142,161,3.845968519377028e-05
143,162,0.0003073395545319591
144,163,0.0003659835464175185
145,164,0.003977634236005231
146,165,0.027652584995268324
147,166,0.032088960525799556
148,167,0.014854375857894748
149,168,0.012115450735465159
150,169,0.0009444780341225479
151,170,0.00427483593416768
152,171,0.0012558348835958353
153,172,0.005344535347358702
154,173,0.00011601762173229868
155,174,1.9860305484949504e-05
156,175,0.0014073653677869585
157,176,0.0008635244234047557
158,177,0.0006282634642318225
159,178,0.0005542710892698576
160,179,0.0003717008312650277
161,180,0.0051767990346624675
162,181,0.007053672107199104
163,182,0.007078343854180384
164,183,0.012598000437712219
165,184,0.03686048624156611
166,185,0.04465762969931309
170,189,0.045398690572694335
195,214,0.017161753503953006
196,215,0.0324445926060184
197,216,0.030512425904032154
199,218,0.029482671568404315
200,219,0.02618389167971718
