#Chain_ID	ResNum_ResIcode	AA	AC	AG	AU	CA	CC	CG	CU	GA	GC	GG	GU	UA	UC	UG	UU
G	6	0.076	0.061	0.085	0.038	0.060	0.079	0.092	0.048	0.097	0.088	0.093	0.064	0.039	0.048	0.066	0.038
G	7	0.092	0.073	0.107	0.048	0.072	0.095	0.115	0.062	0.117	0.115	0.125	0.082	0.045	0.059	0.083	0.044
G	8	0.058	0.042	0.063	0.030	0.044	0.059	0.066	0.037	0.068	0.065	0.070	0.048	0.030	0.037	0.050	0.031
G	9	0.053	0.039	0.055	0.030	0.042	0.052	0.055	0.034	0.056	0.057	0.065	0.044	0.028	0.035	0.047	0.030
G	10	0.028	0.023	0.030	0.017	0.025	0.029	0.029	0.020	0.029	0.029	0.034	0.025	0.017	0.021	0.026	0.020
G	11	0.028	0.020	0.027	0.015	0.021	0.027	0.025	0.017	0.029	0.026	0.031	0.022	0.017	0.019	0.023	0.018
G	12	0.026	0.020	0.030	0.015	0.023	0.027	0.029	0.017	0.029	0.029	0.031	0.022	0.015	0.019	0.023	0.018
G	13	0.050	0.042	0.055	0.030	0.044	0.052	0.051	0.034	0.060	0.054	0.059	0.044	0.030	0.035	0.044	0.031
G	14	0.024	0.020	0.027	0.015	0.023	0.027	0.025	0.017	0.029	0.026	0.031	0.022	0.017	0.019	0.023	0.018
G	15	0.040	0.036	0.049	0.025	0.037	0.045	0.045	0.029	0.054	0.046	0.051	0.038	0.026	0.031	0.042	0.026
G	16	0.052	0.042	0.060	0.030	0.044	0.052	0.061	0.037	0.063	0.060	0.062	0.046	0.030	0.037	0.050	0.031
G	17	0.026	0.020	0.027	0.015	0.021	0.027	0.025	0.017	0.029	0.026	0.031	0.022	0.017	0.019	0.023	0.017
G	18	0.031	0.023	0.036	0.017	0.025	0.032	0.032	0.022	0.035	0.032	0.037	0.025	0.019	0.024	0.029	0.020
G	19	0.026	0.020	0.027	0.015	0.021	0.027	0.025	0.017	0.029	0.026	0.031	0.022	0.015	0.019	0.023	0.017
G	20	0.033	0.025	0.042	0.020	0.028	0.034	0.039	0.022	0.042	0.036	0.046	0.030	0.019	0.024	0.034	0.022
G	21	0.022	0.017	0.027	0.013	0.019	0.022	0.025	0.015	0.026	0.026	0.031	0.020	0.013	0.017	0.021	0.015
G	22	0.031	0.023	0.036	0.017	0.023	0.032	0.035	0.020	0.035	0.036	0.040	0.025	0.017	0.024	0.031	0.018
G	23	0.033	0.025	0.042	0.020	0.028	0.037	0.045	0.024	0.045	0.043	0.049	0.033	0.019	0.028	0.037	0.022
G	24	0.024	0.017	0.030	0.015	0.021	0.024	0.029	0.017	0.029	0.029	0.034	0.022	0.015	0.019	0.023	0.017
G	25	0.022	0.017	0.027	0.013	0.019	0.022	0.025	0.015	0.026	0.026	0.031	0.020	0.013	0.017	0.023	0.015
G	26	0.020	0.015	0.025	0.013	0.017	0.022	0.022	0.015	0.023	0.023	0.026	0.017	0.013	0.015	0.021	0.013
G	27	0.024	0.017	0.027	0.013	0.019	0.024	0.029	0.017	0.029	0.029	0.031	0.022	0.013	0.017	0.023	0.015
G	28	0.022	0.017	0.025	0.013	0.019	0.022	0.025	0.015	0.026	0.026	0.028	0.020	0.013	0.017	0.021	0.015
G	29	0.020	0.015	0.022	0.011	0.017	0.020	0.022	0.015	0.023	0.023	0.026	0.017	0.013	0.015	0.019	0.013
G	30	0.020	0.015	0.022	0.011	0.017	0.020	0.020	0.013	0.021	0.020	0.023	0.016	0.011	0.015	0.019	0.013
G	31	0.024	0.017	0.027	0.015	0.021	0.024	0.029	0.017	0.029	0.029	0.031	0.022	0.015	0.019	0.023	0.017
G	32	0.024	0.017	0.027	0.013	0.019	0.024	0.025	0.015	0.026	0.026	0.031	0.020	0.013	0.017	0.023	0.015
G	33	0.028	0.023	0.039	0.015	0.025	0.029	0.032	0.020	0.035	0.036	0.040	0.025	0.017	0.021	0.029	0.018
G	34	0.031	0.025	0.042	0.017	0.028	0.034	0.039	0.022	0.042	0.039	0.043	0.030	0.019	0.024	0.034	0.020
G	35	0.033	0.025	0.039	0.020	0.030	0.037	0.035	0.024	0.038	0.039	0.043	0.030	0.019	0.026	0.034	0.022
G	36	0.045	0.036	0.055	0.027	0.037	0.045	0.048	0.031	0.054	0.052	0.059	0.041	0.028	0.033	0.044	0.030
G	37	0.031	0.025	0.036	0.020	0.028	0.032	0.032	0.022	0.035	0.032	0.037	0.027	0.022	0.024	0.034	0.022
G	38	0.038	0.028	0.042	0.022	0.032	0.040	0.042	0.027	0.045	0.046	0.049	0.033	0.022	0.028	0.037	0.022
G	39	0.040	0.031	0.042	0.022	0.032	0.042	0.039	0.027	0.042	0.043	0.046	0.033	0.024	0.028	0.037	0.026
G	40	0.031	0.025	0.036	0.020	0.028	0.032	0.032	0.022	0.035	0.032	0.037	0.027	0.022	0.024	0.031	0.022
G	41	0.026	0.023	0.030	0.015	0.023	0.027	0.029	0.017	0.029	0.029	0.031	0.022	0.017	0.019	0.026	0.018
G	42	0.026	0.023	0.030	0.017	0.023	0.029	0.029	0.020	0.029	0.029	0.031	0.025	0.019	0.021	0.026	0.020
G	43	0.033	0.025	0.036	0.020	0.028	0.032	0.035	0.022	0.038	0.032	0.040	0.027	0.022	0.024	0.031	0.022
G	44	0.036	0.031	0.044	0.022	0.032	0.040	0.042	0.027	0.045	0.043	0.046	0.033	0.024	0.028	0.037	0.024
G	45	0.033	0.025	0.039	0.020	0.030	0.037	0.039	0.024	0.042	0.039	0.040	0.027	0.019	0.026	0.034	0.022
G	46	0.040	0.036	0.052	0.025	0.037	0.045	0.048	0.029	0.054	0.049	0.057	0.038	0.024	0.031	0.042	0.024
G	47	0.072	0.069	0.095	0.040	0.067	0.083	0.092	0.052	0.108	0.088	0.096	0.070	0.041	0.054	0.075	0.040
G	48	0.045	0.039	0.060	0.027	0.039	0.047	0.051	0.031	0.060	0.052	0.062	0.041	0.026	0.035	0.047	0.028
G	49	0.067	0.065	0.091	0.038	0.060	0.071	0.084	0.050	0.097	0.083	0.096	0.064	0.037	0.048	0.072	0.037
G	50	0.085	0.079	0.113	0.052	0.077	0.090	0.113	0.067	0.119	0.111	0.123	0.083	0.051	0.066	0.093	0.046
G	51	0.050	0.042	0.063	0.027	0.039	0.050	0.061	0.034	0.066	0.060	0.072	0.044	0.026	0.035	0.053	0.028
G	52	0.132	0.121	0.191	0.074	0.110	0.139	0.177	0.101	0.189	0.179	0.180	0.131	0.069	0.100	0.142	0.063
G	53	0.110	0.100	0.134	0.059	0.089	0.109	0.147	0.081	0.149	0.147	0.147	0.099	0.058	0.077	0.114	0.051
G	54	0.075	0.067	0.091	0.044	0.061	0.079	0.092	0.055	0.104	0.092	0.101	0.070	0.043	0.052	0.078	0.043
G	55	0.070	0.067	0.099	0.044	0.065	0.076	0.094	0.052	0.106	0.089	0.105	0.072	0.043	0.056	0.078	0.041
G	56	0.087	0.075	0.094	0.052	0.072	0.090	0.099	0.062	0.108	0.096	0.103	0.078	0.051	0.061	0.081	0.048
G	57	0.045	0.039	0.055	0.030	0.039	0.047	0.048	0.031	0.054	0.052	0.059	0.044	0.030	0.035	0.047	0.030
G	58	0.028	0.023	0.033	0.020	0.025	0.032	0.029	0.022	0.032	0.029	0.034	0.027	0.019	0.024	0.029	0.022
G	59	0.038	0.031	0.047	0.025	0.035	0.042	0.045	0.029	0.048	0.046	0.051	0.038	0.026	0.031	0.042	0.028
G	60	0.038	0.028	0.042	0.025	0.032	0.037	0.039	0.027	0.042	0.039	0.046	0.033	0.026	0.028	0.039	0.028
G	61	0.031	0.023	0.033	0.017	0.025	0.032	0.032	0.022	0.032	0.032	0.037	0.025	0.019	0.024	0.029	0.022
G	62	0.028	0.023	0.033	0.020	0.028	0.032	0.032	0.022	0.032	0.032	0.037	0.027	0.022	0.026	0.031	0.024
G	63	0.040	0.031	0.052	0.027	0.035	0.042	0.055	0.029	0.054	0.057	0.059	0.038	0.024	0.031	0.047	0.028
G	64	0.038	0.025	0.042	0.022	0.030	0.040	0.042	0.024	0.042	0.043	0.049	0.033	0.022	0.028	0.037	0.022
G	65	0.031	0.023	0.039	0.022	0.028	0.034	0.035	0.022	0.035	0.036	0.043	0.033	0.022	0.028	0.034	0.024
G	66	0.036	0.025	0.044	0.020	0.030	0.037	0.042	0.024	0.042	0.046	0.051	0.033	0.019	0.028	0.037	0.022
G	67	0.050	0.034	0.057	0.030	0.039	0.052	0.061	0.031	0.060	0.063	0.067	0.046	0.028	0.035	0.050	0.030
G	68	0.056	0.042	0.065	0.034	0.048	0.059	0.066	0.039	0.066	0.071	0.072	0.051	0.032	0.042	0.057	0.033
G	69	0.031	0.025	0.039	0.020	0.028	0.034	0.035	0.022	0.038	0.036	0.043	0.027	0.019	0.024	0.034	0.020
G	70	0.076	0.065	0.108	0.046	0.070	0.087	0.109	0.057	0.112	0.111	0.116	0.075	0.043	0.058	0.083	0.040
G	71	0.079	0.069	0.107	0.050	0.070	0.084	0.109	0.059	0.115	0.109	0.116	0.078	0.044	0.058	0.086	0.045
G	72	0.038	0.034	0.057	0.025	0.035	0.040	0.051	0.029	0.056	0.052	0.062	0.038	0.024	0.031	0.047	0.024
G	73	0.048	0.039	0.065	0.030	0.044	0.052	0.058	0.034	0.066	0.057	0.070	0.046	0.028	0.037	0.053	0.030
G	74	0.040	0.031	0.052	0.022	0.035	0.045	0.048	0.027	0.054	0.049	0.057	0.036	0.022	0.031	0.039	0.024
G	75	0.045	0.039	0.063	0.027	0.039	0.047	0.055	0.031	0.063	0.057	0.067	0.041	0.026	0.033	0.050	0.026
G	76	0.045	0.039	0.060	0.027	0.042	0.052	0.058	0.034	0.063	0.060	0.065	0.044	0.028	0.037	0.050	0.028
G	77	0.058	0.048	0.072	0.032	0.047	0.059	0.068	0.041	0.074	0.071	0.081	0.051	0.030	0.043	0.057	0.031
G	78	0.053	0.051	0.077	0.038	0.051	0.059	0.068	0.044	0.076	0.068	0.079	0.057	0.037	0.045	0.063	0.038
G	79	0.070	0.060	0.083	0.038	0.055	0.071	0.089	0.046	0.097	0.083	0.093	0.059	0.037	0.048	0.070	0.037
G	80	0.053	0.051	0.072	0.032	0.047	0.055	0.068	0.041	0.071	0.074	0.077	0.048	0.032	0.037	0.063	0.031
G	81	0.056	0.051	0.067	0.032	0.048	0.059	0.077	0.039	0.076	0.074	0.075	0.053	0.032	0.042	0.061	0.033
G	82	0.033	0.028	0.042	0.020	0.030	0.034	0.035	0.024	0.042	0.039	0.043	0.027	0.019	0.026	0.034	0.020
G	83	0.129	0.121	0.174	0.077	0.111	0.139	0.172	0.098	0.185	0.174	0.167	0.128	0.074	0.100	0.139	0.067
G	84	0.052	0.039	0.060	0.030	0.042	0.057	0.066	0.034	0.068	0.063	0.065	0.046	0.028	0.035	0.050	0.030
G	85	0.079	0.075	0.108	0.052	0.074	0.088	0.104	0.064	0.112	0.105	0.116	0.080	0.051	0.061	0.089	0.046
G	86	0.067	0.061	0.079	0.040	0.060	0.071	0.082	0.048	0.089	0.079	0.084	0.062	0.041	0.050	0.068	0.040
G	87	0.052	0.048	0.072	0.038	0.051	0.061	0.066	0.044	0.071	0.065	0.075	0.054	0.039	0.045	0.063	0.038
G	88	0.067	0.061	0.077	0.040	0.060	0.073	0.080	0.050	0.084	0.079	0.079	0.059	0.043	0.048	0.068	0.041
G	89	0.038	0.031	0.042	0.022	0.032	0.040	0.042	0.027	0.042	0.043	0.046	0.033	0.024	0.028	0.037	0.026
G	90	0.048	0.036	0.052	0.027	0.037	0.050	0.055	0.031	0.054	0.054	0.059	0.041	0.026	0.033	0.047	0.028
G	91	0.036	0.025	0.036	0.020	0.028	0.034	0.039	0.024	0.038	0.036	0.043	0.030	0.022	0.026	0.034	0.022
G	92	0.036	0.025	0.039	0.020	0.028	0.034	0.035	0.024	0.038	0.039	0.043	0.030	0.022	0.026	0.031	0.022
G	93	0.031	0.023	0.039	0.020	0.025	0.032	0.035	0.022	0.038	0.036	0.040	0.030	0.019	0.024	0.031	0.020
G	94	0.024	0.020	0.030	0.015	0.021	0.027	0.029	0.017	0.029	0.029	0.034	0.025	0.015	0.019	0.026	0.017
G	95	0.024	0.020	0.030	0.015	0.021	0.027	0.029	0.017	0.032	0.029	0.034	0.022	0.015	0.019	0.026	0.017
G	96	0.033	0.028	0.042	0.022	0.030	0.034	0.042	0.024	0.045	0.039	0.046	0.033	0.022	0.026	0.037	0.024
G	97	0.022	0.017	0.027	0.013	0.019	0.022	0.022	0.015	0.026	0.023	0.028	0.020	0.013	0.017	0.021	0.015
G	98	0.031	0.023	0.036	0.017	0.025	0.032	0.035	0.022	0.038	0.036	0.040	0.027	0.017	0.024	0.031	0.018
G	99	0.028	0.023	0.033	0.015	0.023	0.029	0.032	0.020	0.035	0.032	0.037	0.025	0.017	0.021	0.029	0.018
G	149	0.031	0.025	0.039	0.017	0.025	0.032	0.035	0.022	0.038	0.036	0.043	0.027	0.017	0.024	0.031	0.020
G	150	0.022	0.017	0.025	0.013	0.019	0.022	0.022	0.015	0.023	0.023	0.026	0.017	0.013	0.015	0.021	0.015
G	151	0.022	0.017	0.022	0.013	0.017	0.020	0.022	0.015	0.023	0.020	0.023	0.017	0.013	0.015	0.019	0.015
G	152	0.020	0.015	0.022	0.011	0.017	0.020	0.020	0.013	0.023	0.020	0.023	0.017	0.011	0.015	0.019	0.013
G	153	0.020	0.015	0.022	0.013	0.017	0.020	0.022	0.015	0.023	0.023	0.026	0.017	0.013	0.015	0.019	0.013
G	154	0.031	0.025	0.039	0.020	0.028	0.032	0.035	0.022	0.038	0.036	0.040	0.027	0.019	0.024	0.031	0.022
G	155	0.020	0.017	0.025	0.013	0.019	0.022	0.022	0.015	0.023	0.023	0.026	0.017	0.013	0.017	0.019	0.015
G	156	0.026	0.020	0.030	0.015	0.023	0.027	0.025	0.017	0.029	0.026	0.031	0.022	0.017	0.019	0.026	0.018
G	157	0.033	0.025	0.033	0.020	0.028	0.032	0.035	0.022	0.035	0.036	0.037	0.027	0.022	0.024	0.031	0.022
G	158	0.022	0.017	0.022	0.013	0.019	0.022	0.022	0.015	0.023	0.023	0.026	0.017	0.013	0.015	0.021	0.015
G	159	0.024	0.017	0.025	0.015	0.021	0.024	0.025	0.017	0.026	0.026	0.028	0.020	0.015	0.019	0.023	0.017
G	160	0.022	0.017	0.022	0.013	0.019	0.022	0.022	0.015	0.023	0.023	0.026	0.017	0.013	0.015	0.021	0.015
G	161	0.020	0.015	0.022	0.011	0.017	0.020	0.020	0.015	0.021	0.020	0.023	0.017	0.013	0.015	0.019	0.015
G	162	0.020	0.015	0.022	0.011	0.017	0.020	0.020	0.013	0.021	0.020	0.023	0.017	0.011	0.015	0.019	0.013
G	163	0.024	0.017	0.025	0.015	0.019	0.024	0.025	0.017	0.026	0.026	0.028	0.020	0.015	0.019	0.023	0.017
G	164	0.026	0.017	0.027	0.015	0.021	0.024	0.025	0.017	0.026	0.026	0.031	0.022	0.015	0.019	0.023	0.017
G	165	0.026	0.017	0.027	0.015	0.021	0.024	0.025	0.017	0.026	0.026	0.031	0.022	0.015	0.019	0.023	0.017
G	166	0.024	0.017	0.025	0.013	0.019	0.022	0.025	0.015	0.026	0.026	0.028	0.020	0.013	0.017	0.021	0.017
G	167	0.028	0.020	0.030	0.015	0.023	0.029	0.032	0.020	0.032	0.029	0.034	0.025	0.015	0.019	0.026	0.018
G	168	0.028	0.023	0.033	0.017	0.023	0.029	0.032	0.020	0.035	0.032	0.037	0.025	0.017	0.021	0.029	0.018
G	169	0.026	0.020	0.033	0.015	0.023	0.027	0.029	0.017	0.032	0.032	0.037	0.022	0.015	0.019	0.026	0.018
G	170	0.026	0.020	0.033	0.015	0.023	0.027	0.029	0.020	0.032	0.029	0.037	0.025	0.017	0.021	0.026	0.018
G	171	0.038	0.031	0.049	0.025	0.035	0.042	0.048	0.027	0.054	0.049	0.057	0.036	0.024	0.033	0.042	0.024
G	172	0.028	0.020	0.030	0.017	0.023	0.029	0.029	0.020	0.032	0.029	0.034	0.025	0.019	0.021	0.026	0.020
G	173	0.024	0.020	0.027	0.015	0.021	0.024	0.025	0.017	0.029	0.026	0.028	0.022	0.017	0.019	0.023	0.018
G	174	0.024	0.020	0.030	0.015	0.021	0.024	0.025	0.017	0.029	0.026	0.031	0.022	0.017	0.019	0.026	0.017
G	175	0.024	0.017	0.027	0.015	0.021	0.024	0.025	0.017	0.026	0.026	0.028	0.020	0.015	0.017	0.023	0.017
G	176	0.022	0.017	0.022	0.013	0.019	0.022	0.022	0.015	0.023	0.023	0.023	0.017	0.013	0.015	0.019	0.015
G	177	0.022	0.017	0.022	0.013	0.017	0.020	0.022	0.015	0.023	0.023	0.026	0.017	0.013	0.015	0.019	0.015
G	178	0.022	0.017	0.025	0.013	0.019	0.022	0.022	0.015	0.023	0.023	0.026	0.020	0.015	0.017	0.021	0.017
G	179	0.020	0.015	0.022	0.011	0.017	0.020	0.020	0.015	0.023	0.020	0.023	0.017	0.013	0.015	0.019	0.015
G	180	0.020	0.015	0.022	0.011	0.017	0.020	0.020	0.013	0.021	0.020	0.023	0.017	0.013	0.015	0.019	0.015
G	181	0.024	0.020	0.025	0.015	0.021	0.024	0.025	0.017	0.026	0.026	0.028	0.020	0.015	0.017	0.023	0.017
G	182	0.020	0.015	0.022	0.011	0.017	0.020	0.020	0.015	0.023	0.020	0.023	0.017	0.013	0.015	0.019	0.013
G	188	0.020	0.015	0.022	0.013	0.017	0.020	0.020	0.015	0.023	0.020	0.023	0.017	0.013	0.015	0.019	0.015
G	189	0.019	0.015	0.020	0.011	0.016	0.019	0.020	0.013	0.021	0.020	0.022	0.016	0.011	0.014	0.018	0.013
G	190	0.020	0.015	0.022	0.011	0.017	0.020	0.020	0.013	0.021	0.020	0.023	0.016	0.013	0.015	0.019	0.013
G	191	0.026	0.020	0.027	0.015	0.021	0.024	0.025	0.017	0.029	0.026	0.028	0.022	0.017	0.019	0.026	0.018
G	192	0.022	0.017	0.025	0.013	0.019	0.022	0.022	0.015	0.023	0.023	0.026	0.020	0.015	0.017	0.021	0.015
G	193	0.020	0.015	0.020	0.011	0.017	0.020	0.020	0.013	0.021	0.020	0.023	0.017	0.013	0.015	0.019	0.013
G	194	0.022	0.017	0.025	0.013	0.019	0.022	0.022	0.015	0.023	0.023	0.026	0.020	0.015	0.017	0.021	0.017
G	195	0.020	0.015	0.022	0.011	0.017	0.020	0.020	0.013	0.021	0.020	0.023	0.017	0.013	0.015	0.019	0.013
G	196	0.022	0.017	0.025	0.013	0.019	0.022	0.022	0.015	0.023	0.023	0.026	0.020	0.015	0.017	0.021	0.017
G	197	0.020	0.015	0.022	0.013	0.017	0.020	0.020	0.015	0.023	0.020	0.023	0.017	0.013	0.015	0.021	0.015
G	198	0.022	0.017	0.025	0.013	0.019	0.022	0.022	0.015	0.023	0.023	0.026	0.020	0.013	0.017	0.021	0.017
G	199	0.024	0.017	0.027	0.015	0.021	0.024	0.025	0.017	0.026	0.026	0.028	0.022	0.015	0.019	0.023	0.018
G	200	0.024	0.020	0.027	0.015	0.021	0.027	0.025	0.017	0.026	0.026	0.031	0.022	0.017	0.019	0.026	0.018
G	201	0.028	0.020	0.033	0.017	0.023	0.029	0.032	0.020	0.032	0.032	0.037	0.027	0.017	0.021	0.029	0.020
G	202	0.026	0.020	0.030	0.015	0.023	0.027	0.029	0.017	0.029	0.029	0.034	0.025	0.017	0.021	0.026	0.018
G	203	0.036	0.028	0.042	0.025	0.030	0.037	0.039	0.024	0.042	0.039	0.049	0.036	0.024	0.031	0.037	0.026
G	204	0.033	0.025	0.042	0.022	0.028	0.034	0.042	0.022	0.042	0.039	0.049	0.033	0.019	0.026	0.037	0.022
G	205	0.026	0.020	0.033	0.017	0.023	0.027	0.032	0.017	0.032	0.032	0.037	0.025	0.017	0.019	0.029	0.018
G	206	0.028	0.023	0.036	0.020	0.025	0.029	0.032	0.022	0.035	0.032	0.040	0.027	0.019	0.024	0.031	0.020
G	207	0.028	0.023	0.036	0.017	0.025	0.029	0.035	0.020	0.035	0.036	0.040	0.027	0.017	0.024	0.031	0.020
G	208	0.036	0.028	0.049	0.022	0.032	0.040	0.045	0.027	0.048	0.046	0.054	0.036	0.024	0.031	0.039	0.024
G	209	0.043	0.036	0.057	0.027	0.037	0.045	0.051	0.031	0.060	0.052	0.065	0.041	0.026	0.035	0.047	0.028
G	210	0.040	0.034	0.052	0.025	0.035	0.042	0.048	0.029	0.056	0.049	0.059	0.038	0.024	0.031	0.042	0.026
G	211	0.052	0.045	0.072	0.034	0.048	0.059	0.068	0.039	0.076	0.065	0.077	0.051	0.032	0.043	0.059	0.033
G	212	0.040	0.034	0.055	0.025	0.037	0.045	0.051	0.029	0.056	0.052	0.059	0.038	0.024	0.033	0.042	0.024
G	213	0.031	0.028	0.042	0.020	0.028	0.034	0.039	0.024	0.038	0.039	0.046	0.033	0.022	0.026	0.037	0.022
G	214	0.038	0.031	0.047	0.025	0.032	0.040	0.048	0.027	0.051	0.046	0.051	0.036	0.024	0.031	0.042	0.026
G	215	0.028	0.023	0.033	0.017	0.023	0.029	0.032	0.022	0.032	0.032	0.037	0.025	0.017	0.021	0.029	0.020
G	216	0.022	0.017	0.025	0.013	0.019	0.022	0.022	0.015	0.026	0.023	0.026	0.020	0.015	0.017	0.021	0.017
G	217	0.024	0.020	0.027	0.015	0.021	0.024	0.025	0.017	0.029	0.026	0.031	0.022	0.015	0.019	0.023	0.017
G	218	0.024	0.020	0.027	0.015	0.021	0.024	0.025	0.017	0.026	0.026	0.031	0.020	0.015	0.017	0.023	0.017
G	219	0.033	0.028	0.039	0.020	0.028	0.034	0.035	0.024	0.042	0.036	0.043	0.030	0.022	0.026	0.034	0.022
G	220	0.020	0.017	0.025	0.013	0.017	0.022	0.022	0.015	0.023	0.023	0.026	0.017	0.013	0.015	0.021	0.015
G	221	0.026	0.023	0.033	0.017	0.023	0.027	0.029	0.020	0.032	0.029	0.037	0.025	0.017	0.019	0.029	0.018
G	222	0.033	0.028	0.042	0.020	0.030	0.037	0.042	0.024	0.045	0.039	0.043	0.033	0.022	0.026	0.034	0.022
G	223	0.024	0.020	0.027	0.015	0.021	0.024	0.025	0.017	0.029	0.026	0.031	0.022	0.015	0.019	0.023	0.017
G	224	0.038	0.034	0.042	0.022	0.032	0.040	0.045	0.024	0.048	0.043	0.049	0.033	0.022	0.026	0.039	0.024
G	225	0.043	0.034	0.042	0.025	0.032	0.042	0.042	0.029	0.045	0.043	0.049	0.033	0.026	0.031	0.039	0.026
