RESNR	RESTYPE	RESCHAIN	RESNR_LIG	RESTYPE_LIG	RESCHAIN_LIG	SIDECHAIN	DIST_H-A	DIST_D-A	DON_ANGLE	PROTISDON	DONORIDX	DONORTYPE	ACCEPTORIDX	ACCEPTORTYPE	LIGCOO	PROTCOO
24	GLY	B	33	C	R	False	2.92	3.29	103.29	True	185	Nam	1849	O3	(3.913, 31.251, 23.181)	(3.834, 34.302, 24.417)
25	SER	B	34	C	R	True	1.91	2.74	142.14	True	194	O3	1869	O2	(6.552, 30.829, 18.245)	(7.229, 32.828, 19.998)
27	TYR	B	35	U	R	True	1.66	2.55	156.78	True	213	O3	1889	O3	(9.903, 30.925, 14.408)	(7.702, 31.96, 15.163)
