RESNR	RESTYPE	RESCHAIN	PROT_IDX_LIST	RESNR_LIG	RESTYPE_LIG	RESCHAIN_LIG	DIST	PROTISPOS	LIG_GROUP	LIG_IDX_LIST	LIGCOO	PROTCOO
117	LYS	A	843	1	U	B	4.79	True	Phosphate	1377,1377,1378,1379,1380	(12.943, 40.955, 47.812)	(11.085, 36.59, 47.176)
136	GLU	A	997,998	5	G	B	4.25	False	Guanidine	1478,1480,1481	(7.955, 28.287, 63.532)	(6.5395, 24.487000000000002, 64.816)
