RESNR	RESTYPE	RESCHAIN	PROT_IDX_LIST	RESNR_LIG	RESTYPE_LIG	RESCHAIN_LIG	DIST	PROTISPOS	LIG_GROUP	LIG_IDX_LIST	LIGCOO	PROTCOO
754	LYS	A	403	144	C	B	5.33	True	Phosphate	814,814,800,817,816,815	(-10.01, -13.987, -54.556)	(-11.477, -14.97, -49.522)
754	LYS	A	403	145	U	B	5.28	True	Phosphate	834,834,822,835,836,837	(-15.754, -13.822, -52.4)	(-11.477, -14.97, -49.522)
765	LYS	A	508	150	U	B	3.68	True	Phosphate	940,940,928,941,942,943	(-9.62, -28.512, -35.872)	(-11.252, -25.423, -34.721)
765	LYS	A	508	149	U	B	5.03	True	Phosphate	920,920,921,905,923,922	(-15.07, -26.826, -37.688)	(-11.252, -25.423, -34.721)
786	LYS	A	666	148	G	B	5.16	True	Phosphate	897,897,885,898,899,900	(-17.611, -22.784, -40.568)	(-13.27, -21.657, -43.117)
