RESNR	RESTYPE	RESCHAIN	RESNR_LIG	RESTYPE_LIG	RESCHAIN_LIG	SIDECHAIN	DIST_H-A	DIST_D-A	DON_ANGLE	PROTISDON	DONORIDX	DONORTYPE	ACCEPTORIDX	ACCEPTORTYPE	LIGCOO	PROTCOO
788	ARG	B	8	G	D	True	2.26	3.01	132.45	True	1430	Ng+	2103	Nar	(9.017, 63.714, 51.693)	(6.327, 62.926, 52.791)
786	LYS	B	10	G	D	True	1.95	2.90	155.13	True	1410	N3	2146	Nar	(6.176, 69.75, 46.745)	(5.113, 69.042, 49.352)
756	LYS	B	13	C	D	True	2.16	3.04	143.53	True	1174	N3	2210	Nar	(-0.046, 73.649, 44.823)	(-0.696, 72.004, 47.293)
789	GLY	B	16	G	D	False	2.94	3.79	145.16	True	1431	Nam	2275	O2	(4.854, 65.298, 45.826)	(1.524, 63.702, 46.683)
756	LYS	B	11	U	D	True	3.35	3.92	118.64	False	2170	Nar	1174	N3	(2.259, 71.432, 44.778)	(-0.696, 72.004, 47.293)
789	GLY	B	15	C	D	False	2.80	3.67	148.82	False	2255	Npl	1434	O2	(1.304, 67.033, 44.957)	(-1.132, 64.446, 45.891)
