RESNR	RESTYPE	RESCHAIN	PROT_IDX_LIST	RESNR_LIG	RESTYPE_LIG	RESCHAIN_LIG	DIST	PROTISPOS	LIG_GROUP	LIG_IDX_LIST	LIGCOO	PROTCOO
754	LYS	B	1156	7	U	D	4.70	True	Phosphate	2069,2069,2072,2057,2070,2071	(6.08, 60.046, 56.321)	(4.725, 64.546, 56.382)
754	LYS	B	1156	8	G	D	4.93	True	Phosphate	2089,2089,2077,2090,2091,2092	(9.538, 63.583, 56.843)	(4.725, 64.546, 56.382)
765	LYS	B	1252	12	U	D	3.69	True	Phosphate	2175,2175,2176,2177,2178,2163	(3.432, 77.381, 41.649)	(6.632, 78.752, 42.879)
765	LYS	B	1252	11	U	D	4.03	True	Phosphate	2155,2155,2140,2156,2157,2158	(8.177, 75.439, 44.584)	(6.632, 78.752, 42.879)
788	ARG	B	1427,1429,1430	7	U	D	4.93	True	Phosphate	2069,2069,2072,2057,2070,2071	(6.08, 60.046, 56.321)	(5.723999999999999, 62.18166666666667, 51.88833333333333)
