RESNR	RESTYPE	RESCHAIN	RESNR_LIG	RESTYPE_LIG	RESCHAIN_LIG	SIDECHAIN	DIST_H-A	DIST_D-A	DON_ANGLE	PROTISDON	DONORIDX	DONORTYPE	ACCEPTORIDX	ACCEPTORTYPE	LIGCOO	PROTCOO
80	ARG	A	4	A	F	False	1.75	2.72	167.13	True	498	Nam	2542	O3	(75.668, 18.973, 139.742)	(77.619, 17.661, 141.108)
78	GLY	A	3	U	F	False	3.17	3.52	102.74	True	487	Nam	2531	O3	(73.862, 14.504, 138.725)	(75.774, 12.217, 140.596)
71	ASN	A	3	U	F	True	3.09	4.02	157.15	True	439	Nam	2538	O2	(69.355, 10.433, 141.235)	(67.476, 9.71, 137.76)
104	ARG	A	4	A	F	True	2.85	3.62	135.52	True	691	Ng+	2551	O3	(76.232, 17.555, 133.06)	(72.704, 17.814, 133.833)
85	LYS	A	5	A	F	True	1.74	2.48	126.23	True	543	N3	2573	O3	(83.99, 13.906, 137.51)	(84.815, 15.336, 139.36)
97	ILE	A	5	A	F	False	2.05	3.02	171.22	True	635	Nam	2581	Nar	(82.056, 10.195, 132.68)	(81.387, 7.345, 131.929)
94	LYS	A	6	A	F	True	3.31	4.01	127.40	True	620	N3	2593	O3	(89.215, 12.967, 133.47)	(89.13, 9.026, 132.72)
97	ILE	A	5	A	F	False	2.03	2.94	153.05	False	2580	Npl	638	O2	(80.53, 11.018, 131.155)	(80.095, 8.566, 129.586)
