RESNR	RESTYPE	RESCHAIN	RESNR_LIG	RESTYPE_LIG	RESCHAIN_LIG	SIDECHAIN	DIST_H-A	DIST_D-A	DON_ANGLE	PROTISDON	DONORIDX	DONORTYPE	ACCEPTORIDX	ACCEPTORTYPE	LIGCOO	PROTCOO
32	SER	P	28	C	f	True	3.03	3.79	135.83	True	198	O3	5734	Npl	(282.914, 265.635, 276.05)	(285.192, 262.635, 275.679)
40	ARG	P	31	G	f	True	3.27	3.98	130.62	True	264	Ng+	5782	O3	(284.247, 266.274, 294.842)	(287.216, 263.67, 295.325)
32	SER	P	29	A	f	False	2.00	2.83	141.34	False	5754	Npl	196	O2	(284.621, 263.565, 279.778)	(285.258, 260.948, 278.894)
32	SER	P	28	C	f	True	3.40	3.79	105.74	False	5734	Npl	198	O3	(282.914, 265.635, 276.05)	(285.192, 262.635, 275.679)
