RESNR	RESTYPE	RESCHAIN	PROT_IDX_LIST	RESNR_LIG	RESTYPE_LIG	RESCHAIN_LIG	DIST	OFFSET	PROTCHARGED	LIG_GROUP	LIG_IDX_LIST	LIGCOO	PROTCOO
33	ARG	L	4015,4017,4018	48	A	6	3.93	1.63	True	Aromatic	3141,3142,3143,3144,3150	(240.59660000000002, 229.9192, 215.0088)	(239.35933333333332, 233.52033333333335, 215.97633333333337)
33	ARG	L	4015,4017,4018	48	A	6	3.87	1.48	True	Aromatic	3144,3145,3147,3148,3149,3150	(239.1355, 229.69066666666666, 216.4853333333334)	(239.35933333333332, 233.52033333333335, 215.97633333333337)
