RESNR	RESTYPE	RESCHAIN	PROT_IDX_LIST	RESNR_LIG	RESTYPE_LIG	RESCHAIN_LIG	DIST	PROTISPOS	LIG_GROUP	LIG_IDX_LIST	LIGCOO	PROTCOO
104	LYS	B	898	18	A	A	3.73	True	Phosphate	355,355,340,356,357,358	(35.478, 59.282, 63.096)	(32.043, 59.1, 61.663)
107	LYS	B	926	17	G	A	4.03	True	Phosphate	332,332,318,333,334,335	(32.505, 61.887, 67.337)	(28.685, 61.571, 66.098)
262	LYS	B	2158	21	C	A	3.78	True	Phosphate	420,420,408,421,422,423	(41.641, 43.274, 61.384)	(40.196, 44.377, 58.069)
262	LYS	B	2158	20	C	A	5.27	True	Phosphate	400,400,401,402,385,403	(40.537, 48.868, 60.799)	(40.196, 44.377, 58.069)
269	LYS	B	2220	18	A	A	4.92	True	Phosphate	355,355,340,356,357,358	(35.478, 59.282, 63.096)	(31.776, 56.123, 63.803)
276	LYS	B	2252	25	C	A	3.75	True	Phosphate	502,502,490,504,505,503	(28.678, 34.183, 55.372)	(25.558, 36.256, 55.415)
