RESNR	RESTYPE	RESCHAIN	RESNR_LIG	RESTYPE_LIG	RESCHAIN_LIG	PROT_IDX_LIST	CENTDIST	ANGLE	OFFSET	TYPE	LIG_IDX_LIST	LIGCOO	PROTCOO
233	TRP	B	25	C	A	1900,1901,1902,1903,1904	3.61	7.86	1.29	P	514,515,517,518,520,521	(33.449666666666666, 37.064, 53.972)	(36.161, 34.695800000000006, 53.654599999999995)
233	TRP	B	25	C	A	1902,1904,1905,1906,1907,1908	3.88	7.99	1.68	P	514,515,517,518,520,521	(33.449666666666666, 37.064, 53.972)	(34.55116666666667, 33.34166666666666, 54.117)
61	PHE	B	13	U	A	549,550,551,552,553,554	4.92	82.65	0.94	T	262,263,265,266,268,269	(37.73166666666667, 65.79983333333334, 64.8325)	(42.32616666666667, 65.355, 63.13616666666667)
