RESNR	RESTYPE	RESCHAIN	RESNR_LIG	RESTYPE_LIG	RESCHAIN_LIG	SIDECHAIN	DIST_H-A	DIST_D-A	DON_ANGLE	PROTISDON	DONORIDX	DONORTYPE	ACCEPTORIDX	ACCEPTORTYPE	LIGCOO	PROTCOO
545	GLN	B	43	A	P	True	3.07	3.75	127.02	True	3509	Nam	9244	O2	(153.396, 138.831, 163.198)	(155.003, 135.451, 163.058)
808	GLN	B	45	U	P	True	1.71	2.56	141.81	True	5609	Nam	9286	O3	(148.511, 143.633, 173.734)	(149.23, 141.53, 174.995)
919	HIS	B	35	G	P	True	2.32	3.09	134.54	False	9090	Npl	6516	N2	(184.521, 153.114, 183.219)	(186.356, 153.914, 185.57)
