    #Input sequence length: 25
#Number of binding residues predicted by HomPRIP: 0
#Number of binding residues predicted by SVM: 25
#Number of binding residues predicted by RNABindRPlus: 22
>A0A087WNH4_merged
sequence:							M,R,A,K,W,R,K,K,R,M,R,R,L,K,R,K,R,R,K,M,R,Q,R,S,K
Prediction from HomPRIP:			?????????????????????????
Predicted score from HomPRIP:		?,?,?,?,?,?,?,?,?,?,?,?,?,?,?,?,?,?,?,?,?,?,?,?,?
Prediction from SVM:				1,1,1,1,1,1,1,1,1,1,1,1,1,1,1,1,1,1,1,1,1,1,1,1,1
Predicted score from SVM:			0.72,1.00,0.93,1.00,1.00,1.00,1.00,1.00,1.00,0.93,1.00,1.00,1.00,1.00,1.00,1.00,1.00,1.00,1.00,0.82,1.00,1.00,1.00,0.61,1.00
Prediction from RNABindRPlus:		0,1,1,1,1,1,1,1,1,1,1,1,1,1,1,1,1,1,1,0,1,1,1,0,1
Predicted score from RNABindRPlus:	0.33,0.70,0.61,0.70,0.70,0.70,0.70,0.70,0.70,0.61,0.70,0.70,0.70,0.70,0.70,0.70,0.70,0.70,0.70,0.46,0.70,0.70,0.70,0.21,0.70
    #Input sequence length: 777
#Number of binding residues predicted by HomPRIP: 32
#Number of binding residues predicted by SVM: 31
#Number of binding residues predicted by RNABindRPlus: 17
>B3Y653_merged
sequence:							A,R,W,F,P,K,T,L,P,C,D,V,T,L,D,V,S,K,N,H,V,I,V,D,C,T,D,K,H,L,T,E,I,P,G,G,I,P,T,N,T,T,N,L,T,L,T,I,N,H,I,P,D,I,S,P,A,S,F,H,R,L,V,H,L,V,E,I,D,F,R,C,N,C,V,P,I,R,L,G,S,K,S,N,M,C,P,R,R,L,Q,I,K,P,R,S,F,S,G,L,T,Y,L,K,S,L,Y,L,D,G,N,Q,L,L,E,I,P,Q,G,L,P,P,S,L,Q,L,L,S,L,E,A,N,N,I,F,S,I,R,K,E,Q,L,T,E,L,A,N,I,E,I,L,Y,L,G,Q,N,C,Y,Y,R,N,P,C,Y,V,S,Y,S,I,E,K,D,A,F,L,N,L,T,K,L,K,V,L,S,L,K,D,N,N,V,T,T,V,P,T,V,L,P,S,T,L,T,E,L,Y,L,Y,N,N,M,I,A,E,I,Q,E,D,D,F,N,N,L,N,Q,L,Q,I,L,D,L,S,G,N,C,P,R,C,Y,N,A,P,F,P,C,T,P,C,K,N,N,S,P,L,Q,I,P,V,N,A,F,D,A,L,T,E,L,K,V,L,R,L,H,S,N,S,L,Q,H,V,P,P,R,W,F,K,N,I,N,N,L,Q,E,L,D,L,S,Q,N,F,L,A,K,E,I,G,D,A,K,F,L,H,F,L,P,N,L,I,Q,L,D,L,S,F,N,F,E,L,Q,V,Y,R,A,S,M,N,L,S,Q,A,F,S,S,L,K,S,L,K,I,L,R,I,R,G,Y,V,F,K,E,L,K,S,F,Q,L,S,P,L,H,N,L,Q,N,L,E,V,L,D,L,G,T,N,F,I,K,I,A,N,L,S,M,F,K,Q,F,K,R,L,K,V,I,D,L,S,V,N,K,I,S,P,P,Q,V,L,E,Q,L,Y,Y,F,R,Y,D,K,Y,A,R,S,C,R,F,K,S,C,Y,K,Y,G,Q,T,L,D,L,S,K,N,S,I,F,F,I,K,S,S,D,F,Q,H,L,S,F,L,K,C,L,N,L,S,G,N,L,I,S,Q,T,L,N,G,S,E,F,Q,P,L,A,E,L,R,Y,L,D,F,S,N,N,R,L,D,L,L,H,S,T,A,F,E,E,L,R,K,L,E,V,L,D,I,S,S,N,S,H,Y,F,Q,S,E,G,I,T,H,M,L,N,F,T,K,N,L,K,V,L,Q,K,L,M,M,N,D,N,D,I,S,S,S,T,S,R,T,M,E,S,E,S,L,R,T,L,E,F,R,G,N,H,L,D,V,L,W,R,D,G,D,N,R,Y,L,Q,L,F,K,N,L,L,K,L,E,E,L,D,I,S,K,N,S,L,S,F,L,P,S,G,V,F,D,G,M,P,P,N,L,K,N,L,S,L,A,K,N,G,L,K,S,F,I,W,E,K,L,R,Y,L,K,N,L,E,T,L,D,L,S,H,N,Q,L,T,T,V,P,E,R,L,S,N,C,S,R,S,L,K,N,L,I,L,K,N,N,Q,I,R,S,L,T,K,Y,F,L,Q,D,A,F,Q,L,R,Y,L,D,L,S,S,N,K,I,Q,M,I,Q,K,T,S,F,P,E,N,V,L,N,N,L,K,M,L,L,L,H,H,N,R,F,L,C,T,C,D,A,V,W,F,V,W,W,V,Q,H,T,E,V,T,I,P,Y,L,A,T,D,V,T,C,V,G,P,G,A,H,K,G,Q,S,V,I,S,L,D,L,Y,T,C,E,L
Prediction from HomPRIP:			?,?,?,?,?,?,?,?,?,?,?,?,?,?,?,?,?,?,?,?,?,0,0,0,0,0,1,0,1,0,0,0,0,0,0,0,0,0,0,0,0,0,0,0,0,0,0,1,1,1,0,1,0,0,0,0,0,0,0,0,0,0,0,0,0,0,0,0,0,0,0,1,1,1,0,?,?,?,?,?,?,?,1,0,0,0,0,0,0,0,0,0,0,0,?,?,?,?,?,?,?,0,0,0,0,0,0,0,0,1,1,1,0,1,0,0,0,0,0,0,0,0,0,0,0,0,0,0,0,0,1,0,0,0,0,0,0,0,0,0,0,0,0,0,0,0,0,0,0,0,0,0,0,0,0,0,0,0,0,0,0,0,0,0,0,0,0,0,0,0,0,0,0,0,0,0,0,0,0,0,0,0,0,0,0,0,0,0,0,0,0,0,0,0,0,?,?,?,0,0,0,0,0,0,0,0,0,0,0,0,0,0,0,0,0,0,0,0,0,0,0,0,0,0,0,0,0,0,0,0,0,0,0,0,0,0,0,0,0,0,0,0,0,0,0,0,0,0,0,?,?,?,?,?,?,?,?,?,?,?,?,?,?,0,0,0,0,0,0,0,0,0,0,0,0,0,0,0,0,0,0,0,0,0,0,0,0,0,0,0,0,0,0,0,0,0,0,0,0,0,?,0,0,0,0,0,0,0,0,?,0,0,0,0,0,0,0,0,0,0,0,0,0,0,?,?,?,0,0,0,0,0,0,?,?,?,0,0,0,0,0,0,0,0,0,0,0,0,0,0,0,0,0,0,0,0,0,0,0,0,0,0,0,0,0,0,0,0,0,0,0,0,0,0,0,0,0,0,0,0,0,0,0,0,0,0,0,0,0,0,0,0,0,0,0,0,0,0,0,0,0,0,0,0,0,0,0,0,?,?,?,?,0,0,0,0,0,0,0,0,0,0,0,0,0,0,0,0,0,0,?,?,?,?,?,?,?,?,0,0,0,0,0,0,0,0,0,0,0,0,0,0,0,0,0,0,0,0,0,0,0,0,0,0,0,0,0,0,0,0,0,0,0,0,0,0,0,0,0,0,0,0,0,0,0,0,0,0,0,0,0,0,0,0,0,0,0,0,0,0,0,0,0,0,0,0,0,0,1,0,0,0,0,0,0,0,0,0,0,0,0,0,0,0,?,?,?,?,?,?,?,?,?,0,0,0,0,0,0,0,0,?,?,?,0,0,1,1,1,0,1,1,0,0,0,0,0,0,0,0,0,0,0,0,0,0,0,0,0,1,1,1,0,1,1,0,0,?,?,?,0,0,0,0,0,0,0,0,0,0,0,0,0,0,0,0,0,0,0,0,1,1,1,0,0,0,0,0,0,0,0,0,?,?,?,?,?,?,?,?,?,?,?,?,?,?,?,?,?,?,?,?,?,?,?,?,?,0,0,0,0,0,0,0,0,0,0,0,0,1,0,1,0,0,0,0,0,0,0,0,0,0,0,0,0,0,0,0,0,0,0,0,0,1,0,0,0,0,0,0,0,0,0,0,0,0,0,0,0,0,?,?,?,?,?,?,?,?,?,?,?,?,?,?,?,?,?,?,?,?,?,?,?,?,?,0,0,0,0,0,0,0,0,0,0,0,0,0,0,0,0,0,0,0,0,0,0,0,0,0,0,0,0,0,0,0,0,0,0,0,0,0,0,0,0,0,0,0,0,0,0,0,0,0,0,0,0,0,0,0,0,0,0,0,0,0,?
Predicted score from HomPRIP:		?,?,?,?,?,?,?,?,?,?,?,?,?,?,?,?,?,?,?,?,?,0.00,0.00,0.00,0.00,0.00,1.00,0.00,1.00,0.00,0.00,0.00,0.00,0.00,0.00,0.00,0.00,0.00,0.00,0.00,0.00,0.00,0.00,0.00,0.00,0.00,0.00,1.00,1.00,1.00,0.00,1.00,0.00,0.00,0.00,0.00,0.00,0.00,0.00,0.00,0.00,0.00,0.00,0.00,0.00,0.00,0.00,0.00,0.00,0.00,0.00,1.00,1.00,1.00,0.00,?,?,?,?,?,?,?,1.00,0.00,0.00,0.00,0.00,0.00,0.00,0.00,0.00,0.00,0.00,0.00,?,?,?,?,?,?,?,0.00,0.00,0.00,0.00,0.00,0.00,0.00,0.00,1.00,1.00,1.00,0.00,1.00,0.00,0.00,0.00,0.00,0.00,0.00,0.00,0.00,0.00,0.00,0.00,0.00,0.00,0.00,0.00,0.00,1.00,0.00,0.00,0.00,0.00,0.00,0.00,0.00,0.00,0.00,0.00,0.00,0.00,0.00,0.00,0.00,0.00,0.00,0.00,0.00,0.00,0.00,0.00,0.00,0.00,0.00,0.00,0.00,0.00,0.00,0.00,0.00,0.00,0.00,0.00,0.00,0.00,0.00,0.00,0.00,0.00,0.00,0.00,0.00,0.00,0.00,0.00,0.00,0.00,0.00,0.00,0.00,0.00,0.00,0.00,0.00,0.00,0.00,0.00,0.00,0.00,0.00,0.00,0.00,0.00,?,?,?,0.00,0.00,0.00,0.00,0.00,0.00,0.00,0.00,0.00,0.00,0.00,0.00,0.00,0.00,0.00,0.00,0.00,0.00,0.00,0.00,0.00,0.00,0.00,0.00,0.00,0.00,0.00,0.00,0.00,0.00,0.00,0.00,0.00,0.00,0.00,0.00,0.00,0.00,0.00,0.00,0.00,0.00,0.00,0.00,0.00,0.00,0.00,0.00,0.00,0.00,0.00,?,?,?,?,?,?,?,?,?,?,?,?,?,?,0.00,0.00,0.00,0.00,0.00,0.00,0.00,0.00,0.00,0.00,0.00,0.00,0.00,0.00,0.00,0.00,0.00,0.00,0.00,0.00,0.00,0.00,0.00,0.00,0.00,0.00,0.00,0.00,0.00,0.00,0.00,0.00,0.00,0.00,0.00,0.00,0.00,?,0.00,0.00,0.00,0.00,0.00,0.00,0.00,0.00,?,0.00,0.00,0.00,0.00,0.00,0.00,0.00,0.00,0.00,0.00,0.00,0.00,0.00,0.00,?,?,?,0.00,0.00,0.00,0.00,0.00,0.00,?,?,?,0.00,0.00,0.00,0.00,0.00,0.00,0.00,0.00,0.00,0.00,0.00,0.00,0.00,0.00,0.00,0.00,0.00,0.00,0.00,0.00,0.00,0.00,0.00,0.00,0.00,0.00,0.00,0.00,0.00,0.00,0.00,0.00,0.00,0.00,0.00,0.00,0.00,0.00,0.00,0.00,0.00,0.00,0.00,0.00,0.00,0.00,0.00,0.00,0.00,0.00,0.00,0.00,0.00,0.00,0.00,0.00,0.00,0.00,0.00,0.00,0.00,0.00,0.00,0.00,0.00,0.00,0.00,0.00,0.00,0.00,0.00,0.00,?,?,?,?,0.00,0.00,0.00,0.00,0.00,0.00,0.00,0.00,0.00,0.00,0.00,0.00,0.00,0.00,0.00,0.00,0.00,0.00,?,?,?,?,?,?,?,?,0.00,0.00,0.00,0.00,0.00,0.00,0.00,0.00,0.00,0.00,0.00,0.00,0.00,0.00,0.00,0.00,0.00,0.00,0.00,0.00,0.00,0.00,0.00,0.00,0.00,0.00,0.00,0.00,0.00,0.00,0.00,0.00,0.00,0.00,0.00,0.00,0.00,0.00,0.00,0.00,0.00,0.00,0.00,0.00,0.00,0.00,0.00,0.00,0.00,0.00,0.00,0.00,0.00,0.00,0.00,0.00,0.00,0.00,0.00,0.00,0.00,0.00,0.00,0.00,0.00,0.00,0.00,0.00,0.00,0.00,1.00,0.00,0.00,0.00,0.00,0.00,0.00,0.00,0.00,0.00,0.00,0.00,0.00,0.00,0.00,0.00,?,?,?,?,?,?,?,?,?,0.00,0.00,0.00,0.00,0.00,0.00,0.00,0.00,?,?,?,0.00,0.00,1.00,0.50,1.00,0.00,1.00,1.00,0.00,0.00,0.00,0.00,0.00,0.00,0.00,0.00,0.00,0.00,0.00,0.00,0.00,0.00,0.00,0.00,0.00,1.00,1.00,1.00,0.00,1.00,1.00,0.00,0.00,?,?,?,0.00,0.00,0.00,0.00,0.00,0.00,0.00,0.00,0.00,0.00,0.00,0.00,0.00,0.00,0.00,0.00,0.00,0.00,0.00,0.00,1.00,1.00,1.00,0.00,0.00,0.00,0.00,0.00,0.00,0.00,0.00,0.00,?,?,?,?,?,?,?,?,?,?,?,?,?,?,?,?,?,?,?,?,?,?,?,?,?,0.00,0.00,0.00,0.00,0.00,0.00,0.00,0.00,0.00,0.00,0.00,0.00,1.00,0.00,1.00,0.00,0.00,0.00,0.00,0.00,0.00,0.00,0.00,0.00,0.00,0.00,0.00,0.00,0.00,0.00,0.00,0.00,0.00,0.00,0.00,0.00,1.00,0.00,0.00,0.00,0.00,0.00,0.00,0.00,0.00,0.00,0.00,0.00,0.00,0.00,0.00,0.00,0.00,?,?,?,?,?,?,?,?,?,?,?,?,?,?,?,?,?,?,?,?,?,?,?,?,?,0.00,0.00,0.00,0.00,0.00,0.00,0.00,0.00,0.00,0.00,0.00,0.00,0.00,0.00,0.00,0.00,0.00,0.00,0.00,0.00,0.00,0.00,0.00,0.00,0.00,0.00,0.00,0.00,0.00,0.00,0.00,0.00,0.00,0.00,0.00,0.00,0.00,0.00,0.00,0.00,0.00,0.00,0.00,0.00,0.00,0.00,0.00,0.00,0.00,0.00,0.00,0.00,0.00,0.00,0.00,0.00,0.00,0.00,0.00,0.00,0.00,?
Prediction from SVM:				0,1,0,0,0,1,0,0,0,0,0,0,0,0,0,0,0,0,0,0,0,0,0,0,0,0,0,0,1,0,0,0,0,0,0,0,0,0,0,0,0,0,0,0,0,0,0,0,0,0,0,0,0,0,0,0,0,0,0,0,0,0,0,0,0,0,0,0,0,0,0,1,1,0,0,0,0,0,0,0,0,0,0,0,0,0,0,0,0,0,0,0,0,0,0,0,0,0,0,0,0,0,0,0,0,0,0,0,0,1,0,0,0,0,0,0,0,0,0,0,0,0,0,0,0,0,0,0,0,0,1,0,0,0,0,0,0,0,0,0,0,0,0,0,0,0,0,0,0,0,0,0,0,0,1,1,0,0,0,0,0,0,0,0,0,0,0,0,0,0,0,0,0,0,0,0,0,0,0,0,0,0,0,0,0,0,1,0,1,0,0,0,0,0,0,0,0,0,0,0,0,0,0,0,0,0,0,0,0,0,0,0,0,0,0,0,0,0,0,0,0,0,0,0,0,0,0,0,0,0,0,1,1,1,0,1,0,0,0,0,0,0,0,0,0,0,0,0,0,0,0,0,0,0,0,0,0,0,0,0,0,0,0,0,0,0,0,0,0,0,0,0,1,0,1,0,0,0,0,0,0,0,0,0,0,0,0,0,0,0,0,0,0,0,0,0,0,0,0,0,0,0,0,0,0,0,0,0,0,0,0,0,0,0,0,0,0,0,0,0,0,0,0,0,0,0,0,0,0,0,0,0,0,0,0,0,0,0,0,0,0,0,0,1,1,0,0,0,0,0,0,0,1,0,0,0,0,0,0,0,0,0,0,0,0,0,0,0,0,0,0,0,0,0,0,0,0,0,0,0,0,0,0,0,0,0,0,0,0,0,0,0,0,0,0,0,0,0,0,0,0,0,0,0,1,1,0,0,0,0,0,0,0,0,0,0,0,0,0,0,0,0,0,0,0,0,0,0,0,0,0,0,0,0,0,0,0,0,0,0,0,0,0,0,0,0,0,0,0,0,0,0,0,0,0,0,0,0,0,0,0,0,0,0,0,0,0,0,0,0,0,0,0,0,0,0,0,0,0,0,0,0,0,0,0,0,0,0,0,0,0,0,0,0,0,0,0,0,0,0,0,0,0,0,0,0,0,0,0,0,0,0,0,0,0,0,0,0,0,0,0,0,0,0,0,0,0,0,0,0,0,0,0,0,0,0,0,0,0,0,0,0,0,0,0,0,0,0,0,0,0,0,0,0,0,0,0,0,0,0,0,0,0,0,0,0,0,0,0,1,0,1,0,0,0,0,0,0,0,0,0,0,0,0,0,0,0,0,0,0,0,0,0,0,0,0,0,0,0,0,1,0,1,0,0,0,0,0,0,0,0,0,0,0,0,0,0,0,0,0,0,0,0,0,0,1,0,0,0,0,0,0,0,0,0,0,0,0,0,0,0,0,0,0,0,0,0,0,0,1,0,0,0,0,0,0,0,0,0,0,0,0,0,0,0,0,0,0,0,0,0,0,0,1,0,1,0,0,0,0,0,0,0,0,0,0,0,0,0,0,0,0,0,0,0,0,0,1,0,0,0,0,0,0,0,0,0,0,0,0,0,0,0,0,0,0,0,0,0,0,0,0,0,0,0,0,0,0,0,0,0,0,0,0,0,0,0,0,0,0,0,0,0,0,0,0,0,0,0,0,0,0,0,0,0,0,0,0,0,0,0,0,0,0,0,0,0,0,0,0,0,0,0,0,0,0,0
Predicted score from SVM:			0.03,0.69,0.38,0.11,0.14,0.96,0.46,0.06,0.07,0.01,0.00,0.00,0.01,0.00,0.00,0.00,0.01,0.02,0.03,0.05,0.01,0.01,0.01,0.02,0.03,0.04,0.43,0.22,0.72,0.06,0.14,0.10,0.04,0.03,0.06,0.07,0.02,0.07,0.06,0.04,0.03,0.08,0.04,0.04,0.02,0.02,0.02,0.24,0.20,0.14,0.01,0.25,0.02,0.01,0.01,0.01,0.04,0.03,0.04,0.06,0.06,0.04,0.03,0.04,0.05,0.02,0.04,0.05,0.23,0.13,0.35,0.65,0.61,0.31,0.08,0.34,0.11,0.21,0.08,0.08,0.03,0.02,0.01,0.00,0.00,0.01,0.00,0.03,0.03,0.01,0.05,0.04,0.07,0.04,0.09,0.01,0.02,0.04,0.02,0.01,0.01,0.01,0.01,0.01,0.00,0.00,0.01,0.01,0.00,0.71,0.05,0.36,0.00,0.02,0.02,0.01,0.01,0.01,0.02,0.01,0.01,0.01,0.02,0.01,0.03,0.01,0.02,0.01,0.01,0.01,0.51,0.11,0.08,0.01,0.03,0.01,0.01,0.01,0.01,0.02,0.01,0.01,0.01,0.01,0.01,0.01,0.02,0.01,0.02,0.02,0.04,0.04,0.06,0.06,0.88,0.76,0.35,0.09,0.26,0.11,0.10,0.09,0.06,0.10,0.04,0.01,0.00,0.01,0.01,0.00,0.00,0.01,0.01,0.00,0.00,0.01,0.01,0.01,0.01,0.01,0.01,0.01,0.01,0.03,0.07,0.11,0.84,0.35,0.75,0.02,0.10,0.07,0.01,0.02,0.07,0.11,0.02,0.03,0.04,0.10,0.04,0.03,0.01,0.01,0.01,0.00,0.00,0.20,0.02,0.02,0.00,0.01,0.00,0.00,0.00,0.00,0.01,0.01,0.02,0.03,0.01,0.03,0.03,0.05,0.03,0.06,0.02,0.08,0.14,0.21,0.37,0.88,0.89,0.71,0.28,0.78,0.15,0.03,0.15,0.07,0.12,0.07,0.07,0.02,0.01,0.01,0.01,0.01,0.03,0.02,0.03,0.00,0.01,0.02,0.01,0.01,0.01,0.02,0.02,0.01,0.01,0.01,0.01,0.01,0.00,0.01,0.01,0.01,0.02,0.04,0.07,0.10,0.81,0.35,0.53,0.09,0.24,0.16,0.04,0.04,0.03,0.07,0.01,0.01,0.02,0.02,0.02,0.04,0.05,0.03,0.04,0.02,0.02,0.03,0.03,0.04,0.15,0.15,0.10,0.01,0.01,0.03,0.01,0.00,0.04,0.04,0.06,0.15,0.04,0.05,0.24,0.10,0.06,0.28,0.34,0.03,0.07,0.05,0.02,0.06,0.06,0.09,0.18,0.15,0.08,0.00,0.03,0.04,0.01,0.00,0.02,0.03,0.05,0.01,0.16,0.01,0.07,0.12,0.10,0.08,0.26,0.33,0.42,0.71,0.50,0.25,0.17,0.10,0.14,0.18,0.07,0.24,0.80,0.36,0.09,0.03,0.44,0.04,0.04,0.10,0.06,0.08,0.03,0.02,0.11,0.06,0.04,0.04,0.03,0.07,0.08,0.10,0.04,0.06,0.03,0.01,0.01,0.02,0.01,0.28,0.03,0.05,0.00,0.03,0.01,0.01,0.01,0.01,0.05,0.01,0.01,0.02,0.01,0.01,0.01,0.02,0.01,0.02,0.02,0.01,0.02,0.06,0.03,0.09,0.53,0.50,0.01,0.22,0.06,0.03,0.02,0.01,0.00,0.00,0.00,0.00,0.00,0.00,0.00,0.00,0.00,0.00,0.00,0.00,0.00,0.01,0.00,0.00,0.01,0.01,0.01,0.01,0.00,0.01,0.03,0.04,0.02,0.02,0.01,0.02,0.02,0.03,0.06,0.22,0.09,0.10,0.01,0.03,0.01,0.01,0.02,0.03,0.04,0.01,0.02,0.01,0.01,0.01,0.01,0.01,0.01,0.03,0.02,0.03,0.09,0.19,0.28,0.35,0.42,0.20,0.07,0.19,0.38,0.06,0.06,0.29,0.26,0.31,0.09,0.25,0.19,0.05,0.04,0.11,0.13,0.05,0.03,0.02,0.01,0.01,0.03,0.03,0.29,0.12,0.07,0.00,0.01,0.00,0.00,0.00,0.01,0.02,0.00,0.01,0.01,0.00,0.00,0.02,0.01,0.01,0.02,0.01,0.01,0.01,0.01,0.03,0.46,0.09,0.10,0.00,0.03,0.00,0.00,0.00,0.00,0.04,0.00,0.01,0.06,0.17,0.02,0.04,0.11,0.07,0.13,0.13,0.07,0.11,0.05,0.05,0.03,0.01,0.02,0.01,0.01,0.01,0.10,0.08,0.09,0.01,0.02,0.04,0.02,0.01,0.02,0.03,0.01,0.01,0.01,0.02,0.05,0.02,0.03,0.04,0.01,0.01,0.02,0.09,0.17,0.61,0.49,0.55,0.05,0.39,0.08,0.01,0.04,0.06,0.03,0.01,0.05,0.02,0.03,0.02,0.02,0.14,0.04,0.09,0.13,0.06,0.05,0.13,0.12,0.04,0.03,0.02,0.01,0.01,0.03,0.03,0.91,0.29,0.79,0.04,0.13,0.18,0.03,0.02,0.06,0.11,0.03,0.02,0.03,0.07,0.02,0.10,0.05,0.16,0.07,0.17,0.02,0.02,0.04,0.02,0.03,0.56,0.05,0.17,0.01,0.02,0.03,0.02,0.02,0.03,0.01,0.01,0.01,0.01,0.01,0.01,0.01,0.02,0.01,0.02,0.01,0.01,0.02,0.03,0.01,0.87,0.20,0.40,0.01,0.03,0.01,0.00,0.00,0.01,0.01,0.00,0.01,0.02,0.01,0.01,0.02,0.09,0.03,0.02,0.04,0.04,0.02,0.04,0.08,0.97,0.20,0.69,0.03,0.12,0.09,0.03,0.01,0.02,0.05,0.01,0.01,0.01,0.01,0.01,0.01,0.01,0.01,0.01,0.01,0.01,0.01,0.01,0.01,0.62,0.01,0.01,0.00,0.01,0.00,0.00,0.00,0.01,0.01,0.01,0.02,0.01,0.02,0.03,0.00,0.01,0.02,0.03,0.01,0.01,0.01,0.01,0.01,0.01,0.03,0.07,0.09,0.06,0.11,0.30,0.21,0.14,0.13,0.19,0.16,0.06,0.09,0.04,0.01,0.04,0.02,0.01,0.01,0.02,0.01,0.04,0.04,0.09,0.06,0.06,0.09,0.04,0.06,0.17,0.22,0.09,0.17,0.09,0.04,0.07,0.06,0.04,0.09,0.09,0.06,0.03,0.10,0.02,0.02,0.01,0.01,0.00,0.00,0.00,0.01,0.00,0.00,0.00,0.00
Prediction from RNABindRPlus:		0,0,0,0,0,1,0,0,0,0,0,0,0,0,0,0,0,0,0,0,0,0,0,0,0,0,1,0,1,0,0,0,0,0,0,0,0,0,0,0,0,0,0,0,0,0,0,0,0,0,0,0,0,0,0,0,0,0,0,0,0,0,0,0,0,0,0,0,0,0,0,1,1,0,0,0,0,0,0,0,0,0,0,0,0,0,0,0,0,0,0,0,0,0,0,0,0,0,0,0,0,0,0,0,0,0,0,0,0,1,0,1,0,0,0,0,0,0,0,0,0,0,0,0,0,0,0,0,0,0,1,0,0,0,0,0,0,0,0,0,0,0,0,0,0,0,0,0,0,0,0,0,0,0,0,0,0,0,0,0,0,0,0,0,0,0,0,0,0,0,0,0,0,0,0,0,0,0,0,0,0,0,0,0,0,0,0,0,0,0,0,0,0,0,0,0,0,0,0,0,0,0,0,0,0,0,0,0,0,0,0,0,0,0,0,0,0,0,0,0,0,0,0,0,0,0,0,0,0,0,0,0,0,0,0,0,0,0,0,0,0,0,0,0,0,0,0,0,0,0,0,0,0,0,0,0,0,0,0,0,0,0,0,0,0,0,0,0,0,0,0,0,0,0,0,0,0,0,0,0,0,0,0,0,0,0,0,0,0,0,0,0,0,0,0,0,0,0,0,0,0,0,0,0,0,0,0,0,0,0,0,0,0,0,0,0,0,0,0,0,0,0,0,0,0,0,0,0,0,0,0,0,0,0,0,0,0,0,0,0,0,0,0,0,0,0,0,0,0,0,0,0,0,0,0,0,0,0,0,0,0,0,0,0,0,0,0,0,0,0,0,0,0,0,0,0,0,0,0,0,0,0,0,0,0,0,0,0,0,0,0,0,0,0,0,0,0,0,0,0,0,0,0,0,0,0,0,0,0,0,0,0,0,0,0,0,0,0,0,0,0,0,0,0,0,0,0,0,0,0,0,0,0,0,0,0,0,0,0,0,0,0,0,0,0,0,0,0,0,0,0,0,0,0,0,0,0,0,0,0,0,0,0,0,0,0,0,0,0,0,0,0,0,0,0,0,0,0,0,0,0,0,0,0,0,0,0,0,0,0,0,0,0,0,0,0,0,0,0,0,0,0,0,0,0,0,0,0,0,0,0,0,0,0,0,0,0,0,0,0,0,0,0,0,0,0,0,0,0,0,0,0,0,0,0,0,0,0,0,0,0,0,0,0,0,0,0,0,0,0,0,0,0,0,0,0,0,0,0,0,0,0,0,0,0,0,0,0,0,1,1,1,0,1,0,0,0,0,0,0,0,0,0,0,0,0,0,0,0,0,0,0,0,0,0,0,0,0,0,0,1,0,1,0,0,0,0,0,0,0,0,0,0,0,0,0,0,0,0,0,0,0,0,0,0,0,0,0,0,0,0,0,0,0,0,0,0,0,0,0,0,0,0,0,0,0,0,0,0,1,0,1,0,0,0,0,0,0,0,0,0,0,0,0,0,0,0,0,0,0,0,0,0,1,0,0,0,0,0,0,0,0,0,0,0,0,0,0,0,0,0,0,0,0,0,0,0,0,0,0,0,0,0,0,0,0,0,0,0,0,0,0,0,0,0,0,0,0,0,0,0,0,0,0,0,0,0,0,0,0,0,0,0,0,0,0,0,0,0,0,0,0,0,0,0,0,0,0,0,0,0,0,0,0,0,0,0,0,0,0,0,0,0,0,0,0,0,0,0,0,0,0,0,0,0,0,0
Predicted score from RNABindRPlus:	0.01,0.29,0.07,0.02,0.02,0.65,0.10,0.01,0.01,0.01,0.01,0.01,0.01,0.01,0.01,0.01,0.01,0.01,0.01,0.01,0.01,0.01,0.01,0.01,0.01,0.01,0.65,0.02,0.90,0.01,0.01,0.01,0.01,0.01,0.01,0.01,0.01,0.01,0.01,0.01,0.01,0.01,0.01,0.01,0.01,0.01,0.01,0.39,0.34,0.27,0.01,0.41,0.01,0.01,0.01,0.01,0.01,0.01,0.01,0.01,0.01,0.01,0.01,0.01,0.01,0.01,0.01,0.01,0.02,0.01,0.03,0.86,0.83,0.49,0.01,0.06,0.02,0.03,0.01,0.01,0.01,0.01,0.15,0.01,0.01,0.01,0.01,0.01,0.01,0.01,0.01,0.01,0.01,0.01,0.02,0.01,0.01,0.01,0.01,0.01,0.01,0.01,0.01,0.01,0.01,0.01,0.01,0.01,0.01,0.90,0.19,0.56,0.01,0.16,0.01,0.01,0.01,0.01,0.01,0.01,0.01,0.01,0.01,0.01,0.01,0.01,0.01,0.01,0.01,0.01,0.74,0.01,0.01,0.01,0.01,0.01,0.01,0.01,0.01,0.01,0.01,0.01,0.01,0.01,0.01,0.01,0.01,0.01,0.01,0.01,0.01,0.01,0.01,0.01,0.37,0.23,0.03,0.01,0.02,0.01,0.01,0.01,0.01,0.01,0.01,0.01,0.01,0.01,0.01,0.01,0.01,0.01,0.01,0.01,0.01,0.01,0.01,0.01,0.01,0.01,0.01,0.01,0.01,0.01,0.01,0.01,0.32,0.03,0.22,0.01,0.01,0.01,0.01,0.01,0.01,0.02,0.01,0.01,0.01,0.01,0.01,0.01,0.01,0.01,0.01,0.01,0.01,0.01,0.01,0.01,0.01,0.01,0.01,0.01,0.01,0.01,0.01,0.01,0.01,0.01,0.01,0.01,0.01,0.01,0.01,0.01,0.01,0.01,0.01,0.01,0.03,0.37,0.38,0.19,0.02,0.25,0.01,0.01,0.01,0.01,0.01,0.01,0.01,0.01,0.01,0.01,0.01,0.01,0.01,0.01,0.01,0.01,0.01,0.01,0.01,0.01,0.01,0.01,0.01,0.01,0.01,0.01,0.01,0.01,0.01,0.01,0.01,0.01,0.01,0.01,0.01,0.01,0.29,0.03,0.08,0.01,0.02,0.01,0.01,0.01,0.01,0.01,0.01,0.01,0.01,0.01,0.01,0.01,0.01,0.01,0.01,0.01,0.01,0.01,0.01,0.01,0.01,0.01,0.01,0.01,0.01,0.01,0.01,0.01,0.01,0.01,0.01,0.01,0.01,0.01,0.02,0.01,0.01,0.02,0.03,0.01,0.01,0.01,0.01,0.01,0.01,0.01,0.01,0.01,0.01,0.01,0.01,0.01,0.01,0.01,0.01,0.01,0.01,0.01,0.02,0.01,0.01,0.01,0.01,0.01,0.02,0.03,0.04,0.19,0.07,0.02,0.01,0.01,0.01,0.01,0.01,0.02,0.27,0.03,0.01,0.01,0.05,0.01,0.01,0.01,0.01,0.01,0.01,0.01,0.01,0.01,0.01,0.01,0.01,0.01,0.01,0.01,0.01,0.01,0.01,0.01,0.01,0.01,0.01,0.02,0.01,0.01,0.01,0.01,0.01,0.01,0.01,0.01,0.01,0.01,0.01,0.01,0.01,0.01,0.01,0.01,0.01,0.01,0.01,0.01,0.01,0.01,0.01,0.01,0.08,0.07,0.01,0.02,0.01,0.01,0.01,0.01,0.01,0.01,0.01,0.01,0.01,0.01,0.01,0.01,0.01,0.01,0.01,0.01,0.01,0.01,0.01,0.01,0.01,0.01,0.01,0.01,0.01,0.01,0.01,0.01,0.01,0.01,0.01,0.01,0.01,0.01,0.01,0.02,0.01,0.01,0.01,0.01,0.01,0.01,0.01,0.01,0.01,0.01,0.01,0.01,0.01,0.01,0.01,0.01,0.01,0.01,0.01,0.01,0.01,0.01,0.02,0.03,0.04,0.01,0.01,0.01,0.04,0.01,0.01,0.02,0.02,0.03,0.01,0.02,0.01,0.01,0.01,0.01,0.01,0.01,0.01,0.01,0.01,0.01,0.01,0.01,0.02,0.01,0.01,0.01,0.01,0.01,0.01,0.01,0.01,0.01,0.01,0.01,0.01,0.01,0.01,0.01,0.15,0.01,0.01,0.01,0.01,0.01,0.01,0.01,0.06,0.01,0.01,0.01,0.01,0.01,0.01,0.01,0.01,0.01,0.01,0.01,0.01,0.02,0.01,0.01,0.02,0.01,0.01,0.01,0.01,0.01,0.01,0.01,0.01,0.01,0.01,0.01,0.01,0.01,0.23,0.04,0.22,0.01,0.16,0.18,0.01,0.01,0.01,0.01,0.01,0.01,0.01,0.01,0.01,0.01,0.01,0.01,0.01,0.01,0.01,0.01,0.01,0.83,0.72,0.78,0.01,0.60,0.21,0.01,0.01,0.01,0.01,0.01,0.01,0.01,0.01,0.01,0.01,0.01,0.01,0.01,0.01,0.01,0.01,0.01,0.01,0.01,0.01,0.01,0.01,0.01,0.01,0.01,0.96,0.46,0.93,0.01,0.01,0.01,0.01,0.01,0.01,0.01,0.01,0.01,0.01,0.01,0.01,0.02,0.01,0.02,0.01,0.02,0.01,0.01,0.01,0.01,0.01,0.17,0.01,0.02,0.01,0.01,0.01,0.01,0.01,0.01,0.01,0.01,0.01,0.01,0.01,0.01,0.01,0.01,0.01,0.01,0.01,0.01,0.01,0.01,0.01,0.95,0.01,0.61,0.01,0.01,0.01,0.01,0.01,0.01,0.01,0.01,0.01,0.01,0.01,0.01,0.01,0.01,0.01,0.01,0.01,0.01,0.01,0.01,0.01,0.97,0.01,0.17,0.01,0.01,0.01,0.01,0.01,0.01,0.01,0.01,0.01,0.01,0.01,0.01,0.01,0.01,0.01,0.01,0.01,0.01,0.01,0.01,0.01,0.22,0.01,0.01,0.01,0.01,0.01,0.01,0.01,0.01,0.01,0.01,0.01,0.01,0.01,0.01,0.01,0.01,0.01,0.01,0.01,0.01,0.01,0.01,0.01,0.01,0.01,0.01,0.01,0.01,0.01,0.02,0.01,0.01,0.01,0.01,0.01,0.01,0.01,0.01,0.01,0.01,0.01,0.01,0.01,0.01,0.01,0.01,0.01,0.01,0.01,0.01,0.01,0.01,0.01,0.01,0.02,0.01,0.01,0.01,0.01,0.01,0.01,0.01,0.01,0.01,0.01,0.01,0.01,0.01,0.01,0.01,0.01,0.01,0.01,0.01,0.01,0.01,0.01,0.01,0.01
    #Input sequence length: 185
#Number of binding residues predicted by HomPRIP: 8
#Number of binding residues predicted by SVM: 96
#Number of binding residues predicted by RNABindRPlus: 68
>B7NZS8_merged
sequence:							P,V,A,R,S,W,V,C,R,K,T,Y,V,T,P,R,R,P,F,E,K,S,R,L,D,Q,E,L,K,L,I,G,E,Y,G,L,R,N,K,R,E,V,W,R,V,K,F,T,L,A,K,I,R,K,A,A,R,E,L,L,T,L,D,E,K,D,P,R,R,L,F,E,G,N,A,L,L,R,R,L,V,R,I,G,V,L,D,E,G,K,M,K,L,D,Y,I,L,G,L,K,I,E,D,F,L,E,R,R,L,Q,T,Q,V,F,K,L,G,L,A,K,S,I,H,H,A,R,V,L,I,R,Q,R,H,I,R,V,R,K,Q,V,V,N,I,P,S,F,I,V,R,L,D,S,Q,K,H,I,D,F,S,L,R,S,P,Y,G,G,G,R,P,G,R,V,K,R,K,N,A,K,K,G,Q,G,G,A,G
Prediction from HomPRIP:			?,?,?,?,?,?,?,?,?,?,?,?,?,?,?,?,?,?,?,?,?,?,?,?,?,?,?,?,?,?,?,?,?,?,?,?,?,?,?,?,?,?,?,?,?,?,?,0,0,0,0,0,0,0,0,0,0,0,0,0,0,0,0,0,0,1,1,1,1,0,0,0,0,0,0,0,0,0,0,0,0,0,0,0,0,0,0,1,1,0,1,1,0,0,0,0,0,0,0,0,0,0,0,0,?,?,?,?,?,?,?,?,?,?,?,?,?,?,?,?,?,?,?,?,?,?,?,?,?,?,?,?,?,?,?,?,?,?,?,?,?,?,?,?,?,?,?,?,?,?,?,?,?,?,?,?,?,?,?,?,?,?,?,?,?,?,?,?,?,?,?,?,?,?,?,?,?,?,?,?,?,?,?,?,?
Predicted score from HomPRIP:		?,?,?,?,?,?,?,?,?,?,?,?,?,?,?,?,?,?,?,?,?,?,?,?,?,?,?,?,?,?,?,?,?,?,?,?,?,?,?,?,?,?,?,?,?,?,?,0.00,0.00,0.00,0.00,0.00,0.00,0.00,0.00,0.00,0.00,0.00,0.00,0.00,0.00,0.00,0.00,0.00,0.00,1.00,1.00,1.00,1.00,0.00,0.00,0.00,0.00,0.00,0.00,0.00,0.00,0.00,0.00,0.00,0.00,0.00,0.00,0.00,0.00,0.00,0.00,1.00,1.00,0.00,1.00,1.00,0.00,0.00,0.00,0.00,0.00,0.00,0.00,0.00,0.00,0.00,0.00,0.00,?,?,?,?,?,?,?,?,?,?,?,?,?,?,?,?,?,?,?,?,?,?,?,?,?,?,?,?,?,?,?,?,?,?,?,?,?,?,?,?,?,?,?,?,?,?,?,?,?,?,?,?,?,?,?,?,?,?,?,?,?,?,?,?,?,?,?,?,?,?,?,?,?,?,?,?,?,?,?,?,?
Prediction from SVM:				1,1,1,1,1,1,1,1,1,1,1,1,1,1,1,1,1,1,1,1,1,0,1,0,0,0,0,0,0,0,0,0,1,1,1,1,1,1,1,1,1,1,1,1,0,1,1,1,0,1,1,0,1,1,1,0,1,1,0,0,0,0,0,0,0,0,0,0,0,0,0,0,0,0,0,0,0,0,1,0,0,1,0,0,0,0,0,0,0,0,0,0,0,0,0,0,0,0,0,0,0,0,0,0,0,0,0,0,0,0,0,0,0,1,1,1,1,1,1,1,1,1,1,1,1,1,1,1,1,1,1,1,1,1,1,1,1,1,1,1,1,1,1,1,1,1,0,0,1,0,0,0,0,0,0,0,0,0,0,0,0,0,0,1,1,1,1,1,1,1,1,1,1,1,1,1,0,1,1,0,1,0,0,0,0
Predicted score from SVM:			1.00,0.99,1.00,1.00,1.00,1.00,1.00,1.00,1.00,1.00,0.99,0.96,1.00,0.99,0.99,1.00,1.00,0.99,0.99,0.89,0.77,0.36,0.87,0.17,0.02,0.10,0.02,0.01,0.05,0.09,0.02,0.12,0.69,0.80,0.88,0.96,1.00,0.98,0.99,1.00,0.87,0.50,0.92,0.96,0.17,0.92,0.99,0.83,0.30,0.94,0.97,0.25,0.92,0.95,0.67,0.30,0.87,0.57,0.11,0.29,0.06,0.03,0.01,0.00,0.00,0.00,0.00,0.01,0.01,0.00,0.04,0.19,0.01,0.19,0.28,0.03,0.01,0.47,0.63,0.03,0.14,0.66,0.03,0.03,0.01,0.01,0.01,0.02,0.01,0.01,0.02,0.01,0.01,0.01,0.01,0.01,0.01,0.01,0.01,0.02,0.00,0.01,0.02,0.01,0.02,0.07,0.48,0.39,0.05,0.24,0.19,0.20,0.14,0.59,0.92,0.95,0.97,0.73,0.71,1.00,1.00,0.96,1.00,1.00,0.97,1.00,0.99,0.97,0.99,1.00,1.00,0.99,1.00,0.95,1.00,0.94,0.98,0.99,1.00,1.00,0.97,1.00,0.97,0.99,0.99,0.98,0.21,0.06,0.55,0.00,0.00,0.00,0.00,0.01,0.01,0.00,0.00,0.01,0.03,0.00,0.33,0.23,0.34,0.65,0.79,0.83,0.76,0.97,0.97,0.95,0.98,0.60,0.76,0.84,0.86,0.60,0.35,0.99,0.69,0.36,0.55,0.43,0.37,0.03,0.20
Prediction from RNABindRPlus:		1,1,1,1,1,1,1,1,1,1,1,1,1,1,1,1,1,1,1,1,0,0,1,0,0,0,0,0,0,0,0,0,0,0,1,1,1,1,1,1,1,0,1,1,0,1,1,0,0,0,0,0,0,0,0,0,0,0,0,0,0,0,0,0,0,0,0,0,0,0,0,0,0,0,0,0,0,0,0,0,0,0,0,0,0,0,0,0,0,0,0,0,0,0,0,0,0,0,0,0,0,0,0,0,0,0,0,0,0,0,0,0,0,0,1,1,1,0,0,1,1,1,1,1,1,1,1,1,1,1,1,1,1,1,1,1,1,1,1,1,1,1,1,1,1,1,0,0,0,0,0,0,0,0,0,0,0,0,0,0,0,0,0,0,0,0,0,1,1,1,1,0,0,0,1,0,0,1,0,0,0,0,0,0,0
Predicted score from RNABindRPlus:	0.70,0.69,0.70,0.70,0.70,0.70,0.70,0.70,0.70,0.70,0.69,0.65,0.70,0.69,0.69,0.70,0.70,0.69,0.69,0.56,0.39,0.06,0.53,0.02,0.01,0.02,0.01,0.01,0.01,0.02,0.01,0.02,0.29,0.43,0.54,0.65,0.70,0.68,0.69,0.70,0.53,0.13,0.60,0.65,0.02,0.60,0.69,0.31,0.02,0.45,0.49,0.02,0.42,0.46,0.16,0.02,0.36,0.10,0.01,0.02,0.01,0.01,0.01,0.01,0.01,0.15,0.15,0.15,0.15,0.01,0.01,0.01,0.01,0.01,0.02,0.01,0.01,0.06,0.13,0.01,0.01,0.15,0.01,0.01,0.01,0.01,0.01,0.16,0.15,0.01,0.16,0.15,0.01,0.01,0.01,0.01,0.01,0.01,0.01,0.01,0.01,0.01,0.01,0.01,0.01,0.01,0.11,0.07,0.01,0.03,0.03,0.03,0.02,0.19,0.60,0.64,0.66,0.34,0.32,0.70,0.70,0.65,0.70,0.70,0.66,0.70,0.69,0.66,0.69,0.70,0.70,0.69,0.70,0.64,0.70,0.62,0.68,0.69,0.70,0.70,0.66,0.70,0.66,0.69,0.69,0.68,0.03,0.01,0.16,0.01,0.01,0.01,0.01,0.01,0.01,0.01,0.01,0.01,0.01,0.01,0.05,0.03,0.06,0.25,0.42,0.47,0.38,0.66,0.66,0.64,0.68,0.20,0.38,0.49,0.52,0.20,0.06,0.69,0.29,0.06,0.16,0.09,0.07,0.01,0.03
    #Input sequence length: 117
#Number of binding residues predicted by HomPRIP: 20
#Number of binding residues predicted by SVM: 19
#Number of binding residues predicted by RNABindRPlus: 12
>G1SFR8_merged
sequence:							V,N,T,A,L,Q,E,V,L,K,T,A,L,I,H,D,G,L,A,R,G,I,R,E,A,A,K,A,L,D,K,R,Q,A,H,L,C,V,L,A,S,N,C,D,E,P,M,Y,V,K,L,V,E,A,L,C,A,E,H,Q,I,N,L,I,K,V,D,D,N,K,K,L,G,E,W,V,G,L,C,K,I,D,R,E,G,K,P,R,K,V,V,G,C,S,C,V,V,V,K,D,Y,G,K,E,S,Q,A,K,D,V,I,E,E,Y,F,K,C
Prediction from HomPRIP:			?,?,?,?,?,?,?,?,?,?,?,?,?,?,?,?,?,0,1,1,1,1,1,1,0,0,1,0,0,0,1,0,0,0,0,0,0,0,0,0,0,1,1,1,1,0,0,1,0,0,0,0,0,0,0,0,0,0,0,0,0,0,0,0,0,0,0,0,1,0,0,0,0,0,0,0,0,1,?,?,?,?,?,?,?,?,?,?,0,1,1,1,1,1,0,0,0,0,0,0,?,?,?,?,0,0,0,0,0,0,0,0,0,0,0,0,?
Predicted score from HomPRIP:		?,?,?,?,?,?,?,?,?,?,?,?,?,?,?,?,?,0.00,1.00,1.00,0.67,0.67,1.00,1.00,0.33,0.00,1.00,0.00,0.00,0.33,1.00,0.00,0.00,0.00,0.00,0.00,0.00,0.00,0.00,0.00,0.00,0.67,0.67,0.67,0.67,0.00,0.00,0.67,0.00,0.00,0.00,0.00,0.00,0.00,0.00,0.00,0.00,0.00,0.00,0.00,0.00,0.00,0.00,0.00,0.00,0.00,0.00,0.00,0.67,0.00,0.00,0.00,0.00,0.00,0.00,0.00,0.00,0.67,?,?,?,?,?,?,?,?,?,?,0.00,0.67,0.67,0.67,0.67,0.67,0.00,0.00,0.00,0.00,0.00,0.00,?,?,?,?,0.00,0.00,0.00,0.00,0.00,0.00,0.00,0.00,0.00,0.00,0.00,0.00,?
Prediction from SVM:				0,0,1,0,0,0,0,0,0,1,1,0,1,1,1,1,1,1,1,1,1,1,1,1,1,0,1,0,0,0,0,0,0,0,0,0,0,0,0,0,0,0,0,0,0,0,0,0,0,0,0,0,0,0,0,0,0,0,0,0,0,0,0,0,0,0,0,0,0,0,0,0,0,0,0,0,0,0,0,0,0,0,0,0,0,0,0,0,0,0,0,0,0,0,1,0,0,0,1,0,0,0,0,0,0,0,0,0,0,0,0,0,0,0,0,0,0
Predicted score from SVM:			0.00,0.00,0.82,0.01,0.00,0.16,0.49,0.01,0.01,0.70,0.80,0.48,0.96,0.71,0.98,0.96,0.96,0.72,0.90,1.00,0.95,0.65,0.99,0.99,0.81,0.32,0.85,0.14,0.17,0.04,0.13,0.08,0.15,0.05,0.22,0.00,0.04,0.00,0.00,0.00,0.01,0.01,0.00,0.00,0.01,0.01,0.00,0.00,0.00,0.01,0.00,0.01,0.04,0.01,0.02,0.02,0.04,0.02,0.04,0.07,0.01,0.03,0.01,0.01,0.12,0.01,0.04,0.02,0.40,0.20,0.14,0.07,0.12,0.12,0.09,0.02,0.02,0.04,0.10,0.06,0.03,0.03,0.29,0.08,0.05,0.04,0.01,0.03,0.09,0.08,0.11,0.33,0.41,0.36,0.51,0.10,0.10,0.07,0.54,0.08,0.10,0.08,0.23,0.25,0.26,0.29,0.02,0.03,0.02,0.01,0.00,0.00,0.01,0.05,0.00,0.00,0.03
Prediction from RNABindRPlus:		0,0,0,0,0,0,0,0,0,0,0,0,1,0,1,1,1,0,1,1,1,1,1,1,1,0,1,0,0,0,0,0,0,0,0,0,0,0,0,0,0,0,0,0,0,0,0,0,0,0,0,0,0,0,0,0,0,0,0,0,0,0,0,0,0,0,0,0,0,0,0,0,0,0,0,0,0,0,0,0,0,0,0,0,0,0,0,0,0,0,0,0,0,0,0,0,0,0,0,0,0,0,0,0,0,0,0,0,0,0,0,0,0,0,0,0,0
Predicted score from RNABindRPlus:	0.01,0.01,0.46,0.01,0.01,0.02,0.12,0.01,0.01,0.31,0.43,0.11,0.65,0.32,0.68,0.65,0.65,0.19,0.96,0.98,0.91,0.65,0.98,0.98,0.57,0.03,0.95,0.01,0.01,0.02,0.26,0.01,0.01,0.01,0.02,0.01,0.01,0.01,0.01,0.01,0.01,0.05,0.05,0.05,0.05,0.01,0.01,0.05,0.01,0.01,0.01,0.01,0.01,0.01,0.01,0.01,0.01,0.01,0.01,0.01,0.01,0.01,0.01,0.01,0.01,0.01,0.01,0.01,0.32,0.01,0.01,0.01,0.01,0.01,0.01,0.01,0.01,0.06,0.02,0.01,0.01,0.01,0.04,0.01,0.01,0.01,0.01,0.01,0.01,0.07,0.09,0.24,0.33,0.28,0.07,0.01,0.01,0.01,0.08,0.01,0.02,0.01,0.03,0.04,0.02,0.02,0.01,0.01,0.01,0.01,0.01,0.01,0.01,0.01,0.01,0.01,0.01
    #Input sequence length: 142
#Number of binding residues predicted by HomPRIP: 53
#Number of binding residues predicted by SVM: 71
#Number of binding residues predicted by RNABindRPlus: 55
>G1SGX4_merged
sequence:							G,P,L,Q,S,V,Q,V,F,G,R,K,K,T,A,T,A,V,A,H,C,K,R,G,N,G,L,I,K,V,N,G,R,P,L,E,M,I,E,P,R,T,L,Q,Y,K,L,L,E,P,V,L,L,L,G,K,E,R,F,A,G,V,D,I,R,V,R,V,K,G,G,G,H,V,A,Q,I,Y,A,I,R,Q,S,I,S,K,A,L,V,A,Y,Y,Q,K,Y,V,D,E,A,S,K,K,E,I,K,D,I,L,I,Q,Y,D,R,T,L,L,V,A,D,P,R,R,C,E,S,K,K,F,G,G,P,G,A,R,A,R,Y,Q,K,S,Y,R
Prediction from HomPRIP:			?,?,?,?,?,?,?,?,?,0,1,1,1,1,0,1,0,1,0,1,0,1,0,0,0,0,0,0,0,0,0,0,0,0,0,0,1,0,1,1,1,0,1,0,0,0,0,0,0,0,?,?,0,0,0,0,0,0,0,0,0,0,0,0,1,0,1,0,1,1,1,1,1,1,1,1,0,0,0,0,0,0,0,0,0,1,0,0,0,0,0,0,0,0,0,?,?,?,?,?,1,0,0,0,1,0,0,?,?,?,?,?,?,0,0,1,1,1,1,1,1,1,1,1,1,1,1,1,1,1,1,1,1,1,1,1,1,1,1,1,1,1
Predicted score from HomPRIP:		?,?,?,?,?,?,?,?,?,0.00,1.00,0.97,1.00,1.00,0.03,1.00,0.00,1.00,0.00,0.97,0.00,0.97,0.00,0.00,0.00,0.00,0.00,0.00,0.00,0.00,0.24,0.03,0.39,0.00,0.00,0.00,0.97,0.03,1.00,1.00,1.00,0.00,0.95,0.00,0.00,0.00,0.00,0.00,0.00,0.00,?,?,0.00,0.00,0.00,0.00,0.00,0.00,0.00,0.00,0.00,0.00,0.00,0.00,0.97,0.00,0.82,0.21,1.00,1.00,1.00,1.00,1.00,1.00,1.00,1.00,0.00,0.00,0.00,0.00,0.00,0.00,0.00,0.00,0.00,0.97,0.00,0.00,0.00,0.00,0.00,0.00,0.00,0.00,0.00,?,?,?,?,?,0.97,0.00,0.00,0.00,1.00,0.00,0.00,?,?,?,?,?,?,0.00,0.00,1.00,1.00,1.00,0.53,1.00,1.00,1.00,1.00,1.00,1.00,1.00,1.00,1.00,1.00,1.00,0.97,1.00,1.00,1.00,1.00,1.00,1.00,1.00,1.00,1.00,1.00,1.00
Prediction from SVM:				1,1,0,1,1,1,1,1,1,1,1,1,1,1,1,1,1,1,1,1,1,1,1,1,1,1,1,1,1,0,1,1,1,1,0,0,0,0,0,0,0,0,0,0,0,0,0,0,0,0,0,0,0,0,0,0,0,0,0,0,0,0,0,0,0,0,1,0,1,1,1,1,1,1,1,1,0,0,0,0,1,1,1,0,0,1,0,0,0,0,0,0,0,0,0,0,0,0,0,0,0,0,0,0,0,0,0,0,0,0,0,0,0,1,0,0,0,1,1,1,1,1,1,1,1,1,1,1,1,1,1,1,1,1,1,1,1,1,1,1,1,1
Predicted score from SVM:			0.99,0.99,0.34,1.00,1.00,0.84,1.00,0.99,1.00,0.99,1.00,1.00,1.00,1.00,1.00,1.00,0.97,0.99,0.90,0.99,0.58,0.98,0.95,0.89,0.98,0.74,0.94,0.75,0.95,0.22,0.61,0.90,0.69,0.57,0.19,0.35,0.10,0.04,0.03,0.03,0.04,0.01,0.01,0.05,0.01,0.24,0.00,0.02,0.03,0.02,0.02,0.01,0.01,0.00,0.00,0.01,0.01,0.02,0.01,0.02,0.03,0.00,0.04,0.01,0.43,0.01,0.72,0.09,0.94,0.60,0.92,0.87,0.93,0.78,0.88,0.98,0.07,0.22,0.18,0.06,0.51,0.68,0.69,0.27,0.25,0.98,0.05,0.03,0.02,0.04,0.12,0.01,0.01,0.01,0.10,0.02,0.01,0.02,0.01,0.02,0.09,0.01,0.03,0.00,0.06,0.05,0.00,0.01,0.02,0.07,0.10,0.03,0.28,0.63,0.09,0.13,0.46,0.60,0.87,0.95,1.00,1.00,0.99,1.00,1.00,1.00,1.00,1.00,1.00,1.00,1.00,1.00,1.00,1.00,1.00,1.00,1.00,1.00,1.00,1.00,1.00,1.00
Prediction from RNABindRPlus:		1,1,0,1,1,0,1,1,1,1,1,1,1,1,1,1,0,1,0,1,0,1,0,0,1,0,0,0,0,0,0,0,0,0,0,0,0,0,0,0,0,0,0,0,0,0,0,0,0,0,0,0,0,0,0,0,0,0,0,0,0,0,0,0,1,0,1,0,1,1,1,1,1,1,1,1,0,0,0,0,0,0,0,0,0,1,0,0,0,0,0,0,0,0,0,0,0,0,0,0,0,0,0,0,0,0,0,0,0,0,0,0,0,0,0,0,1,1,1,1,1,1,1,1,1,1,1,1,1,1,1,1,1,1,1,1,1,1,1,1,1,1
Predicted score from RNABindRPlus:	0.69,0.69,0.06,0.70,0.70,0.49,0.70,0.69,0.70,0.52,0.98,0.97,0.98,0.98,0.56,0.98,0.49,0.98,0.40,0.97,0.10,0.97,0.46,0.38,0.51,0.21,0.45,0.22,0.46,0.02,0.24,0.42,0.46,0.10,0.01,0.03,0.21,0.01,0.17,0.17,0.18,0.01,0.13,0.01,0.01,0.02,0.01,0.01,0.01,0.01,0.01,0.01,0.01,0.01,0.01,0.01,0.01,0.01,0.01,0.01,0.01,0.01,0.01,0.01,0.62,0.01,0.83,0.02,0.97,0.83,0.96,0.95,0.97,0.93,0.96,0.97,0.01,0.02,0.01,0.01,0.07,0.16,0.17,0.02,0.02,0.97,0.01,0.01,0.01,0.01,0.01,0.01,0.01,0.01,0.01,0.01,0.01,0.01,0.01,0.01,0.20,0.01,0.01,0.01,0.19,0.01,0.01,0.01,0.01,0.01,0.02,0.01,0.04,0.13,0.01,0.26,0.69,0.83,0.79,0.97,0.98,0.98,0.98,0.98,0.98,0.98,0.98,0.98,0.98,0.98,0.97,0.98,0.98,0.98,0.98,0.98,0.98,0.98,0.98,0.98,0.98,0.98
    #Input sequence length: 100
#Number of binding residues predicted by HomPRIP: 38
#Number of binding residues predicted by SVM: 45
#Number of binding residues predicted by RNABindRPlus: 41
>G1SIZ2_merged
sequence:							H,R,I,R,I,T,L,T,S,R,N,V,K,S,L,E,K,V,C,A,D,L,I,R,G,A,K,E,K,N,L,K,V,K,G,P,V,R,M,P,T,K,T,L,R,I,T,T,R,K,T,P,C,G,E,G,S,K,T,W,D,R,F,Q,M,R,I,H,K,R,L,I,D,L,H,S,P,S,E,I,V,K,Q,I,T,S,I,S,I,E,P,G,V,E,V,E,V,T,I,A
Prediction from HomPRIP:			?,0,0,1,0,1,0,1,0,0,0,1,0,0,0,1,0,0,0,0,0,0,0,0,0,0,1,0,0,0,0,0,1,1,1,1,1,1,1,1,1,1,1,1,1,0,1,0,1,1,1,1,1,?,1,1,1,1,1,1,1,1,0,0,0,1,0,1,0,1,1,0,1,0,0,0,0,0,0,0,0,0,0,0,0,0,0,0,0,0,0,0,0,0,0,0,0,?,?,?
Predicted score from HomPRIP:		?,0.03,0.00,1.00,0.00,0.97,0.00,0.97,0.00,0.00,0.00,1.00,0.26,0.00,0.00,1.00,0.00,0.00,0.00,0.00,0.00,0.00,0.00,0.00,0.00,0.00,0.50,0.00,0.00,0.00,0.00,0.34,1.00,1.00,1.00,0.97,1.00,1.00,1.00,1.00,1.00,1.00,1.00,1.00,0.95,0.00,1.00,0.00,0.87,1.00,1.00,1.00,1.00,?,1.00,1.00,1.00,0.68,1.00,0.97,0.95,0.97,0.00,0.05,0.00,0.68,0.00,1.00,0.42,0.97,0.87,0.00,1.00,0.00,0.05,0.00,0.00,0.00,0.00,0.00,0.00,0.00,0.00,0.00,0.00,0.00,0.00,0.00,0.00,0.00,0.00,0.00,0.00,0.00,0.00,0.45,0.00,?,?,?
Prediction from SVM:				1,1,1,1,1,1,1,1,1,1,1,1,1,0,0,1,1,0,0,0,0,0,0,0,0,0,0,0,0,0,0,1,1,1,1,1,1,1,1,1,1,1,1,0,0,0,1,0,1,1,1,1,1,1,1,1,1,1,1,1,1,1,0,0,0,1,0,1,1,0,0,0,0,0,0,0,0,0,0,0,0,0,0,0,0,0,0,0,0,0,0,0,0,0,0,0,0,0,0,0
Predicted score from SVM:			1.00,1.00,0.92,1.00,0.85,1.00,0.98,1.00,0.99,0.99,0.89,0.79,0.84,0.47,0.03,0.50,0.81,0.08,0.05,0.17,0.13,0.01,0.04,0.14,0.06,0.01,0.07,0.04,0.33,0.29,0.08,0.99,0.99,1.00,0.98,0.99,0.63,0.96,0.88,0.88,0.69,0.86,0.78,0.19,0.46,0.03,0.57,0.11,0.92,0.97,0.62,0.97,0.98,0.94,0.94,0.92,0.97,0.96,0.96,0.94,0.66,0.95,0.27,0.42,0.23,0.97,0.04,0.76,0.51,0.20,0.03,0.04,0.29,0.03,0.01,0.07,0.01,0.01,0.23,0.00,0.00,0.01,0.01,0.01,0.01,0.10,0.01,0.02,0.01,0.01,0.00,0.00,0.00,0.00,0.00,0.01,0.00,0.01,0.00,0.00
Prediction from RNABindRPlus:		1,1,0,1,0,1,1,1,1,1,0,1,1,0,0,1,0,0,0,0,0,0,0,0,0,0,0,0,0,0,0,1,1,1,1,1,1,1,1,1,1,1,1,0,1,0,1,0,1,1,1,1,1,1,1,1,1,1,1,1,1,1,0,0,0,1,0,1,0,0,0,0,0,0,0,0,0,0,0,0,0,0,0,0,0,0,0,0,0,0,0,0,0,0,0,0,0,0,0,0
Predicted score from RNABindRPlus:	0.70,0.56,0.42,0.98,0.33,0.97,0.51,0.97,0.52,0.52,0.38,0.93,0.55,0.06,0.01,0.73,0.29,0.01,0.01,0.01,0.01,0.01,0.01,0.01,0.01,0.01,0.04,0.01,0.03,0.02,0.01,0.79,0.98,0.98,0.97,0.97,0.85,0.97,0.96,0.96,0.89,0.95,0.93,0.33,0.65,0.01,0.80,0.01,0.95,0.97,0.84,0.97,0.97,0.62,0.97,0.96,0.97,0.92,0.97,0.96,0.85,0.97,0.02,0.05,0.02,0.92,0.01,0.92,0.26,0.32,0.11,0.01,0.46,0.01,0.01,0.01,0.01,0.01,0.02,0.01,0.01,0.01,0.01,0.01,0.01,0.01,0.01,0.01,0.01,0.01,0.01,0.01,0.01,0.01,0.01,0.02,0.01,0.01,0.01,0.01
    #Input sequence length: 313
#Number of binding residues predicted by HomPRIP: 0
#Number of binding residues predicted by SVM: 107
#Number of binding residues predicted by RNABindRPlus: 23
>G1SJB4_merged
sequence:							T,E,Q,M,T,L,R,G,T,L,K,G,H,N,G,W,V,T,Q,I,A,T,T,P,Q,F,P,D,M,I,L,S,A,S,R,D,K,T,I,I,M,W,K,L,T,R,D,E,T,N,Y,G,I,P,Q,R,A,L,R,G,H,S,H,F,V,S,D,V,V,I,S,S,D,G,Q,F,A,L,S,G,S,W,D,G,T,L,R,L,W,D,L,T,T,G,T,T,T,R,R,F,V,G,H,T,K,D,V,L,S,V,A,F,S,S,D,N,R,Q,I,V,S,G,S,R,D,K,T,I,K,L,W,N,T,L,G,V,C,K,Y,T,V,Q,D,E,S,H,S,E,W,V,S,C,V,R,F,S,P,N,S,S,N,P,I,I,V,S,C,G,W,D,K,L,V,K,V,W,N,L,A,N,C,K,L,K,T,N,H,I,G,H,T,G,Y,L,N,T,V,T,V,S,P,D,G,S,L,C,A,S,G,G,K,D,G,Q,A,M,L,W,D,L,N,E,G,K,H,L,Y,T,L,D,G,G,D,I,I,N,A,L,C,F,S,P,N,R,Y,W,L,C,A,A,T,G,P,S,I,K,I,W,D,L,E,G,K,I,I,V,D,E,L,K,Q,E,V,I,S,T,S,S,K,A,E,P,P,Q,C,T,S,L,A,W,S,A,D,G,Q,T,L,F,A,G,Y,T,D,N,L,V,R,V,W,Q,V,T,I
Prediction from HomPRIP:			?????????????????????????????????????????????????????????????????????????????????????????????????????????????????????????????????????????????????????????????????????????????????????????????????????????????????????????????????????????????????????????????????????????????????????????????????????????????????????????
Predicted score from HomPRIP:		?,?,?,?,?,?,?,?,?,?,?,?,?,?,?,?,?,?,?,?,?,?,?,?,?,?,?,?,?,?,?,?,?,?,?,?,?,?,?,?,?,?,?,?,?,?,?,?,?,?,?,?,?,?,?,?,?,?,?,?,?,?,?,?,?,?,?,?,?,?,?,?,?,?,?,?,?,?,?,?,?,?,?,?,?,?,?,?,?,?,?,?,?,?,?,?,?,?,?,?,?,?,?,?,?,?,?,?,?,?,?,?,?,?,?,?,?,?,?,?,?,?,?,?,?,?,?,?,?,?,?,?,?,?,?,?,?,?,?,?,?,?,?,?,?,?,?,?,?,?,?,?,?,?,?,?,?,?,?,?,?,?,?,?,?,?,?,?,?,?,?,?,?,?,?,?,?,?,?,?,?,?,?,?,?,?,?,?,?,?,?,?,?,?,?,?,?,?,?,?,?,?,?,?,?,?,?,?,?,?,?,?,?,?,?,?,?,?,?,?,?,?,?,?,?,?,?,?,?,?,?,?,?,?,?,?,?,?,?,?,?,?,?,?,?,?,?,?,?,?,?,?,?,?,?,?,?,?,?,?,?,?,?,?,?,?,?,?,?,?,?,?,?,?,?,?,?,?,?,?,?,?,?,?,?,?,?,?,?,?,?,?,?,?,?,?,?,?,?,?,?,?,?,?,?,?,?,?,?,?,?,?,?
Prediction from SVM:				0,0,0,0,0,0,1,0,0,0,1,1,1,1,0,0,0,1,0,0,0,0,0,0,0,0,0,0,0,0,0,0,1,1,1,1,1,1,0,0,0,1,0,0,0,0,0,0,0,0,0,0,0,0,0,1,0,0,1,1,1,1,0,0,0,0,0,0,0,0,0,0,0,0,1,0,0,0,1,1,1,1,1,1,1,0,0,0,0,0,0,0,0,0,0,0,0,0,1,0,1,1,1,1,1,0,1,0,1,1,1,0,1,1,1,0,1,1,1,1,1,1,1,1,1,1,1,1,1,0,0,0,0,0,0,0,0,0,0,0,0,0,0,0,0,0,0,0,0,0,1,1,1,1,1,1,1,1,0,1,1,1,0,0,0,1,1,1,1,1,1,0,0,1,0,0,0,0,0,0,1,1,0,0,0,0,0,0,1,1,0,0,0,0,0,0,0,0,0,1,1,1,1,1,1,0,1,1,1,1,1,0,1,1,0,0,0,0,0,0,0,0,0,0,0,0,0,0,0,0,0,0,0,0,0,0,0,0,0,1,1,0,1,1,1,1,0,0,0,0,0,0,1,1,0,0,0,0,0,0,0,0,1,0,0,0,0,0,0,0,0,0,0,0,0,0,0,0,0,0,0,0,0,0,0,0,0,0,1,0,1,0,0,0,1,0,0,1,0,1,1,1,1,1,0,0,1,0,0,0,0,1,0
Predicted score from SVM:			0.01,0.00,0.04,0.00,0.20,0.01,0.72,0.31,0.45,0.41,0.81,0.56,0.51,0.54,0.42,0.30,0.19,0.55,0.27,0.09,0.09,0.06,0.17,0.04,0.10,0.07,0.04,0.14,0.05,0.09,0.06,0.43,0.72,0.90,0.97,0.96,0.92,0.95,0.37,0.17,0.01,0.53,0.15,0.00,0.03,0.07,0.07,0.01,0.07,0.07,0.03,0.04,0.07,0.02,0.48,0.81,0.42,0.30,0.89,0.60,0.69,0.54,0.40,0.29,0.18,0.34,0.09,0.18,0.09,0.07,0.28,0.49,0.34,0.16,0.72,0.46,0.18,0.13,0.59,0.64,0.76,0.56,0.74,0.88,0.80,0.06,0.38,0.01,0.23,0.04,0.04,0.20,0.29,0.43,0.43,0.08,0.34,0.45,0.58,0.33,0.59,0.62,0.79,0.52,0.51,0.38,0.64,0.35,0.61,0.78,0.56,0.22,0.83,0.76,0.61,0.45,0.99,0.88,0.54,0.58,0.84,0.94,0.94,0.99,0.96,0.97,0.96,0.84,0.96,0.04,0.45,0.21,0.14,0.08,0.04,0.17,0.02,0.03,0.01,0.01,0.00,0.01,0.02,0.23,0.12,0.26,0.35,0.26,0.23,0.17,0.66,0.52,0.61,0.73,0.58,0.63,0.70,0.64,0.44,0.57,0.61,0.59,0.12,0.21,0.38,0.83,0.72,0.88,0.82,0.85,0.83,0.30,0.26,0.56,0.02,0.14,0.10,0.11,0.32,0.38,0.50,0.57,0.02,0.24,0.17,0.28,0.14,0.34,0.54,0.56,0.23,0.12,0.19,0.06,0.25,0.13,0.25,0.31,0.10,0.72,0.60,0.55,0.59,0.97,0.71,0.33,0.83,0.86,0.77,0.67,0.92,0.38,0.71,0.77,0.36,0.46,0.03,0.46,0.09,0.03,0.14,0.09,0.27,0.23,0.04,0.02,0.11,0.09,0.07,0.21,0.17,0.40,0.08,0.09,0.07,0.41,0.32,0.18,0.23,0.56,0.59,0.48,0.50,0.75,0.79,0.56,0.25,0.34,0.49,0.41,0.31,0.25,0.71,0.56,0.35,0.39,0.02,0.08,0.04,0.03,0.05,0.08,0.51,0.02,0.00,0.00,0.00,0.00,0.00,0.02,0.01,0.00,0.01,0.01,0.00,0.02,0.01,0.02,0.10,0.09,0.07,0.04,0.03,0.02,0.03,0.09,0.21,0.33,0.51,0.36,0.68,0.45,0.49,0.37,0.85,0.29,0.12,0.56,0.40,0.57,0.70,0.50,0.66,0.59,0.32,0.14,0.66,0.01,0.14,0.30,0.04,0.89,0.02
Prediction from RNABindRPlus:		0,0,0,0,0,0,0,0,0,0,0,0,0,0,0,0,0,0,0,0,0,0,0,0,0,0,0,0,0,0,0,0,0,1,1,1,1,1,0,0,0,0,0,0,0,0,0,0,0,0,0,0,0,0,0,0,0,0,1,0,0,0,0,0,0,0,0,0,0,0,0,0,0,0,0,0,0,0,0,0,0,0,0,1,0,0,0,0,0,0,0,0,0,0,0,0,0,0,0,0,0,0,0,0,0,0,0,0,0,0,0,0,0,0,0,0,1,1,0,0,0,1,1,1,1,1,1,0,1,0,0,0,0,0,0,0,0,0,0,0,0,0,0,0,0,0,0,0,0,0,0,0,0,0,0,0,0,0,0,0,0,0,0,0,0,0,0,1,0,1,0,0,0,0,0,0,0,0,0,0,0,0,0,0,0,0,0,0,0,0,0,0,0,0,0,0,0,0,0,0,0,0,0,1,0,0,0,1,0,0,1,0,0,0,0,0,0,0,0,0,0,0,0,0,0,0,0,0,0,0,0,0,0,0,0,0,0,0,0,0,0,0,0,0,0,0,0,0,0,0,0,0,0,0,0,0,0,0,0,0,0,0,0,0,0,0,0,0,0,0,0,0,0,0,0,0,0,0,0,0,0,0,0,0,0,0,0,0,0,0,0,0,0,0,1,0,0,0,0,0,0,0,0,0,0,0,0,0,0,0,0,1,0
Predicted score from RNABindRPlus:	0.01,0.01,0.01,0.01,0.03,0.01,0.33,0.05,0.10,0.08,0.45,0.17,0.13,0.15,0.09,0.05,0.03,0.16,0.04,0.02,0.02,0.01,0.02,0.01,0.02,0.01,0.01,0.02,0.01,0.02,0.01,0.09,0.33,0.57,0.66,0.65,0.60,0.64,0.07,0.02,0.01,0.15,0.02,0.01,0.01,0.01,0.01,0.01,0.01,0.01,0.01,0.01,0.01,0.01,0.11,0.45,0.09,0.05,0.56,0.20,0.29,0.15,0.08,0.04,0.02,0.06,0.02,0.02,0.02,0.01,0.04,0.12,0.06,0.02,0.33,0.10,0.02,0.02,0.19,0.24,0.38,0.17,0.35,0.54,0.43,0.01,0.07,0.01,0.03,0.01,0.01,0.03,0.04,0.09,0.09,0.01,0.06,0.10,0.19,0.05,0.19,0.22,0.42,0.14,0.13,0.07,0.24,0.06,0.21,0.41,0.17,0.03,0.47,0.38,0.21,0.10,0.69,0.54,0.15,0.19,0.49,0.62,0.62,0.69,0.65,0.66,0.65,0.49,0.65,0.01,0.10,0.03,0.02,0.01,0.01,0.02,0.01,0.01,0.01,0.01,0.01,0.01,0.01,0.03,0.02,0.04,0.06,0.04,0.03,0.02,0.26,0.14,0.21,0.34,0.19,0.23,0.31,0.24,0.09,0.18,0.21,0.19,0.02,0.03,0.07,0.47,0.33,0.54,0.46,0.50,0.47,0.05,0.04,0.17,0.01,0.02,0.02,0.02,0.05,0.07,0.13,0.18,0.01,0.03,0.02,0.04,0.02,0.06,0.15,0.17,0.03,0.02,0.03,0.01,0.04,0.02,0.04,0.05,0.02,0.33,0.20,0.16,0.19,0.66,0.32,0.05,0.47,0.52,0.39,0.27,0.60,0.07,0.32,0.39,0.06,0.10,0.01,0.10,0.02,0.01,0.02,0.02,0.04,0.03,0.01,0.01,0.02,0.02,0.01,0.03,0.02,0.08,0.01,0.02,0.01,0.08,0.05,0.02,0.03,0.17,0.19,0.11,0.13,0.37,0.42,0.17,0.04,0.06,0.12,0.08,0.05,0.04,0.32,0.17,0.06,0.07,0.01,0.01,0.01,0.01,0.01,0.01,0.13,0.01,0.01,0.01,0.01,0.01,0.01,0.01,0.01,0.01,0.01,0.01,0.01,0.01,0.01,0.01,0.02,0.02,0.01,0.01,0.01,0.01,0.01,0.02,0.03,0.05,0.13,0.06,0.28,0.10,0.12,0.07,0.50,0.04,0.02,0.17,0.08,0.18,0.31,0.13,0.26,0.19,0.05,0.02,0.26,0.01,0.02,0.05,0.01,0.56,0.01
    #Input sequence length: 68
#Number of binding residues predicted by HomPRIP: 17
#Number of binding residues predicted by SVM: 37
#Number of binding residues predicted by RNABindRPlus: 34
>G1SK22_merged
sequence:							K,S,Y,T,T,P,K,K,N,K,H,K,R,K,K,V,K,L,A,V,L,K,Y,Y,K,V,D,E,N,G,K,I,S,R,L,R,R,E,C,P,S,D,E,C,G,A,G,V,F,M,A,S,H,F,D,R,H,Y,C,G,K,C,C,L,T,Y,C,F
Prediction from HomPRIP:			?,0,0,0,0,0,0,1,1,1,0,0,0,0,?,1,1,0,1,1,1,1,1,0,0,0,0,0,0,1,1,1,1,1,1,1,0,0,0,?,?,?,?,?,?,?,?,?,?,?,?,?,?,?,?,?,?,?,?,?,?,?,?,?,?,?,?,?
Predicted score from HomPRIP:		?,0.00,0.00,0.00,0.00,0.00,0.00,1.00,1.00,1.00,0.00,0.00,0.33,0.00,?,1.00,1.00,0.00,1.00,1.00,1.00,0.50,0.83,0.00,0.00,0.00,0.00,0.00,0.17,1.00,1.00,1.00,0.83,1.00,0.83,1.00,0.00,0.00,0.00,?,?,?,?,?,?,?,?,?,?,?,?,?,?,?,?,?,?,?,?,?,?,?,?,?,?,?,?,?
Prediction from SVM:				1,1,1,1,1,1,1,1,1,1,1,1,1,1,1,1,1,1,1,1,1,1,0,0,0,0,0,0,0,0,0,0,0,0,0,0,0,0,1,0,0,0,0,1,0,0,0,0,0,0,0,0,1,1,0,1,1,1,1,1,1,1,1,1,1,1,0,0
Predicted score from SVM:			1.00,1.00,1.00,1.00,1.00,1.00,1.00,1.00,1.00,1.00,1.00,1.00,1.00,1.00,1.00,1.00,1.00,0.99,0.99,0.66,0.89,0.97,0.48,0.38,0.40,0.06,0.10,0.07,0.28,0.11,0.05,0.04,0.13,0.28,0.15,0.45,0.29,0.26,0.55,0.33,0.33,0.10,0.46,0.68,0.24,0.03,0.13,0.02,0.09,0.04,0.04,0.40,0.60,0.75,0.41,0.81,0.95,0.85,0.94,0.98,1.00,1.00,1.00,0.91,0.98,1.00,0.01,0.14
Prediction from RNABindRPlus:		1,1,1,1,1,1,1,1,1,1,1,1,1,1,1,1,1,1,1,1,1,1,1,0,0,0,0,0,0,0,0,0,0,0,0,1,0,0,0,0,0,0,0,0,0,0,0,0,0,0,0,0,0,0,0,0,1,1,1,1,1,1,1,1,1,1,0,0
Predicted score from RNABindRPlus:	0.70,0.53,0.53,0.53,0.53,0.53,0.53,0.98,0.98,0.98,0.53,0.53,0.79,0.53,0.70,0.98,0.98,0.52,0.98,0.87,0.96,0.86,0.57,0.04,0.04,0.01,0.01,0.01,0.04,0.24,0.19,0.18,0.16,0.45,0.18,0.68,0.02,0.02,0.09,0.05,0.05,0.02,0.10,0.28,0.03,0.01,0.02,0.01,0.02,0.01,0.01,0.08,0.20,0.37,0.08,0.45,0.64,0.50,0.62,0.68,0.70,0.70,0.70,0.58,0.68,0.70,0.01,0.02
    #Input sequence length: 149
#Number of binding residues predicted by HomPRIP: 0
#Number of binding residues predicted by SVM: 86
#Number of binding residues predicted by RNABindRPlus: 55
>G1SP51_merged
sequence:							G,R,M,H,A,P,G,K,G,L,S,Q,S,A,L,P,Y,R,R,S,V,P,T,W,L,K,L,T,S,D,D,V,K,E,Q,I,Y,K,L,A,K,K,G,L,T,P,S,Q,I,G,V,I,L,R,D,S,H,G,V,A,Q,V,R,F,V,T,G,N,K,I,L,R,I,L,K,S,K,G,L,A,P,D,L,P,E,D,L,Y,H,L,I,K,K,A,V,A,V,R,K,H,L,E,R,N,R,K,D,K,D,A,K,F,R,L,I,L,I,E,S,R,I,H,R,L,A,R,Y,Y,K,T,K,R,V,L,P,P,N,W,K,Y,E,S,S,T,A,S,A,L,V
Prediction from HomPRIP:			?????????????????????????????????????????????????????????????????????????????????????????????????????????????????????????????????????????????????????
Predicted score from HomPRIP:		?,?,?,?,?,?,?,?,?,?,?,?,?,?,?,?,?,?,?,?,?,?,?,?,?,?,?,?,?,?,?,?,?,?,?,?,?,?,?,?,?,?,?,?,?,?,?,?,?,?,?,?,?,?,?,?,?,?,?,?,?,?,?,?,?,?,?,?,?,?,?,?,?,?,?,?,?,?,?,?,?,?,?,?,?,?,?,?,?,?,?,?,?,?,?,?,?,?,?,?,?,?,?,?,?,?,?,?,?,?,?,?,?,?,?,?,?,?,?,?,?,?,?,?,?,?,?,?,?,?,?,?,?,?,?,?,?,?,?,?,?,?,?,?,?,?,?,?,?
Prediction from SVM:				1,1,1,1,1,1,1,1,1,1,1,1,1,1,1,1,1,1,1,1,1,1,0,0,0,0,0,0,0,0,0,0,0,0,0,0,0,0,0,0,0,0,0,0,1,1,1,1,0,1,0,0,0,1,1,1,1,1,1,1,1,0,1,0,0,1,1,1,1,0,0,1,0,0,0,0,0,0,0,0,0,0,0,0,0,0,0,0,1,0,0,1,1,0,0,1,1,1,1,1,1,1,1,1,1,1,1,1,1,1,1,1,1,1,1,1,1,1,1,1,0,1,1,1,1,1,1,1,1,1,1,1,1,1,1,1,1,1,0,0,0,0,0,0,0,0,0,0,0
Predicted score from SVM:			1.00,1.00,1.00,1.00,1.00,1.00,1.00,1.00,1.00,1.00,1.00,1.00,1.00,1.00,1.00,0.99,0.98,0.92,0.94,0.74,0.56,0.52,0.09,0.21,0.03,0.02,0.05,0.06,0.03,0.01,0.02,0.00,0.01,0.00,0.01,0.00,0.01,0.07,0.01,0.05,0.08,0.39,0.24,0.36,0.67,0.74,0.64,0.70,0.43,0.77,0.17,0.16,0.42,0.95,0.66,0.62,0.88,0.65,0.59,0.63,0.60,0.14,0.91,0.05,0.31,0.53,0.72,0.90,0.96,0.26,0.29,0.54,0.06,0.02,0.12,0.01,0.24,0.03,0.02,0.02,0.24,0.25,0.02,0.17,0.43,0.32,0.01,0.09,0.54,0.04,0.01,0.59,0.58,0.09,0.42,0.98,0.83,0.99,0.99,0.99,0.87,0.89,0.99,1.00,0.99,1.00,0.96,0.99,1.00,0.97,0.99,0.99,0.99,0.69,0.83,0.97,0.59,0.92,1.00,1.00,0.46,1.00,1.00,0.93,0.83,1.00,0.99,0.98,0.99,0.98,0.78,0.96,0.90,0.51,0.76,0.78,0.60,0.63,0.41,0.42,0.07,0.03,0.00,0.00,0.00,0.03,0.00,0.00,0.00
Prediction from RNABindRPlus:		1,1,1,1,1,1,1,1,1,1,1,1,1,1,1,1,1,1,1,0,0,0,0,0,0,0,0,0,0,0,0,0,0,0,0,0,0,0,0,0,0,0,0,0,0,0,0,0,0,0,0,0,0,1,0,0,1,0,0,0,0,0,1,0,0,0,0,1,1,0,0,0,0,0,0,0,0,0,0,0,0,0,0,0,0,0,0,0,0,0,0,0,0,0,0,1,0,1,1,1,1,1,1,1,1,1,1,1,1,1,1,1,1,0,0,1,0,1,1,1,0,1,1,1,0,1,1,1,1,1,0,1,1,0,0,0,0,0,0,0,0,0,0,0,0,0,0,0,0
Predicted score from RNABindRPlus:	0.70,0.70,0.70,0.70,0.70,0.70,0.70,0.70,0.70,0.70,0.70,0.70,0.70,0.70,0.70,0.69,0.68,0.60,0.62,0.35,0.17,0.14,0.02,0.03,0.01,0.01,0.01,0.01,0.01,0.01,0.01,0.01,0.01,0.01,0.01,0.01,0.01,0.01,0.01,0.01,0.01,0.07,0.03,0.06,0.27,0.35,0.24,0.31,0.09,0.39,0.02,0.02,0.09,0.64,0.26,0.22,0.54,0.25,0.19,0.23,0.20,0.02,0.58,0.01,0.05,0.15,0.33,0.57,0.65,0.04,0.04,0.15,0.01,0.01,0.02,0.01,0.03,0.01,0.01,0.01,0.03,0.04,0.01,0.02,0.09,0.05,0.01,0.02,0.15,0.01,0.01,0.19,0.19,0.02,0.09,0.68,0.47,0.69,0.69,0.69,0.53,0.56,0.69,0.70,0.69,0.70,0.65,0.69,0.70,0.66,0.69,0.69,0.69,0.29,0.47,0.66,0.19,0.60,0.70,0.70,0.10,0.70,0.70,0.61,0.47,0.70,0.69,0.68,0.69,0.68,0.41,0.65,0.57,0.13,0.38,0.41,0.20,0.23,0.08,0.09,0.01,0.01,0.01,0.01,0.01,0.01,0.01,0.01,0.01
    #Input sequence length: 213
#Number of binding residues predicted by HomPRIP: 0
#Number of binding residues predicted by SVM: 103
#Number of binding residues predicted by RNABindRPlus: 68
>G1SS70_merged
sequence:							V,V,D,P,F,S,K,K,D,W,Y,D,V,K,A,P,A,M,F,N,I,R,N,I,G,K,T,L,V,T,R,T,Q,G,T,K,I,A,S,D,G,L,K,G,R,V,F,E,V,S,L,A,D,L,Q,N,D,E,V,A,F,R,K,F,K,L,I,T,E,D,V,Q,G,K,N,C,L,T,N,F,H,G,M,D,L,T,R,D,K,M,C,S,M,V,K,K,W,Q,T,M,I,E,A,H,V,D,V,K,T,T,D,G,Y,L,L,R,L,F,C,V,G,F,T,K,K,R,N,N,Q,I,R,K,T,S,Y,A,Q,H,Q,Q,V,R,Q,I,R,K,K,M,M,E,I,M,T,R,E,V,Q,T,N,D,L,K,E,V,V,N,K,L,I,P,D,S,I,G,K,D,I,E,K,A,C,Q,S,I,Y,P,L,H,D,V,F,V,R,K,V,K,M,L,K,K,P,K,F,E,L,G,K,L,M,E,L,H,G
Prediction from HomPRIP:			?????????????????????????????????????????????????????????????????????????????????????????????????????????????????????????????????????????????????????????????????????????????????????????????????????????????????????
Predicted score from HomPRIP:		?,?,?,?,?,?,?,?,?,?,?,?,?,?,?,?,?,?,?,?,?,?,?,?,?,?,?,?,?,?,?,?,?,?,?,?,?,?,?,?,?,?,?,?,?,?,?,?,?,?,?,?,?,?,?,?,?,?,?,?,?,?,?,?,?,?,?,?,?,?,?,?,?,?,?,?,?,?,?,?,?,?,?,?,?,?,?,?,?,?,?,?,?,?,?,?,?,?,?,?,?,?,?,?,?,?,?,?,?,?,?,?,?,?,?,?,?,?,?,?,?,?,?,?,?,?,?,?,?,?,?,?,?,?,?,?,?,?,?,?,?,?,?,?,?,?,?,?,?,?,?,?,?,?,?,?,?,?,?,?,?,?,?,?,?,?,?,?,?,?,?,?,?,?,?,?,?,?,?,?,?,?,?,?,?,?,?,?,?,?,?,?,?,?,?,?,?,?,?,?,?,?,?,?,?,?,?,?,?,?,?,?,?
Prediction from SVM:				0,0,0,1,1,0,1,1,0,0,0,0,0,1,0,1,0,0,0,0,0,1,1,0,0,1,1,0,1,1,1,1,1,1,1,1,1,1,1,1,1,1,1,0,1,0,0,0,0,0,0,0,0,0,0,0,0,0,0,0,0,0,0,0,0,0,0,0,0,0,0,0,0,1,1,0,0,0,1,0,1,0,0,0,0,1,1,1,1,0,1,1,1,1,1,1,1,1,1,1,0,1,0,0,0,0,0,0,0,0,0,0,0,0,0,0,0,0,0,0,0,1,1,1,1,1,1,1,1,1,1,1,1,1,1,1,1,1,1,1,1,1,1,1,1,1,1,1,1,1,0,0,0,0,0,0,0,1,1,0,0,0,0,0,0,0,0,0,0,0,0,0,0,0,1,0,0,0,1,0,0,1,1,1,1,1,1,1,1,1,1,1,1,1,0,1,1,1,1,1,1,1,1,1,0,1,1,0,0,0,0,1,0
Predicted score from SVM:			0.00,0.00,0.07,0.56,0.52,0.15,0.99,0.77,0.00,0.03,0.06,0.15,0.01,0.92,0.26,0.83,0.20,0.11,0.24,0.30,0.14,0.94,0.74,0.19,0.16,0.88,0.99,0.41,0.81,0.99,1.00,0.98,0.98,0.96,1.00,1.00,0.84,0.74,0.98,0.96,0.97,0.53,0.90,0.33,0.76,0.01,0.04,0.26,0.00,0.23,0.01,0.14,0.37,0.03,0.15,0.08,0.01,0.09,0.02,0.01,0.09,0.14,0.09,0.00,0.38,0.02,0.01,0.00,0.03,0.03,0.04,0.25,0.05,0.53,0.65,0.07,0.26,0.27,0.94,0.32,0.93,0.32,0.42,0.19,0.22,0.52,0.94,0.98,0.99,0.24,0.94,0.98,0.79,0.50,1.00,1.00,0.81,0.86,0.94,0.78,0.35,0.83,0.34,0.39,0.04,0.30,0.06,0.44,0.11,0.29,0.03,0.10,0.04,0.01,0.00,0.49,0.02,0.30,0.08,0.14,0.24,0.77,0.89,0.99,0.98,0.99,0.93,0.99,0.96,0.92,0.99,0.99,1.00,0.99,1.00,1.00,1.00,1.00,1.00,1.00,0.97,1.00,0.99,0.90,0.99,1.00,1.00,0.63,0.73,0.68,0.15,0.08,0.04,0.17,0.16,0.02,0.45,0.62,0.57,0.13,0.00,0.39,0.23,0.00,0.00,0.05,0.38,0.01,0.01,0.14,0.19,0.18,0.10,0.07,0.81,0.05,0.00,0.01,0.56,0.05,0.05,0.90,0.55,0.88,0.94,0.98,0.62,0.93,0.98,0.67,0.87,0.95,1.00,0.87,0.43,0.96,0.64,0.68,0.98,0.99,0.92,0.97,0.89,0.56,0.02,0.56,0.68,0.00,0.10,0.01,0.00,0.55,0.00
Prediction from RNABindRPlus:		0,0,0,0,0,0,1,0,0,0,0,0,0,1,0,0,0,0,0,0,0,1,0,0,0,1,1,0,0,1,1,1,1,1,1,1,0,0,1,1,1,0,1,0,0,0,0,0,0,0,0,0,0,0,0,0,0,0,0,0,0,0,0,0,0,0,0,0,0,0,0,0,0,0,0,0,0,0,1,0,1,0,0,0,0,0,1,1,1,0,1,1,0,0,1,1,0,1,1,0,0,0,0,0,0,0,0,0,0,0,0,0,0,0,0,0,0,0,0,0,0,0,1,1,1,1,1,1,1,1,1,1,1,1,1,1,1,1,1,1,1,1,1,1,1,1,1,0,0,0,0,0,0,0,0,0,0,0,0,0,0,0,0,0,0,0,0,0,0,0,0,0,0,0,0,0,0,0,0,0,0,1,0,1,1,1,0,1,1,0,1,1,1,1,0,1,0,0,1,1,1,1,1,0,0,0,0,0,0,0,0,0,0
Predicted score from RNABindRPlus:	0.01,0.01,0.01,0.17,0.14,0.02,0.69,0.39,0.01,0.01,0.01,0.02,0.01,0.60,0.04,0.47,0.03,0.02,0.03,0.05,0.02,0.62,0.35,0.03,0.02,0.54,0.69,0.08,0.45,0.69,0.70,0.68,0.68,0.65,0.70,0.70,0.49,0.35,0.68,0.65,0.66,0.15,0.57,0.05,0.38,0.01,0.01,0.04,0.01,0.03,0.01,0.02,0.07,0.01,0.02,0.01,0.01,0.02,0.01,0.01,0.02,0.02,0.02,0.01,0.07,0.01,0.01,0.01,0.01,0.01,0.01,0.04,0.01,0.15,0.25,0.01,0.04,0.04,0.62,0.05,0.61,0.05,0.09,0.03,0.03,0.14,0.62,0.68,0.69,0.03,0.62,0.68,0.42,0.13,0.70,0.70,0.45,0.52,0.62,0.41,0.06,0.47,0.06,0.07,0.01,0.05,0.01,0.09,0.02,0.04,0.01,0.02,0.01,0.01,0.01,0.12,0.01,0.05,0.01,0.02,0.03,0.39,0.56,0.69,0.68,0.69,0.61,0.69,0.65,0.60,0.69,0.69,0.70,0.69,0.70,0.70,0.70,0.70,0.70,0.70,0.66,0.70,0.69,0.57,0.69,0.70,0.70,0.23,0.34,0.28,0.02,0.01,0.01,0.02,0.02,0.01,0.10,0.22,0.18,0.02,0.01,0.07,0.03,0.01,0.01,0.01,0.07,0.01,0.01,0.02,0.03,0.02,0.02,0.01,0.45,0.01,0.01,0.01,0.17,0.01,0.01,0.57,0.16,0.54,0.62,0.68,0.22,0.61,0.68,0.27,0.53,0.64,0.70,0.53,0.09,0.65,0.24,0.28,0.68,0.69,0.60,0.66,0.56,0.17,0.01,0.17,0.28,0.01,0.02,0.01,0.01,0.16,0.01
    #Input sequence length: 185
#Number of binding residues predicted by HomPRIP: 0
#Number of binding residues predicted by SVM: 33
#Number of binding residues predicted by RNABindRPlus: 19
>G1SVB0_merged
sequence:							A,K,I,V,K,P,N,G,E,K,P,D,E,F,E,S,G,I,S,Q,A,L,L,E,L,E,M,N,S,D,L,K,A,Q,L,R,E,L,N,I,T,A,A,K,E,I,E,V,G,G,G,R,K,A,I,I,I,F,V,P,V,P,Q,L,K,S,F,Q,K,I,Q,V,R,L,V,R,E,L,E,K,K,F,S,G,K,H,V,V,F,I,A,Q,R,R,I,L,P,K,P,T,R,K,S,K,Q,K,R,P,R,S,R,T,L,T,A,V,H,D,A,I,L,E,D,L,V,F,P,S,E,I,V,G,K,R,I,R,V,K,L,D,G,S,R,L,I,K,V,H,L,D,K,A,Q,Q,N,N,V,E,H,K,V,E,T,F,S,G,V,Y,K,K,L,T,G,K,D,V,N,F,E,F,P,E,F,Q,L
Prediction from HomPRIP:			?????????????????????????????????????????????????????????????????????????????????????????????????????????????????????????????????????????????????????????????????????????????????????????
Predicted score from HomPRIP:		?,?,?,?,?,?,?,?,?,?,?,?,?,?,?,?,?,?,?,?,?,?,?,?,?,?,?,?,?,?,?,?,?,?,?,?,?,?,?,?,?,?,?,?,?,?,?,?,?,?,?,?,?,?,?,?,?,?,?,?,?,?,?,?,?,?,?,?,?,?,?,?,?,?,?,?,?,?,?,?,?,?,?,?,?,?,?,?,?,?,?,?,?,?,?,?,?,?,?,?,?,?,?,?,?,?,?,?,?,?,?,?,?,?,?,?,?,?,?,?,?,?,?,?,?,?,?,?,?,?,?,?,?,?,?,?,?,?,?,?,?,?,?,?,?,?,?,?,?,?,?,?,?,?,?,?,?,?,?,?,?,?,?,?,?,?,?,?,?,?,?,?,?,?,?,?,?,?,?,?,?,?,?,?,?
Prediction from SVM:				1,1,0,1,1,0,0,0,0,0,0,0,0,0,0,0,0,0,0,0,0,0,0,0,0,0,0,0,0,0,0,0,0,0,0,0,0,0,0,0,0,0,0,0,0,0,0,0,0,0,0,0,0,0,0,0,0,0,0,0,0,0,0,0,0,0,0,1,1,0,0,0,1,0,0,1,0,0,0,0,0,0,0,0,0,0,0,0,0,0,0,0,0,1,0,0,1,1,1,1,1,1,1,1,1,1,1,1,1,1,1,1,1,1,0,0,0,0,0,0,0,0,0,0,0,0,0,0,0,0,0,0,0,0,0,0,0,1,0,1,0,1,1,0,0,0,0,0,0,0,0,0,0,0,0,0,0,0,0,0,0,0,0,0,0,0,0,0,0,1,0,0,0,1,0,0,0,0,0,0,0,0,0,0,0
Predicted score from SVM:			1.00,1.00,0.19,0.71,0.87,0.17,0.08,0.20,0.10,0.10,0.14,0.14,0.01,0.01,0.02,0.01,0.03,0.00,0.00,0.01,0.00,0.00,0.00,0.01,0.00,0.01,0.01,0.04,0.07,0.02,0.03,0.04,0.02,0.02,0.02,0.08,0.03,0.02,0.11,0.01,0.07,0.09,0.08,0.07,0.05,0.05,0.07,0.09,0.14,0.21,0.21,0.43,0.41,0.12,0.09,0.17,0.12,0.37,0.47,0.37,0.08,0.35,0.18,0.23,0.45,0.19,0.15,0.56,0.59,0.08,0.14,0.36,0.56,0.17,0.07,0.60,0.33,0.04,0.13,0.07,0.26,0.13,0.15,0.16,0.28,0.05,0.05,0.17,0.03,0.11,0.07,0.45,0.25,0.55,0.27,0.25,0.51,0.93,0.97,0.94,0.99,0.98,0.98,0.98,0.95,0.99,1.00,0.98,0.94,0.94,0.96,0.75,0.67,0.67,0.45,0.15,0.07,0.02,0.04,0.01,0.01,0.00,0.01,0.01,0.01,0.01,0.04,0.03,0.12,0.02,0.01,0.01,0.04,0.31,0.04,0.28,0.25,0.88,0.33,0.52,0.48,0.81,0.91,0.35,0.06,0.45,0.04,0.08,0.01,0.06,0.07,0.05,0.04,0.02,0.01,0.02,0.00,0.00,0.01,0.01,0.00,0.01,0.02,0.02,0.04,0.07,0.11,0.03,0.48,0.76,0.10,0.14,0.34,0.59,0.18,0.01,0.04,0.01,0.03,0.00,0.00,0.00,0.00,0.00,0.00
Prediction from RNABindRPlus:		1,1,0,0,1,0,0,0,0,0,0,0,0,0,0,0,0,0,0,0,0,0,0,0,0,0,0,0,0,0,0,0,0,0,0,0,0,0,0,0,0,0,0,0,0,0,0,0,0,0,0,0,0,0,0,0,0,0,0,0,0,0,0,0,0,0,0,0,0,0,0,0,0,0,0,0,0,0,0,0,0,0,0,0,0,0,0,0,0,0,0,0,0,0,0,0,0,1,1,1,1,1,1,1,1,1,1,1,1,1,1,0,0,0,0,0,0,0,0,0,0,0,0,0,0,0,0,0,0,0,0,0,0,0,0,0,0,1,0,0,0,0,1,0,0,0,0,0,0,0,0,0,0,0,0,0,0,0,0,0,0,0,0,0,0,0,0,0,0,0,0,0,0,0,0,0,0,0,0,0,0,0,0,0,0
Predicted score from RNABindRPlus:	0.70,0.70,0.03,0.32,0.53,0.02,0.01,0.03,0.02,0.02,0.02,0.02,0.01,0.01,0.01,0.01,0.01,0.01,0.01,0.01,0.01,0.01,0.01,0.01,0.01,0.01,0.01,0.01,0.01,0.01,0.01,0.01,0.01,0.01,0.01,0.01,0.01,0.01,0.02,0.01,0.01,0.02,0.01,0.01,0.01,0.01,0.01,0.02,0.02,0.03,0.03,0.09,0.08,0.02,0.02,0.02,0.02,0.07,0.11,0.07,0.01,0.06,0.02,0.03,0.10,0.03,0.02,0.17,0.19,0.01,0.02,0.06,0.17,0.02,0.01,0.20,0.05,0.01,0.02,0.01,0.04,0.02,0.02,0.02,0.04,0.01,0.01,0.02,0.01,0.02,0.01,0.10,0.04,0.16,0.04,0.04,0.13,0.61,0.66,0.62,0.69,0.68,0.68,0.68,0.64,0.69,0.70,0.68,0.62,0.62,0.65,0.37,0.27,0.27,0.10,0.02,0.01,0.01,0.01,0.01,0.01,0.01,0.01,0.01,0.01,0.01,0.01,0.01,0.02,0.01,0.01,0.01,0.01,0.05,0.01,0.04,0.04,0.54,0.05,0.14,0.11,0.45,0.58,0.06,0.01,0.10,0.01,0.01,0.01,0.01,0.01,0.01,0.01,0.01,0.01,0.01,0.01,0.01,0.01,0.01,0.01,0.01,0.01,0.01,0.01,0.01,0.02,0.01,0.11,0.38,0.02,0.02,0.06,0.19,0.02,0.01,0.01,0.01,0.01,0.01,0.01,0.01,0.01,0.01,0.01
    #Input sequence length: 57
#Number of binding residues predicted by HomPRIP: 0
#Number of binding residues predicted by SVM: 50
#Number of binding residues predicted by RNABindRPlus: 41
>G1T8A2_merged
sequence:							H,G,S,L,A,R,V,G,K,V,R,G,Q,T,L,K,V,A,K,Q,E,K,K,K,K,R,T,G,R,A,K,R,R,M,Q,Y,N,R,R,F,V,N,V,V,P,T,F,G,K,K,K,G,P,N,A,N,S
Prediction from HomPRIP:			?????????????????????????????????????????????????????????
Predicted score from HomPRIP:		?,?,?,?,?,?,?,?,?,?,?,?,?,?,?,?,?,?,?,?,?,?,?,?,?,?,?,?,?,?,?,?,?,?,?,?,?,?,?,?,?,?,?,?,?,?,?,?,?,?,?,?,?,?,?,?,?
Prediction from SVM:				1,1,1,1,1,1,1,1,1,1,1,0,1,0,1,1,0,0,0,0,0,1,1,1,1,1,1,1,1,1,1,1,1,1,1,1,1,1,1,1,1,1,1,1,1,1,1,1,1,1,1,1,1,1,1,1,1
Predicted score from SVM:			1.00,1.00,1.00,1.00,1.00,1.00,0.98,0.95,0.99,0.76,0.95,0.42,0.86,0.43,0.63,0.55,0.01,0.03,0.18,0.14,0.29,0.57,0.95,0.96,0.92,0.82,0.89,0.98,0.99,0.94,0.92,0.98,0.98,0.96,0.98,0.99,0.98,0.99,0.99,0.97,0.68,0.99,0.65,0.70,0.76,0.91,0.97,0.99,1.00,1.00,1.00,1.00,1.00,1.00,1.00,1.00,1.00
Prediction from RNABindRPlus:		1,1,1,1,1,1,1,1,1,0,1,0,1,0,0,0,0,0,0,0,0,0,1,1,1,0,1,1,1,1,1,1,1,1,1,1,1,1,1,1,0,1,0,0,0,1,1,1,1,1,1,1,1,1,1,1,1
Predicted score from RNABindRPlus:	0.70,0.70,0.70,0.70,0.70,0.70,0.68,0.64,0.69,0.38,0.64,0.09,0.52,0.09,0.23,0.16,0.01,0.01,0.02,0.02,0.04,0.18,0.64,0.65,0.60,0.46,0.56,0.68,0.69,0.62,0.60,0.68,0.68,0.65,0.68,0.69,0.68,0.69,0.69,0.66,0.28,0.69,0.25,0.31,0.38,0.58,0.66,0.69,0.70,0.70,0.70,0.70,0.70,0.70,0.70,0.70,0.70
    #Input sequence length: 77
#Number of binding residues predicted by HomPRIP: 24
#Number of binding residues predicted by SVM: 24
#Number of binding residues predicted by RNABindRPlus: 16
>G1TDB3_merged
sequence:							K,V,R,D,K,L,N,N,L,V,L,F,D,K,A,T,Y,D,K,L,C,K,E,V,P,N,Y,K,L,I,T,P,A,V,V,S,E,R,L,K,I,R,G,S,L,A,R,A,A,L,Q,E,L,L,S,K,G,L,I,K,L,V,S,K,H,R,A,Q,V,I,Y,T,R,N,T,K,G
Prediction from HomPRIP:			0,0,0,0,0,0,0,0,0,0,0,0,1,1,1,1,1,1,1,1,1,1,1,0,1,0,1,0,1,0,0,0,0,0,1,1,1,1,1,1,1,1,0,1,1,0,0,0,0,0,0,0,0,0,0,0,0,0,0,0,0,?,0,0,0,0,0,0,0,0,0,?,?,?,?,?,?
Predicted score from HomPRIP:		0.00,0.00,0.00,0.00,0.00,0.00,0.34,0.34,0.11,0.00,0.00,0.00,0.66,0.66,0.66,0.66,0.66,0.66,0.66,0.53,0.66,0.53,0.53,0.00,0.66,0.00,0.66,0.00,0.66,0.13,0.00,0.00,0.00,0.13,0.53,0.77,0.66,0.66,0.66,0.66,0.66,0.66,0.13,0.77,0.66,0.00,0.11,0.00,0.00,0.11,0.11,0.11,0.00,0.00,0.00,0.00,0.00,0.00,0.00,0.00,0.00,?,0.34,0.34,0.00,0.00,0.00,0.00,0.00,0.00,0.00,?,?,?,?,?,?
Prediction from SVM:				1,0,1,1,1,0,0,0,0,0,0,0,0,0,0,0,0,0,0,0,0,0,0,0,0,0,0,0,0,0,0,0,0,0,0,0,0,0,0,0,0,1,0,1,0,0,1,1,0,0,0,0,0,0,0,0,0,0,0,1,0,0,1,1,1,1,1,1,1,1,1,1,1,1,1,1,1
Predicted score from SVM:			1.00,0.23,0.96,0.94,0.99,0.01,0.20,0.34,0.04,0.05,0.01,0.01,0.01,0.01,0.01,0.01,0.01,0.03,0.22,0.00,0.00,0.03,0.03,0.01,0.01,0.09,0.01,0.13,0.07,0.16,0.18,0.21,0.26,0.19,0.04,0.08,0.10,0.38,0.09,0.48,0.17,0.55,0.37,0.65,0.34,0.46,0.96,0.89,0.05,0.03,0.37,0.10,0.01,0.01,0.01,0.14,0.14,0.02,0.04,0.73,0.43,0.23,0.65,0.98,0.97,0.96,0.97,0.99,0.99,0.98,1.00,1.00,1.00,1.00,1.00,1.00,1.00
Prediction from RNABindRPlus:		1,0,0,0,1,0,0,0,0,0,0,0,0,0,0,0,0,0,0,0,0,0,0,0,0,0,0,0,0,0,0,0,0,0,0,0,0,0,0,0,0,1,0,1,0,0,1,0,0,0,0,0,0,0,0,0,0,0,0,0,0,0,0,1,0,0,0,1,1,1,1,1,1,1,1,1,1
Predicted score from RNABindRPlus:	0.53,0.02,0.48,0.45,0.52,0.01,0.05,0.09,0.01,0.01,0.01,0.01,0.05,0.05,0.05,0.05,0.05,0.06,0.14,0.03,0.05,0.04,0.04,0.01,0.05,0.01,0.05,0.01,0.07,0.02,0.01,0.01,0.02,0.02,0.04,0.10,0.08,0.29,0.08,0.42,0.11,0.51,0.05,0.73,0.25,0.06,0.58,0.38,0.01,0.01,0.05,0.01,0.01,0.01,0.01,0.01,0.01,0.01,0.01,0.20,0.05,0.03,0.36,0.78,0.49,0.48,0.49,0.52,0.52,0.51,0.53,0.70,0.70,0.70,0.70,0.70,0.70
    #Input sequence length: 191
#Number of binding residues predicted by HomPRIP: 31
#Number of binding residues predicted by SVM: 36
#Number of binding residues predicted by RNABindRPlus: 25
>G1TFM5_merged
sequence:							T,P,D,I,K,L,F,G,K,W,S,T,D,D,V,Q,I,N,D,I,S,L,Q,D,Y,I,A,V,K,E,K,Y,A,K,Y,L,P,H,S,A,G,R,Y,A,A,K,R,F,R,K,A,Q,C,P,I,V,E,R,L,T,N,S,M,M,M,H,G,R,N,N,G,K,K,L,M,T,V,R,I,V,K,H,A,F,E,I,I,H,L,L,T,G,E,N,P,L,Q,V,L,V,N,A,I,I,N,S,G,P,R,E,D,S,T,R,I,G,R,A,G,T,V,R,R,Q,A,V,D,V,S,P,L,R,R,V,N,Q,A,I,W,L,L,C,T,G,A,R,E,A,A,F,R,N,I,K,T,I,A,E,C,L,A,D,E,L,I,N,A,A,K,G,S,S,N,S,Y,A,I,K,K,K,D,E,L,E,R,V,A,K,S,N,R
Prediction from HomPRIP:			?,?,?,?,?,?,?,?,?,?,?,?,?,?,?,?,?,?,?,?,?,?,?,?,?,?,?,?,?,?,?,?,?,?,?,?,?,?,?,?,?,?,?,?,?,?,?,?,?,?,?,?,?,?,0,0,0,1,0,0,1,1,1,1,?,?,?,?,1,1,1,1,1,1,1,1,0,1,1,0,0,0,0,0,0,0,0,0,0,0,0,0,0,0,0,0,0,0,0,0,0,0,0,0,0,0,0,0,0,0,0,0,0,1,0,1,?,?,1,1,0,1,0,0,0,0,0,0,0,0,1,1,0,0,1,1,0,0,1,0,0,1,0,0,0,1,0,?,?,?,0,0,0,1,1,1,0,0,1,0,0,0,0,0,0,0,0,0,0,0,0,0,0,?,?,0,0,0,0,0,0,0,0,0,0,0,0,0,0,0,0
Predicted score from HomPRIP:		?,?,?,?,?,?,?,?,?,?,?,?,?,?,?,?,?,?,?,?,?,?,?,?,?,?,?,?,?,?,?,?,?,?,?,?,?,?,?,?,?,?,?,?,?,?,?,?,?,?,?,?,?,?,0.00,0.00,0.03,0.82,0.00,0.00,1.00,0.97,1.00,1.00,?,?,?,?,1.00,1.00,1.00,1.00,1.00,1.00,1.00,0.58,0.00,0.97,0.97,0.00,0.00,0.00,0.00,0.00,0.00,0.00,0.00,0.00,0.00,0.00,0.00,0.00,0.00,0.00,0.00,0.00,0.00,0.00,0.00,0.00,0.00,0.00,0.00,0.00,0.00,0.00,0.00,0.00,0.00,0.00,0.00,0.03,0.24,0.50,0.11,0.97,?,?,0.89,0.55,0.00,0.84,0.00,0.00,0.00,0.05,0.00,0.00,0.00,0.00,0.97,1.00,0.00,0.05,1.00,0.97,0.00,0.00,1.00,0.00,0.00,1.00,0.29,0.00,0.00,1.00,0.00,?,?,?,0.00,0.00,0.00,1.00,1.00,1.00,0.45,0.00,0.97,0.39,0.00,0.00,0.00,0.00,0.00,0.00,0.00,0.00,0.00,0.00,0.00,0.00,0.00,?,?,0.00,0.00,0.00,0.00,0.00,0.00,0.00,0.00,0.00,0.00,0.00,0.00,0.00,0.00,0.00,0.00
Prediction from SVM:				0,0,0,0,0,0,0,0,0,0,0,0,0,0,0,0,0,0,0,0,0,0,0,0,0,0,0,0,0,0,0,0,0,0,0,0,0,1,1,1,1,1,1,0,0,0,1,0,1,1,1,1,1,1,0,0,0,1,0,0,0,0,0,0,0,1,0,1,0,1,1,1,1,0,0,0,0,1,0,0,0,0,0,0,0,0,0,0,0,0,0,0,0,0,0,0,0,0,0,0,0,0,0,0,0,0,0,0,0,0,0,0,0,1,0,1,1,0,0,0,0,1,1,1,0,0,0,0,1,0,0,1,0,0,0,1,0,0,0,0,0,0,1,0,0,1,1,0,0,0,1,0,0,0,0,0,0,0,1,0,0,0,0,0,0,0,0,0,0,0,0,0,0,0,0,0,0,0,0,0,0,0,0,0,0,0,0,0,0,0,1
Predicted score from SVM:			0.00,0.01,0.00,0.00,0.35,0.00,0.02,0.00,0.04,0.01,0.00,0.00,0.00,0.00,0.00,0.00,0.00,0.00,0.00,0.00,0.01,0.00,0.01,0.01,0.04,0.00,0.00,0.01,0.04,0.10,0.15,0.04,0.01,0.43,0.26,0.06,0.41,0.92,0.84,0.86,0.93,0.91,0.91,0.25,0.03,0.26,0.80,0.40,0.96,0.89,0.81,0.84,0.76,0.94,0.03,0.00,0.40,0.73,0.02,0.00,0.12,0.27,0.03,0.01,0.01,0.88,0.04,0.74,0.35,0.77,0.56,0.94,0.89,0.25,0.13,0.04,0.03,0.65,0.02,0.04,0.04,0.12,0.01,0.02,0.02,0.00,0.00,0.01,0.00,0.00,0.00,0.06,0.01,0.07,0.01,0.00,0.02,0.00,0.00,0.00,0.02,0.00,0.00,0.00,0.07,0.14,0.07,0.12,0.26,0.03,0.00,0.06,0.31,0.70,0.06,0.87,0.86,0.18,0.37,0.31,0.06,0.95,0.95,0.72,0.01,0.07,0.49,0.11,0.64,0.09,0.02,0.78,0.30,0.00,0.02,0.56,0.02,0.00,0.19,0.01,0.01,0.26,0.50,0.34,0.22,0.70,0.62,0.38,0.07,0.02,0.76,0.34,0.00,0.21,0.18,0.01,0.00,0.24,0.51,0.00,0.00,0.00,0.00,0.00,0.00,0.01,0.02,0.01,0.05,0.01,0.17,0.01,0.17,0.10,0.25,0.02,0.00,0.39,0.06,0.01,0.00,0.00,0.00,0.00,0.12,0.00,0.00,0.01,0.01,0.01,0.99
Prediction from RNABindRPlus:		0,0,0,0,0,0,0,0,0,0,0,0,0,0,0,0,0,0,0,0,0,0,0,0,0,0,0,0,0,0,0,0,0,0,0,0,0,1,0,1,1,1,1,0,0,0,0,0,1,1,0,0,0,1,0,0,0,1,0,0,0,0,0,0,0,1,0,0,1,1,1,1,1,0,0,0,0,1,0,0,0,0,0,0,0,0,0,0,0,0,0,0,0,0,0,0,0,0,0,0,0,0,0,0,0,0,0,0,0,0,0,0,0,1,0,1,1,0,0,0,0,1,0,0,0,0,0,0,0,0,0,1,0,0,0,1,0,0,0,0,0,0,0,0,0,1,0,0,0,0,0,0,0,0,0,0,0,0,1,0,0,0,0,0,0,0,0,0,0,0,0,0,0,0,0,0,0,0,0,0,0,0,0,0,0,0,0,0,0,0,1
Predicted score from RNABindRPlus:	0.01,0.01,0.01,0.01,0.06,0.01,0.01,0.01,0.01,0.01,0.01,0.01,0.01,0.01,0.01,0.01,0.01,0.01,0.01,0.01,0.01,0.01,0.01,0.01,0.01,0.01,0.01,0.01,0.01,0.02,0.02,0.01,0.01,0.09,0.04,0.01,0.08,0.60,0.49,0.52,0.61,0.58,0.58,0.04,0.01,0.04,0.43,0.08,0.65,0.56,0.45,0.49,0.38,0.62,0.01,0.01,0.04,0.83,0.01,0.01,0.25,0.41,0.17,0.15,0.01,0.54,0.01,0.35,0.54,0.92,0.79,0.97,0.96,0.41,0.26,0.05,0.01,0.85,0.15,0.01,0.01,0.01,0.01,0.01,0.01,0.01,0.01,0.01,0.01,0.01,0.01,0.01,0.01,0.01,0.01,0.01,0.01,0.01,0.01,0.01,0.01,0.01,0.01,0.01,0.01,0.01,0.01,0.01,0.02,0.01,0.01,0.01,0.06,0.57,0.01,0.95,0.52,0.02,0.47,0.16,0.01,0.95,0.46,0.19,0.01,0.01,0.06,0.01,0.14,0.01,0.15,0.93,0.02,0.01,0.16,0.77,0.01,0.01,0.33,0.01,0.01,0.42,0.17,0.03,0.02,0.89,0.12,0.07,0.01,0.01,0.23,0.03,0.01,0.35,0.32,0.15,0.02,0.02,0.72,0.02,0.01,0.01,0.01,0.01,0.01,0.01,0.01,0.01,0.01,0.01,0.01,0.01,0.01,0.02,0.04,0.01,0.01,0.04,0.01,0.01,0.01,0.01,0.01,0.01,0.01,0.01,0.01,0.01,0.01,0.01,0.52
    #Input sequence length: 129
#Number of binding residues predicted by HomPRIP: 33
#Number of binding residues predicted by SVM: 76
#Number of binding residues predicted by RNABindRPlus: 40
>G1TG89_merged
sequence:							V,R,M,N,V,L,A,D,A,L,K,S,I,N,N,A,E,K,R,G,K,R,Q,V,L,I,R,P,C,S,K,V,I,V,R,F,L,T,V,M,M,K,H,G,Y,I,G,E,F,E,I,I,D,D,H,R,A,G,K,I,V,V,N,L,T,G,R,L,N,K,C,G,V,I,S,P,R,F,D,V,Q,L,K,D,L,E,K,W,Q,N,N,L,L,P,S,R,Q,F,G,F,I,V,L,T,T,S,A,G,I,M,D,H,E,E,A,R,R,K,H,T,G,G,K,I,L,G,F,F,F
Prediction from HomPRIP:			?,?,0,0,1,0,0,0,0,0,0,0,0,0,0,0,0,0,0,0,0,0,0,0,0,0,0,1,1,1,1,1,0,0,1,0,0,0,0,0,0,0,0,0,0,0,0,0,0,0,0,0,0,0,1,1,1,0,0,0,0,0,0,0,0,0,0,0,0,0,0,0,0,0,0,0,1,0,1,1,1,1,1,0,0,1,0,0,1,0,0,0,0,0,0,1,0,0,0,0,0,0,0,1,1,1,1,1,1,0,0,0,0,0,0,1,1,0,1,1,1,1,1,0,1,0,0,0,0
Predicted score from HomPRIP:		?,?,0.00,0.00,1.00,0.00,0.00,0.00,0.00,0.00,0.00,0.00,0.00,0.00,0.00,0.00,0.00,0.00,0.00,0.00,0.00,0.00,0.00,0.00,0.00,0.00,0.00,0.50,1.00,1.00,1.00,1.00,0.00,0.00,1.00,0.00,0.00,0.00,0.00,0.00,0.00,0.00,0.00,0.00,0.00,0.00,0.00,0.00,0.00,0.00,0.00,0.00,0.00,0.00,1.00,1.00,1.00,0.00,0.00,0.00,0.00,0.00,0.00,0.00,0.00,0.00,0.00,0.00,0.00,0.00,0.00,0.00,0.00,0.00,0.00,0.00,1.00,0.00,1.00,1.00,1.00,1.00,0.50,0.00,0.00,0.50,0.00,0.00,0.50,0.00,0.00,0.00,0.00,0.00,0.00,0.50,0.00,0.00,0.00,0.00,0.00,0.00,0.00,1.00,1.00,1.00,0.50,1.00,1.00,0.00,0.00,0.00,0.00,0.00,0.00,0.50,0.50,0.00,1.00,1.00,1.00,1.00,1.00,0.00,1.00,0.00,0.00,0.00,0.00
Prediction from SVM:				1,1,0,1,1,1,1,1,1,0,1,1,1,1,1,1,1,1,1,1,1,1,1,1,1,1,1,1,1,1,1,1,0,1,1,0,0,1,0,0,0,1,0,0,0,0,0,0,0,0,0,0,0,0,1,1,0,1,1,0,1,0,1,0,1,1,1,0,1,1,1,1,0,1,1,1,1,1,1,0,1,0,0,0,0,0,0,0,0,0,1,0,0,0,0,1,1,0,0,0,0,0,0,0,1,1,1,1,1,0,1,1,1,0,0,1,0,1,1,1,1,1,1,0,1,1,1,0,1
Predicted score from SVM:			0.85,0.98,0.07,1.00,0.95,0.75,0.95,1.00,0.92,0.47,1.00,1.00,0.53,0.97,0.97,0.90,0.97,1.00,1.00,0.99,1.00,0.99,1.00,0.84,0.67,0.50,1.00,0.99,0.70,0.81,1.00,0.67,0.21,0.54,0.95,0.15,0.18,0.87,0.47,0.41,0.26,0.75,0.47,0.11,0.28,0.04,0.18,0.13,0.05,0.06,0.03,0.05,0.02,0.20,0.52,0.95,0.40,0.69,0.72,0.09,0.57,0.15,0.95,0.03,0.80,0.93,0.99,0.36,0.94,0.97,0.88,0.96,0.45,0.95,0.98,0.94,0.99,0.69,0.59,0.27,0.64,0.04,0.40,0.09,0.00,0.01,0.10,0.17,0.02,0.45,0.74,0.14,0.20,0.38,0.43,0.54,0.50,0.19,0.04,0.02,0.01,0.01,0.01,0.08,0.51,0.64,0.61,0.88,0.93,0.46,0.72,0.90,0.77,0.28,0.30,0.90,0.43,0.69,1.00,0.95,0.94,1.00,1.00,0.48,0.96,0.95,0.99,0.07,0.96
Prediction from RNABindRPlus:		1,1,0,1,1,0,0,1,0,0,1,1,0,0,0,0,0,1,1,1,1,1,1,0,0,0,1,1,1,1,1,1,0,0,1,0,0,0,0,0,0,0,0,0,0,0,0,0,0,0,0,0,0,0,1,1,1,0,0,0,0,0,0,0,0,0,1,0,0,0,0,0,0,0,1,0,1,0,1,0,1,0,0,0,0,0,0,0,0,0,0,0,0,0,0,0,0,0,0,0,0,0,0,0,1,1,0,1,1,0,0,0,0,0,0,1,0,0,1,1,1,1,1,0,1,0,1,0,0
Predicted score from RNABindRPlus:	0.50,0.68,0.01,0.53,0.97,0.22,0.46,0.53,0.42,0.06,0.53,0.53,0.08,0.49,0.49,0.40,0.49,0.53,0.53,0.52,0.53,0.52,0.53,0.32,0.16,0.07,0.53,0.87,0.89,0.94,0.98,0.88,0.01,0.08,0.97,0.01,0.01,0.36,0.06,0.04,0.02,0.22,0.06,0.01,0.02,0.01,0.01,0.01,0.01,0.01,0.01,0.01,0.01,0.01,0.75,0.97,0.61,0.17,0.19,0.01,0.10,0.01,0.46,0.01,0.27,0.44,0.52,0.03,0.45,0.49,0.37,0.48,0.05,0.46,0.51,0.45,0.98,0.17,0.82,0.43,0.86,0.18,0.20,0.01,0.01,0.03,0.01,0.01,0.03,0.05,0.21,0.01,0.01,0.04,0.05,0.36,0.07,0.01,0.01,0.01,0.01,0.01,0.01,0.21,0.74,0.86,0.45,0.96,0.97,0.06,0.19,0.40,0.24,0.02,0.02,0.80,0.23,0.17,0.98,0.97,0.97,0.98,0.98,0.06,0.97,0.46,0.52,0.01,0.48
    #Input sequence length: 67
#Number of binding residues predicted by HomPRIP: 0
#Number of binding residues predicted by SVM: 23
#Number of binding residues predicted by RNABindRPlus: 11
>G1TIB4_merged
sequence:							T,S,R,V,Q,P,I,K,L,A,R,V,T,K,V,L,G,R,T,G,S,Q,G,Q,C,T,Q,V,R,V,E,F,M,D,D,T,S,R,S,I,I,R,N,V,K,G,P,V,R,E,G,D,V,L,T,L,L,E,S,E,R,E,A,R,R,L,R
Prediction from HomPRIP:			???????????????????????????????????????????????????????????????????
Predicted score from HomPRIP:		?,?,?,?,?,?,?,?,?,?,?,?,?,?,?,?,?,?,?,?,?,?,?,?,?,?,?,?,?,?,?,?,?,?,?,?,?,?,?,?,?,?,?,?,?,?,?,?,?,?,?,?,?,?,?,?,?,?,?,?,?,?,?,?,?,?,?
Prediction from SVM:				1,0,0,0,0,0,0,0,0,1,1,0,0,1,0,0,0,1,1,1,1,1,1,1,0,0,0,0,0,0,0,0,0,0,0,1,0,1,1,0,0,1,1,0,1,0,1,0,1,0,0,0,0,0,0,0,0,0,0,0,1,0,0,1,1,0,1
Predicted score from SVM:			0.52,0.06,0.09,0.01,0.03,0.04,0.01,0.15,0.08,0.50,0.80,0.08,0.30,0.57,0.35,0.40,0.45,1.00,0.92,0.96,0.91,0.97,0.83,0.60,0.05,0.21,0.28,0.04,0.23,0.01,0.05,0.01,0.02,0.03,0.30,0.52,0.42,0.81,0.85,0.22,0.38,0.88,0.99,0.37,0.83,0.33,0.56,0.18,0.73,0.11,0.23,0.08,0.02,0.03,0.03,0.01,0.14,0.10,0.20,0.37,0.76,0.10,0.17,0.99,0.99,0.01,1.00
Prediction from RNABindRPlus:		0,0,0,0,0,0,0,0,0,0,0,0,0,0,0,0,0,1,1,1,1,1,0,0,0,0,0,0,0,0,0,0,0,0,0,0,0,0,1,0,0,1,1,0,0,0,0,0,0,0,0,0,0,0,0,0,0,0,0,0,0,0,0,1,1,0,1
Predicted score from RNABindRPlus:	0.14,0.01,0.02,0.01,0.01,0.01,0.01,0.02,0.01,0.13,0.43,0.01,0.05,0.18,0.06,0.08,0.10,0.70,0.60,0.65,0.58,0.66,0.47,0.20,0.01,0.03,0.04,0.01,0.03,0.01,0.01,0.01,0.01,0.01,0.05,0.14,0.09,0.45,0.50,0.03,0.07,0.54,0.69,0.07,0.47,0.05,0.17,0.02,0.34,0.02,0.03,0.01,0.01,0.01,0.01,0.01,0.02,0.02,0.03,0.07,0.38,0.02,0.02,0.69,0.69,0.01,0.70
    #Input sequence length: 206
#Number of binding residues predicted by HomPRIP: 0
#Number of binding residues predicted by SVM: 103
#Number of binding residues predicted by RNABindRPlus: 81
>G1TJW1_merged
sequence:							G,I,S,R,D,N,W,H,K,R,R,K,T,G,G,K,R,K,P,Y,H,K,K,R,K,Y,E,L,G,R,P,A,A,N,T,K,I,G,P,R,R,I,H,T,V,R,V,R,G,G,N,K,K,Y,R,A,L,R,L,D,V,G,N,F,S,W,G,S,E,C,C,T,R,K,T,R,I,I,D,V,V,Y,N,A,S,N,N,E,L,V,R,T,K,T,L,V,K,N,C,I,V,L,I,D,S,T,P,Y,R,Q,W,Y,E,S,H,Y,A,L,P,L,G,R,K,K,G,A,K,L,T,P,E,E,E,E,I,L,N,K,K,R,S,K,K,I,Q,K,K,Y,D,E,R,K,K,N,A,K,I,S,S,L,L,E,E,Q,F,Q,Q,G,K,L,L,A,C,I,A,S,R,P,G,Q,C,G,R,A,D,G,Y,V,L,E,G,K,E,L,E,F,Y,L,R,K,I,K,A,R,K,G
Prediction from HomPRIP:			??????????????????????????????????????????????????????????????????????????????????????????????????????????????????????????????????????????????????????????????????????????????????????????????????????????????
Predicted score from HomPRIP:		?,?,?,?,?,?,?,?,?,?,?,?,?,?,?,?,?,?,?,?,?,?,?,?,?,?,?,?,?,?,?,?,?,?,?,?,?,?,?,?,?,?,?,?,?,?,?,?,?,?,?,?,?,?,?,?,?,?,?,?,?,?,?,?,?,?,?,?,?,?,?,?,?,?,?,?,?,?,?,?,?,?,?,?,?,?,?,?,?,?,?,?,?,?,?,?,?,?,?,?,?,?,?,?,?,?,?,?,?,?,?,?,?,?,?,?,?,?,?,?,?,?,?,?,?,?,?,?,?,?,?,?,?,?,?,?,?,?,?,?,?,?,?,?,?,?,?,?,?,?,?,?,?,?,?,?,?,?,?,?,?,?,?,?,?,?,?,?,?,?,?,?,?,?,?,?,?,?,?,?,?,?,?,?,?,?,?,?,?,?,?,?,?,?,?,?,?,?,?,?,?,?,?,?,?,?
Prediction from SVM:				1,1,1,1,1,1,1,1,1,1,1,1,1,1,1,1,1,1,1,1,1,1,1,1,1,1,1,1,1,1,1,1,1,1,1,1,1,1,1,1,1,1,1,1,1,1,1,1,1,1,1,1,1,1,1,1,1,1,0,1,1,1,1,1,1,1,1,1,1,1,1,1,1,1,1,1,0,0,1,0,1,1,1,0,0,0,0,0,0,0,0,0,0,0,0,0,0,0,0,0,0,0,0,0,0,0,0,0,0,0,0,0,0,0,0,0,0,0,0,0,0,0,0,0,0,0,0,0,0,0,0,0,0,0,0,0,0,0,0,0,0,0,1,1,0,1,1,0,0,0,1,1,1,0,1,1,0,0,1,0,0,0,0,0,0,0,0,0,0,0,0,0,1,0,0,1,1,1,1,1,0,1,1,0,0,0,0,0,0,0,0,0,0,0,0,0,0,0,0,1,0,1,1,1,1,1
Predicted score from SVM:			1.00,1.00,1.00,1.00,1.00,1.00,1.00,1.00,1.00,1.00,1.00,1.00,1.00,1.00,1.00,1.00,1.00,1.00,1.00,1.00,1.00,1.00,1.00,1.00,0.99,1.00,1.00,0.99,0.99,1.00,1.00,0.99,0.98,0.97,0.98,0.99,0.98,0.95,0.97,1.00,0.99,0.96,1.00,0.98,0.99,1.00,1.00,1.00,1.00,1.00,1.00,1.00,1.00,1.00,1.00,0.95,0.88,0.97,0.42,0.81,0.79,0.78,0.90,0.83,0.97,0.76,0.86,0.66,0.59,0.52,0.75,0.77,0.89,0.92,0.64,0.97,0.13,0.19,0.87,0.32,0.53,0.85,0.98,0.18,0.29,0.23,0.17,0.12,0.04,0.03,0.21,0.02,0.09,0.05,0.05,0.01,0.01,0.02,0.01,0.00,0.01,0.17,0.01,0.04,0.04,0.04,0.09,0.04,0.09,0.07,0.05,0.15,0.12,0.16,0.35,0.27,0.09,0.11,0.08,0.07,0.24,0.10,0.03,0.06,0.01,0.02,0.00,0.00,0.00,0.00,0.00,0.00,0.00,0.00,0.00,0.00,0.00,0.02,0.35,0.24,0.15,0.43,0.89,0.61,0.14,0.77,0.86,0.41,0.30,0.33,0.87,0.88,0.58,0.27,0.81,0.93,0.14,0.19,0.55,0.08,0.01,0.01,0.03,0.01,0.01,0.01,0.01,0.01,0.11,0.00,0.03,0.03,0.76,0.12,0.28,0.99,0.99,0.88,0.91,0.79,0.35,0.85,0.83,0.01,0.09,0.10,0.18,0.01,0.01,0.21,0.01,0.06,0.03,0.03,0.12,0.36,0.28,0.01,0.38,0.66,0.05,0.65,0.87,1.00,1.00,1.00
Prediction from RNABindRPlus:		1,1,1,1,1,1,1,1,1,1,1,1,1,1,1,1,1,1,1,1,1,1,1,1,1,1,1,1,1,1,1,1,1,1,1,1,1,1,1,1,1,1,1,1,1,1,1,1,1,1,1,1,1,1,1,1,1,1,0,0,0,0,1,0,1,0,1,0,0,0,0,0,1,1,0,1,0,0,1,0,0,1,1,0,0,0,0,0,0,0,0,0,0,0,0,0,0,0,0,0,0,0,0,0,0,0,0,0,0,0,0,0,0,0,0,0,0,0,0,0,0,0,0,0,0,0,0,0,0,0,0,0,0,0,0,0,0,0,0,0,0,0,1,0,0,0,1,0,0,0,1,1,0,0,0,1,0,0,0,0,0,0,0,0,0,0,0,0,0,0,0,0,0,0,0,1,1,1,1,0,0,1,0,0,0,0,0,0,0,0,0,0,0,0,0,0,0,0,0,0,0,0,1,1,1,1
Predicted score from RNABindRPlus:	0.70,0.70,0.70,0.70,0.70,0.70,0.70,0.70,0.70,0.70,0.70,0.70,0.70,0.70,0.70,0.70,0.70,0.70,0.70,0.70,0.70,0.70,0.70,0.70,0.69,0.70,0.70,0.69,0.69,0.70,0.70,0.69,0.68,0.66,0.68,0.69,0.68,0.64,0.66,0.70,0.69,0.65,0.70,0.68,0.69,0.70,0.70,0.70,0.70,0.70,0.70,0.70,0.70,0.70,0.70,0.64,0.54,0.66,0.09,0.45,0.42,0.41,0.57,0.47,0.66,0.38,0.52,0.26,0.19,0.14,0.37,0.39,0.56,0.60,0.24,0.66,0.02,0.03,0.53,0.05,0.15,0.50,0.68,0.02,0.04,0.03,0.02,0.02,0.01,0.01,0.03,0.01,0.02,0.01,0.01,0.01,0.01,0.01,0.01,0.01,0.01,0.02,0.01,0.01,0.01,0.01,0.02,0.01,0.02,0.01,0.01,0.02,0.02,0.02,0.06,0.04,0.02,0.02,0.01,0.01,0.03,0.02,0.01,0.01,0.01,0.01,0.01,0.01,0.01,0.01,0.01,0.01,0.01,0.01,0.01,0.01,0.01,0.01,0.06,0.03,0.02,0.09,0.56,0.21,0.02,0.39,0.52,0.08,0.05,0.05,0.53,0.54,0.19,0.04,0.45,0.61,0.02,0.03,0.16,0.01,0.01,0.01,0.01,0.01,0.01,0.01,0.01,0.01,0.02,0.01,0.01,0.01,0.38,0.02,0.04,0.69,0.69,0.54,0.58,0.42,0.06,0.50,0.47,0.01,0.02,0.02,0.02,0.01,0.01,0.03,0.01,0.01,0.01,0.01,0.02,0.06,0.04,0.01,0.07,0.26,0.01,0.25,0.53,0.70,0.70,0.70
