    #Input sequence length: 77
#Number of binding residues predicted by HomPRIP: 23
#Number of binding residues predicted by SVM: 25
#Number of binding residues predicted by RNABindRPlus: 20
>O75821_merged
sequence:							N,A,T,I,R,V,T,N,L,S,E,D,T,R,E,T,D,L,Q,E,L,F,R,P,F,G,S,I,S,R,I,Y,L,A,K,D,K,T,T,G,Q,S,K,G,F,A,F,I,S,F,H,R,R,E,D,A,A,R,A,I,A,G,V,S,G,F,G,Y,D,H,L,I,L,N,V,E,W
Prediction from HomPRIP:			0,0,1,0,1,0,1,1,1,0,1,1,0,1,0,0,0,0,0,0,0,0,0,0,0,0,0,0,0,0,0,1,0,1,1,?,?,?,1,1,1,1,1,1,1,0,1,0,0,0,0,0,0,0,0,0,0,0,0,0,0,0,0,0,0,0,0,0,0,0,1,0,0,1,0,1,1
Predicted score from HomPRIP:		0.00,0.00,0.96,0.00,0.99,0.00,0.99,0.99,0.97,0.00,0.97,0.52,0.00,0.94,0.23,0.24,0.01,0.00,0.06,0.04,0.00,0.00,0.00,0.00,0.00,0.00,0.00,0.03,0.01,0.03,0.05,0.95,0.05,0.88,0.92,?,?,?,0.97,1.00,1.00,0.99,0.99,0.99,0.99,0.00,0.99,0.00,0.26,0.00,0.00,0.00,0.00,0.00,0.00,0.00,0.01,0.00,0.00,0.01,0.01,0.00,0.00,0.01,0.01,0.00,0.00,0.00,0.00,0.03,0.97,0.00,0.01,0.65,0.01,0.99,0.99
Prediction from SVM:				0,0,1,0,1,0,1,0,0,0,0,0,0,0,0,0,0,0,0,0,0,0,0,0,0,0,0,0,1,1,0,1,1,1,1,1,1,1,1,1,1,1,1,1,1,0,1,0,1,0,0,0,0,0,0,0,0,0,0,0,0,0,0,0,0,1,0,0,0,1,1,0,0,1,0,0,0
Predicted score from SVM:			0.36,0.04,0.99,0.06,1.00,0.02,0.56,0.36,0.12,0.20,0.27,0.05,0.01,0.01,0.01,0.00,0.00,0.00,0.01,0.01,0.00,0.01,0.04,0.06,0.03,0.07,0.27,0.12,0.66,0.72,0.26,0.95,0.74,0.92,0.97,0.85,0.99,0.88,0.93,0.97,0.97,0.98,1.00,0.99,1.00,0.35,0.99,0.26,0.66,0.11,0.04,0.09,0.03,0.01,0.03,0.01,0.03,0.16,0.02,0.01,0.14,0.34,0.04,0.16,0.30,0.64,0.33,0.28,0.22,0.57,0.91,0.24,0.23,0.97,0.01,0.22,0.25
Prediction from RNABindRPlus:		0,0,1,0,1,0,1,1,0,0,0,0,0,0,0,0,0,0,0,0,0,0,0,0,0,0,0,0,0,0,0,1,0,1,1,1,1,1,1,1,1,1,1,1,1,0,1,0,0,0,0,0,0,0,0,0,0,0,0,0,0,0,0,0,0,0,0,0,0,0,1,0,0,1,0,0,0
Predicted score from RNABindRPlus:	0.03,0.01,0.97,0.01,0.98,0.01,0.79,0.55,0.23,0.01,0.41,0.04,0.01,0.13,0.01,0.01,0.01,0.01,0.01,0.01,0.01,0.01,0.01,0.01,0.01,0.01,0.02,0.01,0.15,0.21,0.02,0.96,0.25,0.95,0.96,0.50,0.69,0.54,0.96,0.97,0.97,0.97,0.98,0.97,0.98,0.03,0.97,0.02,0.31,0.01,0.01,0.01,0.01,0.01,0.01,0.01,0.01,0.01,0.01,0.01,0.01,0.03,0.01,0.01,0.02,0.14,0.03,0.02,0.02,0.11,0.96,0.02,0.02,0.91,0.01,0.36,0.40
    #Input sequence length: 160
#Number of binding residues predicted by HomPRIP: 0
#Number of binding residues predicted by SVM: 26
#Number of binding residues predicted by RNABindRPlus: 19
>O75822_merged
sequence:							D,E,D,E,D,V,K,D,N,W,D,D,D,D,D,E,K,K,E,E,A,E,V,K,P,E,V,K,I,S,E,K,K,K,I,A,E,K,I,K,E,K,E,R,Q,Q,K,K,R,Q,E,E,I,K,Q,L,A,D,K,L,R,L,K,K,L,Q,E,E,S,D,L,E,L,A,K,E,T,R,D,D,F,T,E,F,G,K,L,L,K,D,K,I,T,Q,Y,E,K,S,L,Y,Y,A,S,F,L,E,V,L,V,R,D,V,C,I,S,L,E,I,D,D,L,K,K,I,T,N,S,L,T,V,L,C,S,E,K,Q,K,Q,E,K,Q,S,K,A,K,K,K,K,K,G,V,V,P,G,G,G,L,K,A,T
Prediction from HomPRIP:			????????????????????????????????????????????????????????????????????????????????????????????????????????????????????????????????????????????????????????????????
Predicted score from HomPRIP:		?,?,?,?,?,?,?,?,?,?,?,?,?,?,?,?,?,?,?,?,?,?,?,?,?,?,?,?,?,?,?,?,?,?,?,?,?,?,?,?,?,?,?,?,?,?,?,?,?,?,?,?,?,?,?,?,?,?,?,?,?,?,?,?,?,?,?,?,?,?,?,?,?,?,?,?,?,?,?,?,?,?,?,?,?,?,?,?,?,?,?,?,?,?,?,?,?,?,?,?,?,?,?,?,?,?,?,?,?,?,?,?,?,?,?,?,?,?,?,?,?,?,?,?,?,?,?,?,?,?,?,?,?,?,?,?,?,?,?,?,?,?,?,?,?,?,?,?,?,?,?,?,?,?,?,?,?,?,?,?
Prediction from SVM:				0,0,0,0,0,0,0,0,0,0,0,0,0,0,0,0,0,0,0,0,0,0,0,0,0,0,0,0,0,0,0,0,0,0,0,0,0,0,0,0,0,0,0,0,0,0,0,0,0,0,0,0,0,0,0,0,0,0,0,0,0,0,0,0,0,0,0,0,0,0,0,0,0,0,0,0,0,0,0,0,0,0,0,0,0,0,0,0,0,0,0,0,0,0,0,0,0,0,0,0,0,0,0,0,0,0,0,0,0,0,0,0,0,0,0,0,0,0,0,0,0,0,0,0,0,1,1,0,1,1,0,0,1,0,1,0,1,0,0,1,0,0,1,1,1,1,1,1,1,1,1,1,1,1,1,1,1,1,1,1
Predicted score from SVM:			0.00,0.00,0.00,0.00,0.00,0.00,0.00,0.00,0.00,0.00,0.00,0.00,0.00,0.00,0.00,0.00,0.00,0.00,0.00,0.00,0.00,0.00,0.00,0.00,0.00,0.00,0.00,0.00,0.00,0.00,0.01,0.02,0.01,0.00,0.01,0.02,0.01,0.03,0.00,0.00,0.00,0.00,0.00,0.00,0.00,0.00,0.00,0.00,0.00,0.00,0.00,0.00,0.00,0.00,0.00,0.00,0.00,0.00,0.00,0.00,0.00,0.00,0.00,0.00,0.00,0.00,0.00,0.00,0.00,0.00,0.00,0.00,0.00,0.00,0.00,0.00,0.02,0.02,0.00,0.00,0.01,0.00,0.02,0.00,0.01,0.01,0.02,0.01,0.00,0.03,0.01,0.01,0.04,0.09,0.17,0.03,0.31,0.24,0.14,0.07,0.07,0.03,0.06,0.04,0.00,0.01,0.01,0.00,0.00,0.00,0.00,0.00,0.00,0.01,0.01,0.01,0.05,0.02,0.01,0.01,0.00,0.49,0.18,0.01,0.10,0.61,0.63,0.06,0.81,0.89,0.36,0.08,0.71,0.43,0.55,0.46,0.86,0.10,0.47,0.94,0.10,0.45,0.51,0.76,0.88,0.92,0.99,1.00,1.00,1.00,1.00,1.00,1.00,1.00,1.00,1.00,1.00,1.00,1.00,1.00
Prediction from RNABindRPlus:		0,0,0,0,0,0,0,0,0,0,0,0,0,0,0,0,0,0,0,0,0,0,0,0,0,0,0,0,0,0,0,0,0,0,0,0,0,0,0,0,0,0,0,0,0,0,0,0,0,0,0,0,0,0,0,0,0,0,0,0,0,0,0,0,0,0,0,0,0,0,0,0,0,0,0,0,0,0,0,0,0,0,0,0,0,0,0,0,0,0,0,0,0,0,0,0,0,0,0,0,0,0,0,0,0,0,0,0,0,0,0,0,0,0,0,0,0,0,0,0,0,0,0,0,0,0,0,0,0,1,0,0,0,0,0,0,1,0,0,1,0,0,0,0,1,1,1,1,1,1,1,1,1,1,1,1,1,1,1,1
Predicted score from RNABindRPlus:	0.01,0.01,0.01,0.01,0.01,0.01,0.01,0.01,0.01,0.01,0.01,0.01,0.01,0.01,0.01,0.01,0.01,0.01,0.01,0.01,0.01,0.01,0.01,0.01,0.01,0.01,0.01,0.01,0.01,0.01,0.01,0.01,0.01,0.01,0.01,0.01,0.01,0.01,0.01,0.01,0.01,0.01,0.01,0.01,0.01,0.01,0.01,0.01,0.01,0.01,0.01,0.01,0.01,0.01,0.01,0.01,0.01,0.01,0.01,0.01,0.01,0.01,0.01,0.01,0.01,0.01,0.01,0.01,0.01,0.01,0.01,0.01,0.01,0.01,0.01,0.01,0.01,0.01,0.01,0.01,0.01,0.01,0.01,0.01,0.01,0.01,0.01,0.01,0.01,0.01,0.01,0.01,0.01,0.02,0.02,0.01,0.05,0.03,0.02,0.01,0.01,0.01,0.01,0.01,0.01,0.01,0.01,0.01,0.01,0.01,0.01,0.01,0.01,0.01,0.01,0.01,0.01,0.01,0.01,0.01,0.01,0.12,0.02,0.01,0.02,0.21,0.23,0.01,0.45,0.56,0.06,0.01,0.32,0.09,0.16,0.10,0.52,0.02,0.11,0.62,0.02,0.10,0.13,0.38,0.54,0.60,0.69,0.70,0.70,0.70,0.70,0.70,0.70,0.70,0.70,0.70,0.70,0.70,0.70,0.70
    #Input sequence length: 145
#Number of binding residues predicted by HomPRIP: 0
#Number of binding residues predicted by SVM: 35
#Number of binding residues predicted by RNABindRPlus: 23
>O95707_merged
sequence:							L,S,A,R,Q,R,R,E,L,R,L,F,D,I,K,P,E,Q,Q,R,Y,S,L,F,L,P,L,H,E,L,W,K,Q,Y,I,R,D,L,C,S,G,L,K,P,D,T,Q,P,Q,M,I,Q,A,K,L,L,K,A,D,L,H,G,A,I,I,S,V,T,K,S,K,C,P,S,Y,V,G,I,T,G,I,L,L,Q,E,T,K,H,I,F,K,I,I,T,K,E,D,R,L,K,V,I,P,K,L,N,C,V,F,T,V,E,T,D,G,F,I,S,Y,I,Y,G,S,K,F,Q,L,R,S,S,E,R,S,A,K,K,F,K,A,K,G,T,I,D,L
Prediction from HomPRIP:			?,?,?,?,?,?,?,?,?,?,?,?,?,?,?,?,?,?,?,?,?,?,?,?,?,?,?,?,?,?,?,?,?,?,?,?,?,?,?,?,?,?,?,?,?,?,?,?,?,?,?,?,?,?,?,?,?,?,?,?,?,?,?,?,?,?,?,?,?,?,?,?,?,?,?,?,?,?,?,?,?,?,?,?,?,?,?,?,?,?,?,?,?,?,?,?,?,?,?,?,?,?,?,?,?,?,?,?,?,?,?,?,?,?,?,?,?,?,0,0,0,0,0,0,0,0,0,?,?,?,?,?,?,?,?,?,?,?,?,?,?,?,?,?,?
Predicted score from HomPRIP:		?,?,?,?,?,?,?,?,?,?,?,?,?,?,?,?,?,?,?,?,?,?,?,?,?,?,?,?,?,?,?,?,?,?,?,?,?,?,?,?,?,?,?,?,?,?,?,?,?,?,?,?,?,?,?,?,?,?,?,?,?,?,?,?,?,?,?,?,?,?,?,?,?,?,?,?,?,?,?,?,?,?,?,?,?,?,?,?,?,?,?,?,?,?,?,?,?,?,?,?,?,?,?,?,?,?,?,?,?,?,?,?,?,?,?,?,?,?,0.00,0.00,0.00,0.00,0.00,0.00,0.00,0.00,0.00,?,?,?,?,?,?,?,?,?,?,?,?,?,?,?,?,?,?
Prediction from SVM:				1,1,1,1,1,1,1,1,1,1,1,1,1,0,0,0,0,0,0,0,0,0,0,0,0,0,0,0,0,0,0,0,0,0,0,0,0,0,0,0,0,0,0,0,0,0,0,0,0,0,0,0,0,0,0,0,0,0,0,0,0,0,0,0,0,0,0,0,0,0,1,1,1,0,0,0,1,0,0,0,0,0,0,0,0,0,0,0,0,0,0,0,0,0,0,0,0,0,0,0,0,0,0,1,1,0,0,0,0,0,0,0,0,0,0,0,0,0,0,0,0,0,0,0,0,0,0,1,1,1,1,1,1,1,1,1,1,1,1,1,1,1,0,1,0
Predicted score from SVM:			1.00,1.00,1.00,1.00,1.00,1.00,1.00,0.90,0.84,0.95,0.57,0.85,0.51,0.19,0.22,0.17,0.12,0.09,0.13,0.22,0.10,0.06,0.01,0.04,0.05,0.04,0.02,0.18,0.18,0.12,0.10,0.13,0.09,0.13,0.01,0.03,0.02,0.02,0.01,0.01,0.02,0.01,0.01,0.05,0.04,0.06,0.12,0.18,0.11,0.20,0.02,0.02,0.14,0.40,0.04,0.02,0.20,0.06,0.08,0.08,0.11,0.17,0.04,0.14,0.04,0.15,0.03,0.05,0.20,0.32,0.57,0.53,0.59,0.49,0.44,0.20,0.70,0.27,0.14,0.29,0.25,0.07,0.11,0.38,0.30,0.32,0.32,0.40,0.22,0.10,0.15,0.03,0.02,0.06,0.12,0.16,0.35,0.47,0.18,0.47,0.46,0.13,0.40,0.85,0.72,0.39,0.35,0.34,0.11,0.09,0.02,0.07,0.01,0.01,0.04,0.02,0.03,0.01,0.07,0.03,0.06,0.04,0.13,0.33,0.19,0.35,0.36,0.85,0.72,0.61,0.92,0.98,0.81,0.91,0.97,1.00,0.89,0.99,0.94,1.00,0.93,0.87,0.37,0.68,0.04
Prediction from RNABindRPlus:		1,1,1,1,1,1,1,1,0,1,0,1,0,0,0,0,0,0,0,0,0,0,0,0,0,0,0,0,0,0,0,0,0,0,0,0,0,0,0,0,0,0,0,0,0,0,0,0,0,0,0,0,0,0,0,0,0,0,0,0,0,0,0,0,0,0,0,0,0,0,0,0,0,0,0,0,0,0,0,0,0,0,0,0,0,0,0,0,0,0,0,0,0,0,0,0,0,0,0,0,0,0,0,1,0,0,0,0,0,0,0,0,0,0,0,0,0,0,0,0,0,0,0,0,0,0,0,1,0,0,1,1,0,1,1,1,1,1,1,1,1,1,0,0,0
Predicted score from RNABindRPlus:	0.70,0.70,0.70,0.70,0.70,0.70,0.70,0.57,0.49,0.64,0.18,0.50,0.13,0.03,0.03,0.02,0.02,0.02,0.02,0.03,0.02,0.01,0.01,0.01,0.01,0.01,0.01,0.02,0.02,0.02,0.02,0.02,0.02,0.02,0.01,0.01,0.01,0.01,0.01,0.01,0.01,0.01,0.01,0.01,0.01,0.01,0.02,0.02,0.02,0.03,0.01,0.01,0.02,0.08,0.01,0.01,0.03,0.01,0.01,0.01,0.02,0.02,0.01,0.02,0.01,0.02,0.01,0.01,0.03,0.05,0.18,0.15,0.19,0.12,0.09,0.03,0.31,0.04,0.02,0.04,0.04,0.01,0.02,0.07,0.05,0.05,0.05,0.08,0.03,0.02,0.02,0.01,0.01,0.01,0.02,0.02,0.06,0.11,0.02,0.11,0.10,0.02,0.08,0.50,0.33,0.07,0.06,0.06,0.02,0.02,0.01,0.01,0.01,0.01,0.01,0.01,0.01,0.01,0.01,0.01,0.01,0.01,0.01,0.03,0.01,0.03,0.03,0.50,0.33,0.21,0.60,0.68,0.45,0.58,0.66,0.70,0.56,0.69,0.62,0.70,0.61,0.53,0.07,0.28,0.01
    #Input sequence length: 275
#Number of binding residues predicted by HomPRIP: 5
#Number of binding residues predicted by SVM: 29
#Number of binding residues predicted by RNABindRPlus: 11
>P05198_merged
sequence:							L,S,C,R,F,Y,Q,H,K,F,P,E,V,E,D,V,V,M,V,N,V,R,S,I,A,E,M,G,A,Y,V,S,L,L,E,Y,N,N,I,E,G,M,I,L,L,S,E,L,S,R,R,R,I,R,S,I,N,K,L,I,R,I,G,R,N,E,C,V,V,V,I,R,V,D,K,E,K,G,Y,I,D,L,S,K,R,R,V,S,P,E,E,A,I,K,C,E,D,K,F,T,K,S,K,T,V,Y,S,I,L,R,H,V,A,E,V,L,E,Y,T,K,D,E,Q,L,E,S,L,F,Q,R,T,A,W,V,F,D,D,K,Y,K,R,P,G,Y,G,A,Y,D,A,F,K,H,A,V,S,D,P,S,I,L,D,S,L,D,L,N,E,D,E,R,E,V,L,I,N,N,I,N,R,R,L,T,P,Q,A,V,K,I,R,A,D,I,E,V,A,C,Y,G,Y,E,G,I,D,A,V,K,E,A,L,R,A,G,L,N,C,S,T,E,N,M,P,I,K,I,N,L,I,A,P,P,R,Y,V,M,T,T,T,T,L,E,R,T,E,G,L,S,V,L,S,Q,A,M,A,V,I,K,E,K,I,E,E,K,R,G,V,F,N,V,Q,M,E,P,K,V,V
Prediction from HomPRIP:			?,?,?,?,?,?,?,?,?,?,?,?,?,?,?,?,?,?,?,?,?,?,?,?,?,?,?,?,?,?,?,?,?,?,?,?,?,?,?,?,?,?,?,?,?,?,?,?,?,?,?,?,?,?,?,?,?,?,?,?,?,?,?,?,?,?,?,?,?,?,?,?,?,?,?,?,?,?,?,?,?,?,?,?,?,?,?,?,?,?,?,?,?,?,?,?,?,?,?,?,?,?,?,?,?,?,?,?,?,?,?,?,?,?,?,?,?,?,?,?,?,?,?,?,?,?,?,?,?,?,?,?,?,?,?,?,?,?,?,?,?,?,?,?,?,?,?,?,?,?,?,?,?,?,?,?,?,?,?,?,?,?,?,?,?,?,?,?,?,?,?,?,?,?,?,?,?,?,?,?,?,?,?,?,?,?,?,?,?,?,?,?,?,?,?,?,?,?,?,?,0,0,0,0,0,0,0,0,0,0,0,0,0,0,0,0,0,0,0,0,0,0,0,0,0,0,1,1,1,1,1,0,0,0,0,0,0,0,0,0,0,0,0,0,0,0,0,0,0,0,0,0,0,0,0,0,0,0,?,?,?,?,?,?,?,?,?,?,?,?,?,?,?,?,?
Predicted score from HomPRIP:		?,?,?,?,?,?,?,?,?,?,?,?,?,?,?,?,?,?,?,?,?,?,?,?,?,?,?,?,?,?,?,?,?,?,?,?,?,?,?,?,?,?,?,?,?,?,?,?,?,?,?,?,?,?,?,?,?,?,?,?,?,?,?,?,?,?,?,?,?,?,?,?,?,?,?,?,?,?,?,?,?,?,?,?,?,?,?,?,?,?,?,?,?,?,?,?,?,?,?,?,?,?,?,?,?,?,?,?,?,?,?,?,?,?,?,?,?,?,?,?,?,?,?,?,?,?,?,?,?,?,?,?,?,?,?,?,?,?,?,?,?,?,?,?,?,?,?,?,?,?,?,?,?,?,?,?,?,?,?,?,?,?,?,?,?,?,?,?,?,?,?,?,?,?,?,?,?,?,?,?,?,?,?,?,?,?,?,?,?,?,?,?,?,?,?,?,?,?,?,?,0.00,0.00,0.00,0.00,0.00,0.00,0.00,0.00,0.00,0.00,0.00,0.00,0.00,0.00,0.00,0.00,0.00,0.00,0.00,0.00,0.00,0.00,0.00,0.00,0.00,0.00,1.00,1.00,1.00,1.00,1.00,0.00,0.00,0.00,0.00,0.00,0.00,0.00,0.00,0.00,0.00,0.00,0.00,0.00,0.00,0.00,0.00,0.00,0.00,0.00,0.00,0.00,0.00,0.00,0.00,0.00,0.00,0.00,?,?,?,?,?,?,?,?,?,?,?,?,?,?,?,?,?
Prediction from SVM:				0,0,0,0,0,0,0,0,0,0,0,0,0,0,0,0,0,0,0,0,0,0,0,0,0,0,0,0,0,0,0,0,0,0,0,0,0,0,0,0,0,0,0,0,0,0,1,1,1,1,1,1,1,1,1,1,1,1,1,0,1,0,0,1,1,0,0,0,1,0,1,0,0,0,0,0,0,0,1,0,0,0,0,0,0,0,0,0,0,0,0,0,0,0,0,0,0,0,0,0,1,0,1,0,0,0,0,0,0,0,0,0,0,0,0,0,0,0,0,0,0,0,0,0,0,0,0,0,0,0,0,0,0,0,0,0,0,0,0,0,0,0,0,0,0,0,0,0,0,0,0,0,0,0,0,0,0,0,0,0,0,0,0,0,0,0,0,0,0,0,0,0,0,0,0,0,0,0,0,0,0,0,0,0,0,0,0,0,0,0,0,0,0,0,0,0,0,0,0,0,0,0,1,0,0,0,0,0,0,0,0,0,0,0,0,0,0,0,0,0,0,0,0,0,0,0,0,0,0,0,0,1,1,0,0,0,0,0,0,0,1,0,0,0,0,0,0,0,0,0,0,0,0,0,0,0,0,0,0,0,0,0,0,0,0,0,0,0,1,0,0,1,1,0,1
Predicted score from SVM:			0.00,0.12,0.01,0.20,0.00,0.02,0.02,0.02,0.01,0.01,0.02,0.03,0.01,0.01,0.01,0.01,0.01,0.00,0.01,0.04,0.00,0.11,0.05,0.03,0.02,0.07,0.08,0.08,0.03,0.07,0.01,0.04,0.01,0.00,0.01,0.02,0.01,0.02,0.02,0.03,0.02,0.10,0.01,0.05,0.07,0.44,0.63,0.67,0.70,0.96,0.99,0.95,0.71,1.00,1.00,0.80,0.97,0.91,0.80,0.39,0.83,0.23,0.31,0.58,0.74,0.13,0.14,0.31,0.67,0.17,0.53,0.46,0.09,0.37,0.33,0.49,0.26,0.25,0.51,0.01,0.03,0.01,0.08,0.03,0.32,0.14,0.02,0.41,0.03,0.08,0.21,0.25,0.20,0.17,0.04,0.02,0.11,0.44,0.19,0.42,0.60,0.19,0.56,0.41,0.01,0.04,0.31,0.02,0.00,0.02,0.01,0.00,0.00,0.00,0.00,0.00,0.00,0.00,0.00,0.00,0.00,0.00,0.00,0.00,0.01,0.00,0.00,0.00,0.00,0.01,0.00,0.00,0.01,0.00,0.00,0.00,0.01,0.01,0.01,0.00,0.01,0.00,0.00,0.01,0.02,0.01,0.05,0.02,0.00,0.01,0.01,0.00,0.00,0.00,0.00,0.00,0.00,0.00,0.00,0.00,0.00,0.00,0.00,0.00,0.00,0.01,0.00,0.01,0.00,0.01,0.00,0.00,0.00,0.00,0.00,0.00,0.00,0.01,0.01,0.02,0.01,0.02,0.00,0.02,0.12,0.03,0.30,0.04,0.32,0.01,0.01,0.00,0.00,0.01,0.06,0.06,0.31,0.15,0.43,0.24,0.15,0.20,0.64,0.28,0.12,0.29,0.21,0.02,0.01,0.01,0.01,0.00,0.01,0.00,0.00,0.01,0.00,0.00,0.00,0.00,0.01,0.00,0.02,0.01,0.31,0.10,0.32,0.18,0.39,0.38,0.22,0.51,0.51,0.03,0.07,0.01,0.16,0.01,0.06,0.14,0.70,0.18,0.10,0.01,0.03,0.04,0.01,0.00,0.00,0.01,0.00,0.00,0.02,0.01,0.00,0.00,0.02,0.01,0.01,0.02,0.04,0.02,0.13,0.10,0.11,0.03,0.43,0.05,0.56,0.26,0.25,0.84,1.00,0.19,0.79
Prediction from RNABindRPlus:		0,0,0,0,0,0,0,0,0,0,0,0,0,0,0,0,0,0,0,0,0,0,0,0,0,0,0,0,0,0,0,0,0,0,0,0,0,0,0,0,0,0,0,0,0,0,0,0,0,1,1,1,0,1,1,0,1,1,0,0,0,0,0,0,0,0,0,0,0,0,0,0,0,0,0,0,0,0,0,0,0,0,0,0,0,0,0,0,0,0,0,0,0,0,0,0,0,0,0,0,0,0,0,0,0,0,0,0,0,0,0,0,0,0,0,0,0,0,0,0,0,0,0,0,0,0,0,0,0,0,0,0,0,0,0,0,0,0,0,0,0,0,0,0,0,0,0,0,0,0,0,0,0,0,0,0,0,0,0,0,0,0,0,0,0,0,0,0,0,0,0,0,0,0,0,0,0,0,0,0,0,0,0,0,0,0,0,0,0,0,0,0,0,0,0,0,0,0,0,0,0,0,0,0,0,0,0,0,0,0,0,0,0,0,0,0,0,0,0,0,0,0,0,0,0,0,1,0,1,1,0,0,0,0,0,0,0,0,0,0,0,0,0,0,0,0,0,0,0,0,0,0,0,0,0,0,0,0,0,0,0,0,0,0,0,0,0,0,0,0,0,0,1,0,0
Predicted score from RNABindRPlus:	0.01,0.02,0.01,0.03,0.01,0.01,0.01,0.01,0.01,0.01,0.01,0.01,0.01,0.01,0.01,0.01,0.01,0.01,0.01,0.01,0.01,0.02,0.01,0.01,0.01,0.01,0.01,0.01,0.01,0.01,0.01,0.01,0.01,0.01,0.01,0.01,0.01,0.01,0.01,0.01,0.01,0.02,0.01,0.01,0.01,0.09,0.23,0.27,0.31,0.65,0.69,0.64,0.32,0.70,0.70,0.43,0.66,0.58,0.43,0.07,0.47,0.03,0.05,0.19,0.35,0.02,0.02,0.05,0.27,0.02,0.15,0.10,0.02,0.07,0.05,0.12,0.04,0.04,0.13,0.01,0.01,0.01,0.01,0.01,0.05,0.02,0.01,0.08,0.01,0.01,0.03,0.04,0.03,0.02,0.01,0.01,0.02,0.09,0.03,0.09,0.20,0.03,0.17,0.08,0.01,0.01,0.05,0.01,0.01,0.01,0.01,0.01,0.01,0.01,0.01,0.01,0.01,0.01,0.01,0.01,0.01,0.01,0.01,0.01,0.01,0.01,0.01,0.01,0.01,0.01,0.01,0.01,0.01,0.01,0.01,0.01,0.01,0.01,0.01,0.01,0.01,0.01,0.01,0.01,0.01,0.01,0.01,0.01,0.01,0.01,0.01,0.01,0.01,0.01,0.01,0.01,0.01,0.01,0.01,0.01,0.01,0.01,0.01,0.01,0.01,0.01,0.01,0.01,0.01,0.01,0.01,0.01,0.01,0.01,0.01,0.01,0.01,0.01,0.01,0.01,0.01,0.01,0.01,0.01,0.02,0.01,0.05,0.01,0.05,0.01,0.01,0.01,0.01,0.01,0.01,0.01,0.05,0.02,0.09,0.03,0.01,0.01,0.14,0.02,0.01,0.02,0.01,0.01,0.01,0.01,0.01,0.01,0.01,0.01,0.01,0.01,0.01,0.01,0.01,0.01,0.01,0.01,0.01,0.01,0.03,0.01,0.50,0.32,0.60,0.58,0.37,0.07,0.07,0.01,0.01,0.01,0.01,0.01,0.01,0.01,0.18,0.01,0.01,0.01,0.01,0.01,0.01,0.01,0.01,0.01,0.01,0.01,0.01,0.01,0.01,0.01,0.01,0.01,0.01,0.01,0.01,0.01,0.02,0.02,0.02,0.01,0.09,0.01,0.17,0.04,0.04,0.49,0.70,0.03,0.42
    #Input sequence length: 201
#Number of binding residues predicted by HomPRIP: 16
#Number of binding residues predicted by SVM: 71
#Number of binding residues predicted by RNABindRPlus: 37
>P08621_merged
sequence:							T,Q,F,L,P,P,N,L,L,A,L,F,A,P,R,D,P,I,P,Y,L,P,P,L,E,K,L,P,H,E,K,H,H,N,Q,P,Y,C,G,I,A,P,Y,I,R,E,F,E,D,P,R,D,A,P,P,P,T,R,A,E,T,R,E,E,R,M,E,R,K,R,R,E,K,I,E,R,R,Q,Q,E,V,E,T,E,L,K,M,W,D,P,H,N,D,P,N,A,Q,G,D,A,F,K,T,L,F,V,A,R,V,N,Y,D,T,T,E,S,K,L,R,R,E,F,E,V,Y,G,P,I,K,R,I,H,M,V,Y,S,K,R,S,G,K,P,R,G,Y,A,F,I,E,Y,E,H,E,R,D,M,H,S,A,Y,K,H,A,D,G,K,K,I,D,G,R,R,V,L,V,D,V,E,R,G,R,T,V,K,G,W,R,P,R,R,L,G,G,G,L,G,G,T,R,R,G
Prediction from HomPRIP:			?,?,?,?,?,?,?,?,?,?,?,?,?,?,?,?,?,?,?,?,?,?,?,?,?,?,?,?,?,?,?,?,?,?,?,?,?,?,?,?,?,?,?,?,?,?,?,?,?,?,?,?,?,?,?,?,?,?,?,?,?,?,?,?,?,?,?,?,?,?,?,?,?,?,?,?,?,?,?,?,?,?,?,?,?,?,?,?,?,?,?,?,?,?,?,?,?,?,?,?,?,0,1,0,1,0,0,0,0,0,1,0,0,0,0,0,0,0,0,0,0,0,0,0,0,0,0,0,0,0,0,1,0,1,0,1,0,0,0,0,0,0,1,1,1,0,1,0,0,0,0,0,0,0,0,0,0,0,0,0,0,0,0,0,0,0,0,0,0,0,1,0,0,1,0,1,1,1,1,0,0,0,0,0,0,?,?,?,?,?,?,?,?,?,?,?,?,?,?,?,?
Predicted score from HomPRIP:		?,?,?,?,?,?,?,?,?,?,?,?,?,?,?,?,?,?,?,?,?,?,?,?,?,?,?,?,?,?,?,?,?,?,?,?,?,?,?,?,?,?,?,?,?,?,?,?,?,?,?,?,?,?,?,?,?,?,?,?,?,?,?,?,?,?,?,?,?,?,?,?,?,?,?,?,?,?,?,?,?,?,?,?,?,?,?,?,?,?,?,?,?,?,?,?,?,?,?,?,?,0.00,0.58,0.00,1.00,0.00,0.21,0.21,0.16,0.38,0.50,0.00,0.00,0.00,0.23,0.00,0.00,0.00,0.23,0.00,0.00,0.00,0.00,0.00,0.00,0.00,0.00,0.23,0.23,0.23,0.00,0.67,0.23,0.67,0.39,0.67,0.45,0.34,0.00,0.00,0.11,0.33,0.72,0.50,0.67,0.00,0.84,0.00,0.00,0.00,0.23,0.00,0.00,0.00,0.00,0.00,0.00,0.00,0.00,0.00,0.00,0.00,0.00,0.30,0.00,0.00,0.00,0.00,0.00,0.00,0.70,0.39,0.20,0.70,0.30,0.50,0.70,0.70,0.70,0.39,0.00,0.00,0.39,0.00,0.00,?,?,?,?,?,?,?,?,?,?,?,?,?,?,?,?
Prediction from SVM:				0,0,0,0,0,0,0,0,0,0,0,0,0,0,0,0,0,0,0,0,0,1,0,0,0,1,0,1,1,1,1,1,1,1,1,1,1,1,1,1,0,0,0,0,0,0,0,0,0,0,0,0,0,0,0,0,0,0,0,0,0,0,0,0,0,0,0,0,1,1,0,0,1,0,0,0,0,0,0,0,0,0,0,0,0,0,0,0,0,0,0,0,0,0,0,0,0,0,0,0,0,0,0,0,0,0,0,0,0,0,1,0,0,0,0,0,0,0,0,0,0,0,0,0,0,0,0,0,0,1,0,1,1,1,1,1,1,1,1,1,1,1,1,1,1,1,1,1,1,1,0,1,0,0,0,0,1,1,0,0,1,1,0,0,0,0,1,0,1,0,1,1,0,0,0,0,0,0,1,1,1,1,1,1,1,1,1,1,1,1,1,1,1,1,1,1,1,1,1,1,1
Predicted score from SVM:			0.01,0.01,0.35,0.00,0.03,0.04,0.01,0.00,0.03,0.01,0.01,0.03,0.02,0.02,0.12,0.14,0.12,0.02,0.20,0.35,0.03,0.57,0.34,0.25,0.27,0.64,0.40,0.50,0.64,0.70,0.91,0.93,0.77,0.89,0.91,0.95,0.72,0.94,0.85,0.51,0.41,0.12,0.03,0.01,0.00,0.00,0.00,0.00,0.00,0.00,0.00,0.00,0.00,0.00,0.00,0.00,0.00,0.00,0.00,0.00,0.02,0.15,0.02,0.04,0.27,0.48,0.19,0.27,0.71,0.58,0.37,0.39,0.84,0.24,0.02,0.12,0.29,0.06,0.07,0.04,0.01,0.03,0.01,0.00,0.01,0.01,0.05,0.04,0.04,0.01,0.03,0.07,0.04,0.03,0.06,0.04,0.23,0.13,0.17,0.03,0.31,0.21,0.12,0.10,0.13,0.03,0.12,0.21,0.05,0.15,0.57,0.24,0.01,0.03,0.05,0.03,0.03,0.00,0.01,0.05,0.01,0.01,0.04,0.18,0.09,0.22,0.21,0.06,0.45,0.68,0.15,0.77,0.53,0.68,0.74,0.69,0.82,0.58,0.90,0.93,0.99,0.99,1.00,1.00,1.00,0.76,1.00,0.82,0.73,0.71,0.37,0.60,0.38,0.39,0.14,0.04,0.51,0.68,0.26,0.07,0.73,0.63,0.22,0.32,0.48,0.29,0.74,0.37,0.80,0.31,0.95,0.77,0.08,0.31,0.21,0.31,0.32,0.44,0.84,0.54,0.94,0.77,0.53,0.95,0.94,0.98,0.92,0.98,1.00,1.00,1.00,1.00,1.00,1.00,1.00,0.98,1.00,1.00,1.00,1.00,0.97
Prediction from RNABindRPlus:		0,0,0,0,0,0,0,0,0,0,0,0,0,0,0,0,0,0,0,0,0,0,0,0,0,0,0,0,0,0,1,1,0,1,1,1,0,1,1,0,0,0,0,0,0,0,0,0,0,0,0,0,0,0,0,0,0,0,0,0,0,0,0,0,0,0,0,0,0,0,0,0,0,0,0,0,0,0,0,0,0,0,0,0,0,0,0,0,0,0,0,0,0,0,0,0,0,0,0,0,0,0,0,0,0,0,0,0,0,0,0,0,0,0,0,0,0,0,0,0,0,0,0,0,0,0,0,0,0,0,0,1,0,1,1,1,1,0,0,0,1,1,1,1,1,0,1,0,0,0,0,0,0,0,0,0,0,0,0,0,0,0,0,0,0,0,0,0,0,0,1,1,0,0,0,0,0,0,1,0,0,0,0,0,0,1,1,1,1,1,1,1,1,1,1,1,1,1,1,1,1
Predicted score from RNABindRPlus:	0.01,0.01,0.06,0.01,0.01,0.01,0.01,0.01,0.01,0.01,0.01,0.01,0.01,0.01,0.02,0.02,0.02,0.01,0.03,0.06,0.01,0.18,0.06,0.04,0.04,0.24,0.08,0.13,0.24,0.31,0.58,0.61,0.39,0.56,0.58,0.64,0.33,0.62,0.50,0.13,0.08,0.02,0.01,0.01,0.01,0.01,0.01,0.01,0.01,0.01,0.01,0.01,0.01,0.01,0.01,0.01,0.01,0.01,0.01,0.01,0.01,0.02,0.01,0.01,0.04,0.11,0.03,0.04,0.32,0.19,0.07,0.07,0.49,0.03,0.01,0.02,0.04,0.01,0.01,0.01,0.01,0.01,0.01,0.01,0.01,0.01,0.01,0.01,0.01,0.01,0.01,0.01,0.01,0.01,0.01,0.01,0.03,0.02,0.02,0.01,0.05,0.01,0.07,0.01,0.26,0.01,0.02,0.03,0.01,0.04,0.40,0.02,0.01,0.01,0.01,0.01,0.01,0.01,0.01,0.01,0.01,0.01,0.01,0.01,0.01,0.02,0.01,0.01,0.11,0.31,0.01,0.79,0.16,0.69,0.53,0.70,0.69,0.28,0.40,0.44,0.62,0.78,0.94,0.88,0.93,0.23,0.96,0.30,0.20,0.19,0.07,0.11,0.04,0.04,0.01,0.01,0.07,0.16,0.02,0.01,0.20,0.13,0.02,0.07,0.06,0.02,0.21,0.03,0.27,0.03,0.92,0.57,0.01,0.24,0.04,0.13,0.25,0.40,0.86,0.27,0.45,0.24,0.26,0.46,0.45,0.68,0.60,0.68,0.70,0.70,0.70,0.70,0.70,0.70,0.70,0.68,0.70,0.70,0.70,0.70,0.66
    #Input sequence length: 270
#Number of binding residues predicted by HomPRIP: 41
#Number of binding residues predicted by SVM: 42
#Number of binding residues predicted by RNABindRPlus: 26
>P23246_merged
sequence:							S,D,S,E,G,F,K,A,N,L,S,L,L,R,R,P,G,E,K,T,Y,T,Q,R,C,R,L,F,V,G,N,L,P,A,D,I,T,E,D,E,F,K,R,L,F,A,K,Y,G,E,P,G,E,V,F,I,N,K,G,K,G,F,G,F,I,K,L,E,S,R,A,L,A,E,I,A,K,A,E,L,D,D,T,P,M,R,G,R,Q,L,R,V,R,F,A,T,H,A,A,A,L,S,V,R,N,L,S,P,Y,V,S,N,E,L,L,E,E,A,F,S,Q,F,G,P,I,E,R,A,V,V,I,V,D,D,R,G,R,S,T,G,K,G,I,V,E,F,A,S,K,P,A,A,R,K,A,F,E,R,C,S,E,G,V,F,L,L,T,T,T,P,R,P,V,I,V,E,P,L,E,Q,L,D,D,E,D,G,L,P,E,K,L,A,Q,K,N,P,M,Y,Q,K,E,R,E,T,P,P,R,F,A,Q,H,G,T,F,E,Y,E,Y,S,Q,R,W,K,S,L,D,E,M,E,K,Q,Q,R,E,Q,V,E,K,N,M,K,D,A,K,D,K,L,E,S,E,M,E,D,A,Y,H,E,H,Q,A,N,L,L,R,Q,D,L,M,R,R
Prediction from HomPRIP:			?,?,?,?,?,?,?,?,?,?,?,?,?,?,?,?,?,?,?,?,?,?,?,0,0,1,0,1,0,1,1,0,0,1,0,0,0,0,0,0,0,0,0,0,0,0,0,0,0,0,0,0,0,0,1,0,1,1,0,1,1,1,0,1,0,0,0,0,0,0,0,0,0,0,0,0,0,0,0,0,0,0,0,0,0,0,1,1,1,1,1,0,1,1,1,1,1,1,1,0,?,0,1,1,1,0,1,0,1,0,1,1,0,0,0,0,0,0,0,0,0,0,0,0,0,1,1,0,1,0,1,0,0,1,0,0,0,0,1,1,1,0,1,0,1,0,0,0,0,0,0,0,0,0,0,0,0,?,?,?,?,?,?,?,?,?,?,?,?,?,?,?,?,?,?,?,?,?,?,?,?,?,?,?,?,?,?,?,?,?,?,?,?,?,?,?,?,?,?,?,?,?,?,?,?,?,?,?,?,?,?,?,?,?,?,?,?,?,?,?,?,?,?,?,?,?,?,?,?,?,?,?,?,?,?,?,?,?,?,?,?,?,?,?,?,?,?,?,?,?,?,?,?,?,?,?,?,?,?,?,?,?,?,?,?,?,?,?,?,?
Predicted score from HomPRIP:		?,?,?,?,?,?,?,?,?,?,?,?,?,?,?,?,?,?,?,?,?,?,?,0.00,0.00,1.00,0.00,1.00,0.00,1.00,1.00,0.00,0.00,1.00,0.00,0.00,0.00,0.00,0.00,0.00,0.00,0.00,0.00,0.00,0.00,0.00,0.00,0.00,0.00,0.00,0.00,0.00,0.00,0.00,1.00,0.00,1.00,1.00,0.00,0.50,1.00,1.00,0.00,1.00,0.00,0.00,0.00,0.00,0.00,0.00,0.00,0.00,0.00,0.00,0.00,0.00,0.00,0.00,0.00,0.00,0.00,0.00,0.00,0.00,0.00,0.00,1.00,1.00,1.00,1.00,1.00,0.00,1.00,1.00,1.00,1.00,1.00,1.00,1.00,0.00,?,0.00,1.00,1.00,1.00,0.00,1.00,0.00,1.00,0.00,0.50,0.50,0.00,0.00,0.00,0.00,0.00,0.00,0.00,0.00,0.00,0.00,0.00,0.00,0.00,1.00,1.00,0.00,1.00,0.00,1.00,0.00,0.00,0.50,0.00,0.00,0.00,0.00,1.00,0.50,1.00,0.00,1.00,0.00,1.00,0.00,0.00,0.00,0.00,0.00,0.00,0.00,0.00,0.00,0.00,0.00,0.00,?,?,?,?,?,?,?,?,?,?,?,?,?,?,?,?,?,?,?,?,?,?,?,?,?,?,?,?,?,?,?,?,?,?,?,?,?,?,?,?,?,?,?,?,?,?,?,?,?,?,?,?,?,?,?,?,?,?,?,?,?,?,?,?,?,?,?,?,?,?,?,?,?,?,?,?,?,?,?,?,?,?,?,?,?,?,?,?,?,?,?,?,?,?,?,?,?,?,?,?,?,?,?,?,?,?,?,?,?,?,?,?,?
Prediction from SVM:				0,0,0,0,0,0,0,0,0,0,0,0,0,0,0,0,0,0,1,1,1,1,1,1,0,1,1,1,0,1,0,0,0,0,0,0,0,0,0,0,0,0,0,0,0,0,0,0,0,0,0,0,0,0,0,0,1,1,0,1,0,0,0,0,0,0,0,0,0,0,0,0,0,0,0,0,0,0,0,0,0,0,0,0,0,1,1,1,1,1,1,1,1,1,1,1,1,1,1,1,0,1,0,1,0,0,0,1,0,0,0,0,0,0,0,0,0,0,0,0,0,0,0,0,0,0,1,0,0,0,0,0,1,0,1,1,1,1,1,0,1,0,0,0,0,0,0,0,0,0,0,0,1,0,0,0,0,0,0,0,0,0,0,0,0,0,0,0,0,0,0,0,0,0,0,0,0,0,0,0,0,0,0,0,0,0,0,0,0,0,0,0,0,0,0,0,0,0,0,0,0,0,0,0,0,0,0,0,0,0,0,0,0,0,0,0,0,0,0,0,0,0,0,0,0,0,0,0,0,0,0,0,0,0,0,0,0,0,0,0,0,0,0,0,0,0,0,0,0,0,0,0,0,0,0,0,0,0,0,0,0,0,0,0,0,0,0,0,1,1
Predicted score from SVM:			0.00,0.00,0.00,0.00,0.00,0.00,0.00,0.00,0.02,0.00,0.10,0.02,0.05,0.27,0.23,0.35,0.15,0.12,0.58,0.54,0.79,0.70,0.71,0.68,0.46,0.99,0.63,0.98,0.22,0.82,0.26,0.14,0.12,0.13,0.01,0.00,0.00,0.01,0.00,0.00,0.00,0.00,0.00,0.00,0.00,0.00,0.01,0.02,0.02,0.04,0.01,0.03,0.06,0.04,0.19,0.04,0.70,0.74,0.45,0.62,0.46,0.48,0.19,0.20,0.13,0.28,0.08,0.04,0.06,0.05,0.01,0.01,0.03,0.03,0.12,0.08,0.08,0.16,0.11,0.02,0.01,0.04,0.20,0.15,0.42,0.69,0.68,0.97,0.68,0.77,0.98,0.65,0.99,0.98,0.99,0.99,0.96,0.86,0.54,0.76,0.42,0.91,0.11,0.87,0.44,0.14,0.36,0.58,0.13,0.01,0.02,0.02,0.01,0.01,0.00,0.00,0.00,0.00,0.00,0.01,0.01,0.01,0.03,0.06,0.02,0.14,0.52,0.10,0.14,0.10,0.26,0.36,0.53,0.39,0.89,0.62,0.88,0.82,0.94,0.41,0.65,0.06,0.15,0.01,0.29,0.06,0.05,0.17,0.15,0.24,0.14,0.18,0.56,0.44,0.03,0.00,0.03,0.39,0.00,0.01,0.05,0.05,0.01,0.01,0.01,0.01,0.03,0.05,0.12,0.14,0.47,0.43,0.03,0.03,0.01,0.02,0.02,0.01,0.00,0.01,0.00,0.00,0.00,0.00,0.00,0.00,0.00,0.00,0.00,0.03,0.00,0.00,0.01,0.01,0.01,0.00,0.00,0.01,0.01,0.02,0.00,0.01,0.01,0.01,0.00,0.03,0.03,0.02,0.01,0.04,0.08,0.04,0.04,0.01,0.03,0.02,0.02,0.01,0.00,0.05,0.05,0.07,0.07,0.01,0.00,0.01,0.00,0.00,0.01,0.01,0.00,0.00,0.01,0.00,0.00,0.00,0.00,0.02,0.02,0.01,0.01,0.00,0.00,0.00,0.01,0.02,0.00,0.01,0.00,0.01,0.00,0.00,0.00,0.00,0.02,0.01,0.00,0.00,0.00,0.00,0.01,0.01,0.00,0.11,0.04,0.01,0.00,0.04,0.51,0.96
Prediction from RNABindRPlus:		0,0,0,0,0,0,0,0,0,0,0,0,0,0,0,0,0,0,0,0,0,0,0,0,0,1,0,1,0,1,0,0,0,0,0,0,0,0,0,0,0,0,0,0,0,0,0,0,0,0,0,0,0,0,0,0,1,1,0,0,1,1,0,0,0,0,0,0,0,0,0,0,0,0,0,0,0,0,0,0,0,0,0,0,0,0,1,1,1,1,1,0,1,1,1,1,1,1,1,0,0,0,0,1,1,0,1,0,0,0,0,0,0,0,0,0,0,0,0,0,0,0,0,0,0,0,1,0,0,0,0,0,0,0,0,0,0,0,1,0,1,0,0,0,0,0,0,0,0,0,0,0,0,0,0,0,0,0,0,0,0,0,0,0,0,0,0,0,0,0,0,0,0,0,0,0,0,0,0,0,0,0,0,0,0,0,0,0,0,0,0,0,0,0,0,0,0,0,0,0,0,0,0,0,0,0,0,0,0,0,0,0,0,0,0,0,0,0,0,0,0,0,0,0,0,0,0,0,0,0,0,0,0,0,0,0,0,0,0,0,0,0,0,0,0,0,0,0,0,0,0,0,0,0,0,0,0,0,0,0,0,0,0,0,0,0,0,0,0,1
Predicted score from RNABindRPlus:	0.01,0.01,0.01,0.01,0.01,0.01,0.01,0.01,0.01,0.01,0.02,0.01,0.01,0.04,0.03,0.06,0.02,0.02,0.19,0.15,0.42,0.31,0.32,0.16,0.06,0.98,0.13,0.97,0.02,0.94,0.42,0.01,0.01,0.26,0.01,0.01,0.01,0.01,0.01,0.01,0.01,0.01,0.01,0.01,0.01,0.01,0.01,0.01,0.01,0.01,0.01,0.01,0.01,0.01,0.33,0.01,0.89,0.91,0.05,0.46,0.69,0.71,0.01,0.34,0.01,0.02,0.01,0.01,0.01,0.01,0.01,0.01,0.01,0.01,0.01,0.01,0.01,0.01,0.01,0.01,0.01,0.01,0.01,0.01,0.04,0.17,0.88,0.97,0.88,0.92,0.97,0.14,0.98,0.97,0.98,0.98,0.97,0.95,0.77,0.23,0.09,0.41,0.24,0.95,0.66,0.01,0.56,0.10,0.26,0.01,0.03,0.03,0.01,0.01,0.01,0.01,0.01,0.01,0.01,0.01,0.01,0.01,0.01,0.01,0.01,0.27,0.75,0.01,0.27,0.01,0.42,0.03,0.08,0.19,0.38,0.12,0.37,0.30,0.97,0.21,0.86,0.01,0.28,0.01,0.46,0.01,0.01,0.01,0.01,0.02,0.01,0.01,0.09,0.05,0.01,0.01,0.01,0.07,0.01,0.01,0.01,0.01,0.01,0.01,0.01,0.01,0.01,0.01,0.02,0.02,0.11,0.09,0.01,0.01,0.01,0.01,0.01,0.01,0.01,0.01,0.01,0.01,0.01,0.01,0.01,0.01,0.01,0.01,0.01,0.01,0.01,0.01,0.01,0.01,0.01,0.01,0.01,0.01,0.01,0.01,0.01,0.01,0.01,0.01,0.01,0.01,0.01,0.01,0.01,0.01,0.01,0.01,0.01,0.01,0.01,0.01,0.01,0.01,0.01,0.01,0.01,0.01,0.01,0.01,0.01,0.01,0.01,0.01,0.01,0.01,0.01,0.01,0.01,0.01,0.01,0.01,0.01,0.01,0.01,0.01,0.01,0.01,0.01,0.01,0.01,0.01,0.01,0.01,0.01,0.01,0.01,0.01,0.01,0.01,0.01,0.01,0.01,0.01,0.01,0.01,0.01,0.01,0.01,0.02,0.01,0.01,0.01,0.01,0.13,0.65
    #Input sequence length: 1165
#Number of binding residues predicted by HomPRIP: 10
#Number of binding residues predicted by SVM: 352
#Number of binding residues predicted by RNABindRPlus: 70
>P30876_merged
sequence:							Y,D,E,D,D,D,E,I,T,P,D,L,W,Q,E,A,C,W,I,V,I,S,S,Y,F,D,E,K,G,L,V,R,Q,Q,L,D,S,F,D,E,F,I,Q,M,S,V,Q,R,I,V,E,D,A,P,P,I,D,L,Q,A,E,A,Q,H,A,S,G,E,V,E,E,P,P,R,Y,L,L,K,F,E,Q,I,Y,L,S,K,P,T,H,W,E,R,D,G,A,P,S,P,M,M,P,N,E,A,R,L,R,N,L,T,Y,S,A,P,L,Y,V,D,I,T,K,T,V,I,K,E,G,E,E,Q,L,Q,T,Q,H,Q,K,T,F,I,G,K,I,P,I,M,L,R,S,T,Y,C,L,L,N,G,L,T,D,R,D,L,C,E,L,N,E,C,P,L,D,P,G,G,Y,F,I,I,N,G,S,E,K,V,L,I,A,Q,E,K,M,A,T,N,T,V,Y,V,F,A,K,K,D,S,K,Y,A,Y,T,G,E,C,R,S,C,L,E,N,S,S,R,P,T,S,T,I,W,V,S,M,L,A,R,G,G,Q,G,A,K,K,S,A,I,G,Q,R,I,V,A,T,L,P,Y,I,K,Q,E,V,P,I,I,I,V,F,R,A,L,G,F,V,S,D,R,D,I,L,E,H,I,I,Y,D,F,E,D,P,E,M,M,E,M,V,K,P,S,L,D,E,A,F,V,I,Q,E,Q,N,V,A,L,N,F,I,G,S,R,G,A,K,P,G,V,T,K,E,K,R,I,K,Y,A,K,E,V,L,Q,K,E,M,L,P,H,V,G,V,S,D,F,C,E,T,K,K,A,Y,F,L,G,Y,M,V,H,R,L,L,L,A,A,L,G,R,R,E,L,D,D,R,D,H,Y,G,N,K,R,L,D,L,A,G,P,L,L,A,F,L,F,R,G,M,F,K,N,L,L,K,E,V,R,I,Y,A,Q,K,F,I,D,R,G,K,D,F,N,L,E,L,A,I,K,T,R,I,I,S,D,G,L,K,Y,S,L,A,T,G,N,W,G,D,Q,K,K,A,H,Q,A,R,A,G,V,S,Q,V,L,N,R,L,T,F,A,S,T,L,S,H,L,R,R,L,N,S,P,I,G,R,D,G,K,L,A,K,P,R,Q,L,H,N,T,L,W,G,M,V,C,P,A,E,T,P,E,G,H,A,V,G,L,V,K,N,L,A,L,M,A,Y,I,S,V,G,S,Q,P,S,P,I,L,E,F,L,E,E,W,S,M,E,N,L,E,E,I,S,P,A,A,I,A,D,A,T,K,I,F,V,N,G,C,W,V,G,I,H,K,D,P,E,Q,L,M,N,T,L,R,K,L,R,R,Q,M,D,I,I,V,S,E,V,S,M,I,R,D,I,R,E,R,E,I,R,I,Y,T,D,A,G,R,I,C,R,P,L,L,I,V,E,K,Q,K,L,L,L,K,K,R,H,I,D,Q,L,K,E,R,E,Y,N,N,Y,S,W,Q,D,L,V,A,S,G,V,V,E,Y,I,D,T,L,E,E,E,T,V,M,L,A,M,T,P,D,D,L,Q,E,K,E,V,A,Y,C,S,T,Y,T,H,C,E,I,H,P,S,M,I,L,G,V,C,A,S,I,I,P,F,P,D,H,N,Q,S,P,R,N,T,Y,Q,S,A,M,G,K,Q,A,M,G,V,Y,I,T,N,F,H,V,R,M,D,T,L,A,H,V,L,Y,Y,P,Q,K,P,L,V,T,T,R,S,M,E,Y,L,R,F,R,E,L,P,A,G,I,N,S,I,V,A,I,A,S,Y,T,G,Y,N,Q,E,D,S,V,I,M,N,R,S,A,V,D,R,G,F,F,R,S,V,F,Y,R,S,Y,K,E,Q,E,S,K,K,G,F,D,Q,E,E,V,F,E,K,P,T,R,E,T,C,Q,G,M,R,H,A,I,Y,D,K,L,D,D,D,G,L,I,A,P,G,V,R,V,S,G,D,D,V,I,I,G,K,T,V,T,L,P,E,N,E,D,E,L,E,S,T,N,R,R,Y,T,K,R,D,C,S,T,F,L,R,T,S,E,T,G,I,V,D,Q,V,M,V,T,L,N,Q,E,G,Y,K,F,C,K,I,R,V,R,S,V,R,I,P,Q,I,G,D,K,F,A,S,R,H,G,Q,K,G,T,C,G,I,Q,Y,R,Q,E,D,M,P,F,T,C,E,G,I,T,P,D,I,I,I,N,P,H,A,I,P,S,R,M,T,I,G,H,L,I,E,C,L,Q,G,K,V,S,A,N,K,G,E,I,G,D,A,T,P,F,N,D,A,V,N,V,Q,K,I,S,N,L,L,S,D,Y,G,Y,H,L,R,G,N,E,V,L,Y,N,G,F,T,G,R,K,I,T,S,Q,I,F,I,G,P,T,Y,Y,Q,R,L,K,H,M,V,D,D,K,I,H,S,R,A,R,G,P,I,Q,I,L,N,R,Q,P,M,E,G,R,S,R,D,G,G,L,R,F,G,E,M,E,R,D,C,Q,I,A,H,G,A,A,Q,F,L,R,E,R,L,F,E,A,S,D,P,Y,Q,V,H,V,C,N,L,C,G,I,M,A,I,A,N,T,R,T,H,T,Y,E,C,R,G,C,R,N,K,T,Q,I,S,L,V,R,M,P,Y,A,C,K,L,L,F,Q,E,L,M,S,M,S,I,A,P,R,M,M,S,V
Prediction from HomPRIP:			?,?,?,?,?,0,0,0,0,0,?,0,0,0,0,0,0,0,0,0,0,0,0,0,0,0,0,0,0,0,0,0,0,0,0,0,0,0,0,0,0,0,0,0,0,0,0,0,0,0,0,0,0,0,0,0,0,0,0,0,0,0,0,0,0,0,0,0,0,0,0,0,0,0,0,0,0,0,0,0,0,0,0,0,0,0,0,0,0,0,0,0,0,0,0,0,0,0,0,0,0,0,0,0,0,0,0,0,0,0,0,0,0,0,0,0,0,0,0,0,0,?,?,?,?,?,?,?,?,?,?,?,?,?,?,?,0,0,0,0,0,0,0,0,0,0,0,0,0,0,0,0,0,0,0,0,0,0,0,0,0,0,0,0,0,0,0,0,0,0,0,0,0,0,0,0,0,0,0,0,0,0,0,0,0,0,0,0,0,0,0,0,0,0,0,0,0,0,0,0,0,0,0,0,0,0,0,0,0,0,0,0,0,0,0,0,0,0,0,0,0,0,0,0,0,0,0,0,0,0,0,0,0,0,0,0,0,0,0,0,?,?,?,?,?,?,0,0,0,0,0,0,0,0,0,0,0,0,0,0,0,0,0,0,0,0,0,0,0,0,0,0,0,0,0,0,0,0,0,0,0,0,0,0,0,0,0,0,0,0,0,0,0,0,0,0,0,0,0,0,0,0,0,0,0,0,0,0,0,0,0,0,0,0,0,0,0,0,0,0,0,0,0,0,0,0,0,0,0,0,0,0,0,0,0,0,0,0,0,0,0,0,0,0,0,0,0,0,0,0,0,0,0,0,0,0,0,0,0,0,0,0,0,0,0,0,0,0,0,0,0,0,0,0,0,0,0,0,0,0,0,0,0,0,0,0,0,0,0,0,0,0,0,0,0,0,0,0,0,0,0,0,0,0,0,0,0,0,0,0,0,0,0,0,0,0,0,0,0,0,0,0,0,0,0,0,0,0,0,0,0,0,0,0,0,0,0,0,0,0,0,0,0,0,0,0,0,0,0,0,0,0,0,0,1,1,0,0,1,0,0,0,0,0,0,0,0,0,0,0,0,0,0,0,0,0,0,0,0,0,0,0,0,0,0,0,0,0,0,0,0,0,0,0,0,0,0,0,0,0,0,0,0,0,0,0,0,0,1,0,0,0,0,0,0,0,0,0,0,0,0,0,0,0,0,0,0,0,0,0,0,0,0,0,0,0,0,0,0,0,0,0,0,0,0,0,0,0,0,0,0,0,0,0,0,0,0,0,0,0,0,0,0,0,0,0,0,0,0,0,0,0,0,0,0,0,0,0,0,0,0,0,0,0,0,0,0,?,0,0,0,0,0,0,0,0,0,0,0,0,0,0,0,0,0,0,0,0,0,0,0,0,0,0,0,0,0,0,0,0,0,0,0,0,0,0,0,0,0,0,0,0,0,0,0,0,0,0,0,0,0,0,0,0,0,0,0,0,0,0,0,0,0,0,0,0,0,0,0,0,0,0,0,0,0,0,0,0,0,0,0,0,0,0,0,0,0,0,0,0,0,0,0,0,0,0,0,0,0,0,0,0,0,0,0,0,0,0,0,0,0,0,0,0,0,0,0,0,0,0,0,0,0,0,0,0,0,1,0,0,0,1,0,0,0,0,0,0,0,0,0,0,0,0,0,0,0,0,0,0,0,0,0,0,0,0,0,0,0,0,0,0,0,0,0,0,0,0,0,0,0,0,0,0,0,0,0,0,0,0,0,0,0,0,0,0,0,0,0,0,0,0,0,0,0,0,0,0,0,0,0,0,0,0,0,0,0,0,0,0,0,0,0,0,0,0,0,0,0,0,0,0,0,0,0,0,0,0,0,0,0,0,0,0,0,0,0,0,0,0,0,0,0,0,0,0,0,0,0,0,0,0,0,0,0,0,0,0,0,0,0,0,0,0,0,0,0,0,0,0,0,0,0,0,0,?,?,?,?,?,?,?,?,?,?,?,?,?,0,0,0,0,0,0,0,0,0,0,0,0,0,0,0,0,0,0,0,0,0,0,0,0,0,0,0,0,0,0,0,0,0,0,0,0,0,0,0,0,0,0,0,0,0,0,1,0,0,0,0,0,0,0,1,0,0,0,0,0,0,0,0,0,0,0,0,0,0,0,0,0,0,0,0,0,0,0,0,0,0,0,0,0,0,0,0,0,0,0,0,0,0,0,0,0,0,0,0,0,0,0,0,0,0,0,0,0,0,0,0,0,0,0,0,0,0,?,0,0,0,0,0,0,0,0,0,0,0,0,0,0,0,0,0,0,0,0,0,0,0,0,0,0,0,0,0,0,0,0,0,0,0,0,0,0,0,0,0,0,0,0,0,0,0,1,0,0,0,0,1,0,0,0,0,0,0,0,0,0,0,0,0,0,0,0,0,0,0,0,0,0,0,0,0,0,0,0,0,0,0,0,0,0,0,0,0,0,0,0,0,0,0,0,0,0,0,0,0,0,0,0,0,0,0,0,0,0,0,0,0,0,0,0,0,0,0,0,0,0,0,0,0,0,0,0,0,0,0,0,0,0,0,0,0,0,0,0,0,0,0,0,0,0,0,0,0,0,0,0,0,0,0,0,0,0,0,0,0,0,0,0,0,0,0,0,?
Predicted score from HomPRIP:		?,?,?,?,?,0.00,0.00,0.00,0.00,0.00,?,0.00,0.00,0.00,0.00,0.00,0.00,0.00,0.00,0.00,0.00,0.00,0.00,0.00,0.00,0.00,0.00,0.00,0.00,0.00,0.00,0.00,0.00,0.00,0.00,0.00,0.00,0.00,0.00,0.00,0.00,0.00,0.00,0.00,0.00,0.00,0.00,0.00,0.00,0.00,0.00,0.00,0.00,0.00,0.00,0.00,0.00,0.00,0.00,0.00,0.00,0.00,0.00,0.00,0.00,0.00,0.00,0.00,0.00,0.00,0.00,0.00,0.00,0.00,0.00,0.00,0.00,0.00,0.00,0.00,0.00,0.00,0.00,0.00,0.00,0.00,0.00,0.00,0.00,0.00,0.00,0.00,0.00,0.00,0.00,0.00,0.00,0.00,0.00,0.00,0.00,0.00,0.00,0.00,0.00,0.00,0.00,0.00,0.00,0.00,0.00,0.00,0.00,0.00,0.00,0.00,0.00,0.00,0.00,0.00,0.00,?,?,?,?,?,?,?,?,?,?,?,?,?,?,?,0.00,0.00,0.00,0.00,0.00,0.00,0.00,0.00,0.00,0.00,0.00,0.00,0.00,0.00,0.00,0.00,0.00,0.00,0.00,0.00,0.00,0.00,0.00,0.00,0.00,0.00,0.00,0.00,0.00,0.00,0.00,0.00,0.00,0.00,0.00,0.00,0.00,0.00,0.00,0.00,0.00,0.00,0.00,0.00,0.00,0.00,0.00,0.00,0.00,0.00,0.00,0.00,0.00,0.00,0.00,0.00,0.00,0.00,0.00,0.00,0.00,0.00,0.00,0.00,0.00,0.00,0.00,0.00,0.00,0.00,0.00,0.00,0.00,0.00,0.00,0.00,0.00,0.00,0.00,0.00,0.00,0.00,0.00,0.00,0.00,0.00,0.00,0.00,0.00,0.00,0.00,0.00,0.00,0.00,0.00,0.00,0.00,0.00,0.00,0.00,0.00,0.00,0.00,0.00,?,?,?,?,?,?,0.00,0.00,0.00,0.00,0.00,0.00,0.00,0.00,0.00,0.00,0.00,0.00,0.00,0.00,0.00,0.00,0.00,0.00,0.00,0.00,0.00,0.00,0.00,0.00,0.00,0.00,0.00,0.00,0.00,0.00,0.00,0.00,0.00,0.00,0.00,0.00,0.00,0.00,0.00,0.00,0.00,0.00,0.00,0.00,0.00,0.00,0.00,0.00,0.00,0.00,0.00,0.00,0.00,0.00,0.00,0.00,0.00,0.00,0.00,0.00,0.00,0.00,0.00,0.00,0.00,0.00,0.00,0.00,0.00,0.00,0.00,0.00,0.00,0.00,0.00,0.00,0.00,0.00,0.00,0.00,0.00,0.00,0.00,0.00,0.00,0.00,0.00,0.00,0.00,0.00,0.00,0.00,0.00,0.00,0.00,0.00,0.00,0.00,0.00,0.00,0.00,0.00,0.00,0.00,0.00,0.00,0.00,0.00,0.00,0.00,0.00,0.00,0.00,0.00,0.00,0.00,0.00,0.00,0.00,0.00,0.00,0.00,0.00,0.00,0.00,0.00,0.00,0.00,0.00,0.00,0.00,0.00,0.00,0.00,0.00,0.00,0.00,0.00,0.00,0.00,0.00,0.00,0.00,0.00,0.00,0.00,0.00,0.00,0.00,0.00,0.00,0.00,0.00,0.00,0.00,0.00,0.00,0.00,0.00,0.00,0.00,0.00,0.00,0.00,0.00,0.00,0.00,0.00,0.00,0.00,0.00,0.00,0.00,0.00,0.00,0.00,0.00,0.00,0.00,0.00,0.00,0.00,0.00,0.00,0.00,0.00,0.00,0.00,0.00,0.00,0.00,0.00,0.00,0.00,0.05,0.05,0.34,0.00,0.00,0.00,0.00,0.00,0.03,0.00,0.00,0.00,0.00,0.36,0.79,0.84,0.00,0.03,0.95,0.00,0.00,0.39,0.00,0.32,0.00,0.00,0.00,0.00,0.00,0.00,0.00,0.00,0.00,0.00,0.45,0.00,0.08,0.00,0.00,0.00,0.00,0.00,0.00,0.00,0.00,0.00,0.00,0.00,0.00,0.00,0.00,0.00,0.00,0.00,0.00,0.00,0.00,0.00,0.00,0.00,0.00,0.00,0.00,0.00,0.00,0.37,0.42,0.03,0.71,0.08,0.03,0.00,0.00,0.18,0.00,0.00,0.00,0.00,0.00,0.00,0.00,0.00,0.00,0.00,0.00,0.00,0.00,0.00,0.00,0.00,0.00,0.00,0.00,0.00,0.00,0.00,0.00,0.00,0.00,0.00,0.00,0.00,0.00,0.00,0.00,0.00,0.00,0.00,0.00,0.00,0.00,0.00,0.00,0.00,0.00,0.00,0.00,0.00,0.00,0.00,0.00,0.00,0.00,0.00,0.00,0.00,0.00,0.00,0.00,0.00,0.00,0.00,0.00,0.00,0.00,0.00,0.00,0.00,0.00,0.00,0.00,0.00,0.00,0.00,0.00,0.00,0.00,?,0.00,0.00,0.00,0.00,0.00,0.00,0.00,0.00,0.00,0.00,0.00,0.00,0.00,0.00,0.00,0.00,0.00,0.00,0.00,0.00,0.00,0.00,0.00,0.00,0.00,0.00,0.00,0.00,0.00,0.00,0.00,0.00,0.00,0.00,0.00,0.00,0.00,0.00,0.00,0.00,0.00,0.00,0.00,0.00,0.00,0.00,0.00,0.00,0.00,0.00,0.00,0.00,0.00,0.00,0.00,0.00,0.00,0.00,0.00,0.00,0.00,0.00,0.00,0.00,0.00,0.00,0.00,0.00,0.00,0.00,0.00,0.00,0.00,0.00,0.00,0.00,0.00,0.00,0.00,0.00,0.00,0.00,0.00,0.00,0.00,0.00,0.00,0.00,0.00,0.00,0.00,0.00,0.00,0.00,0.00,0.00,0.00,0.00,0.00,0.00,0.00,0.00,0.00,0.00,0.00,0.00,0.00,0.00,0.00,0.00,0.00,0.00,0.00,0.00,0.00,0.00,0.00,0.00,0.00,0.00,0.00,0.00,0.00,0.03,0.00,0.00,0.11,0.00,0.00,0.92,0.21,0.00,0.05,1.00,0.00,0.00,0.00,0.00,0.00,0.00,0.00,0.00,0.00,0.00,0.00,0.00,0.00,0.00,0.00,0.00,0.00,0.00,0.00,0.00,0.00,0.00,0.00,0.00,0.00,0.00,0.00,0.00,0.00,0.00,0.00,0.00,0.00,0.00,0.00,0.00,0.00,0.00,0.00,0.00,0.00,0.00,0.00,0.00,0.00,0.00,0.00,0.00,0.00,0.00,0.00,0.00,0.00,0.00,0.00,0.00,0.00,0.00,0.00,0.00,0.00,0.00,0.00,0.00,0.00,0.00,0.00,0.00,0.00,0.00,0.00,0.00,0.00,0.00,0.00,0.00,0.00,0.00,0.00,0.00,0.00,0.00,0.00,0.00,0.00,0.00,0.00,0.00,0.00,0.00,0.00,0.00,0.00,0.00,0.00,0.00,0.00,0.00,0.00,0.00,0.00,0.00,0.00,0.00,0.00,0.00,0.00,0.08,0.00,0.00,0.00,0.00,0.00,0.00,0.00,0.00,0.00,0.00,0.00,0.00,0.00,0.00,0.00,0.00,0.00,0.00,0.00,0.00,0.00,0.00,0.00,0.00,0.00,0.00,0.00,0.00,0.00,0.00,0.00,0.00,0.00,0.00,0.00,?,?,?,?,?,?,?,?,?,?,?,?,?,0.00,0.00,0.00,0.00,0.00,0.00,0.00,0.00,0.00,0.00,0.00,0.00,0.00,0.00,0.00,0.00,0.00,0.00,0.00,0.00,0.00,0.00,0.00,0.00,0.00,0.00,0.00,0.00,0.00,0.00,0.00,0.00,0.00,0.00,0.00,0.00,0.00,0.00,0.00,0.00,0.00,0.00,0.00,0.00,0.00,0.00,1.00,0.00,0.00,0.00,0.00,0.00,0.00,0.00,0.97,0.00,0.00,0.00,0.00,0.00,0.00,0.00,0.00,0.00,0.00,0.00,0.00,0.00,0.00,0.00,0.00,0.00,0.00,0.00,0.00,0.00,0.00,0.00,0.00,0.00,0.00,0.00,0.00,0.00,0.00,0.00,0.05,0.03,0.03,0.00,0.00,0.00,0.00,0.00,0.00,0.00,0.00,0.00,0.00,0.00,0.00,0.00,0.00,0.00,0.00,0.00,0.00,0.00,0.00,0.00,0.00,0.00,0.00,0.00,0.00,0.00,0.00,?,0.00,0.00,0.00,0.00,0.00,0.00,0.00,0.00,0.00,0.00,0.00,0.00,0.00,0.00,0.00,0.00,0.00,0.00,0.00,0.00,0.00,0.00,0.00,0.00,0.00,0.00,0.00,0.00,0.00,0.00,0.00,0.00,0.00,0.00,0.00,0.00,0.00,0.00,0.00,0.00,0.00,0.00,0.00,0.00,0.00,0.00,0.34,1.00,0.00,0.00,0.00,0.00,0.63,0.00,0.00,0.00,0.00,0.00,0.00,0.00,0.08,0.11,0.39,0.26,0.03,0.00,0.00,0.00,0.00,0.16,0.00,0.00,0.00,0.00,0.39,0.00,0.00,0.00,0.00,0.00,0.00,0.00,0.00,0.00,0.00,0.00,0.00,0.00,0.00,0.00,0.00,0.00,0.00,0.00,0.00,0.00,0.00,0.00,0.00,0.00,0.00,0.00,0.00,0.00,0.00,0.00,0.00,0.00,0.00,0.00,0.00,0.00,0.00,0.00,0.00,0.00,0.00,0.00,0.00,0.00,0.00,0.00,0.00,0.00,0.00,0.00,0.00,0.00,0.00,0.00,0.00,0.00,0.00,0.00,0.00,0.00,0.00,0.00,0.00,0.00,0.00,0.00,0.00,0.00,0.00,0.00,0.00,0.00,0.00,0.00,0.00,0.00,0.00,0.00,0.00,0.00,0.00,0.00,0.00,0.00,0.00,0.00,0.00,0.00,0.00,0.00,0.00,0.00,?
Prediction from SVM:				0,0,0,0,0,0,0,0,0,0,0,0,0,0,0,0,0,0,0,0,0,0,0,0,0,0,0,1,1,0,0,1,1,0,0,0,0,0,0,0,0,0,0,0,0,0,0,0,0,0,0,0,0,0,0,0,0,0,0,0,0,0,0,0,0,0,0,0,0,0,0,0,0,0,0,0,0,0,0,0,0,0,0,0,0,1,0,0,0,0,0,0,0,0,0,0,0,0,0,0,0,1,0,0,1,0,1,1,0,1,1,0,0,0,0,0,0,0,0,0,0,0,0,0,0,0,0,0,0,0,0,0,0,0,0,0,0,0,0,0,0,0,0,1,0,1,0,1,1,0,0,0,0,0,0,0,0,0,0,0,0,0,0,0,0,0,0,0,0,0,0,0,0,0,0,0,0,0,1,0,1,0,1,0,0,0,1,1,0,1,1,0,1,1,0,0,1,0,0,1,1,1,1,1,1,1,0,0,0,0,1,0,1,1,0,0,0,1,1,1,1,1,0,1,1,0,0,0,1,0,0,0,0,0,0,0,0,1,1,0,1,1,1,0,1,1,0,1,0,0,0,0,0,0,0,0,0,0,0,0,0,0,0,0,1,0,0,0,0,0,0,0,0,0,0,0,0,0,0,0,0,0,0,0,0,0,0,0,0,0,0,0,0,0,0,0,0,0,0,0,0,0,0,0,0,0,0,0,0,0,1,0,0,1,1,1,1,1,1,1,1,1,1,1,1,1,1,1,1,0,0,0,0,0,0,0,0,0,0,0,0,0,0,0,0,0,0,0,0,1,1,1,0,1,1,0,1,1,0,0,1,1,0,0,0,0,0,0,0,0,0,0,0,1,1,1,1,1,1,0,1,1,1,0,1,1,0,1,1,1,0,0,1,0,0,1,0,0,0,1,1,0,0,1,1,0,1,1,1,0,0,0,0,0,0,0,0,0,0,0,0,0,0,0,0,0,0,0,1,0,0,1,1,1,0,1,1,0,0,1,1,1,1,1,1,1,1,1,0,0,1,0,1,1,1,1,1,1,1,0,1,1,1,0,1,1,1,1,1,1,1,1,0,1,1,0,0,1,1,1,1,1,1,1,1,0,1,1,1,1,1,1,1,1,1,0,1,0,0,0,0,0,0,0,0,0,0,0,1,0,0,0,0,0,1,0,0,0,0,0,0,0,0,0,0,0,0,0,0,0,0,0,0,0,0,0,0,0,0,0,0,0,0,0,0,0,0,0,0,0,0,0,0,0,0,0,1,0,1,0,1,1,1,1,0,0,0,0,0,0,0,0,0,0,0,0,0,0,0,0,0,0,0,0,0,0,0,0,0,0,0,0,0,0,0,0,0,0,0,0,0,0,0,1,0,0,0,1,0,1,1,0,0,1,0,0,0,0,0,0,0,0,1,0,0,0,0,0,0,0,0,0,0,0,0,0,0,0,0,0,0,0,0,0,0,0,0,0,0,0,0,0,0,0,0,0,0,0,0,0,0,0,0,0,0,0,0,0,0,0,0,0,0,0,0,0,0,0,0,0,0,0,0,0,0,1,0,1,0,0,0,0,0,0,0,0,0,0,0,0,0,0,0,1,1,1,1,1,1,1,1,1,1,1,1,1,1,1,1,1,1,1,1,0,0,0,1,0,1,0,1,0,0,0,0,0,0,0,0,1,0,0,0,1,0,0,1,1,1,0,1,1,1,0,1,1,1,0,1,0,1,0,0,0,1,0,0,1,0,0,0,0,0,0,0,1,1,0,1,1,1,0,0,0,0,0,0,0,0,0,0,0,0,1,1,0,1,1,1,0,0,1,1,0,0,0,0,0,0,0,0,0,0,0,0,0,0,0,0,0,0,0,0,1,1,0,0,1,0,1,0,1,1,0,0,0,0,0,0,0,0,0,0,0,0,0,0,0,0,1,0,0,0,0,0,0,0,0,0,1,0,0,0,0,0,0,0,0,0,0,0,0,0,0,0,0,0,0,0,1,1,1,1,1,1,1,1,1,1,1,0,1,1,0,0,0,0,0,0,0,0,0,0,1,0,0,0,1,1,0,1,0,1,1,1,1,1,1,1,1,1,1,1,1,1,1,1,1,1,1,1,1,1,1,1,0,1,0,1,0,1,0,0,0,0,0,0,0,0,0,0,0,0,0,0,0,0,0,0,0,1,1,1,0,1,1,1,1,0,0,0,0,0,0,0,0,0,0,0,0,0,0,0,0,0,0,0,0,0,0,1,0,0,0,0,0,0,0,0,0,0,0,0,0,0,0,0,0,0,0,1,1,1,1,0,0,1,0,0,1,1,1,1,1,1,1,0,0,0,0,0,0,1,0,1,1,1,1,1,1,1,0,1,1,0,0,0,1,1,0,1,1,1,1,1,1,1,0,1,1,0,1,1,1,1,1,1,1,1,1,1,1,1,1,1,1,0,1,0,0,0,0,0,0,0,0,1,1,0,0,1,1,0,0,0,0,0,0,0,0,0,0,0,0,0,0,0,0,0,0,0,0,1,0,0,0,0,0,0,0,0,0,1,1,1,1,1,1,1,1,1,1,1,1,1,1,0,0,0,0,1,0,1,1,0,0,0,0,0,0,0,0,0,0,0,0,0,0,0,0,1,0,0,0,0
Predicted score from SVM:			0.00,0.00,0.00,0.00,0.00,0.00,0.00,0.00,0.00,0.00,0.00,0.00,0.00,0.00,0.00,0.00,0.00,0.01,0.00,0.00,0.01,0.12,0.10,0.26,0.29,0.28,0.10,0.76,0.77,0.23,0.11,0.81,0.77,0.32,0.10,0.27,0.35,0.17,0.01,0.18,0.28,0.01,0.02,0.10,0.10,0.01,0.04,0.04,0.01,0.01,0.01,0.01,0.01,0.01,0.00,0.00,0.00,0.00,0.01,0.00,0.00,0.00,0.01,0.01,0.02,0.01,0.00,0.00,0.00,0.00,0.00,0.00,0.00,0.05,0.01,0.01,0.00,0.04,0.01,0.01,0.05,0.01,0.22,0.01,0.26,0.53,0.19,0.28,0.06,0.15,0.12,0.34,0.16,0.15,0.17,0.04,0.15,0.49,0.01,0.03,0.27,0.84,0.13,0.21,0.61,0.04,0.62,0.56,0.19,0.58,0.91,0.39,0.10,0.18,0.01,0.07,0.01,0.06,0.00,0.03,0.03,0.03,0.01,0.00,0.00,0.00,0.00,0.00,0.00,0.00,0.00,0.00,0.00,0.00,0.00,0.00,0.02,0.01,0.01,0.02,0.14,0.49,0.06,0.83,0.23,0.77,0.26,0.83,0.76,0.43,0.24,0.36,0.07,0.01,0.06,0.01,0.01,0.00,0.00,0.00,0.00,0.00,0.00,0.00,0.00,0.00,0.01,0.02,0.03,0.09,0.12,0.32,0.32,0.15,0.49,0.42,0.03,0.01,0.73,0.42,0.74,0.26,0.95,0.47,0.02,0.32,0.60,0.88,0.33,0.98,0.86,0.49,0.70,0.75,0.36,0.29,0.72,0.14,0.36,0.51,0.51,0.66,0.68,0.82,0.87,0.79,0.43,0.35,0.20,0.32,0.85,0.10,0.63,0.67,0.33,0.15,0.33,0.89,0.59,0.71,0.91,0.83,0.46,0.88,0.86,0.19,0.43,0.19,0.93,0.10,0.35,0.23,0.35,0.06,0.11,0.27,0.43,0.70,0.73,0.48,0.84,0.82,0.64,0.12,0.75,0.81,0.03,0.63,0.26,0.49,0.03,0.45,0.46,0.04,0.23,0.13,0.05,0.02,0.02,0.00,0.00,0.02,0.01,0.09,0.65,0.04,0.04,0.04,0.04,0.02,0.04,0.01,0.01,0.02,0.01,0.00,0.02,0.20,0.01,0.00,0.01,0.02,0.01,0.01,0.01,0.03,0.02,0.00,0.00,0.00,0.00,0.00,0.01,0.00,0.01,0.00,0.00,0.02,0.00,0.00,0.00,0.00,0.00,0.00,0.01,0.01,0.01,0.16,0.05,0.49,0.62,0.24,0.19,0.91,0.98,0.73,0.61,0.91,0.79,0.78,0.78,0.93,0.97,0.80,0.90,0.82,0.53,0.78,0.59,0.04,0.19,0.18,0.05,0.00,0.03,0.10,0.02,0.01,0.01,0.03,0.17,0.01,0.15,0.03,0.03,0.01,0.06,0.03,0.11,0.55,0.81,0.77,0.23,0.83,0.77,0.04,0.74,0.97,0.38,0.19,0.92,0.86,0.04,0.03,0.09,0.11,0.45,0.03,0.11,0.49,0.26,0.08,0.01,0.69,0.67,0.88,0.82,0.97,0.89,0.42,0.79,0.76,0.59,0.02,0.63,0.63,0.25,0.51,0.76,0.89,0.18,0.33,0.71,0.12,0.20,0.94,0.43,0.10,0.04,0.69,0.94,0.07,0.36,0.95,0.71,0.04,0.76,0.96,0.74,0.02,0.32,0.42,0.05,0.00,0.02,0.11,0.04,0.25,0.01,0.01,0.03,0.00,0.07,0.03,0.03,0.07,0.27,0.21,0.86,0.47,0.06,0.80,0.94,0.80,0.19,0.81,0.97,0.40,0.40,0.87,0.97,0.92,0.95,0.94,0.86,0.87,0.73,0.91,0.44,0.09,0.52,0.35,0.81,1.00,0.98,1.00,0.95,0.99,1.00,0.42,0.67,0.97,0.97,0.46,0.91,0.92,0.65,0.96,0.93,0.66,0.97,0.99,0.14,0.97,0.99,0.06,0.29,0.99,0.94,0.50,0.94,1.00,0.73,0.99,1.00,0.48,0.98,1.00,0.94,1.00,1.00,0.97,0.98,0.97,0.97,0.41,0.63,0.40,0.01,0.00,0.16,0.10,0.01,0.03,0.32,0.19,0.04,0.36,0.51,0.01,0.05,0.16,0.04,0.02,0.81,0.33,0.07,0.31,0.10,0.07,0.01,0.03,0.00,0.15,0.05,0.03,0.05,0.01,0.03,0.05,0.04,0.00,0.00,0.00,0.00,0.00,0.00,0.00,0.00,0.00,0.00,0.00,0.00,0.00,0.00,0.00,0.00,0.00,0.01,0.03,0.01,0.00,0.04,0.10,0.02,0.05,0.70,0.19,0.83,0.30,0.93,0.79,0.50,0.87,0.14,0.23,0.06,0.03,0.21,0.13,0.01,0.02,0.14,0.02,0.00,0.05,0.00,0.00,0.06,0.01,0.01,0.06,0.30,0.05,0.01,0.22,0.03,0.02,0.06,0.11,0.08,0.12,0.41,0.10,0.04,0.48,0.46,0.03,0.25,0.06,0.46,0.11,0.02,0.80,0.05,0.24,0.22,0.79,0.44,0.55,0.99,0.12,0.37,0.94,0.33,0.03,0.04,0.08,0.03,0.04,0.05,0.13,0.53,0.05,0.14,0.04,0.36,0.19,0.06,0.07,0.01,0.01,0.01,0.00,0.01,0.00,0.00,0.00,0.01,0.01,0.01,0.01,0.03,0.02,0.02,0.03,0.03,0.01,0.02,0.03,0.01,0.00,0.00,0.02,0.00,0.00,0.00,0.00,0.00,0.00,0.00,0.00,0.00,0.00,0.00,0.00,0.00,0.01,0.01,0.00,0.00,0.00,0.00,0.00,0.00,0.01,0.02,0.00,0.01,0.06,0.01,0.15,0.17,0.43,0.39,0.58,0.49,0.57,0.36,0.41,0.02,0.12,0.05,0.00,0.00,0.01,0.00,0.00,0.03,0.34,0.01,0.02,0.27,0.80,0.56,0.71,0.97,0.98,0.96,0.96,0.99,1.00,0.95,0.96,0.97,0.92,0.92,0.93,0.84,0.59,0.84,0.57,0.50,0.28,0.40,0.11,0.57,0.01,0.51,0.44,0.51,0.19,0.04,0.34,0.03,0.08,0.22,0.11,0.03,0.80,0.17,0.06,0.34,0.92,0.44,0.42,0.89,0.81,0.79,0.22,0.94,0.93,0.99,0.37,0.78,0.66,0.97,0.23,0.86,0.49,0.93,0.43,0.37,0.47,0.84,0.35,0.25,0.64,0.25,0.01,0.04,0.07,0.06,0.00,0.09,0.86,0.69,0.26,0.63,0.85,0.69,0.02,0.03,0.31,0.01,0.01,0.01,0.27,0.10,0.09,0.41,0.11,0.41,0.99,0.89,0.39,0.65,0.96,0.86,0.06,0.49,0.73,0.74,0.10,0.15,0.12,0.02,0.03,0.01,0.03,0.03,0.01,0.01,0.00,0.01,0.00,0.00,0.01,0.00,0.02,0.02,0.20,0.35,0.50,0.77,0.41,0.23,0.80,0.45,0.69,0.45,0.90,0.53,0.39,0.28,0.24,0.23,0.17,0.01,0.01,0.01,0.08,0.03,0.00,0.00,0.01,0.02,0.12,0.02,0.55,0.08,0.14,0.01,0.01,0.01,0.01,0.01,0.01,0.08,0.56,0.01,0.00,0.01,0.00,0.00,0.00,0.00,0.00,0.00,0.00,0.00,0.00,0.00,0.01,0.00,0.01,0.20,0.29,0.30,0.90,0.99,0.90,0.72,0.95,0.85,0.89,0.62,0.99,0.98,0.83,0.24,0.64,0.75,0.14,0.03,0.20,0.30,0.22,0.06,0.02,0.21,0.06,0.17,0.50,0.47,0.45,0.14,0.89,0.58,0.14,0.96,0.47,0.99,0.50,0.99,0.98,0.91,1.00,0.68,0.98,0.99,0.89,1.00,1.00,1.00,1.00,0.96,1.00,1.00,0.98,0.99,0.99,0.98,0.96,0.95,0.10,0.89,0.28,0.74,0.41,0.85,0.25,0.27,0.37,0.06,0.03,0.10,0.11,0.01,0.01,0.02,0.01,0.00,0.01,0.03,0.01,0.04,0.01,0.46,0.42,0.87,0.82,0.71,0.14,0.86,0.76,0.59,0.66,0.01,0.03,0.43,0.01,0.00,0.01,0.10,0.02,0.00,0.25,0.46,0.01,0.02,0.07,0.01,0.01,0.03,0.04,0.04,0.25,0.33,0.07,0.79,0.23,0.18,0.14,0.05,0.01,0.00,0.01,0.00,0.02,0.01,0.00,0.02,0.04,0.03,0.02,0.19,0.10,0.08,0.14,0.61,0.54,0.63,0.78,0.16,0.43,0.74,0.33,0.24,0.89,0.79,0.85,0.97,0.67,0.60,0.72,0.29,0.05,0.15,0.12,0.35,0.02,0.74,0.22,0.76,0.95,0.89,0.94,0.98,0.95,0.91,0.03,0.87,0.83,0.39,0.09,0.25,0.81,0.96,0.38,0.94,0.82,1.00,0.88,1.00,0.99,0.75,0.29,0.98,0.85,0.29,0.95,0.99,0.96,0.86,0.71,0.97,0.99,1.00,0.90,1.00,1.00,0.99,0.99,0.78,1.00,0.39,0.77,0.33,0.33,0.12,0.13,0.02,0.08,0.14,0.06,0.61,0.83,0.32,0.10,0.62,0.61,0.08,0.01,0.03,0.03,0.26,0.00,0.01,0.03,0.01,0.10,0.01,0.06,0.21,0.04,0.01,0.14,0.00,0.31,0.13,0.02,0.65,0.27,0.09,0.10,0.06,0.06,0.02,0.07,0.11,0.49,0.57,0.59,0.64,0.60,0.82,0.80,0.98,0.68,0.94,0.99,0.82,0.93,0.66,0.68,0.19,0.08,0.33,0.03,0.54,0.01,0.59,0.61,0.14,0.04,0.45,0.03,0.00,0.00,0.01,0.00,0.00,0.01,0.03,0.04,0.12,0.01,0.02,0.02,0.76,0.00,0.00,0.00,0.00
Prediction from RNABindRPlus:		0,0,0,0,0,0,0,0,0,0,0,0,0,0,0,0,0,0,0,0,0,0,0,0,0,0,0,0,0,0,0,0,0,0,0,0,0,0,0,0,0,0,0,0,0,0,0,0,0,0,0,0,0,0,0,0,0,0,0,0,0,0,0,0,0,0,0,0,0,0,0,0,0,0,0,0,0,0,0,0,0,0,0,0,0,0,0,0,0,0,0,0,0,0,0,0,0,0,0,0,0,0,0,0,0,0,0,0,0,0,0,0,0,0,0,0,0,0,0,0,0,0,0,0,0,0,0,0,0,0,0,0,0,0,0,0,0,0,0,0,0,0,0,0,0,0,0,0,0,0,0,0,0,0,0,0,0,0,0,0,0,0,0,0,0,0,0,0,0,0,0,0,0,0,0,0,0,0,0,0,0,0,0,0,0,0,0,0,0,1,0,0,0,0,0,0,0,0,0,0,0,0,0,0,0,0,0,0,0,0,0,0,0,0,0,0,0,0,0,0,0,0,0,0,0,0,0,0,0,0,0,0,0,0,0,0,0,0,0,0,0,0,0,0,0,0,0,0,0,0,0,0,0,0,0,0,0,0,0,0,0,0,0,0,0,0,0,0,0,0,0,0,0,0,0,0,0,0,0,0,0,0,0,0,0,0,0,0,0,0,0,0,0,0,0,0,0,0,0,0,0,0,0,0,0,0,0,0,0,0,0,0,0,0,1,0,0,0,0,0,0,0,0,0,0,0,0,0,0,0,0,0,0,0,0,0,0,0,0,0,0,0,0,0,0,0,0,0,0,0,0,0,0,0,0,0,0,0,0,0,0,0,0,0,0,0,0,0,0,0,0,0,0,0,0,0,0,0,0,0,0,0,0,0,0,0,0,0,0,0,0,0,0,0,0,0,0,0,0,0,0,0,0,0,0,0,0,0,0,0,0,0,0,0,0,0,0,0,0,0,0,0,0,0,0,0,0,0,0,0,0,0,0,0,0,0,0,0,0,0,1,0,1,0,0,0,0,0,0,0,0,0,0,1,1,1,0,1,1,0,0,1,0,0,0,0,0,0,0,0,0,1,0,0,1,0,0,1,0,0,0,1,0,1,1,0,1,1,0,1,1,0,1,0,0,0,0,0,0,0,0,0,0,0,0,0,0,0,1,0,0,0,0,0,0,0,0,0,0,0,0,0,0,0,0,0,0,0,0,0,0,0,0,0,0,0,0,0,0,0,0,0,0,0,0,0,0,0,0,0,0,0,0,0,0,0,0,0,0,0,0,0,0,0,0,0,0,0,0,0,0,0,0,0,0,0,0,0,0,0,0,0,0,0,0,0,0,0,0,0,0,0,0,0,0,0,0,0,0,0,0,0,0,0,0,0,0,0,0,0,1,0,0,0,0,0,0,0,0,0,0,0,0,0,0,0,0,0,0,0,0,0,0,0,0,0,0,0,0,0,0,0,0,0,0,0,0,0,0,0,0,0,0,0,0,0,0,0,0,0,0,0,0,0,0,0,0,0,0,0,0,0,0,0,0,0,0,0,0,0,0,0,0,0,0,0,0,0,0,0,0,0,0,0,0,0,0,0,0,0,0,0,0,0,0,0,0,1,0,0,1,1,0,0,1,0,0,1,1,0,0,1,0,0,0,0,0,0,0,0,0,0,0,0,0,0,0,0,0,0,0,0,0,0,0,0,0,0,0,0,0,0,1,0,0,0,0,0,0,0,0,0,0,0,0,0,0,0,0,0,0,0,0,0,0,0,0,0,0,0,0,0,0,0,0,0,0,0,0,0,0,0,0,1,0,0,0,0,0,0,0,0,0,0,0,0,0,0,0,0,0,0,0,0,0,0,0,0,0,0,0,0,0,0,0,0,0,0,0,0,0,0,0,0,0,0,0,0,0,0,0,0,0,0,0,0,0,0,0,0,0,0,0,0,0,0,0,0,0,0,0,0,0,0,0,0,0,0,0,0,0,0,0,0,0,0,0,0,0,0,1,0,0,0,0,0,0,1,1,0,0,0,0,0,0,0,0,0,0,0,0,0,0,0,0,0,0,0,0,0,0,0,1,0,1,1,0,1,0,1,1,0,1,1,1,1,0,1,1,1,1,1,1,0,0,0,0,0,0,0,0,0,0,0,0,0,0,0,0,0,0,0,0,0,0,0,0,0,0,0,0,0,0,0,0,0,0,0,0,0,0,0,0,0,0,0,0,0,0,0,0,0,0,0,0,0,0,0,0,0,0,0,0,0,0,0,0,0,0,0,0,0,0,0,0,0,0,0,0,0,0,0,0,0,0,0,0,0,0,0,0,0,0,0,0,0,0,0,0,0,0,0,0,0,0,0,0,0,1,0,0,0,1,1,0,0,0,0,1,0,0,0,1,0,1,1,0,0,1,1,0,0,1,0,0,0,0,1,1,0,1,1,1,1,0,1,0,0,0,0,0,0,0,0,0,0,0,0,0,0,0,0,0,0,0,0,0,0,0,0,0,0,0,0,0,0,0,0,0,0,0,0,0,0,0,0,0,0,0,0,0,0,0,0,0,0,0,0,1,0,0,1,0,0,0,0,0,0,0,0,0,0,0,0,0,0,0,0,0,0,0,0,0,0,0,0,0,0,0,0,0,0,0,0,0
Predicted score from RNABindRPlus:	0.01,0.01,0.01,0.01,0.01,0.01,0.01,0.01,0.01,0.01,0.01,0.01,0.01,0.01,0.01,0.01,0.01,0.01,0.01,0.01,0.01,0.01,0.01,0.02,0.02,0.02,0.01,0.23,0.24,0.02,0.01,0.29,0.24,0.03,0.01,0.02,0.03,0.01,0.01,0.01,0.02,0.01,0.01,0.01,0.01,0.01,0.01,0.01,0.01,0.01,0.01,0.01,0.01,0.01,0.01,0.01,0.01,0.01,0.01,0.01,0.01,0.01,0.01,0.01,0.01,0.01,0.01,0.01,0.01,0.01,0.01,0.01,0.01,0.01,0.01,0.01,0.01,0.01,0.01,0.01,0.01,0.01,0.02,0.01,0.02,0.08,0.01,0.02,0.01,0.01,0.01,0.03,0.01,0.01,0.01,0.01,0.01,0.06,0.01,0.01,0.02,0.32,0.01,0.01,0.12,0.01,0.12,0.09,0.01,0.10,0.41,0.04,0.01,0.01,0.01,0.01,0.01,0.01,0.01,0.01,0.01,0.01,0.01,0.01,0.01,0.01,0.01,0.01,0.01,0.01,0.01,0.01,0.01,0.01,0.01,0.01,0.01,0.01,0.01,0.01,0.01,0.06,0.01,0.31,0.02,0.24,0.02,0.31,0.23,0.05,0.02,0.03,0.01,0.01,0.01,0.01,0.01,0.01,0.01,0.01,0.01,0.01,0.01,0.01,0.01,0.01,0.01,0.01,0.01,0.01,0.01,0.03,0.03,0.01,0.06,0.04,0.01,0.01,0.20,0.04,0.21,0.02,0.46,0.06,0.01,0.03,0.11,0.37,0.03,0.51,0.34,0.06,0.18,0.22,0.03,0.02,0.19,0.01,0.03,0.07,0.07,0.15,0.16,0.30,0.36,0.26,0.05,0.03,0.01,0.03,0.33,0.01,0.13,0.16,0.03,0.01,0.03,0.38,0.11,0.19,0.41,0.31,0.06,0.37,0.34,0.01,0.05,0.01,0.44,0.01,0.03,0.02,0.03,0.01,0.01,0.02,0.05,0.18,0.20,0.06,0.49,0.46,0.24,0.02,0.37,0.45,0.01,0.13,0.02,0.06,0.01,0.05,0.06,0.01,0.02,0.01,0.01,0.01,0.01,0.01,0.01,0.01,0.01,0.01,0.14,0.01,0.01,0.01,0.01,0.01,0.01,0.01,0.01,0.01,0.01,0.01,0.01,0.01,0.01,0.01,0.01,0.01,0.01,0.01,0.01,0.01,0.01,0.01,0.01,0.01,0.01,0.01,0.01,0.01,0.01,0.01,0.01,0.01,0.01,0.01,0.01,0.01,0.01,0.01,0.01,0.01,0.01,0.01,0.01,0.06,0.12,0.02,0.01,0.41,0.51,0.20,0.12,0.41,0.26,0.25,0.25,0.44,0.49,0.27,0.40,0.30,0.08,0.25,0.11,0.01,0.01,0.01,0.01,0.01,0.01,0.01,0.01,0.01,0.01,0.01,0.01,0.01,0.01,0.01,0.01,0.01,0.01,0.01,0.01,0.09,0.29,0.24,0.02,0.31,0.24,0.01,0.21,0.49,0.04,0.01,0.42,0.34,0.01,0.01,0.01,0.01,0.05,0.01,0.01,0.06,0.02,0.01,0.01,0.17,0.16,0.37,0.30,0.49,0.38,0.04,0.26,0.23,0.11,0.01,0.13,0.13,0.02,0.07,0.23,0.38,0.01,0.03,0.19,0.01,0.01,0.45,0.05,0.01,0.01,0.17,0.45,0.01,0.03,0.46,0.19,0.01,0.23,0.48,0.21,0.01,0.03,0.04,0.01,0.01,0.01,0.01,0.01,0.02,0.01,0.01,0.01,0.01,0.01,0.01,0.01,0.01,0.02,0.01,0.34,0.06,0.01,0.27,0.45,0.27,0.01,0.29,0.49,0.04,0.04,0.36,0.54,0.47,0.75,0.45,0.34,0.36,0.20,0.41,0.05,0.01,0.07,0.03,0.29,0.81,0.95,0.96,0.46,0.55,0.97,0.04,0.16,0.80,0.49,0.16,0.41,0.42,0.14,0.48,0.44,0.15,0.49,0.52,0.01,0.49,0.85,0.01,0.03,0.52,0.45,0.07,0.45,0.53,0.20,0.52,0.53,0.06,0.51,0.53,0.45,0.53,0.53,0.49,0.51,0.49,0.49,0.04,0.13,0.04,0.01,0.01,0.01,0.01,0.01,0.01,0.03,0.05,0.03,0.04,0.50,0.01,0.01,0.01,0.01,0.01,0.29,0.03,0.01,0.03,0.01,0.01,0.01,0.01,0.01,0.01,0.01,0.01,0.01,0.01,0.01,0.01,0.01,0.01,0.01,0.01,0.01,0.01,0.01,0.01,0.01,0.01,0.01,0.01,0.01,0.01,0.01,0.01,0.01,0.01,0.01,0.01,0.01,0.01,0.01,0.01,0.01,0.01,0.18,0.01,0.31,0.02,0.44,0.26,0.07,0.36,0.01,0.02,0.01,0.01,0.01,0.01,0.01,0.01,0.01,0.01,0.01,0.01,0.01,0.01,0.01,0.01,0.01,0.01,0.02,0.01,0.01,0.02,0.01,0.01,0.01,0.01,0.01,0.01,0.04,0.01,0.01,0.06,0.06,0.01,0.02,0.01,0.06,0.01,0.01,0.27,0.01,0.02,0.02,0.26,0.05,0.09,0.52,0.01,0.03,0.45,0.03,0.01,0.01,0.01,0.01,0.01,0.01,0.01,0.08,0.01,0.01,0.01,0.03,0.01,0.01,0.01,0.01,0.01,0.01,0.01,0.01,0.01,0.01,0.01,0.01,0.01,0.01,0.01,0.01,0.01,0.01,0.01,0.01,0.01,0.01,0.01,0.01,0.01,0.01,0.01,0.01,0.01,0.01,0.01,0.01,0.01,0.01,0.01,0.01,0.01,0.01,0.01,0.01,0.01,0.01,0.01,0.01,0.01,0.01,0.01,0.01,0.01,0.01,0.01,0.01,0.01,0.01,0.01,0.01,0.05,0.04,0.10,0.06,0.10,0.03,0.04,0.01,0.01,0.01,0.01,0.01,0.01,0.01,0.01,0.01,0.03,0.01,0.01,0.02,0.27,0.09,0.19,0.49,0.51,0.48,0.48,0.52,0.56,0.46,0.48,0.59,0.42,0.42,0.96,0.50,0.11,0.36,0.80,0.07,0.02,0.04,0.01,0.10,0.01,0.07,0.05,0.07,0.01,0.01,0.03,0.01,0.01,0.02,0.01,0.01,0.27,0.01,0.01,0.03,0.42,0.05,0.04,0.38,0.29,0.26,0.02,0.45,0.44,0.52,0.03,0.25,0.15,0.49,0.02,0.34,0.06,0.44,0.05,0.03,0.06,0.32,0.03,0.02,0.14,0.02,0.01,0.01,0.01,0.01,0.01,0.01,0.34,0.17,0.02,0.13,0.33,0.17,0.01,0.01,0.03,0.01,0.01,0.01,0.02,0.01,0.01,0.04,0.01,0.04,0.52,0.38,0.04,0.14,0.48,0.34,0.01,0.06,0.20,0.21,0.01,0.01,0.01,0.01,0.01,0.01,0.01,0.01,0.01,0.01,0.01,0.01,0.01,0.01,0.01,0.01,0.01,0.01,0.01,0.03,0.07,0.24,0.04,0.02,0.27,0.05,0.22,0.05,0.40,0.08,0.04,0.02,0.02,0.02,0.01,0.01,0.01,0.01,0.01,0.01,0.01,0.01,0.01,0.01,0.01,0.01,0.09,0.01,0.01,0.01,0.01,0.01,0.01,0.01,0.01,0.01,0.09,0.01,0.01,0.01,0.01,0.01,0.01,0.01,0.01,0.01,0.01,0.01,0.01,0.01,0.01,0.01,0.01,0.03,0.04,0.02,0.40,0.52,0.40,0.19,0.46,0.33,0.38,0.12,0.52,0.51,0.31,0.02,0.14,0.22,0.01,0.01,0.01,0.02,0.02,0.01,0.01,0.01,0.01,0.01,0.07,0.06,0.05,0.01,0.38,0.10,0.01,0.48,0.06,0.52,0.07,0.52,0.51,0.41,0.53,0.16,0.51,0.52,0.38,0.53,0.53,0.98,0.53,0.48,0.53,0.53,0.51,0.52,0.52,0.97,0.48,0.46,0.01,0.38,0.02,0.21,0.04,0.33,0.02,0.02,0.03,0.01,0.01,0.01,0.01,0.01,0.01,0.01,0.01,0.01,0.01,0.01,0.01,0.01,0.01,0.06,0.04,0.36,0.30,0.19,0.01,0.39,0.25,0.12,0.15,0.01,0.01,0.05,0.01,0.01,0.01,0.01,0.01,0.01,0.02,0.06,0.01,0.01,0.01,0.01,0.01,0.01,0.01,0.01,0.02,0.03,0.01,0.26,0.02,0.01,0.01,0.01,0.01,0.01,0.01,0.01,0.01,0.01,0.01,0.01,0.01,0.01,0.01,0.01,0.01,0.01,0.01,0.12,0.08,0.13,0.25,0.01,0.05,0.21,0.03,0.02,0.38,0.26,0.33,0.49,0.16,0.11,0.19,0.02,0.01,0.01,0.01,0.03,0.01,0.21,0.02,0.23,0.46,0.38,0.45,0.51,0.46,0.41,0.01,0.66,0.94,0.04,0.01,0.02,0.29,0.90,0.04,0.45,0.30,0.53,0.37,0.53,0.52,0.28,0.03,0.81,0.56,0.03,0.46,0.52,0.48,0.34,0.29,0.49,0.52,0.53,0.40,0.82,0.53,0.52,0.52,0.25,0.53,0.04,0.24,0.03,0.03,0.01,0.01,0.01,0.01,0.01,0.01,0.12,0.31,0.03,0.01,0.12,0.12,0.01,0.01,0.01,0.01,0.02,0.01,0.01,0.01,0.01,0.01,0.01,0.01,0.01,0.01,0.01,0.01,0.01,0.03,0.01,0.01,0.14,0.02,0.01,0.01,0.01,0.01,0.01,0.01,0.01,0.06,0.10,0.11,0.14,0.11,0.30,0.27,0.51,0.16,0.45,0.52,0.30,0.44,0.15,0.16,0.01,0.01,0.03,0.01,0.08,0.01,0.11,0.12,0.01,0.01,0.05,0.01,0.01,0.01,0.01,0.01,0.01,0.01,0.01,0.01,0.01,0.01,0.01,0.01,0.23,0.01,0.01,0.01,0.01
    #Input sequence length: 479
#Number of binding residues predicted by HomPRIP: 0
#Number of binding residues predicted by SVM: 72
#Number of binding residues predicted by RNABindRPlus: 42
>P41214_merged
sequence:							M,F,A,K,A,F,R,V,K,S,N,T,A,I,K,G,S,D,R,R,K,L,R,A,D,V,T,T,A,F,P,T,L,G,T,D,Q,V,S,E,L,V,P,G,K,E,E,L,N,I,V,K,L,Y,A,H,K,G,D,A,V,T,V,Y,V,S,G,G,N,P,I,L,F,E,L,E,K,N,L,Y,P,T,V,Y,T,L,W,S,Y,P,D,L,L,P,T,F,T,T,W,P,L,V,L,E,K,L,V,G,G,A,D,L,M,L,P,G,L,V,M,P,P,A,G,L,P,Q,V,Q,K,G,D,L,C,A,I,S,L,V,G,N,R,A,P,V,A,I,G,V,A,A,M,S,T,A,E,M,L,T,S,G,L,K,G,R,G,F,S,V,L,H,T,Y,Q,D,H,L,W,R,S,G,N,K,S,L,Q,E,Q,M,D,E,L,L,Q,Q,C,F,L,H,A,L,K,C,R,V,K,K,A,D,L,P,L,L,T,S,T,F,L,G,S,H,M,F,S,C,C,P,E,G,R,Q,L,D,I,K,K,S,S,Y,K,K,L,S,K,F,L,Q,Q,M,Q,Q,E,Q,I,I,Q,V,K,E,L,S,K,G,V,E,S,I,V,A,V,D,W,Q,P,Y,H,P,P,D,I,K,P,L,Y,C,V,P,A,S,M,T,L,L,F,Q,E,S,G,H,K,K,G,S,F,L,E,G,S,E,V,R,T,I,V,I,N,Y,A,K,K,N,D,L,V,D,A,D,N,K,N,L,V,R,L,D,P,I,L,C,D,C,I,L,E,K,N,E,Q,H,T,V,M,K,L,P,W,D,S,L,L,T,R,C,L,E,K,L,Q,P,A,Y,Q,V,T,L,P,G,Q,E,P,I,V,K,K,G,R,I,C,P,I,D,I,T,L,A,Q,R,A,S,N,K,K,V,T,V,V,R,N,L,E,A,Y,G,L,D,P,Y,S,V,A,A,I,L,Q,Q,R,C,Q,A,S,T,T,V,N,P,A,P,G,A,K,D,S,L,Q,V,Q,I,Q,G,N,Q,V,H,H,L,G,W,L,L,L,E,E,Y,Q,L,P,R,K,H,I,Q,G,L,E,K,A,L,K,P,G
Prediction from HomPRIP:			???????????????????????????????????????????????????????????????????????????????????????????????????????????????????????????????????????????????????????????????????????????????????????????????????????????????????????????????????????????????????????????????????????????????????????????????????????????????????????????????????????????????????????????????????????????????????????????????????????????????????????????????????????????????????????????????????????????????????????????????
Predicted score from HomPRIP:		?,?,?,?,?,?,?,?,?,?,?,?,?,?,?,?,?,?,?,?,?,?,?,?,?,?,?,?,?,?,?,?,?,?,?,?,?,?,?,?,?,?,?,?,?,?,?,?,?,?,?,?,?,?,?,?,?,?,?,?,?,?,?,?,?,?,?,?,?,?,?,?,?,?,?,?,?,?,?,?,?,?,?,?,?,?,?,?,?,?,?,?,?,?,?,?,?,?,?,?,?,?,?,?,?,?,?,?,?,?,?,?,?,?,?,?,?,?,?,?,?,?,?,?,?,?,?,?,?,?,?,?,?,?,?,?,?,?,?,?,?,?,?,?,?,?,?,?,?,?,?,?,?,?,?,?,?,?,?,?,?,?,?,?,?,?,?,?,?,?,?,?,?,?,?,?,?,?,?,?,?,?,?,?,?,?,?,?,?,?,?,?,?,?,?,?,?,?,?,?,?,?,?,?,?,?,?,?,?,?,?,?,?,?,?,?,?,?,?,?,?,?,?,?,?,?,?,?,?,?,?,?,?,?,?,?,?,?,?,?,?,?,?,?,?,?,?,?,?,?,?,?,?,?,?,?,?,?,?,?,?,?,?,?,?,?,?,?,?,?,?,?,?,?,?,?,?,?,?,?,?,?,?,?,?,?,?,?,?,?,?,?,?,?,?,?,?,?,?,?,?,?,?,?,?,?,?,?,?,?,?,?,?,?,?,?,?,?,?,?,?,?,?,?,?,?,?,?,?,?,?,?,?,?,?,?,?,?,?,?,?,?,?,?,?,?,?,?,?,?,?,?,?,?,?,?,?,?,?,?,?,?,?,?,?,?,?,?,?,?,?,?,?,?,?,?,?,?,?,?,?,?,?,?,?,?,?,?,?,?,?,?,?,?,?,?,?,?,?,?,?,?,?,?,?,?,?,?,?,?,?,?,?,?,?,?,?,?,?,?,?,?,?,?,?,?,?,?,?,?,?,?,?,?,?,?,?,?,?,?,?,?,?,?,?,?,?,?,?,?,?,?,?,?,?,?,?,?,?,?,?,?,?,?,?,?,?,?,?,?,?,?,?,?,?,?,?,?,?
Prediction from SVM:				1,1,1,1,1,1,1,1,1,1,1,1,1,1,1,1,1,1,1,1,1,0,0,0,0,0,0,0,0,0,0,0,0,0,0,0,0,0,0,0,0,0,0,0,0,0,0,0,0,0,0,0,0,0,0,0,0,0,0,0,0,0,0,0,0,0,0,0,0,0,0,0,0,0,0,0,0,0,0,0,0,0,0,1,0,0,0,0,0,0,0,0,0,0,0,0,0,0,0,0,0,0,0,0,0,0,0,0,0,0,0,0,0,0,0,0,0,0,0,0,0,0,0,0,0,0,0,0,0,0,0,0,0,0,0,0,0,0,0,0,0,0,0,0,0,0,0,0,0,0,0,0,0,0,0,0,0,0,0,0,0,0,0,0,0,0,0,0,0,0,0,0,0,0,0,0,0,0,0,0,0,0,0,0,0,0,0,0,0,0,0,0,0,0,0,0,0,0,0,0,0,0,0,0,0,0,0,0,0,0,0,0,0,0,0,0,0,0,0,0,0,0,0,0,0,0,0,0,0,0,0,0,0,1,1,1,1,1,1,1,0,1,1,0,0,0,0,0,0,0,0,0,0,0,0,0,0,0,0,0,0,0,0,0,0,0,0,0,0,0,0,0,0,0,0,0,0,0,0,0,0,0,0,0,0,0,0,0,0,0,0,0,0,0,0,0,0,0,0,0,0,0,0,0,0,0,0,0,0,0,0,0,0,0,0,0,0,0,0,0,0,0,0,0,0,0,0,0,0,0,0,0,0,0,0,0,0,0,0,0,0,0,0,0,0,0,0,0,0,0,0,0,0,0,0,0,0,0,0,0,0,0,0,0,0,0,0,0,0,0,0,0,0,1,0,0,0,0,0,0,0,1,1,1,1,1,1,1,1,1,0,1,0,1,1,1,1,1,1,1,1,1,1,1,0,1,1,0,0,0,0,0,0,0,0,0,0,0,0,0,0,0,0,0,0,0,1,0,1,1,1,0,0,0,0,0,0,0,0,0,0,0,0,0,0,0,1,1,1,0,0,0,0,0,0,0,0,0,0,0,0,0,0,0,0,1,1,1,0,1,0,0,0,1,1,1,1,1,1
Predicted score from SVM:			1.00,0.99,0.99,0.98,0.60,0.66,0.95,0.57,0.99,0.80,0.94,0.96,1.00,0.92,0.99,0.98,0.99,0.87,0.99,0.99,0.88,0.26,0.30,0.11,0.12,0.00,0.01,0.01,0.01,0.01,0.00,0.00,0.00,0.00,0.00,0.00,0.00,0.00,0.00,0.00,0.00,0.00,0.00,0.01,0.02,0.00,0.01,0.00,0.01,0.01,0.02,0.16,0.01,0.11,0.01,0.10,0.06,0.04,0.06,0.10,0.03,0.05,0.01,0.04,0.02,0.03,0.07,0.05,0.04,0.05,0.02,0.01,0.02,0.05,0.03,0.03,0.05,0.07,0.06,0.06,0.17,0.18,0.07,0.62,0.17,0.10,0.12,0.13,0.05,0.05,0.05,0.02,0.01,0.03,0.03,0.01,0.05,0.04,0.03,0.02,0.02,0.01,0.01,0.01,0.08,0.01,0.02,0.14,0.12,0.08,0.03,0.05,0.04,0.01,0.06,0.06,0.03,0.02,0.03,0.06,0.01,0.01,0.01,0.01,0.01,0.02,0.01,0.02,0.01,0.01,0.02,0.01,0.08,0.03,0.03,0.11,0.01,0.06,0.03,0.01,0.02,0.02,0.01,0.01,0.00,0.00,0.00,0.00,0.00,0.00,0.00,0.00,0.00,0.00,0.00,0.00,0.00,0.00,0.00,0.00,0.00,0.01,0.01,0.01,0.00,0.00,0.01,0.00,0.00,0.00,0.00,0.00,0.00,0.00,0.00,0.00,0.00,0.00,0.00,0.00,0.00,0.00,0.00,0.00,0.00,0.00,0.00,0.00,0.00,0.00,0.00,0.00,0.00,0.02,0.00,0.00,0.00,0.02,0.00,0.00,0.01,0.00,0.01,0.00,0.00,0.00,0.00,0.01,0.00,0.01,0.02,0.04,0.01,0.10,0.01,0.00,0.00,0.00,0.00,0.00,0.00,0.00,0.00,0.00,0.00,0.00,0.00,0.00,0.00,0.01,0.00,0.02,0.03,0.79,0.84,0.86,0.86,0.89,0.97,0.84,0.13,0.70,0.63,0.23,0.01,0.09,0.02,0.00,0.00,0.00,0.00,0.00,0.00,0.00,0.00,0.00,0.07,0.00,0.00,0.01,0.04,0.07,0.01,0.01,0.01,0.01,0.00,0.00,0.00,0.01,0.02,0.04,0.02,0.02,0.06,0.01,0.00,0.02,0.01,0.06,0.02,0.02,0.11,0.07,0.08,0.18,0.20,0.34,0.06,0.15,0.12,0.04,0.04,0.08,0.01,0.01,0.01,0.00,0.01,0.02,0.03,0.02,0.03,0.05,0.06,0.09,0.14,0.04,0.02,0.29,0.04,0.01,0.01,0.02,0.02,0.14,0.03,0.09,0.10,0.30,0.09,0.13,0.05,0.29,0.16,0.15,0.07,0.34,0.27,0.06,0.07,0.32,0.02,0.14,0.08,0.09,0.02,0.01,0.02,0.00,0.00,0.01,0.01,0.02,0.01,0.01,0.01,0.01,0.01,0.01,0.03,0.06,0.05,0.15,0.13,0.06,0.05,0.01,0.01,0.05,0.24,0.02,0.01,0.08,0.24,0.03,0.12,0.06,0.07,0.07,0.06,0.02,0.12,0.50,0.17,0.13,0.09,0.24,0.31,0.21,0.20,0.92,0.79,0.81,0.73,0.68,0.87,0.84,0.78,0.83,0.41,0.93,0.26,0.68,0.95,0.98,0.99,0.97,1.00,1.00,0.97,0.89,0.99,0.97,0.28,0.93,0.74,0.44,0.10,0.23,0.32,0.02,0.03,0.05,0.01,0.08,0.01,0.00,0.01,0.02,0.01,0.01,0.09,0.08,0.06,0.06,0.50,0.32,0.92,0.63,0.59,0.14,0.07,0.16,0.03,0.03,0.06,0.11,0.05,0.06,0.05,0.02,0.03,0.02,0.30,0.17,0.72,0.58,0.63,0.45,0.21,0.21,0.04,0.01,0.01,0.03,0.01,0.05,0.04,0.09,0.26,0.35,0.29,0.12,0.17,0.60,0.82,0.71,0.23,0.63,0.26,0.12,0.16,0.90,0.89,0.99,1.00,1.00,1.00
Prediction from RNABindRPlus:		1,1,1,1,0,0,1,0,1,0,1,1,1,1,1,1,1,1,1,1,1,0,0,0,0,0,0,0,0,0,0,0,0,0,0,0,0,0,0,0,0,0,0,0,0,0,0,0,0,0,0,0,0,0,0,0,0,0,0,0,0,0,0,0,0,0,0,0,0,0,0,0,0,0,0,0,0,0,0,0,0,0,0,0,0,0,0,0,0,0,0,0,0,0,0,0,0,0,0,0,0,0,0,0,0,0,0,0,0,0,0,0,0,0,0,0,0,0,0,0,0,0,0,0,0,0,0,0,0,0,0,0,0,0,0,0,0,0,0,0,0,0,0,0,0,0,0,0,0,0,0,0,0,0,0,0,0,0,0,0,0,0,0,0,0,0,0,0,0,0,0,0,0,0,0,0,0,0,0,0,0,0,0,0,0,0,0,0,0,0,0,0,0,0,0,0,0,0,0,0,0,0,0,0,0,0,0,0,0,0,0,0,0,0,0,0,0,0,0,0,0,0,0,0,0,0,0,0,0,0,0,0,0,0,0,1,1,1,1,0,0,0,0,0,0,0,0,0,0,0,0,0,0,0,0,0,0,0,0,0,0,0,0,0,0,0,0,0,0,0,0,0,0,0,0,0,0,0,0,0,0,0,0,0,0,0,0,0,0,0,0,0,0,0,0,0,0,0,0,0,0,0,0,0,0,0,0,0,0,0,0,0,0,0,0,0,0,0,0,0,0,0,0,0,0,0,0,0,0,0,0,0,0,0,0,0,0,0,0,0,0,0,0,0,0,0,0,0,0,0,0,0,0,0,0,0,0,0,0,0,0,0,0,0,0,0,0,0,0,0,0,0,0,0,0,0,0,0,0,0,0,1,0,0,0,0,1,0,0,0,0,1,0,0,1,1,1,1,1,1,1,1,1,1,0,1,0,0,0,0,0,0,0,0,0,0,0,0,0,0,0,0,0,0,0,0,0,0,1,0,0,0,0,0,0,0,0,0,0,0,0,0,0,0,0,0,0,0,0,0,0,0,0,0,0,0,0,0,0,0,0,0,0,0,0,0,0,0,0,0,0,0,0,1,1,1,1,1,1
Predicted score from RNABindRPlus:	0.70,0.69,0.69,0.68,0.20,0.26,0.64,0.18,0.69,0.43,0.62,0.65,0.70,0.60,0.69,0.68,0.69,0.53,0.69,0.69,0.54,0.04,0.05,0.02,0.02,0.01,0.01,0.01,0.01,0.01,0.01,0.01,0.01,0.01,0.01,0.01,0.01,0.01,0.01,0.01,0.01,0.01,0.01,0.01,0.01,0.01,0.01,0.01,0.01,0.01,0.01,0.02,0.01,0.02,0.01,0.02,0.01,0.01,0.01,0.02,0.01,0.01,0.01,0.01,0.01,0.01,0.01,0.01,0.01,0.01,0.01,0.01,0.01,0.01,0.01,0.01,0.01,0.01,0.01,0.01,0.02,0.02,0.01,0.22,0.02,0.02,0.02,0.02,0.01,0.01,0.01,0.01,0.01,0.01,0.01,0.01,0.01,0.01,0.01,0.01,0.01,0.01,0.01,0.01,0.01,0.01,0.01,0.02,0.02,0.01,0.01,0.01,0.01,0.01,0.01,0.01,0.01,0.01,0.01,0.01,0.01,0.01,0.01,0.01,0.01,0.01,0.01,0.01,0.01,0.01,0.01,0.01,0.01,0.01,0.01,0.02,0.01,0.01,0.01,0.01,0.01,0.01,0.01,0.01,0.01,0.01,0.01,0.01,0.01,0.01,0.01,0.01,0.01,0.01,0.01,0.01,0.01,0.01,0.01,0.01,0.01,0.01,0.01,0.01,0.01,0.01,0.01,0.01,0.01,0.01,0.01,0.01,0.01,0.01,0.01,0.01,0.01,0.01,0.01,0.01,0.01,0.01,0.01,0.01,0.01,0.01,0.01,0.01,0.01,0.01,0.01,0.01,0.01,0.01,0.01,0.01,0.01,0.01,0.01,0.01,0.01,0.01,0.01,0.01,0.01,0.01,0.01,0.01,0.01,0.01,0.01,0.01,0.01,0.02,0.01,0.01,0.01,0.01,0.01,0.01,0.01,0.01,0.01,0.01,0.01,0.01,0.01,0.01,0.01,0.01,0.01,0.01,0.01,0.42,0.49,0.52,0.52,0.56,0.66,0.49,0.02,0.31,0.23,0.03,0.01,0.02,0.01,0.01,0.01,0.01,0.01,0.01,0.01,0.01,0.01,0.01,0.01,0.01,0.01,0.01,0.01,0.01,0.01,0.01,0.01,0.01,0.01,0.01,0.01,0.01,0.01,0.01,0.01,0.01,0.01,0.01,0.01,0.01,0.01,0.01,0.01,0.01,0.02,0.01,0.01,0.02,0.03,0.06,0.01,0.02,0.02,0.01,0.01,0.01,0.01,0.01,0.01,0.01,0.01,0.01,0.01,0.01,0.01,0.01,0.01,0.02,0.02,0.01,0.01,0.04,0.01,0.01,0.01,0.01,0.01,0.02,0.01,0.02,0.02,0.05,0.02,0.02,0.01,0.04,0.02,0.02,0.01,0.06,0.04,0.01,0.01,0.05,0.01,0.02,0.01,0.02,0.01,0.01,0.01,0.01,0.01,0.01,0.01,0.01,0.01,0.01,0.01,0.01,0.01,0.01,0.01,0.01,0.01,0.02,0.02,0.01,0.01,0.01,0.01,0.01,0.03,0.01,0.01,0.01,0.03,0.01,0.02,0.01,0.01,0.01,0.01,0.01,0.02,0.13,0.02,0.02,0.02,0.03,0.05,0.03,0.03,0.60,0.42,0.45,0.34,0.28,0.53,0.49,0.41,0.47,0.08,0.61,0.04,0.28,0.64,0.68,0.69,0.66,0.70,0.70,0.66,0.56,0.69,0.66,0.04,0.61,0.35,0.09,0.02,0.03,0.05,0.01,0.01,0.01,0.01,0.01,0.01,0.01,0.01,0.01,0.01,0.01,0.02,0.01,0.01,0.01,0.13,0.05,0.60,0.23,0.19,0.02,0.01,0.02,0.01,0.01,0.01,0.02,0.01,0.01,0.01,0.01,0.01,0.01,0.05,0.02,0.33,0.19,0.23,0.10,0.03,0.03,0.01,0.01,0.01,0.01,0.01,0.01,0.01,0.02,0.04,0.06,0.04,0.02,0.02,0.20,0.46,0.32,0.03,0.23,0.04,0.02,0.02,0.57,0.56,0.69,0.70,0.70,0.70
    #Input sequence length: 85
#Number of binding residues predicted by HomPRIP: 0
#Number of binding residues predicted by SVM: 24
#Number of binding residues predicted by RNABindRPlus: 13
>P41567_merged
sequence:							D,Y,I,H,I,R,I,Q,Q,R,N,G,R,K,T,L,T,T,V,Q,G,I,A,D,D,Y,D,K,K,K,L,V,K,A,F,K,K,K,F,A,C,N,G,T,V,I,E,H,P,E,Y,G,E,V,I,Q,L,Q,G,D,Q,R,K,N,I,C,Q,F,L,V,E,I,G,L,A,K,D,D,Q,L,K,V,H,G,F
Prediction from HomPRIP:			?,?,?,?,0,0,0,0,0,0,0,0,0,0,0,0,0,0,0,0,0,0,0,0,0,0,0,0,0,0,0,0,0,0,0,0,0,0,0,0,0,0,0,0,0,0,0,0,0,0,0,0,0,0,0,0,0,0,0,?,0,0,0,0,0,0,0,0,0,0,0,0,0,0,0,0,0,0,0,0,0,0,?,?,?
Predicted score from HomPRIP:		?,?,?,?,0.00,0.00,0.00,0.00,0.00,0.00,0.00,0.00,0.00,0.00,0.00,0.00,0.00,0.00,0.00,0.00,0.00,0.00,0.00,0.00,0.00,0.00,0.00,0.00,0.00,0.00,0.00,0.00,0.00,0.00,0.00,0.00,0.00,0.00,0.00,0.00,0.00,0.00,0.00,0.00,0.00,0.00,0.00,0.00,0.00,0.00,0.00,0.00,0.00,0.00,0.00,0.00,0.00,0.00,0.00,?,0.00,0.00,0.00,0.00,0.00,0.00,0.00,0.00,0.00,0.00,0.00,0.00,0.00,0.00,0.00,0.00,0.00,0.00,0.00,0.00,0.00,0.00,?,?,?
Prediction from SVM:				0,1,1,1,1,1,1,1,1,1,1,1,1,1,1,1,1,1,0,1,0,0,0,0,0,0,0,0,0,0,0,0,0,0,0,0,0,0,0,0,0,0,0,0,0,0,0,0,0,0,0,0,0,0,0,0,0,0,0,0,0,1,1,1,0,0,0,0,0,0,0,0,0,0,0,0,0,0,0,0,1,0,1,0,1
Predicted score from SVM:			0.25,1.00,0.56,1.00,0.60,1.00,0.90,1.00,1.00,1.00,1.00,0.99,1.00,1.00,0.98,0.74,0.95,0.79,0.04,0.66,0.14,0.04,0.01,0.16,0.15,0.12,0.10,0.02,0.34,0.33,0.07,0.06,0.44,0.25,0.04,0.34,0.45,0.31,0.32,0.16,0.16,0.17,0.20,0.08,0.02,0.03,0.02,0.01,0.01,0.01,0.01,0.04,0.01,0.01,0.00,0.05,0.02,0.43,0.08,0.23,0.36,0.62,0.62,0.52,0.05,0.05,0.02,0.02,0.01,0.00,0.02,0.01,0.01,0.00,0.00,0.03,0.00,0.00,0.02,0.00,0.63,0.02,1.00,0.48,1.00
Prediction from RNABindRPlus:		0,1,0,1,0,1,0,1,1,1,1,1,1,1,1,0,0,0,0,0,0,0,0,0,0,0,0,0,0,0,0,0,0,0,0,0,0,0,0,0,0,0,0,0,0,0,0,0,0,0,0,0,0,0,0,0,0,0,0,0,0,0,0,0,0,0,0,0,0,0,0,0,0,0,0,0,0,0,0,0,0,0,1,0,1
Predicted score from RNABindRPlus:	0.04,0.70,0.17,0.70,0.11,0.53,0.40,0.53,0.53,0.53,0.53,0.52,0.53,0.53,0.51,0.21,0.46,0.26,0.01,0.15,0.01,0.01,0.01,0.01,0.01,0.01,0.01,0.01,0.03,0.03,0.01,0.01,0.05,0.02,0.01,0.03,0.05,0.03,0.03,0.01,0.01,0.01,0.01,0.01,0.01,0.01,0.01,0.01,0.01,0.01,0.01,0.01,0.01,0.01,0.01,0.01,0.01,0.05,0.01,0.03,0.03,0.12,0.12,0.07,0.01,0.01,0.01,0.01,0.01,0.01,0.01,0.01,0.01,0.01,0.01,0.01,0.01,0.01,0.01,0.01,0.13,0.01,0.70,0.11,0.70
    #Input sequence length: 102
#Number of binding residues predicted by HomPRIP: 7
#Number of binding residues predicted by SVM: 24
#Number of binding residues predicted by RNABindRPlus: 15
>P47813_merged
sequence:							S,E,K,R,E,L,V,F,K,E,D,G,Q,E,Y,A,Q,V,I,K,M,L,G,N,G,R,L,E,A,M,C,F,D,G,V,K,R,L,C,H,I,R,G,K,L,R,K,K,V,W,I,N,T,S,D,I,I,L,V,G,L,R,D,Y,Q,D,N,K,A,D,V,I,L,K,Y,N,A,D,E,A,R,S,L,K,A,Y,G,E,L,P,E,H,A,K,I,N,E,T,D,T,F,G
Prediction from HomPRIP:			?,?,?,?,?,?,0,0,0,0,0,0,0,0,0,0,0,0,0,0,?,?,?,?,?,?,0,0,0,0,0,0,0,0,0,1,?,?,?,?,?,0,0,1,1,1,1,1,0,1,0,0,0,?,?,0,0,0,0,0,0,0,?,?,?,?,?,?,?,?,?,?,?,?,?,?,?,?,?,?,?,?,?,?,?,?,?,?,?,?,?,?,?,?,?,?,?,?,?,?,?,?
Predicted score from HomPRIP:		?,?,?,?,?,?,0.00,0.00,0.00,0.00,0.00,0.00,0.00,0.00,0.00,0.00,0.00,0.00,0.00,0.00,?,?,?,?,?,?,0.00,0.00,0.00,0.00,0.00,0.00,0.00,0.00,0.00,1.00,?,?,?,?,?,0.00,0.00,1.00,1.00,1.00,1.00,1.00,0.00,1.00,0.00,0.00,0.00,?,?,0.00,0.00,0.00,0.00,0.00,0.00,0.00,?,?,?,?,?,?,?,?,?,?,?,?,?,?,?,?,?,?,?,?,?,?,?,?,?,?,?,?,?,?,?,?,?,?,?,?,?,?,?,?
Prediction from SVM:				0,0,0,0,0,0,0,0,0,0,0,0,0,0,0,0,0,0,0,1,0,0,0,1,0,1,0,1,0,1,0,0,1,1,1,1,1,1,1,1,1,1,1,1,1,1,1,1,1,1,0,1,0,0,0,0,0,0,0,0,0,0,0,0,0,0,0,0,0,0,0,0,0,0,0,0,0,0,0,0,0,0,0,0,0,0,0,0,0,0,0,0,0,0,0,0,0,0,0,0,0,0
Predicted score from SVM:			0.06,0.01,0.27,0.15,0.01,0.00,0.01,0.01,0.06,0.04,0.02,0.02,0.05,0.01,0.01,0.03,0.04,0.01,0.02,0.84,0.30,0.28,0.46,0.75,0.47,0.97,0.21,0.57,0.08,0.88,0.43,0.38,0.94,0.93,0.96,0.95,1.00,0.98,0.97,1.00,0.99,1.00,1.00,1.00,1.00,1.00,1.00,0.99,0.60,0.70,0.16,0.80,0.03,0.02,0.02,0.00,0.00,0.00,0.00,0.00,0.01,0.11,0.00,0.04,0.03,0.02,0.07,0.08,0.01,0.04,0.01,0.01,0.01,0.18,0.24,0.04,0.13,0.19,0.04,0.01,0.07,0.05,0.02,0.18,0.03,0.07,0.02,0.08,0.01,0.01,0.03,0.02,0.00,0.01,0.00,0.01,0.00,0.00,0.00,0.00,0.28,0.41
Prediction from RNABindRPlus:		0,0,0,0,0,0,0,0,0,0,0,0,0,0,0,0,0,0,0,0,0,0,0,0,0,1,0,0,0,0,0,0,0,0,0,1,1,1,1,1,1,1,1,1,1,1,1,1,0,1,0,0,0,0,0,0,0,0,0,0,0,0,0,0,0,0,0,0,0,0,0,0,0,0,0,0,0,0,0,0,0,0,0,0,0,0,0,0,0,0,0,0,0,0,0,0,0,0,0,0,0,0
Predicted score from RNABindRPlus:	0.01,0.01,0.04,0.02,0.01,0.01,0.01,0.01,0.01,0.01,0.01,0.01,0.01,0.01,0.01,0.01,0.01,0.01,0.01,0.32,0.05,0.04,0.10,0.37,0.11,0.66,0.01,0.10,0.01,0.37,0.05,0.04,0.45,0.44,0.48,0.97,0.70,0.68,0.66,0.70,0.69,0.53,0.53,0.98,0.98,0.98,0.98,0.98,0.11,0.89,0.01,0.27,0.01,0.01,0.01,0.01,0.01,0.01,0.01,0.01,0.01,0.01,0.01,0.01,0.01,0.01,0.01,0.01,0.01,0.01,0.01,0.01,0.01,0.02,0.03,0.01,0.02,0.03,0.01,0.01,0.01,0.01,0.01,0.02,0.01,0.01,0.01,0.01,0.01,0.01,0.01,0.01,0.01,0.01,0.01,0.01,0.01,0.01,0.01,0.01,0.04,0.08
