RESNR	RESTYPE	RESCHAIN	RESNR_LIG	RESTYPE_LIG	RESCHAIN_LIG	SIDECHAIN	DIST_H-A	DIST_D-A	DON_ANGLE	PROTISDON	DONORIDX	DONORTYPE	ACCEPTORIDX	ACCEPTORTYPE	LIGCOO	PROTCOO
451	ARG	C	802	G	F	True	2.71	3.17	109.12	True	9813	Ng+	14291	O3	(-30.577, 2.257, 3.86)	(-29.815, -0.824, 3.853)
119	ASN	B	802	G	F	False	3.41	4.08	127.07	True	3599	Nam	14295	O3	(-30.618, 5.004, 1.596)	(-28.875, 8.214, -0.219)
145	ARG	B	802	G	F	True	2.51	3.32	139.55	True	3825	Ng+	14302	O2	(-29.655, -1.579, -1.242)	(-26.403, -1.735, -0.568)
142	GLN	B	802	G	F	True	2.27	3.22	162.09	True	3796	Nam	14302	O2	(-29.655, -1.579, -1.242)	(-29.658, -4.504, -2.581)
451	ARG	C	802	G	F	True	3.57	3.93	103.83	True	9812	Ng+	14302	O2	(-29.655, -1.579, -1.242)	(-29.471, -2.668, 2.527)
333	ARG	A	803	C	F	True	2.87	3.49	121.97	True	1731	Ng+	14318	O3	(-34.695, 12.134, 4.201)	(-34.338, 15.39, 5.411)
