RESNR	RESTYPE	RESCHAIN	PROT_IDX_LIST	RESNR_LIG	RESTYPE_LIG	RESCHAIN_LIG	DIST	OFFSET	PROTCHARGED	LIG_GROUP	LIG_IDX_LIST	LIGCOO	PROTCOO
224	ARG	M	9536,9538,9539	14	C	H	3.77	1.48	True	Aromatic	5913,5914,5916,5917,5919,5920	(289.88016666666664, 230.6795, 276.89599999999996)	(291.82533333333333, 233.89666666666668, 277.1193333333334)
214	ARG	M	9452,9454,9455	17	U	H	3.72	0.99	True	Aromatic	5973,5974,5976,5977,5979,5980	(283.8818333333333, 240.14666666666668, 280.44283333333334)	(280.9563333333333, 242.256, 281.36333333333334)
196	TYR	M	9290,9291,9292,9293,9294,9295	12	G	H	4.49	1.03	False	guanidine	5876,5878,5879	(287.322, 223.731, 274.169)	(283.5608333333333, 224.886, 272.0071666666667)
