RESNR	RESTYPE	RESCHAIN	RESNR_LIG	RESTYPE_LIG	RESCHAIN_LIG	SIDECHAIN	DIST_H-A	DIST_D-A	DON_ANGLE	PROTISDON	DONORIDX	DONORTYPE	ACCEPTORIDX	ACCEPTORTYPE	LIGCOO	PROTCOO
464	ARG	A	11	G	R	True	2.02	2.81	135.54	True	3604	Ng+	10747	O3	(203.948, 187.023, 180.098)	(201.694, 187.604, 178.525)
464	ARG	A	11	G	R	True	2.40	3.10	126.95	True	3605	Ng+	10747	O3	(203.948, 187.023, 180.098)	(201.933, 189.37, 179.959)
504	GLU	A	11	G	R	False	2.48	3.31	142.32	True	3920	Nam	10749	O3	(204.353, 184.331, 179.746)	(205.387, 185.036, 176.68)
504	GLU	A	11	G	R	False	3.13	3.94	141.40	False	10749	O3	3923	O2	(204.353, 184.331, 179.746)	(202.867, 184.561, 176.109)
