RESNR	RESTYPE	RESCHAIN	PROT_IDX_LIST	RESNR_LIG	RESTYPE_LIG	RESCHAIN_LIG	DIST	PROTISPOS	LIG_GROUP	LIG_IDX_LIST	LIGCOO	PROTCOO
454	ARG	B	3429,3431,3432	9	C	R	5.21	True	Phosphate	8704,8704,8689,8705,8706,8707	(209.48, 184.054, 197.108)	(214.2493333333333, 184.03866666666667, 199.19833333333335)
461	LYS	B	3490	8	G	R	4.68	True	Phosphate	8681,8681,8682,8683,8684	(204.598, 179.356, 198.904)	(201.632, 182.906, 199.596)
896	LYS	B	6847	11	G	R	4.40	True	Phosphate	8744,8744,8732,8745,8746,8747	(209.365, 188.971, 185.186)	(213.576, 189.602, 184.061)
904	LYS	B	6913	11	G	R	5.19	True	Phosphate	8744,8744,8732,8745,8746,8747	(209.365, 188.971, 185.186)	(211.756, 193.437, 186.311)
