RESNR	RESTYPE	RESCHAIN	PROT_IDX_LIST	RESNR_LIG	RESTYPE_LIG	RESCHAIN_LIG	DIST	PROTISPOS	LIG_GROUP	LIG_IDX_LIST	LIGCOO	PROTCOO
5	LYS	A	9	21	G	B	4.87	True	Phosphate	2618,2618,2604,2619,2620,2621	(36.893, 45.209, -25.847)	(32.195, 46.455, -25.573)
200	ARG	A	1431,1433,1434	7	U	B	4.98	True	Phosphate	2313,2313,2314,2315,2316,2298	(50.537, 37.548, -16.094)	(45.720333333333336, 36.615, -15.220666666666666)
252	LYS	A	1833	20	A	B	3.40	True	Phosphate	2596,2596,2598,2597,2582,2599	(36.326, 40.681, -22.652)	(35.611, 38.577, -25.227)
282	ARG	A	2061,2063,2064	15	A	B	4.46	True	Phosphate	2484,2484,2472,2485,2486,2487	(25.994, 40.875, -10.305)	(28.247666666666664, 38.531, -13.364666666666666)
