RESNR	RESTYPE	RESCHAIN	PROT_IDX_LIST	RESNR_LIG	RESTYPE_LIG	RESCHAIN_LIG	DIST	PROTISPOS	LIG_GROUP	LIG_IDX_LIST	LIGCOO	PROTCOO
5	LYS	A	9	23	G	B	4.69	True	Phosphate	2863,2863,2849,2864,2866,2865	(-14.952, 2.169, -9.514)	(-17.43, 3.841, -13.124)
41	ARG	A	317,321,323	14	U	B	4.27	True	Phosphate	2667,2667,2668,2669,2670,2655	(-12.807, 23.561, -4.165)	(-12.068333333333333, 27.47266666666667, -5.713)
200	ARG	A	1556,1558,1559	7	C	B	4.80	True	Phosphate	2516,2516,2501,2517,2518,2519	(-14.113, -0.165, 9.752)	(-17.612666666666666, 1.3136666666666665, 6.820333333333334)
204	ARG	A	1593,1595,1596	19	A	B	5.17	True	Phosphate	2774,2774,2759,2776,2777,2775	(-26.66, 9.735, 1.721)	(-22.486666666666665, 8.344666666666667, 4.4399999999999995)
251	LYS	A	1984	20	G	B	4.96	True	Phosphate	2796,2796,2782,2797,2798,2799	(-26.496, 4.341, 0.948)	(-31.431, 3.862, 1.179)
252	LYS	A	1993	22	A	B	3.52	True	Phosphate	2841,2841,2827,2842,2843,2844	(-19.502, 2.203, -6.349)	(-21.272, -0.752, -7.056)
279	ARG	A	2203,2205,2206	16	C	B	4.37	True	Phosphate	2709,2709,2712,2711,2710,2695	(-20.961, 16.42, -4.576)	(-17.673666666666666, 15.723999999999998, -1.7759999999999998)
282	ARG	A	2229,2231,2232	17	A	B	4.56	True	Phosphate	2729,2729,2730,2731,2732,2717	(-27.881, 16.042, -5.891)	(-27.598, 11.6, -4.895666666666667)
