RESNR	RESTYPE	RESCHAIN	PROT_IDX_LIST	RESNR_LIG	RESTYPE_LIG	RESCHAIN_LIG	DIST	PROTISPOS	LIG_GROUP	LIG_IDX_LIST	LIGCOO	PROTCOO
471	LYS	A	3436	7	G	D	4.58	True	Phosphate	11335,11335,11336,11337,11338,11323	(58.631, -15.14, -37.579)	(56.223, -14.369, -33.761)
33	ARG	B	5699,5701,5702	6	U	D	5.13	True	Phosphate	11315,11315,11303,11316,11317,11318	(61.742, -13.506, -43.09)	(62.299333333333344, -15.118, -47.93033333333333)
284	ARG	B	7421,7423,7424	2	U	D	4.62	True	Phosphate	11235,11235,11237,11236,11221,11238	(62.287, 5.927, -41.347)	(65.89433333333334, 5.3823333333333325, -44.184)
284	ARG	B	7421,7423,7424	3	U	D	5.15	True	Phosphate	11255,11255,11243,11256,11257,11258	(65.715, 1.528, -40.766)	(65.89433333333334, 5.3823333333333325, -44.184)
335	ARG	B	7853,7855,7856	0	A	D	4.43	True	Phosphate	11191,11191,11179,11192,11193,11194	(59.539, 10.339, -50.973)	(62.00833333333333, 6.861, -49.78966666666667)
579	LYS	B	9752	10	A	D	4.03	True	Phosphate	11400,11400,11388,11401,11402,11403	(45.874, -27.08, -39.142)	(44.624, -30.802, -40.028)
684	ARG	B	10587,10589,10590	8	A	D	4.60	True	Phosphate	11358,11358,11360,11361,11359,11343	(56.214, -20.873, -39.97)	(54.089666666666666, -20.448666666666668, -44.032999999999994)
