RESNR	RESTYPE	RESCHAIN	RESNR_LIG	RESTYPE_LIG	RESCHAIN_LIG	PROT_IDX_LIST	CENTDIST	ANGLE	OFFSET	TYPE	LIG_IDX_LIST	LIGCOO	PROTCOO
474	TYR	A	7	G	B	3487,3488,3489,3490,3491,3492	3.62	9.18	1.08	P	5510,5511,5512,5513,5520	(-6.916200000000001, 34.8078, -31.8394)	(-3.6988333333333343, 35.407000000000004, -30.283500000000004)
474	TYR	A	7	G	B	3487,3488,3489,3490,3491,3492	3.70	9.21	1.29	P	5513,5514,5516,5517,5519,5520	(-5.636166666666665, 35.232166666666664, -33.42783333333333)	(-3.6988333333333343, 35.407000000000004, -30.283500000000004)
381	PHE	A	4	U	B	2755,2756,2757,2758,2759,2760	3.59	4.22	0.85	P	5450,5451,5453,5454,5456,5457	(-4.836333333333333, 26.489666666666665, -20.597166666666666)	(-6.569499999999999, 25.244833333333332, -23.48266666666667)
14	TRP	A	2	U	B	85,87,88,89,90,91	3.78	2.35	1.56	P	5410,5411,5413,5414,5416,5417	(-1.1433333333333333, 19.499666666666666, -12.229666666666665)	(2.4766666666666666, 18.422, -12.401000000000002)
15	TYR	A	1	A	B	97,98,99,100,101,102	3.57	8.24	0.66	P	5388,5389,5390,5391,5397	(0.18019999999999997, 19.2514, -4.0042)	(2.069166666666667, 16.858833333333333, -5.866499999999999)
