RESNR	RESTYPE	RESCHAIN	PROT_IDX_LIST	RESNR_LIG	RESTYPE_LIG	RESCHAIN_LIG	DIST	OFFSET	PROTCHARGED	LIG_GROUP	LIG_IDX_LIST	LIGCOO	PROTCOO
83	ARG	A	1446,1448,1449	11	A	D	3.75	1.62	True	Aromatic	647,648,649,650,656	(49.492399999999996, 39.5028, 129.11260000000001)	(46.79333333333333, 38.343999999999994, 126.774)
83	ARG	A	1446,1448,1449	11	A	D	3.59	1.16	True	Aromatic	650,651,653,654,655,656	(49.69433333333333, 37.468666666666664, 128.6935)	(46.79333333333333, 38.343999999999994, 126.774)
44	LYS	A	1147	13	C	D	4.85	1.47	True	Aromatic	689,690,692,693,695,696	(47.35716666666667, 49.522, 123.22083333333335)	(50.306, 53.295, 123.969)
