RESNR	RESTYPE	RESCHAIN	RESNR_LIG	RESTYPE_LIG	RESCHAIN_LIG	SIDECHAIN	DIST_H-A	DIST_D-A	DON_ANGLE	PROTISDON	DONORIDX	DONORTYPE	ACCEPTORIDX	ACCEPTORTYPE	LIGCOO	PROTCOO
133	ARG	8	1626	C	B	True	3.08	3.94	147.05	True	24822	Ng+	23606	O3	(220.492, 158.485, 94.668)	(219.295, 155.176, 96.447)
133	ARG	8	1626	C	B	True	3.21	4.05	143.71	True	24821	Ng+	23606	O3	(220.492, 158.485, 94.668)	(218.539, 154.956, 94.296)
122	SER	8	1641	G	B	True	3.20	3.99	140.03	True	24718	O3	23926	Npl	(226.999, 165.682, 93.206)	(228.898, 163.35, 90.585)
126	GLN	8	1643	A	B	True	2.15	2.97	139.48	True	24756	Nam	23972	Nar	(221.111, 163.13, 89.466)	(221.356, 160.199, 89.882)
122	SER	8	1627	C	B	False	2.96	3.63	127.70	False	23626	O3	24716	O2	(226.936, 159.666, 94.322)	(227.479, 159.949, 90.743)
122	SER	8	1641	G	B	True	3.25	3.99	133.61	False	23926	Npl	24718	O3	(226.999, 165.682, 93.206)	(228.898, 163.35, 90.585)
126	GLN	8	1642	G	B	True	2.87	3.66	138.29	False	23949	Npl	24755	O2	(223.066, 163.114, 92.463)	(223.476, 160.858, 89.604)
