RESNR	RESTYPE	RESCHAIN	PROT_IDX_LIST	RESNR_LIG	RESTYPE_LIG	RESCHAIN_LIG	DIST	PROTISPOS	LIG_GROUP	LIG_IDX_LIST	LIGCOO	PROTCOO
16	LYS	d	36338	329	U	z	4.96	True	Phosphate	40181,40181,40166,40184,40182,40183	(137.602, 227.054, 203.16)	(138.867, 227.72, 207.914)
31	ARG	d	36444,36446,36447	329	U	z	5.44	True	Phosphate	40181,40181,40166,40184,40182,40183	(137.602, 227.054, 203.16)	(138.66833333333332, 232.32500000000002, 203.95299999999997)
