RESNR	RESTYPE	RESCHAIN	RESNR_LIG	RESTYPE_LIG	RESCHAIN_LIG	SIDECHAIN	DIST_H-A	DIST_D-A	DON_ANGLE	PROTISDON	DONORIDX	DONORTYPE	ACCEPTORIDX	ACCEPTORTYPE	LIGCOO	PROTCOO
830	HIS	A	1	G	C	True	1.94	2.92	170.26	True	4225	Nar	5002	O3	(6.717, 8.203, -43.349)	(4.969, 10.491, -42.892)
380	GLN	A	5	G	C	False	2.01	2.93	155.44	True	1087	Nam	5079	O3	(9.099, 10.027, -24.471)	(8.201, 12.683, -23.621)
