RESNR	RESTYPE	RESCHAIN	RESNR_LIG	RESTYPE_LIG	RESCHAIN_LIG	SIDECHAIN	DIST_H-A	DIST_D-A	DON_ANGLE	PROTISDON	DONORIDX	DONORTYPE	ACCEPTORIDX	ACCEPTORTYPE	LIGCOO	PROTCOO
830	HIS	A	1	G	C	True	2.11	3.03	155.09	True	4201	Nar	4954	O3	(-13.35, -10.71, -43.025)	(-11.011, -12.592, -43.419)
858	LYS	A	1	G	C	True	2.92	3.33	104.70	True	4429	N3	4958	Nar	(-10.109, -6.29, -41.267)	(-8.518, -3.376, -41.079)
380	GLN	A	5	G	C	False	2.01	2.93	154.49	True	1113	Nam	5032	O3	(-14.75, -12.223, -24.563)	(-13.712, -14.713, -23.42)
381	HIS	A	5	G	C	False	3.65	4.04	106.45	True	1122	Nam	5032	O3	(-14.75, -12.223, -24.563)	(-11.188, -14.092, -24.179)
