RESNR	RESTYPE	RESCHAIN	PROT_IDX_LIST	RESNR_LIG	RESTYPE_LIG	RESCHAIN_LIG	DIST	PROTISPOS	LIG_GROUP	LIG_IDX_LIST	LIGCOO	PROTCOO
236	ARG	J	4617,4619,4620	61	C	F	5.10	True	Phosphate	3346,3346,3334,3347,3348,3349	(261.416, 258.822, 269.895)	(261.1793333333333, 254.34833333333333, 272.3256666666667)
237	LYS	J	4629	79	C	F	3.36	True	Phosphate	3731,3731,3733,3732,3717,3734	(271.339, 251.556, 279.695)	(268.863, 250.108, 277.945)
281	LYS	J	5016	85	U	F	4.40	True	Phosphate	3860,3860,3863,3861,3862,3846	(276.573, 230.549, 271.042)	(272.235, 229.947, 270.671)
315	LYS	J	5317	86	U	F	4.12	True	Phosphate	3880,3880,3868,3881,3882,3883	(277.009, 225.755, 266.304)	(275.331, 223.461, 263.327)
