RESNR	RESTYPE	RESCHAIN	RESNR_LIG	RESTYPE_LIG	RESCHAIN_LIG	SIDECHAIN	DIST_H-A	DIST_D-A	DON_ANGLE	PROTISDON	DONORIDX	DONORTYPE	ACCEPTORIDX	ACCEPTORTYPE	LIGCOO	PROTCOO
232	GLU	O	60	C	6	True	3.14	3.72	121.31	True	4152	O3	3406	Npl	(249.269, 206.993, 239.396)	(250.785, 204.934, 236.696)
236	ARG	O	61	C	6	True	2.68	3.29	120.38	True	4187	Ng+	3411	O2	(243.077, 210.902, 240.298)	(246.265, 210.94, 239.488)
232	GLU	O	60	C	6	True	2.97	3.72	133.93	False	3406	Npl	4152	O3	(249.269, 206.993, 239.396)	(250.785, 204.934, 236.696)
237	LYS	O	58	G	6	False	2.89	3.34	109.37	False	3353	O3	4191	O2	(239.672, 209.841, 232.61)	(242.356, 209.564, 230.643)
