    #Input sequence length: 319
#Number of binding residues predicted by HomPRIP: 15
#Number of binding residues predicted by SVM: 75
#Number of binding residues predicted by RNABindRPlus: 23
>Q8WVM0_distance
sequence:							C,R,L,P,P,L,P,T,I,R,E,I,I,K,L,L,R,L,Q,A,A,K,Q,L,S,Q,N,F,L,L,D,L,R,L,T,D,K,I,V,R,K,A,G,N,L,T,N,A,Y,V,Y,E,V,G,P,G,P,G,G,I,T,R,S,I,L,N,A,D,V,A,E,L,L,V,V,E,K,D,T,R,F,I,P,G,L,Q,M,L,S,D,A,A,P,G,K,L,R,I,V,H,G,D,V,L,T,F,K,V,E,K,A,F,S,E,S,L,K,R,P,W,E,D,D,P,P,N,V,H,I,I,G,N,L,P,F,S,V,S,T,P,L,I,I,K,W,L,E,N,I,S,C,R,D,G,P,F,V,Y,G,R,T,Q,M,T,L,T,F,Q,K,E,V,A,E,R,L,A,A,N,T,G,S,K,Q,R,S,R,L,S,V,M,A,Q,Y,L,C,N,V,R,H,I,F,T,I,P,G,Q,A,F,V,P,K,P,E,V,D,V,G,V,V,H,F,T,P,L,I,Q,P,K,I,E,Q,P,F,K,L,V,E,K,V,V,Q,N,V,F,Q,F,R,R,K,Y,C,H,R,G,L,R,M,L,F,P,E,A,Q,R,L,E,S,T,G,R,L,L,E,L,A,D,I,D,P,T,L,R,P,R,Q,L,S,I,S,H,F,K,S,L,C,D,V,Y,R,K,M,C,D,E,D,P,Q,L,F,A,Y,N,F,R,E,E,L,K,R
Prediction from HomPRIP:			?,?,?,?,?,?,?,?,?,?,?,?,?,?,0,0,0,0,0,?,?,0,0,0,0,0,0,0,0,0,0,0,0,0,0,0,0,0,0,0,0,0,0,0,0,0,0,0,0,0,0,0,0,0,0,0,0,0,0,0,0,0,0,0,0,0,0,0,0,0,0,0,0,0,0,0,0,0,0,0,0,0,0,0,0,0,0,0,0,0,0,?,?,?,0,0,0,0,0,0,0,0,0,0,0,0,?,?,?,?,?,?,?,?,?,?,?,?,0,0,0,0,0,0,0,0,0,0,0,0,0,0,0,0,0,1,1,0,0,1,0,0,0,0,0,0,0,0,0,0,0,0,?,?,0,0,0,?,?,?,?,?,?,0,0,0,0,0,0,0,0,0,0,1,0,0,?,?,?,0,0,0,0,0,0,1,0,0,0,0,0,0,0,0,0,0,0,0,0,0,0,0,0,0,0,0,0,0,0,0,0,0,1,0,0,0,0,0,0,0,0,0,0,0,0,0,0,0,0,?,0,0,0,1,0,0,1,1,0,0,1,0,0,0,1,1,1,1,0,0,?,?,?,?,0,0,0,0,0,0,0,?,?,?,?,?,?,?,?,0,0,0,0,0,0,0,0,0,0,0,0,0,0,1,0,0,0,0,0,0,0,0,0,0,?,?,?,0,0,0,0,0,0,?,?,?,?,?,?,?,?,?,?,?,?,?,?,?,?
Predicted score from HomPRIP:		?,?,?,?,?,?,?,?,?,?,?,?,?,?,0.00,0.00,0.00,0.00,0.00,?,?,0.00,0.00,0.00,0.00,0.00,0.00,0.00,0.00,0.00,0.00,0.00,0.00,0.00,0.00,0.00,0.00,0.00,0.00,0.00,0.00,0.00,0.00,0.00,0.00,0.00,0.00,0.00,0.00,0.00,0.00,0.00,0.00,0.00,0.00,0.00,0.00,0.00,0.00,0.00,0.00,0.00,0.00,0.00,0.00,0.00,0.00,0.00,0.00,0.00,0.00,0.00,0.00,0.00,0.00,0.00,0.00,0.00,0.00,0.00,0.00,0.00,0.00,0.00,0.00,0.00,0.00,0.00,0.00,0.00,0.00,?,?,?,0.00,0.00,0.00,0.00,0.00,0.00,0.00,0.00,0.00,0.00,0.33,0.00,?,?,?,?,?,?,?,?,?,?,?,?,0.00,0.00,0.00,0.00,0.00,0.00,0.00,0.00,0.00,0.00,0.00,0.00,0.00,0.00,0.00,0.00,0.33,1.00,0.67,0.00,0.00,1.00,0.00,0.00,0.33,0.00,0.00,0.00,0.00,0.00,0.00,0.00,0.00,0.00,?,?,0.00,0.00,0.00,?,?,?,?,?,?,0.00,0.00,0.00,0.00,0.33,0.33,0.33,0.00,0.00,0.33,0.67,0.00,0.00,?,?,?,0.00,0.00,0.33,0.33,0.33,0.33,0.67,0.00,0.00,0.00,0.00,0.00,0.00,0.00,0.00,0.00,0.00,0.00,0.00,0.00,0.00,0.00,0.00,0.00,0.00,0.00,0.00,0.00,0.00,0.00,0.00,0.00,0.00,0.67,0.33,0.33,0.00,0.00,0.00,0.00,0.00,0.00,0.00,0.00,0.00,0.00,0.00,0.00,0.00,0.00,?,0.00,0.00,0.00,0.67,0.00,0.00,0.67,0.67,0.00,0.00,0.67,0.33,0.00,0.33,0.67,1.00,0.67,0.67,0.33,0.00,?,?,?,?,0.00,0.00,0.33,0.00,0.00,0.00,0.00,?,?,?,?,?,?,?,?,0.00,0.00,0.00,0.00,0.00,0.00,0.00,0.00,0.00,0.00,0.00,0.00,0.00,0.00,0.67,0.00,0.00,0.00,0.00,0.00,0.00,0.00,0.00,0.00,0.00,?,?,?,0.00,0.00,0.00,0.00,0.00,0.00,?,?,?,?,?,?,?,?,?,?,?,?,?,?,?,?
Prediction from SVM:				0,1,0,0,1,1,1,1,0,1,0,0,0,0,0,0,0,0,1,0,1,1,1,1,1,1,1,1,1,1,1,0,1,0,0,0,1,0,0,1,0,0,0,0,0,0,0,0,0,0,0,0,0,0,0,1,1,1,1,1,1,1,0,0,0,0,0,0,0,0,0,0,0,0,0,0,1,0,0,1,0,0,0,0,0,0,0,0,0,0,0,0,0,0,0,0,0,0,0,0,0,0,0,0,0,0,0,0,0,0,0,0,0,0,0,0,0,0,0,0,0,0,0,0,0,0,0,1,0,0,0,1,1,1,1,1,1,0,0,0,0,0,0,0,0,0,0,0,0,0,0,0,0,0,0,0,0,0,0,0,0,0,0,0,0,0,1,1,1,0,0,0,0,0,0,0,0,0,0,0,0,1,1,1,1,1,1,1,1,0,0,1,1,0,0,0,0,0,0,0,0,0,0,1,1,1,0,1,1,1,1,1,1,0,0,0,0,0,0,0,0,0,0,0,0,0,0,0,0,0,0,0,0,0,0,0,0,0,0,0,1,1,1,1,1,1,1,1,1,1,0,1,1,1,0,1,1,0,0,0,0,0,0,0,0,0,0,0,0,0,0,0,0,0,0,0,0,0,0,0,0,0,0,0,0,0,0,0,0,0,0,0,0,0,0,0,0,0,0,0,0,0,0,0,0,0,0,0,0,0,0,0,0,1,0,0,0,0,0
Predicted score from SVM:			0.00,0.85,0.00,0.35,0.55,0.70,0.91,0.84,0.17,0.80,0.15,0.06,0.02,0.14,0.08,0.12,0.45,0.25,0.88,0.32,0.90,0.81,0.90,0.71,0.92,0.94,0.94,0.90,0.71,0.53,0.69,0.06,0.84,0.04,0.05,0.14,0.83,0.05,0.13,0.80,0.24,0.16,0.40,0.15,0.03,0.03,0.02,0.00,0.01,0.01,0.00,0.02,0.06,0.13,0.25,0.88,0.99,0.99,0.92,0.79,0.70,0.96,0.08,0.06,0.02,0.01,0.02,0.02,0.00,0.02,0.10,0.01,0.01,0.00,0.13,0.13,0.59,0.27,0.19,0.81,0.40,0.08,0.05,0.01,0.01,0.00,0.01,0.01,0.00,0.01,0.02,0.01,0.01,0.01,0.08,0.01,0.04,0.04,0.04,0.03,0.03,0.04,0.01,0.04,0.04,0.00,0.02,0.00,0.00,0.00,0.00,0.00,0.00,0.00,0.00,0.00,0.00,0.00,0.00,0.00,0.00,0.00,0.01,0.01,0.00,0.01,0.00,0.54,0.01,0.03,0.10,0.76,0.54,0.78,0.95,0.97,0.67,0.20,0.33,0.26,0.17,0.01,0.01,0.06,0.03,0.01,0.02,0.01,0.01,0.02,0.03,0.07,0.15,0.04,0.03,0.04,0.15,0.13,0.04,0.12,0.04,0.27,0.07,0.26,0.20,0.25,0.76,0.66,0.55,0.29,0.11,0.06,0.08,0.43,0.09,0.03,0.11,0.20,0.04,0.11,0.32,0.52,0.55,0.91,0.82,0.78,0.50,0.82,0.77,0.49,0.36,0.62,0.52,0.13,0.18,0.18,0.06,0.32,0.10,0.04,0.19,0.39,0.22,0.53,0.52,0.85,0.28,0.69,0.50,0.65,0.85,0.72,0.73,0.13,0.26,0.30,0.13,0.05,0.06,0.38,0.02,0.02,0.06,0.15,0.04,0.07,0.15,0.03,0.01,0.02,0.01,0.01,0.01,0.08,0.01,0.00,0.07,0.37,0.05,0.04,0.81,0.88,0.80,0.98,0.99,0.99,0.99,0.99,0.97,0.93,0.36,0.95,0.93,0.67,0.47,0.88,0.88,0.14,0.04,0.05,0.01,0.00,0.01,0.01,0.00,0.00,0.00,0.00,0.00,0.00,0.00,0.00,0.00,0.00,0.00,0.00,0.00,0.02,0.02,0.13,0.02,0.29,0.04,0.03,0.01,0.01,0.02,0.01,0.03,0.04,0.06,0.02,0.03,0.02,0.05,0.05,0.01,0.02,0.01,0.01,0.01,0.01,0.00,0.01,0.01,0.01,0.01,0.01,0.02,0.01,0.04,0.01,0.03,0.58,0.00,0.00,0.08,0.03,0.10
Prediction from RNABindRPlus:		0,1,0,0,0,0,1,0,0,0,0,0,0,0,0,0,0,0,0,0,1,0,0,0,0,0,0,0,0,0,0,0,0,0,0,0,0,0,0,0,0,0,0,0,0,0,0,0,0,0,0,0,0,0,0,0,1,1,0,0,0,0,0,0,0,0,0,0,0,0,0,0,0,0,0,0,0,0,0,0,0,0,0,0,0,0,0,0,0,0,0,0,0,0,0,0,0,0,0,0,0,0,0,0,0,0,0,0,0,0,0,0,0,0,0,0,0,0,0,0,0,0,0,0,0,0,0,0,0,0,0,0,0,0,1,1,1,0,0,0,0,0,0,0,0,0,0,0,0,0,0,0,0,0,0,0,0,0,0,0,0,0,0,0,0,0,0,0,0,0,0,0,0,0,0,0,0,0,0,0,0,0,0,1,1,1,0,0,0,0,0,0,0,0,0,0,0,0,0,0,0,0,0,0,0,0,0,0,0,0,0,0,1,0,0,0,0,0,0,0,0,0,0,0,0,0,0,0,0,0,0,0,0,0,0,0,0,0,0,0,1,1,0,1,1,1,1,1,1,0,0,1,1,0,0,0,1,0,0,0,0,0,0,0,0,0,0,0,0,0,0,0,0,0,0,0,0,0,0,0,0,0,0,0,0,0,0,0,0,0,0,0,0,0,0,0,0,0,0,0,0,0,0,0,0,0,0,0,0,0,0,0,0,0,0,0,0,0,0
Predicted score from RNABindRPlus:	0.01,0.50,0.01,0.06,0.16,0.31,0.58,0.49,0.02,0.43,0.02,0.01,0.01,0.02,0.01,0.01,0.05,0.02,0.37,0.05,0.57,0.29,0.40,0.19,0.42,0.45,0.45,0.40,0.19,0.08,0.17,0.01,0.32,0.01,0.01,0.01,0.31,0.01,0.01,0.27,0.02,0.01,0.04,0.01,0.01,0.01,0.01,0.01,0.01,0.01,0.01,0.01,0.01,0.01,0.02,0.37,0.52,0.52,0.42,0.26,0.18,0.48,0.01,0.01,0.01,0.01,0.01,0.01,0.01,0.01,0.01,0.01,0.01,0.01,0.01,0.01,0.11,0.02,0.01,0.29,0.04,0.01,0.01,0.01,0.01,0.01,0.01,0.01,0.01,0.01,0.01,0.01,0.01,0.01,0.01,0.01,0.01,0.01,0.01,0.01,0.01,0.01,0.01,0.01,0.02,0.01,0.01,0.01,0.01,0.01,0.01,0.01,0.01,0.01,0.01,0.01,0.01,0.01,0.01,0.01,0.01,0.01,0.01,0.01,0.01,0.01,0.01,0.08,0.01,0.01,0.01,0.23,0.08,0.25,0.74,0.97,0.68,0.01,0.03,0.42,0.01,0.01,0.02,0.01,0.01,0.01,0.01,0.01,0.01,0.01,0.01,0.01,0.02,0.01,0.01,0.01,0.01,0.02,0.01,0.02,0.01,0.04,0.01,0.02,0.01,0.02,0.23,0.37,0.24,0.07,0.01,0.01,0.02,0.36,0.01,0.01,0.02,0.03,0.01,0.01,0.03,0.21,0.24,0.70,0.58,0.80,0.07,0.30,0.24,0.06,0.03,0.12,0.07,0.01,0.01,0.01,0.01,0.03,0.01,0.01,0.01,0.04,0.02,0.08,0.07,0.33,0.02,0.17,0.07,0.14,0.33,0.19,0.75,0.03,0.06,0.02,0.01,0.01,0.01,0.04,0.01,0.01,0.01,0.01,0.01,0.01,0.01,0.01,0.01,0.01,0.01,0.01,0.01,0.07,0.01,0.01,0.07,0.29,0.01,0.01,0.82,0.66,0.27,0.77,0.93,0.98,0.93,0.93,0.76,0.44,0.06,0.64,0.61,0.27,0.06,0.37,0.66,0.01,0.01,0.01,0.01,0.01,0.01,0.01,0.01,0.01,0.01,0.01,0.01,0.01,0.01,0.01,0.01,0.01,0.01,0.01,0.01,0.01,0.01,0.01,0.01,0.02,0.01,0.06,0.01,0.01,0.01,0.01,0.01,0.01,0.01,0.01,0.01,0.01,0.01,0.01,0.01,0.01,0.01,0.01,0.01,0.01,0.01,0.01,0.01,0.01,0.01,0.01,0.01,0.01,0.01,0.01,0.01,0.19,0.01,0.01,0.01,0.01,0.02
    #Input sequence length: 413
#Number of binding residues predicted by HomPRIP: 20
#Number of binding residues predicted by SVM: 116
#Number of binding residues predicted by RNABindRPlus: 76
>Q8WWY3_distance
sequence:							Q,E,E,T,Q,L,D,L,S,G,D,S,V,K,T,I,A,K,L,W,D,S,K,M,F,A,E,I,M,M,K,I,E,E,Y,I,S,K,Q,A,K,A,S,E,V,M,G,P,V,E,A,A,P,E,Y,R,V,I,V,D,A,N,N,L,T,V,E,I,E,N,E,L,N,I,I,H,K,F,I,R,D,K,Y,S,K,R,F,P,E,L,E,S,L,V,P,N,A,L,D,Y,I,R,T,V,K,E,L,G,N,S,L,D,K,C,K,N,N,E,N,L,Q,Q,I,L,T,N,A,T,I,M,V,V,S,V,T,A,S,T,T,Q,G,Q,Q,L,S,E,E,E,L,E,R,L,E,E,A,C,D,M,A,L,E,L,N,A,S,K,H,R,I,Y,E,Y,V,E,S,R,M,S,F,I,A,P,N,L,S,I,I,I,G,A,S,T,A,A,K,I,M,G,V,A,G,G,L,T,N,L,S,K,M,P,A,C,N,I,M,L,L,G,A,Q,R,K,T,L,S,G,F,S,S,T,S,V,L,P,H,T,G,Y,I,Y,H,S,D,I,V,Q,S,L,P,P,D,L,R,R,K,A,A,R,L,V,A,A,K,C,T,L,A,A,R,V,D,S,F,H,E,S,T,E,G,K,V,G,Y,E,L,K,D,E,I,E,R,K,F,D,K,W,Q,E,P,P,P,V,K,Q,V,K,P,L,P,A,P,L,D,G,Q,R,K,K,R,G,G,R,R,Y,R,K,M,K,E,R,L,G,L,T,E,I,R,K,Q,A,N,R,M,S,F,G,E,I,E,E,D,A,Y,Q,E,D,L,G,F,S,L,G,H,L,G,K,S,G,S,G,R,V,R,Q,T,Q,V,N,E,A,T,K,A,R,I,S,K,T,L,Q,R,T,L,Q,K,Q,S,V,V,Y,G,G,K,S,T,I,R,D,R,S,S,G,T
Prediction from HomPRIP:			?,?,?,?,?,?,?,?,?,?,?,?,?,?,?,?,?,?,?,?,?,?,?,?,?,?,?,?,?,?,?,?,?,?,?,?,?,?,?,?,?,?,?,?,?,?,?,?,?,0,0,0,0,0,0,0,0,0,0,0,0,0,0,0,0,0,0,0,0,0,0,0,0,0,0,0,0,0,0,0,0,0,0,0,0,0,0,0,0,0,0,0,0,0,0,0,0,0,0,0,0,0,0,0,0,0,0,0,0,0,0,0,0,0,0,0,0,0,0,0,0,0,0,0,0,0,0,0,0,0,0,0,0,0,0,0,0,0,0,0,0,0,0,0,0,0,0,0,0,0,0,0,0,0,0,0,0,0,0,0,0,0,0,0,0,0,0,0,0,0,0,0,0,0,0,0,0,0,0,0,0,0,0,0,0,0,0,0,0,0,0,0,0,0,0,0,0,0,1,1,0,0,0,0,0,0,0,0,1,0,0,1,1,0,1,1,1,0,0,0,0,1,0,0,?,?,?,?,?,?,0,0,0,1,1,0,0,0,0,0,0,0,0,0,0,0,0,0,0,0,0,0,0,1,1,0,0,1,0,0,0,1,1,0,0,1,0,0,0,0,0,0,0,0,0,0,0,0,0,0,0,0,0,0,0,0,0,1,0,0,0,1,0,0,1,0,0,0,?,?,?,?,?,?,?,?,?,?,?,?,?,?,?,?,?,?,?,?,?,?,?,?,?,?,?,?,?,?,?,?,?,?,?,?,?,?,?,?,?,?,?,?,?,?,?,?,?,?,?,?,?,?,?,?,?,?,?,?,?,?,?,?,?,?,?,?,?,?,?,?,?,?,?,?,?,?,?,?,?,?,?,?,?,?,?,?,?,?,?,?,?,?,?,?,?,?,?,?,?,?,?,?,?,?,?,?,?,?,?,?,?,?,?
Predicted score from HomPRIP:		?,?,?,?,?,?,?,?,?,?,?,?,?,?,?,?,?,?,?,?,?,?,?,?,?,?,?,?,?,?,?,?,?,?,?,?,?,?,?,?,?,?,?,?,?,?,?,?,?,0.00,0.00,0.00,0.00,0.00,0.00,0.00,0.00,0.00,0.00,0.00,0.00,0.00,0.00,0.00,0.00,0.00,0.00,0.00,0.00,0.00,0.00,0.00,0.00,0.00,0.00,0.00,0.00,0.00,0.00,0.00,0.00,0.00,0.00,0.00,0.00,0.00,0.00,0.00,0.00,0.00,0.00,0.00,0.00,0.00,0.00,0.00,0.00,0.00,0.00,0.00,0.00,0.00,0.00,0.00,0.00,0.00,0.00,0.00,0.00,0.00,0.00,0.00,0.00,0.00,0.00,0.00,0.00,0.00,0.00,0.00,0.00,0.00,0.00,0.00,0.00,0.00,0.00,0.00,0.00,0.00,0.00,0.00,0.00,0.00,0.00,0.00,0.00,0.00,0.00,0.00,0.00,0.00,0.00,0.00,0.00,0.00,0.00,0.00,0.00,0.00,0.00,0.00,0.00,0.00,0.00,0.00,0.00,0.00,0.00,0.00,0.00,0.00,0.00,0.00,0.00,0.00,0.00,0.00,0.00,0.00,0.00,0.00,0.00,0.00,0.00,0.00,0.00,0.00,0.00,0.00,0.00,0.00,0.00,0.00,0.00,0.00,0.00,0.00,0.00,0.00,0.00,0.00,0.00,0.00,0.00,0.00,0.00,0.00,1.00,0.75,0.00,0.00,0.00,0.00,0.00,0.00,0.00,0.00,1.00,0.00,0.00,1.00,1.00,0.00,1.00,1.00,1.00,0.25,0.13,0.14,0.00,1.00,0.00,0.00,?,?,?,?,?,?,0.00,0.00,0.00,0.75,1.00,0.00,0.00,0.00,0.00,0.00,0.00,0.00,0.00,0.00,0.00,0.00,0.00,0.00,0.00,0.00,0.00,0.00,0.00,1.00,1.00,0.00,0.00,1.00,0.25,0.00,0.00,1.00,1.00,0.00,0.00,1.00,0.00,0.00,0.00,0.00,0.00,0.00,0.00,0.00,0.00,0.00,0.00,0.00,0.00,0.00,0.00,0.00,0.00,0.00,0.00,0.00,0.00,0.50,0.00,0.00,0.00,1.00,0.00,0.00,0.50,0.00,0.00,0.00,?,?,?,?,?,?,?,?,?,?,?,?,?,?,?,?,?,?,?,?,?,?,?,?,?,?,?,?,?,?,?,?,?,?,?,?,?,?,?,?,?,?,?,?,?,?,?,?,?,?,?,?,?,?,?,?,?,?,?,?,?,?,?,?,?,?,?,?,?,?,?,?,?,?,?,?,?,?,?,?,?,?,?,?,?,?,?,?,?,?,?,?,?,?,?,?,?,?,?,?,?,?,?,?,?,?,?,?,?,?,?,?,?,?,?
Prediction from SVM:				0,0,0,0,0,0,0,0,0,0,0,0,0,0,0,0,0,0,0,0,0,0,0,0,0,0,0,0,0,0,0,0,0,0,0,0,0,0,0,0,0,0,0,0,0,0,0,0,0,0,0,0,0,0,0,0,0,0,0,0,0,0,0,0,0,0,0,0,0,0,0,0,0,0,0,0,1,1,0,0,0,1,1,1,0,1,1,1,0,0,0,1,0,0,0,0,0,0,0,0,0,0,0,0,0,0,0,0,0,0,0,0,0,0,0,0,0,0,0,0,0,0,0,0,0,0,0,0,0,0,0,0,0,0,0,0,0,0,0,0,0,0,0,0,0,0,0,0,0,0,0,0,0,0,0,0,0,0,0,0,0,0,0,0,0,0,0,0,0,0,0,0,0,0,0,0,0,0,0,0,0,0,0,0,0,0,0,0,0,0,0,0,0,0,1,0,0,0,1,0,0,0,0,0,0,0,0,1,1,0,1,1,1,0,1,1,1,1,0,0,0,1,1,1,1,1,1,1,1,1,1,1,0,1,1,0,0,1,0,0,0,0,0,0,0,0,0,0,0,0,0,0,0,1,1,0,0,1,1,0,0,1,1,0,1,1,0,0,1,0,0,0,0,0,0,0,0,0,0,0,0,0,0,0,0,0,0,0,0,0,0,0,0,0,0,0,0,0,0,0,0,0,0,0,0,1,0,1,1,1,1,1,1,1,1,1,1,1,1,1,1,1,1,1,1,1,1,1,1,1,0,0,0,0,0,0,1,1,0,0,0,1,0,0,0,0,0,0,0,0,0,0,0,0,0,0,0,0,0,0,0,0,0,0,1,1,0,1,1,1,1,0,1,1,1,1,1,1,1,1,1,1,1,1,1,1,1,1,1,1,1,1,1,0,1,1,1,1,1,1,1,1,1,1,1,1,1,1,1,1,1,1,1
Predicted score from SVM:			0.00,0.00,0.00,0.00,0.00,0.00,0.00,0.00,0.00,0.01,0.02,0.05,0.02,0.08,0.06,0.06,0.07,0.22,0.09,0.13,0.19,0.07,0.04,0.20,0.05,0.07,0.02,0.01,0.00,0.00,0.01,0.00,0.00,0.00,0.00,0.00,0.00,0.00,0.00,0.00,0.00,0.00,0.00,0.00,0.00,0.00,0.00,0.00,0.00,0.01,0.01,0.03,0.01,0.01,0.02,0.05,0.00,0.00,0.00,0.01,0.00,0.01,0.01,0.00,0.00,0.00,0.01,0.00,0.00,0.04,0.00,0.01,0.04,0.07,0.03,0.23,0.56,0.68,0.10,0.49,0.28,0.73,0.74,0.85,0.43,0.90,0.61,0.61,0.34,0.08,0.11,0.54,0.11,0.02,0.05,0.13,0.02,0.02,0.04,0.14,0.03,0.09,0.01,0.03,0.05,0.03,0.03,0.01,0.03,0.02,0.01,0.01,0.01,0.00,0.00,0.00,0.00,0.00,0.00,0.00,0.00,0.00,0.00,0.00,0.00,0.01,0.00,0.00,0.00,0.00,0.00,0.01,0.08,0.01,0.05,0.01,0.15,0.09,0.20,0.12,0.06,0.10,0.01,0.00,0.02,0.01,0.01,0.00,0.01,0.00,0.00,0.00,0.00,0.01,0.00,0.00,0.00,0.00,0.00,0.00,0.00,0.00,0.00,0.00,0.00,0.02,0.02,0.01,0.00,0.00,0.01,0.17,0.00,0.01,0.13,0.28,0.01,0.06,0.18,0.03,0.04,0.23,0.20,0.02,0.19,0.19,0.03,0.01,0.03,0.03,0.09,0.02,0.06,0.12,0.60,0.04,0.11,0.14,0.68,0.12,0.13,0.21,0.17,0.24,0.41,0.16,0.23,0.65,0.89,0.27,0.65,0.97,0.95,0.25,0.95,0.65,0.82,0.85,0.17,0.34,0.34,0.91,0.70,0.66,0.95,0.92,0.85,0.88,0.93,0.89,0.78,0.65,0.04,0.65,0.95,0.34,0.48,0.61,0.13,0.18,0.12,0.04,0.07,0.06,0.05,0.23,0.07,0.06,0.12,0.17,0.41,0.05,0.34,0.89,0.96,0.10,0.09,0.98,0.52,0.28,0.26,0.98,1.00,0.15,0.69,0.95,0.29,0.48,0.59,0.07,0.15,0.05,0.12,0.15,0.17,0.11,0.32,0.29,0.28,0.08,0.01,0.21,0.11,0.03,0.05,0.12,0.01,0.12,0.00,0.00,0.02,0.15,0.00,0.01,0.16,0.04,0.01,0.02,0.12,0.07,0.06,0.09,0.31,0.06,0.10,0.94,0.28,0.89,0.82,0.84,0.90,0.90,0.99,1.00,1.00,1.00,1.00,1.00,1.00,1.00,1.00,1.00,1.00,1.00,1.00,0.99,0.75,0.91,0.54,0.71,0.32,0.09,0.05,0.37,0.45,0.04,0.70,0.65,0.17,0.06,0.16,0.62,0.01,0.02,0.01,0.00,0.00,0.00,0.00,0.00,0.00,0.00,0.00,0.00,0.00,0.00,0.00,0.00,0.00,0.00,0.01,0.34,0.37,0.15,0.54,0.93,0.43,0.60,0.89,0.91,0.99,0.38,1.00,0.64,0.82,0.61,0.66,0.98,0.98,1.00,1.00,1.00,1.00,1.00,0.99,1.00,1.00,0.99,0.98,0.92,0.99,0.96,0.79,0.45,0.62,0.76,0.86,0.67,0.69,0.98,0.98,0.93,0.91,1.00,1.00,0.73,1.00,0.98,1.00,0.96,1.00,1.00,1.00
Prediction from RNABindRPlus:		0,0,0,0,0,0,0,0,0,0,0,0,0,0,0,0,0,0,0,0,0,0,0,0,0,0,0,0,0,0,0,0,0,0,0,0,0,0,0,0,0,0,0,0,0,0,0,0,0,0,0,0,0,0,0,0,0,0,0,0,0,0,0,0,0,0,0,0,0,0,0,0,0,0,0,0,0,0,0,0,0,0,0,0,0,0,0,0,0,0,0,0,0,0,0,0,0,0,0,0,0,0,0,0,0,0,0,0,0,0,0,0,0,0,0,0,0,0,0,0,0,0,0,0,0,0,0,0,0,0,0,0,0,0,0,0,0,0,0,0,0,0,0,0,0,0,0,0,0,0,0,0,0,0,0,0,0,0,0,0,0,0,0,0,0,0,0,0,0,0,0,0,0,0,0,0,0,0,0,0,0,0,0,0,0,0,0,0,0,0,0,0,0,0,0,0,0,0,1,0,0,0,0,0,0,0,0,0,1,0,0,1,1,0,1,1,1,1,0,0,0,1,0,0,1,1,1,1,1,1,0,0,0,1,1,0,0,0,0,0,0,0,0,0,0,0,0,0,0,0,0,0,0,1,1,0,0,1,0,0,0,1,1,0,0,1,0,0,0,0,0,0,0,0,0,0,0,0,0,0,0,0,0,0,0,0,0,0,0,0,0,0,0,0,0,0,0,0,0,0,0,0,0,0,0,1,0,1,0,0,1,1,1,1,1,1,1,1,1,1,1,1,1,1,1,1,0,1,0,0,0,0,0,0,0,0,0,0,0,0,0,0,0,0,0,0,0,0,0,0,0,0,0,0,0,0,0,0,0,0,0,0,0,0,0,1,0,0,1,1,1,0,1,0,0,0,0,1,1,1,1,1,1,1,1,1,1,1,1,1,1,1,0,0,0,0,1,0,0,1,1,1,1,1,1,0,1,1,1,1,1,1,1
Predicted score from RNABindRPlus:	0.01,0.01,0.01,0.01,0.01,0.01,0.01,0.01,0.01,0.01,0.01,0.01,0.01,0.01,0.01,0.01,0.01,0.03,0.02,0.02,0.03,0.01,0.01,0.03,0.01,0.01,0.01,0.01,0.01,0.01,0.01,0.01,0.01,0.01,0.01,0.01,0.01,0.01,0.01,0.01,0.01,0.01,0.01,0.01,0.01,0.01,0.01,0.01,0.01,0.01,0.01,0.01,0.01,0.01,0.01,0.01,0.01,0.01,0.01,0.01,0.01,0.01,0.01,0.01,0.01,0.01,0.01,0.01,0.01,0.01,0.01,0.01,0.01,0.01,0.01,0.02,0.09,0.16,0.01,0.06,0.02,0.20,0.21,0.33,0.05,0.40,0.12,0.12,0.03,0.01,0.01,0.08,0.01,0.01,0.01,0.01,0.01,0.01,0.01,0.01,0.01,0.01,0.01,0.01,0.01,0.01,0.01,0.01,0.01,0.01,0.01,0.01,0.01,0.01,0.01,0.01,0.01,0.01,0.01,0.01,0.01,0.01,0.01,0.01,0.01,0.01,0.01,0.01,0.01,0.01,0.01,0.01,0.01,0.01,0.01,0.01,0.01,0.01,0.01,0.01,0.01,0.01,0.01,0.01,0.01,0.01,0.01,0.01,0.01,0.01,0.01,0.01,0.01,0.01,0.01,0.01,0.01,0.01,0.01,0.01,0.01,0.01,0.01,0.01,0.01,0.01,0.01,0.01,0.01,0.01,0.01,0.01,0.01,0.01,0.01,0.02,0.01,0.01,0.01,0.01,0.01,0.02,0.01,0.01,0.01,0.01,0.01,0.01,0.01,0.01,0.01,0.01,0.01,0.01,0.11,0.01,0.01,0.01,0.88,0.12,0.01,0.01,0.01,0.02,0.04,0.01,0.02,0.14,0.96,0.02,0.14,0.97,0.97,0.02,0.97,0.86,0.94,0.55,0.02,0.05,0.03,0.96,0.18,0.15,0.64,0.60,0.50,0.54,0.61,0.56,0.25,0.14,0.01,0.72,0.97,0.03,0.06,0.12,0.01,0.01,0.01,0.01,0.01,0.01,0.01,0.02,0.01,0.01,0.01,0.01,0.04,0.01,0.03,0.96,0.97,0.01,0.01,0.97,0.17,0.02,0.02,0.97,0.98,0.01,0.17,0.97,0.02,0.06,0.11,0.01,0.01,0.01,0.01,0.01,0.01,0.01,0.03,0.02,0.02,0.01,0.01,0.01,0.01,0.01,0.01,0.01,0.01,0.05,0.01,0.01,0.01,0.28,0.01,0.01,0.06,0.01,0.01,0.01,0.02,0.01,0.01,0.02,0.05,0.01,0.02,0.62,0.04,0.56,0.46,0.49,0.57,0.57,0.69,0.70,0.70,0.70,0.70,0.70,0.70,0.70,0.70,0.70,0.70,0.70,0.70,0.69,0.37,0.58,0.15,0.32,0.05,0.02,0.01,0.07,0.10,0.01,0.31,0.25,0.02,0.01,0.02,0.22,0.01,0.01,0.01,0.01,0.01,0.01,0.01,0.01,0.01,0.01,0.01,0.01,0.01,0.01,0.01,0.01,0.01,0.01,0.01,0.06,0.07,0.02,0.15,0.61,0.09,0.20,0.56,0.58,0.69,0.07,0.70,0.24,0.46,0.21,0.26,0.68,0.68,0.70,0.70,0.70,0.70,0.70,0.69,0.70,0.70,0.69,0.68,0.60,0.69,0.65,0.42,0.10,0.22,0.38,0.52,0.27,0.29,0.68,0.68,0.61,0.58,0.70,0.70,0.34,0.70,0.68,0.70,0.65,0.70,0.70,0.70
    #Input sequence length: 45
#Number of binding residues predicted by HomPRIP: 37
#Number of binding residues predicted by SVM: 45
#Number of binding residues predicted by RNABindRPlus: 44
>Q9BQ48_distance
sequence:							A,R,G,N,E,Y,Q,P,S,N,I,K,R,K,N,K,H,G,W,V,R,R,L,S,T,P,A,G,V,Q,V,I,L,R,R,M,L,K,G,R,K,S,L,S,H
Prediction from HomPRIP:			?,?,?,?,?,1,1,1,1,1,1,1,1,1,1,1,1,1,1,1,0,1,1,1,1,1,1,1,1,1,1,0,1,1,1,1,1,1,1,1,1,1,1,1,?
Predicted score from HomPRIP:		?,?,?,?,?,1.00,1.00,1.00,1.00,1.00,1.00,1.00,1.00,1.00,1.00,1.00,1.00,1.00,1.00,1.00,0.00,1.00,1.00,0.50,0.50,1.00,1.00,1.00,1.00,1.00,1.00,0.00,1.00,1.00,1.00,1.00,1.00,1.00,1.00,1.00,1.00,1.00,1.00,1.00,?
Prediction from SVM:				1,1,1,1,1,1,1,1,1,1,1,1,1,1,1,1,1,1,1,1,1,1,1,1,1,1,1,1,1,1,1,1,1,1,1,1,1,1,1,1,1,1,1,1,1
Predicted score from SVM:			1.00,1.00,1.00,1.00,1.00,1.00,1.00,1.00,1.00,1.00,1.00,1.00,1.00,1.00,1.00,1.00,1.00,1.00,1.00,1.00,1.00,1.00,1.00,1.00,1.00,1.00,1.00,1.00,1.00,1.00,1.00,0.94,1.00,1.00,1.00,1.00,1.00,1.00,1.00,1.00,1.00,1.00,1.00,1.00,1.00
Prediction from RNABindRPlus:		1,1,1,1,1,1,1,1,1,1,1,1,1,1,1,1,1,1,1,1,1,1,1,1,1,1,1,1,1,1,1,0,1,1,1,1,1,1,1,1,1,1,1,1,1
Predicted score from RNABindRPlus:	0.70,0.70,0.70,0.70,0.70,0.98,0.98,0.98,0.98,0.98,0.98,0.98,0.98,0.98,0.98,0.98,0.98,0.98,0.98,0.98,0.53,0.98,0.98,0.88,0.88,0.98,0.98,0.98,0.98,0.98,0.98,0.45,0.98,0.98,0.98,0.98,0.98,0.98,0.98,0.98,0.98,0.98,0.98,0.98,0.70
    #Input sequence length: 188
#Number of binding residues predicted by HomPRIP: 0
#Number of binding residues predicted by SVM: 14
#Number of binding residues predicted by RNABindRPlus: 6
>Q9BQ65_distance
sequence:							M,G,N,W,A,T,H,V,Y,V,P,Y,E,A,K,E,E,F,L,D,L,L,D,V,L,L,P,H,A,Q,T,Y,V,P,R,L,V,R,M,K,V,F,H,L,S,L,S,Q,S,V,V,L,R,H,H,W,I,L,P,F,V,Q,A,L,K,A,R,M,T,S,F,H,R,F,F,F,T,A,N,Q,V,K,I,Y,T,N,Q,E,K,T,R,T,F,I,G,L,E,V,T,S,G,H,A,Q,F,L,D,L,V,S,E,V,D,R,V,M,E,E,F,N,L,T,T,F,Y,Q,D,P,S,F,Q,L,S,L,A,W,C,V,G,D,A,R,L,Q,L,E,G,Q,C,L,Q,E,L,Q,A,I,V,D,G,F,E,D,A,E,V,L,L,R,V,H,T,E,Q,V,R,C,K,S,G,N,K,F,F,S,M,P,L,K
Prediction from HomPRIP:			????????????????????????????????????????????????????????????????????????????????????????????????????????????????????????????????????????????????????????????????????????????????????????????
Predicted score from HomPRIP:		?,?,?,?,?,?,?,?,?,?,?,?,?,?,?,?,?,?,?,?,?,?,?,?,?,?,?,?,?,?,?,?,?,?,?,?,?,?,?,?,?,?,?,?,?,?,?,?,?,?,?,?,?,?,?,?,?,?,?,?,?,?,?,?,?,?,?,?,?,?,?,?,?,?,?,?,?,?,?,?,?,?,?,?,?,?,?,?,?,?,?,?,?,?,?,?,?,?,?,?,?,?,?,?,?,?,?,?,?,?,?,?,?,?,?,?,?,?,?,?,?,?,?,?,?,?,?,?,?,?,?,?,?,?,?,?,?,?,?,?,?,?,?,?,?,?,?,?,?,?,?,?,?,?,?,?,?,?,?,?,?,?,?,?,?,?,?,?,?,?,?,?,?,?,?,?,?,?,?,?,?,?,?,?,?,?,?,?
Prediction from SVM:				0,1,1,1,0,0,0,0,0,0,0,0,0,0,0,0,0,0,0,0,0,0,0,0,0,0,0,0,0,0,0,0,0,0,0,0,0,0,0,0,0,0,0,0,0,0,0,0,0,0,0,0,0,0,0,0,0,0,0,0,0,0,0,0,0,0,0,0,0,0,0,0,0,0,0,0,0,0,0,0,0,0,0,0,0,0,0,0,1,0,0,0,0,0,0,0,0,0,0,0,0,0,0,0,0,0,0,0,0,0,0,0,0,0,0,0,0,0,0,0,0,0,0,0,0,0,0,0,0,0,0,0,0,0,0,0,0,0,0,0,0,0,0,0,0,0,0,0,0,0,0,0,0,0,0,0,0,0,0,0,0,0,0,0,0,0,0,0,0,0,0,0,0,0,0,0,1,0,1,1,1,1,1,1,0,1,1,1
Predicted score from SVM:			0.02,0.70,0.93,0.96,0.12,0.05,0.42,0.01,0.04,0.01,0.01,0.00,0.01,0.00,0.01,0.01,0.01,0.00,0.01,0.01,0.00,0.00,0.00,0.00,0.00,0.00,0.00,0.01,0.00,0.00,0.00,0.00,0.00,0.00,0.00,0.00,0.00,0.00,0.00,0.00,0.00,0.01,0.02,0.01,0.16,0.06,0.36,0.30,0.06,0.04,0.02,0.01,0.15,0.05,0.09,0.03,0.12,0.08,0.01,0.02,0.02,0.03,0.04,0.00,0.03,0.03,0.01,0.00,0.02,0.04,0.04,0.04,0.06,0.03,0.03,0.03,0.06,0.03,0.06,0.05,0.01,0.02,0.02,0.02,0.05,0.04,0.08,0.28,0.51,0.26,0.36,0.14,0.15,0.03,0.01,0.01,0.03,0.04,0.03,0.01,0.00,0.06,0.03,0.01,0.00,0.01,0.02,0.00,0.00,0.02,0.02,0.00,0.01,0.02,0.01,0.00,0.03,0.00,0.02,0.02,0.01,0.04,0.01,0.04,0.09,0.04,0.04,0.06,0.11,0.05,0.11,0.02,0.46,0.02,0.01,0.06,0.01,0.01,0.00,0.00,0.00,0.00,0.00,0.00,0.00,0.00,0.00,0.00,0.00,0.00,0.00,0.00,0.00,0.00,0.00,0.00,0.00,0.00,0.00,0.00,0.00,0.00,0.00,0.00,0.00,0.00,0.00,0.02,0.00,0.03,0.01,0.05,0.10,0.07,0.35,0.14,0.85,0.35,0.76,0.96,0.77,0.73,0.83,0.98,0.25,0.65,0.81,0.99
Prediction from RNABindRPlus:		0,0,1,1,0,0,0,0,0,0,0,0,0,0,0,0,0,0,0,0,0,0,0,0,0,0,0,0,0,0,0,0,0,0,0,0,0,0,0,0,0,0,0,0,0,0,0,0,0,0,0,0,0,0,0,0,0,0,0,0,0,0,0,0,0,0,0,0,0,0,0,0,0,0,0,0,0,0,0,0,0,0,0,0,0,0,0,0,0,0,0,0,0,0,0,0,0,0,0,0,0,0,0,0,0,0,0,0,0,0,0,0,0,0,0,0,0,0,0,0,0,0,0,0,0,0,0,0,0,0,0,0,0,0,0,0,0,0,0,0,0,0,0,0,0,0,0,0,0,0,0,0,0,0,0,0,0,0,0,0,0,0,0,0,0,0,0,0,0,0,0,0,0,0,0,0,1,0,0,1,0,0,0,1,0,0,0,1
Predicted score from RNABindRPlus:	0.01,0.31,0.61,0.65,0.02,0.01,0.09,0.01,0.01,0.01,0.01,0.01,0.01,0.01,0.01,0.01,0.01,0.01,0.01,0.01,0.01,0.01,0.01,0.01,0.01,0.01,0.01,0.01,0.01,0.01,0.01,0.01,0.01,0.01,0.01,0.01,0.01,0.01,0.01,0.01,0.01,0.01,0.01,0.01,0.02,0.01,0.06,0.05,0.01,0.01,0.01,0.01,0.02,0.01,0.02,0.01,0.02,0.01,0.01,0.01,0.01,0.01,0.01,0.01,0.01,0.01,0.01,0.01,0.01,0.01,0.01,0.01,0.01,0.01,0.01,0.01,0.01,0.01,0.01,0.01,0.01,0.01,0.01,0.01,0.01,0.01,0.01,0.04,0.13,0.04,0.06,0.02,0.02,0.01,0.01,0.01,0.01,0.01,0.01,0.01,0.01,0.01,0.01,0.01,0.01,0.01,0.01,0.01,0.01,0.01,0.01,0.01,0.01,0.01,0.01,0.01,0.01,0.01,0.01,0.01,0.01,0.01,0.01,0.01,0.02,0.01,0.01,0.01,0.02,0.01,0.02,0.01,0.10,0.01,0.01,0.01,0.01,0.01,0.01,0.01,0.01,0.01,0.01,0.01,0.01,0.01,0.01,0.01,0.01,0.01,0.01,0.01,0.01,0.01,0.01,0.01,0.01,0.01,0.01,0.01,0.01,0.01,0.01,0.01,0.01,0.01,0.01,0.01,0.01,0.01,0.01,0.01,0.02,0.01,0.06,0.02,0.50,0.06,0.38,0.65,0.39,0.34,0.47,0.68,0.04,0.25,0.45,0.69
    #Input sequence length: 211
#Number of binding residues predicted by HomPRIP: 0
#Number of binding residues predicted by SVM: 10
#Number of binding residues predicted by RNABindRPlus: 1
>Q9BRJ2_distance
sequence:							F,K,T,E,K,E,F,M,Q,H,A,R,K,A,G,L,V,I,P,P,E,K,S,D,R,S,I,H,L,A,C,T,A,G,I,F,D,A,Y,V,P,P,A,S,Q,V,S,I,R,R,I,K,D,Y,D,A,N,F,K,I,K,D,F,P,E,K,A,K,D,I,F,I,E,A,H,L,C,L,N,N,S,D,H,D,R,L,H,T,L,V,T,E,H,C,F,P,D,M,T,W,D,I,K,Y,K,T,V,R,W,S,F,V,E,S,L,E,P,S,H,V,V,Q,V,R,C,N,V,Y,G,Q,I,T,V,R,M,H,T,R,Q,T,L,A,I,Y,D,R,F,G,R,L,M,Y,G,Q,E,D,V,P,K,D,V,L,E,Y,V,V,F,E,K,Q,L,P,Y,G,S,W,R,M,H,T,K,I,V,P,P,W,A,P,P,K,Q,P,I,L,K,T,V,M,I,P,G,P,Q,L,K,P,E,E,E,Y,E
Prediction from HomPRIP:			???????????????????????????????????????????????????????????????????????????????????????????????????????????????????????????????????????????????????????????????????????????????????????????????????????????????????
Predicted score from HomPRIP:		?,?,?,?,?,?,?,?,?,?,?,?,?,?,?,?,?,?,?,?,?,?,?,?,?,?,?,?,?,?,?,?,?,?,?,?,?,?,?,?,?,?,?,?,?,?,?,?,?,?,?,?,?,?,?,?,?,?,?,?,?,?,?,?,?,?,?,?,?,?,?,?,?,?,?,?,?,?,?,?,?,?,?,?,?,?,?,?,?,?,?,?,?,?,?,?,?,?,?,?,?,?,?,?,?,?,?,?,?,?,?,?,?,?,?,?,?,?,?,?,?,?,?,?,?,?,?,?,?,?,?,?,?,?,?,?,?,?,?,?,?,?,?,?,?,?,?,?,?,?,?,?,?,?,?,?,?,?,?,?,?,?,?,?,?,?,?,?,?,?,?,?,?,?,?,?,?,?,?,?,?,?,?,?,?,?,?,?,?,?,?,?,?,?,?,?,?,?,?,?,?,?,?,?,?,?,?,?,?,?,?
Prediction from SVM:				0,1,0,0,0,0,0,0,0,0,0,0,0,0,0,0,0,0,1,0,0,0,0,0,0,0,0,0,0,0,0,0,0,0,0,0,0,0,0,0,0,0,0,0,0,0,0,0,0,0,0,0,0,0,0,0,0,0,0,0,0,0,0,0,0,0,0,0,0,0,0,0,0,0,0,0,0,0,0,0,0,0,0,0,0,0,0,0,0,0,0,0,0,0,0,0,0,0,0,0,0,0,0,0,0,0,0,0,0,0,0,0,0,0,0,0,0,0,0,0,0,0,0,0,0,0,0,0,0,0,0,0,0,0,0,0,0,0,0,0,0,0,0,0,0,0,0,0,0,0,0,0,0,0,0,0,0,0,0,0,0,0,0,0,0,0,0,0,1,1,0,0,1,1,1,0,1,0,0,0,1,0,0,0,0,1,0,0,0,0,0,0,0,0,0,0,0,0,0,0,0,0,0,0,0,0,0,0,0,0,0
Predicted score from SVM:			0.12,0.68,0.15,0.07,0.01,0.01,0.00,0.00,0.01,0.04,0.00,0.05,0.03,0.04,0.20,0.08,0.05,0.11,0.51,0.10,0.02,0.08,0.01,0.00,0.07,0.02,0.00,0.01,0.00,0.01,0.01,0.03,0.00,0.00,0.00,0.00,0.01,0.01,0.04,0.01,0.06,0.26,0.09,0.16,0.22,0.02,0.06,0.03,0.27,0.17,0.01,0.06,0.02,0.05,0.01,0.11,0.04,0.06,0.08,0.04,0.01,0.02,0.02,0.02,0.00,0.02,0.01,0.02,0.04,0.01,0.02,0.01,0.03,0.01,0.07,0.03,0.04,0.03,0.03,0.03,0.04,0.01,0.05,0.09,0.05,0.01,0.08,0.04,0.03,0.02,0.07,0.09,0.04,0.01,0.09,0.02,0.01,0.01,0.03,0.02,0.02,0.02,0.06,0.03,0.06,0.11,0.04,0.10,0.09,0.09,0.01,0.01,0.07,0.04,0.04,0.04,0.09,0.02,0.05,0.02,0.03,0.04,0.01,0.41,0.04,0.04,0.04,0.02,0.01,0.10,0.01,0.09,0.02,0.40,0.01,0.01,0.01,0.02,0.01,0.01,0.03,0.03,0.02,0.07,0.03,0.02,0.02,0.01,0.09,0.00,0.01,0.00,0.02,0.01,0.00,0.00,0.00,0.00,0.00,0.00,0.00,0.00,0.01,0.01,0.02,0.01,0.04,0.24,0.52,0.58,0.12,0.41,0.60,0.62,0.63,0.41,0.90,0.20,0.28,0.11,0.50,0.05,0.05,0.15,0.29,0.54,0.13,0.15,0.36,0.12,0.05,0.01,0.00,0.00,0.02,0.04,0.01,0.01,0.01,0.01,0.00,0.01,0.00,0.00,0.00,0.00,0.00,0.00,0.00,0.00,0.00
Prediction from RNABindRPlus:		0,0,0,0,0,0,0,0,0,0,0,0,0,0,0,0,0,0,0,0,0,0,0,0,0,0,0,0,0,0,0,0,0,0,0,0,0,0,0,0,0,0,0,0,0,0,0,0,0,0,0,0,0,0,0,0,0,0,0,0,0,0,0,0,0,0,0,0,0,0,0,0,0,0,0,0,0,0,0,0,0,0,0,0,0,0,0,0,0,0,0,0,0,0,0,0,0,0,0,0,0,0,0,0,0,0,0,0,0,0,0,0,0,0,0,0,0,0,0,0,0,0,0,0,0,0,0,0,0,0,0,0,0,0,0,0,0,0,0,0,0,0,0,0,0,0,0,0,0,0,0,0,0,0,0,0,0,0,0,0,0,0,0,0,0,0,0,0,0,0,0,0,0,0,0,0,1,0,0,0,0,0,0,0,0,0,0,0,0,0,0,0,0,0,0,0,0,0,0,0,0,0,0,0,0,0,0,0,0,0,0
Predicted score from RNABindRPlus:	0.02,0.28,0.02,0.01,0.01,0.01,0.01,0.01,0.01,0.01,0.01,0.01,0.01,0.01,0.03,0.01,0.01,0.02,0.13,0.02,0.01,0.01,0.01,0.01,0.01,0.01,0.01,0.01,0.01,0.01,0.01,0.01,0.01,0.01,0.01,0.01,0.01,0.01,0.01,0.01,0.01,0.04,0.02,0.02,0.03,0.01,0.01,0.01,0.04,0.02,0.01,0.01,0.01,0.01,0.01,0.02,0.01,0.01,0.01,0.01,0.01,0.01,0.01,0.01,0.01,0.01,0.01,0.01,0.01,0.01,0.01,0.01,0.01,0.01,0.01,0.01,0.01,0.01,0.01,0.01,0.01,0.01,0.01,0.02,0.01,0.01,0.01,0.01,0.01,0.01,0.01,0.02,0.01,0.01,0.02,0.01,0.01,0.01,0.01,0.01,0.01,0.01,0.01,0.01,0.01,0.02,0.01,0.02,0.02,0.02,0.01,0.01,0.01,0.01,0.01,0.01,0.02,0.01,0.01,0.01,0.01,0.01,0.01,0.08,0.01,0.01,0.01,0.01,0.01,0.02,0.01,0.02,0.01,0.08,0.01,0.01,0.01,0.01,0.01,0.01,0.01,0.01,0.01,0.01,0.01,0.01,0.01,0.01,0.02,0.01,0.01,0.01,0.01,0.01,0.01,0.01,0.01,0.01,0.01,0.01,0.01,0.01,0.01,0.01,0.01,0.01,0.01,0.03,0.14,0.19,0.02,0.08,0.20,0.22,0.23,0.08,0.57,0.03,0.04,0.02,0.13,0.01,0.01,0.02,0.04,0.15,0.02,0.02,0.06,0.02,0.01,0.01,0.01,0.01,0.01,0.01,0.01,0.01,0.01,0.01,0.01,0.01,0.01,0.01,0.01,0.01,0.01,0.01,0.01,0.01,0.01
    #Input sequence length: 94
#Number of binding residues predicted by HomPRIP: 13
#Number of binding residues predicted by SVM: 31
#Number of binding residues predicted by RNABindRPlus: 19
>Q9BQC6_distance
sequence:							R,G,R,I,P,G,R,Q,W,I,G,K,H,R,R,P,R,F,V,S,L,R,A,K,Q,N,M,I,R,R,L,E,I,E,A,E,N,H,Y,W,L,S,M,P,Y,M,T,R,E,Q,E,R,G,H,A,A,V,R,R,R,E,A,F,E,A,I,K,A,A,A,T,S,K,F,P,P,H,R,F,I,A,D,Q,L,D,H,L,N,V,T,K,K,W,S
Prediction from HomPRIP:			?,?,?,?,?,?,?,?,0,0,1,1,0,1,0,0,0,0,0,0,0,0,0,0,0,0,1,1,1,1,0,0,0,0,0,0,0,0,0,0,0,0,0,0,0,0,1,1,1,1,0,0,1,1,0,0,0,0,?,?,?,?,?,?,?,?,?,?,?,?,?,?,?,?,?,?,?,?,?,?,?,?,?,?,?,?,?,?,?,?,?,?,?,?
Predicted score from HomPRIP:		?,?,?,?,?,?,?,?,0.00,0.00,1.00,1.00,0.00,1.00,0.00,0.00,0.00,0.00,0.00,0.00,0.00,0.00,0.00,0.00,0.00,0.00,1.00,1.00,0.50,1.00,0.00,0.00,0.00,0.00,0.00,0.00,0.00,0.00,0.00,0.00,0.00,0.00,0.00,0.00,0.00,0.00,1.00,1.00,1.00,1.00,0.00,0.00,1.00,0.50,0.00,0.00,0.00,0.00,?,?,?,?,?,?,?,?,?,?,?,?,?,?,?,?,?,?,?,?,?,?,?,?,?,?,?,?,?,?,?,?,?,?,?,?
Prediction from SVM:				1,1,1,1,1,1,1,1,1,1,1,1,1,1,1,1,1,1,1,1,1,1,1,0,0,0,0,0,0,0,0,0,0,0,0,0,0,0,0,0,0,0,0,0,0,0,0,0,0,0,0,0,0,0,0,0,0,0,0,0,0,0,0,0,0,0,0,0,0,0,0,0,0,0,1,0,0,0,1,0,0,0,1,0,0,0,0,1,0,1,1,1,1,0
Predicted score from SVM:			1.00,1.00,1.00,1.00,1.00,1.00,1.00,1.00,1.00,1.00,1.00,0.99,1.00,1.00,0.95,0.89,1.00,0.93,0.68,0.96,0.67,0.80,0.54,0.42,0.15,0.13,0.02,0.00,0.03,0.02,0.00,0.00,0.05,0.01,0.01,0.02,0.02,0.01,0.04,0.02,0.01,0.04,0.38,0.08,0.17,0.01,0.07,0.03,0.07,0.05,0.03,0.19,0.03,0.06,0.05,0.04,0.01,0.03,0.09,0.01,0.01,0.12,0.14,0.04,0.02,0.09,0.19,0.05,0.07,0.14,0.24,0.16,0.36,0.36,0.52,0.36,0.35,0.35,0.75,0.09,0.17,0.43,0.63,0.08,0.12,0.48,0.08,0.89,0.11,0.90,0.51,0.99,0.93,0.19
Prediction from RNABindRPlus:		1,1,1,1,1,1,1,1,1,1,1,1,1,1,0,0,1,0,0,0,0,0,0,0,0,0,0,0,0,0,0,0,0,0,0,0,0,0,0,0,0,0,0,0,0,0,0,0,0,0,0,0,0,0,0,0,0,0,0,0,0,0,0,0,0,0,0,0,0,0,0,0,0,0,0,0,0,0,0,0,0,0,0,0,0,0,0,1,0,1,0,1,1,0
Predicted score from RNABindRPlus:	0.70,0.70,0.70,0.70,0.70,0.70,0.70,0.70,0.53,0.53,0.98,0.98,0.53,0.98,0.46,0.38,0.53,0.44,0.16,0.48,0.16,0.27,0.08,0.04,0.01,0.01,0.16,0.15,0.03,0.16,0.01,0.01,0.01,0.01,0.01,0.01,0.01,0.01,0.01,0.01,0.01,0.01,0.04,0.01,0.01,0.01,0.20,0.17,0.20,0.19,0.01,0.01,0.17,0.04,0.01,0.01,0.01,0.01,0.02,0.01,0.01,0.02,0.02,0.01,0.01,0.02,0.03,0.01,0.01,0.02,0.03,0.02,0.06,0.06,0.14,0.06,0.06,0.06,0.37,0.02,0.02,0.09,0.23,0.01,0.02,0.11,0.01,0.56,0.02,0.57,0.13,0.69,0.61,0.03
    #Input sequence length: 373
#Number of binding residues predicted by HomPRIP: 0
#Number of binding residues predicted by SVM: 102
#Number of binding residues predicted by RNABindRPlus: 55
>Q9BRS2_distance
sequence:							T,D,S,V,I,N,K,V,T,E,K,S,R,Q,K,E,A,D,M,Y,R,I,K,D,K,A,D,R,A,T,V,E,Q,V,L,D,P,R,T,R,M,I,L,F,K,M,L,T,R,G,I,I,T,E,I,N,G,C,I,S,T,G,K,E,A,N,V,Y,H,A,S,T,A,N,G,E,S,R,A,I,K,I,Y,K,T,S,I,L,V,F,K,D,R,D,K,Y,V,S,G,E,F,R,F,R,H,G,Y,C,K,G,N,P,R,K,M,V,K,T,W,A,E,K,E,M,R,N,L,I,R,L,N,T,A,E,I,P,C,P,E,P,I,M,L,R,S,H,V,L,V,M,S,F,I,G,K,D,D,M,P,A,P,L,L,K,N,V,Q,L,S,E,S,K,A,R,E,L,Y,L,Q,V,I,Q,Y,M,R,R,M,Y,Q,D,A,R,L,V,H,A,D,L,S,E,F,N,M,L,Y,H,G,G,G,V,Y,I,I,D,V,S,Q,S,V,E,H,D,H,P,H,A,L,E,F,L,R,K,D,C,A,N,V,N,D,F,F,M,R,H,S,V,A,V,M,T,V,R,E,L,F,E,F,V,T,D,P,S,I,T,H,E,N,M,D,A,Y,L,S,K,A,M,E,I,A,S,Q,R,T,K,S,S,Q,D,H,V,D,E,E,V,F,K,R,A,Y,I,P,R,T,L,N,E,V,K,N,Y,E,R,D,M,D,I,I,M,K,L,Q,D,N,I,L,Y,Q,T,V,T,G,L,K,K,D,L,S,G,V,Q,K,V,P,A,K,K,E,R,K,K,M,V,K,E,A,Q,R,E,K,R,K,N,K,I,P,K,H,V,K,K,R,K,E
Prediction from HomPRIP:			?????????????????????????????????????????????????????????????????????????????????????????????????????????????????????????????????????????????????????????????????????????????????????????????????????????????????????????????????????????????????????????????????????????????????????????????????????????????????????????????????????????????????????????????????????????????????????
Predicted score from HomPRIP:		?,?,?,?,?,?,?,?,?,?,?,?,?,?,?,?,?,?,?,?,?,?,?,?,?,?,?,?,?,?,?,?,?,?,?,?,?,?,?,?,?,?,?,?,?,?,?,?,?,?,?,?,?,?,?,?,?,?,?,?,?,?,?,?,?,?,?,?,?,?,?,?,?,?,?,?,?,?,?,?,?,?,?,?,?,?,?,?,?,?,?,?,?,?,?,?,?,?,?,?,?,?,?,?,?,?,?,?,?,?,?,?,?,?,?,?,?,?,?,?,?,?,?,?,?,?,?,?,?,?,?,?,?,?,?,?,?,?,?,?,?,?,?,?,?,?,?,?,?,?,?,?,?,?,?,?,?,?,?,?,?,?,?,?,?,?,?,?,?,?,?,?,?,?,?,?,?,?,?,?,?,?,?,?,?,?,?,?,?,?,?,?,?,?,?,?,?,?,?,?,?,?,?,?,?,?,?,?,?,?,?,?,?,?,?,?,?,?,?,?,?,?,?,?,?,?,?,?,?,?,?,?,?,?,?,?,?,?,?,?,?,?,?,?,?,?,?,?,?,?,?,?,?,?,?,?,?,?,?,?,?,?,?,?,?,?,?,?,?,?,?,?,?,?,?,?,?,?,?,?,?,?,?,?,?,?,?,?,?,?,?,?,?,?,?,?,?,?,?,?,?,?,?,?,?,?,?,?,?,?,?,?,?,?,?,?,?,?,?,?,?,?,?,?,?,?,?,?,?,?,?,?,?,?,?,?,?,?,?,?,?,?,?,?,?,?,?,?,?,?,?,?,?,?,?,?,?,?,?,?,?,?,?,?,?,?,?,?,?,?,?,?,?
Prediction from SVM:				1,1,1,0,0,0,0,0,0,0,0,0,1,0,0,0,0,0,1,0,1,0,1,1,1,1,1,1,1,1,1,1,1,0,1,1,1,1,1,1,1,0,0,0,1,0,0,0,0,0,0,0,0,0,0,0,0,0,0,1,1,0,1,0,1,0,0,0,0,0,0,0,0,0,0,0,0,0,0,0,1,0,1,1,1,1,0,1,0,0,1,0,0,0,1,1,0,1,1,1,1,1,1,1,1,1,1,1,1,1,1,1,1,1,1,1,1,1,1,1,1,1,1,1,1,1,1,1,1,0,0,1,0,1,1,1,1,1,1,0,0,0,0,0,0,0,0,0,0,0,0,0,0,0,1,0,0,1,0,1,1,1,0,1,0,0,0,0,0,0,0,0,0,0,0,0,0,0,0,0,0,0,0,0,1,0,0,0,1,0,0,1,0,0,0,0,0,0,0,0,0,0,0,0,0,0,0,0,0,0,0,0,0,0,0,0,0,0,0,0,0,0,0,0,1,0,0,0,0,0,0,0,0,0,0,0,0,0,0,0,0,0,0,1,0,0,0,0,0,0,0,0,0,0,0,0,0,0,0,0,0,0,0,0,0,0,0,0,0,0,0,0,0,0,0,0,0,0,0,0,0,0,0,0,0,0,0,0,0,0,0,0,0,0,0,0,0,0,0,0,0,1,0,0,0,0,0,0,0,0,0,0,0,0,0,0,0,0,0,0,0,0,0,0,0,0,0,0,0,0,0,0,0,0,0,0,0,0,0,0,0,0,0,0,0,0,0,0,0,0,0,0,0,0,0,0,0,0,0,1,0,1,1,1,1,1,1,1,1,1,1,1,1
Predicted score from SVM:			0.68,0.99,1.00,0.08,0.03,0.07,0.35,0.00,0.20,0.05,0.25,0.07,0.76,0.26,0.09,0.22,0.29,0.40,0.73,0.12,0.92,0.42,0.98,0.80,0.98,0.84,0.95,1.00,0.96,0.98,0.73,0.84,0.98,0.26,0.63,0.66,0.88,0.98,0.77,0.99,0.98,0.21,0.02,0.46,0.68,0.03,0.03,0.23,0.33,0.02,0.00,0.00,0.01,0.01,0.00,0.02,0.11,0.28,0.01,0.53,0.80,0.46,0.87,0.48,0.58,0.18,0.02,0.15,0.38,0.06,0.09,0.10,0.03,0.07,0.02,0.01,0.13,0.14,0.02,0.01,0.88,0.15,0.80,0.60,0.76,0.72,0.26,0.50,0.39,0.37,0.57,0.21,0.40,0.22,0.67,0.52,0.10,0.51,0.53,0.74,0.78,0.96,0.89,0.94,0.99,0.98,1.00,1.00,1.00,1.00,1.00,1.00,1.00,1.00,0.89,0.94,0.99,0.94,0.99,0.65,0.97,0.99,0.93,0.80,0.98,0.88,0.74,0.65,0.91,0.16,0.41,0.74,0.29,0.52,0.81,0.97,0.90,0.86,0.64,0.23,0.08,0.01,0.00,0.04,0.01,0.12,0.03,0.02,0.00,0.02,0.06,0.05,0.03,0.20,0.51,0.16,0.38,0.76,0.16,0.79,0.64,0.82,0.22,0.61,0.10,0.01,0.00,0.00,0.00,0.00,0.00,0.00,0.00,0.02,0.01,0.00,0.01,0.01,0.02,0.00,0.02,0.05,0.02,0.02,0.54,0.45,0.15,0.45,0.85,0.19,0.28,0.98,0.47,0.27,0.34,0.40,0.12,0.03,0.09,0.05,0.01,0.08,0.00,0.00,0.01,0.01,0.00,0.00,0.05,0.00,0.00,0.00,0.00,0.01,0.01,0.22,0.13,0.04,0.07,0.01,0.09,0.16,0.16,0.13,0.77,0.11,0.04,0.15,0.15,0.01,0.04,0.42,0.08,0.01,0.20,0.21,0.01,0.06,0.08,0.24,0.13,0.08,0.35,0.56,0.09,0.06,0.05,0.14,0.04,0.13,0.02,0.13,0.02,0.00,0.01,0.01,0.01,0.00,0.00,0.00,0.00,0.00,0.00,0.00,0.00,0.00,0.00,0.00,0.00,0.00,0.00,0.00,0.00,0.00,0.00,0.00,0.00,0.00,0.00,0.00,0.00,0.00,0.00,0.00,0.00,0.00,0.00,0.00,0.00,0.00,0.00,0.00,0.01,0.02,0.02,0.07,0.10,0.12,0.47,0.09,0.08,0.56,0.39,0.03,0.13,0.18,0.02,0.01,0.04,0.00,0.00,0.01,0.00,0.00,0.00,0.00,0.00,0.00,0.00,0.00,0.00,0.00,0.01,0.00,0.00,0.01,0.01,0.00,0.00,0.00,0.00,0.00,0.00,0.00,0.00,0.00,0.00,0.00,0.00,0.00,0.00,0.00,0.00,0.00,0.00,0.00,0.00,0.01,0.01,0.00,0.00,0.00,0.00,0.01,0.00,0.02,0.03,0.01,0.17,0.76,0.29,0.69,0.98,0.81,0.95,1.00,0.99,0.95,1.00,1.00,1.00,1.00,1.00
Prediction from RNABindRPlus:		0,1,1,0,0,0,0,0,0,0,0,0,0,0,0,0,0,0,0,0,1,0,1,0,1,0,1,1,1,1,0,0,1,0,0,0,1,1,0,1,1,0,0,0,0,0,0,0,0,0,0,0,0,0,0,0,0,0,0,0,0,0,1,0,0,0,0,0,0,0,0,0,0,0,0,0,0,0,0,0,1,0,0,0,0,0,0,0,0,0,0,0,0,0,0,0,0,0,0,0,0,1,1,1,1,1,1,1,1,1,1,1,1,1,1,1,1,1,1,0,1,1,1,0,1,1,0,0,1,0,0,0,0,0,0,1,1,1,0,0,0,0,0,0,0,0,0,0,0,0,0,0,0,0,0,0,0,0,0,0,0,0,0,0,0,0,0,0,0,0,0,0,0,0,0,0,0,0,0,0,0,0,0,0,0,0,0,0,1,0,0,1,0,0,0,0,0,0,0,0,0,0,0,0,0,0,0,0,0,0,0,0,0,0,0,0,0,0,0,0,0,0,0,0,0,0,0,0,0,0,0,0,0,0,0,0,0,0,0,0,0,0,0,0,0,0,0,0,0,0,0,0,0,0,0,0,0,0,0,0,0,0,0,0,0,0,0,0,0,0,0,0,0,0,0,0,0,0,0,0,0,0,0,0,0,0,0,0,0,0,0,0,0,0,0,0,0,0,0,0,0,0,0,0,0,0,0,0,0,0,0,0,0,0,0,0,0,0,0,0,0,0,0,0,0,0,0,0,0,0,0,0,0,0,0,0,0,0,0,0,0,0,0,0,0,0,0,0,0,0,0,0,0,0,0,0,0,0,0,0,0,0,1,0,1,1,1,1,1,1,1,1,1
Predicted score from RNABindRPlus:	0.28,0.69,0.70,0.01,0.01,0.01,0.06,0.01,0.03,0.01,0.04,0.01,0.38,0.04,0.02,0.03,0.04,0.08,0.34,0.02,0.60,0.09,0.68,0.43,0.68,0.49,0.64,0.70,0.65,0.68,0.34,0.49,0.68,0.04,0.23,0.26,0.54,0.68,0.39,0.69,0.68,0.03,0.01,0.10,0.28,0.01,0.01,0.03,0.05,0.01,0.01,0.01,0.01,0.01,0.01,0.01,0.02,0.04,0.01,0.15,0.43,0.10,0.53,0.11,0.19,0.02,0.01,0.02,0.07,0.01,0.02,0.02,0.01,0.01,0.01,0.01,0.02,0.02,0.01,0.01,0.54,0.02,0.43,0.20,0.38,0.33,0.04,0.13,0.07,0.07,0.18,0.03,0.08,0.03,0.27,0.14,0.02,0.13,0.15,0.35,0.41,0.65,0.56,0.62,0.69,0.68,0.70,0.70,0.70,0.70,0.70,0.70,0.70,0.70,0.56,0.62,0.69,0.62,0.69,0.25,0.66,0.69,0.61,0.43,0.68,0.54,0.35,0.25,0.58,0.02,0.08,0.35,0.04,0.14,0.45,0.66,0.57,0.52,0.24,0.03,0.01,0.01,0.01,0.01,0.01,0.02,0.01,0.01,0.01,0.01,0.01,0.01,0.01,0.03,0.13,0.02,0.07,0.38,0.02,0.42,0.24,0.46,0.03,0.21,0.02,0.01,0.01,0.01,0.01,0.01,0.01,0.01,0.01,0.01,0.01,0.01,0.01,0.01,0.01,0.01,0.01,0.01,0.01,0.01,0.15,0.10,0.02,0.10,0.50,0.03,0.04,0.68,0.11,0.04,0.06,0.08,0.02,0.01,0.02,0.01,0.01,0.01,0.01,0.01,0.01,0.01,0.01,0.01,0.01,0.01,0.01,0.01,0.01,0.01,0.01,0.03,0.02,0.01,0.01,0.01,0.02,0.02,0.02,0.02,0.39,0.02,0.01,0.02,0.02,0.01,0.01,0.09,0.01,0.01,0.03,0.03,0.01,0.01,0.01,0.03,0.02,0.01,0.06,0.17,0.02,0.01,0.01,0.02,0.01,0.02,0.01,0.02,0.01,0.01,0.01,0.01,0.01,0.01,0.01,0.01,0.01,0.01,0.01,0.01,0.01,0.01,0.01,0.01,0.01,0.01,0.01,0.01,0.01,0.01,0.01,0.01,0.01,0.01,0.01,0.01,0.01,0.01,0.01,0.01,0.01,0.01,0.01,0.01,0.01,0.01,0.01,0.01,0.01,0.01,0.01,0.01,0.02,0.02,0.11,0.02,0.01,0.17,0.07,0.01,0.02,0.02,0.01,0.01,0.01,0.01,0.01,0.01,0.01,0.01,0.01,0.01,0.01,0.01,0.01,0.01,0.01,0.01,0.01,0.01,0.01,0.01,0.01,0.01,0.01,0.01,0.01,0.01,0.01,0.01,0.01,0.01,0.01,0.01,0.01,0.01,0.01,0.01,0.01,0.01,0.01,0.01,0.01,0.01,0.01,0.01,0.01,0.01,0.01,0.01,0.01,0.01,0.01,0.01,0.02,0.38,0.04,0.29,0.68,0.45,0.64,0.70,0.69,0.64,0.70,0.70,0.70,0.70,0.70
    #Input sequence length: 129
#Number of binding residues predicted by HomPRIP: 35
#Number of binding residues predicted by SVM: 22
#Number of binding residues predicted by RNABindRPlus: 18
>Q9BUL9_distance
sequence:							M,E,N,F,R,K,V,R,G,G,P,G,S,G,P,F,A,D,L,A,P,G,A,V,H,M,R,V,K,E,G,S,K,I,R,N,L,M,A,F,A,T,A,S,M,A,Q,P,A,T,R,A,I,V,F,S,G,C,G,R,A,T,T,K,T,V,T,C,A,E,I,L,K,R,R,L,A,G,L,H,Q,V,T,R,L,R,Y,R,S,V,R,E,V,W,Q,S,A,S,L,S,V,L,K,N,V,P,G,L,A,I,L,L,S,K,D,A,L,D,P,R,Q,P,G,Y,Q,P,P,N,P
Prediction from HomPRIP:			?,?,?,?,?,?,?,?,?,?,?,?,?,?,?,?,?,?,?,?,?,?,?,?,?,?,?,?,?,?,?,?,?,?,?,?,?,?,?,?,?,?,?,?,?,?,1,1,1,1,1,1,1,1,1,1,1,1,1,1,0,1,1,1,1,1,1,1,1,1,1,0,1,1,1,1,1,1,1,1,1,1,1,?,?,?,?,?,?,?,?,?,?,?,?,?,?,?,?,?,?,?,?,?,?,?,?,?,?,?,?,?,?,?,?,?,?,?,?,?,?,?,?,?,?,?,?,?,?
Predicted score from HomPRIP:		?,?,?,?,?,?,?,?,?,?,?,?,?,?,?,?,?,?,?,?,?,?,?,?,?,?,?,?,?,?,?,?,?,?,?,?,?,?,?,?,?,?,?,?,?,?,1.00,1.00,1.00,1.00,1.00,1.00,1.00,1.00,1.00,1.00,1.00,1.00,1.00,1.00,0.00,1.00,1.00,0.50,0.50,1.00,1.00,1.00,1.00,1.00,1.00,0.00,1.00,1.00,1.00,1.00,1.00,1.00,1.00,1.00,1.00,1.00,1.00,?,?,?,?,?,?,?,?,?,?,?,?,?,?,?,?,?,?,?,?,?,?,?,?,?,?,?,?,?,?,?,?,?,?,?,?,?,?,?,?,?,?,?,?,?,?
Prediction from SVM:				0,0,1,0,0,0,0,0,0,0,0,0,0,0,0,0,0,0,0,0,0,0,0,0,0,0,1,0,1,1,1,1,1,0,1,1,0,0,1,1,0,0,0,0,0,0,0,0,0,0,0,0,0,0,0,1,0,1,1,1,0,0,1,1,1,0,1,0,0,0,0,0,0,0,0,0,0,0,0,0,0,0,0,0,0,0,0,0,0,0,0,0,0,0,0,0,0,0,0,0,0,0,0,0,0,0,0,0,0,0,0,0,0,0,0,0,0,0,0,0,0,0,0,1,0,0,1,0,1
Predicted score from SVM:			0.27,0.31,0.77,0.33,0.02,0.03,0.00,0.00,0.00,0.00,0.00,0.00,0.00,0.00,0.00,0.00,0.00,0.00,0.00,0.00,0.00,0.00,0.00,0.00,0.04,0.04,0.66,0.15,0.96,0.86,0.95,0.96,0.98,0.48,0.97,0.99,0.49,0.06,0.55,0.59,0.02,0.02,0.05,0.02,0.00,0.00,0.01,0.01,0.01,0.02,0.02,0.07,0.03,0.10,0.05,0.89,0.46,0.51,0.58,0.89,0.40,0.13,0.74,0.99,0.67,0.32,0.64,0.05,0.03,0.03,0.05,0.03,0.04,0.37,0.20,0.04,0.05,0.14,0.04,0.13,0.10,0.02,0.04,0.21,0.02,0.01,0.02,0.01,0.01,0.00,0.01,0.00,0.01,0.02,0.01,0.01,0.00,0.00,0.00,0.01,0.00,0.02,0.12,0.05,0.05,0.04,0.10,0.01,0.09,0.03,0.11,0.03,0.10,0.06,0.01,0.01,0.01,0.01,0.01,0.06,0.03,0.04,0.05,0.63,0.18,0.01,0.54,0.02,0.55
Prediction from RNABindRPlus:		0,0,0,0,0,0,0,0,0,0,0,0,0,0,0,0,0,0,0,0,0,0,0,0,0,0,0,0,1,1,1,1,1,0,1,1,0,0,0,0,0,0,0,0,0,0,0,0,0,0,0,0,0,0,0,1,1,1,1,1,0,0,1,1,1,1,1,0,0,0,0,0,0,1,0,0,0,0,0,0,0,0,0,0,0,0,0,0,0,0,0,0,0,0,0,0,0,0,0,0,0,0,0,0,0,0,0,0,0,0,0,0,0,0,0,0,0,0,0,0,0,0,0,0,0,0,0,0,0
Predicted score from RNABindRPlus:	0.04,0.05,0.39,0.05,0.01,0.01,0.01,0.01,0.01,0.01,0.01,0.01,0.01,0.01,0.01,0.01,0.01,0.01,0.01,0.01,0.01,0.01,0.01,0.01,0.01,0.01,0.26,0.02,0.65,0.52,0.64,0.65,0.68,0.11,0.66,0.69,0.12,0.01,0.16,0.19,0.01,0.01,0.01,0.01,0.01,0.01,0.15,0.15,0.15,0.16,0.16,0.20,0.17,0.23,0.19,0.96,0.69,0.74,0.81,0.96,0.04,0.26,0.91,0.87,0.53,0.50,0.86,0.19,0.17,0.17,0.19,0.01,0.18,0.57,0.34,0.18,0.19,0.27,0.18,0.26,0.23,0.16,0.18,0.03,0.01,0.01,0.01,0.01,0.01,0.01,0.01,0.01,0.01,0.01,0.01,0.01,0.01,0.01,0.01,0.01,0.01,0.01,0.02,0.01,0.01,0.01,0.02,0.01,0.02,0.01,0.02,0.01,0.02,0.01,0.01,0.01,0.01,0.01,0.01,0.01,0.01,0.01,0.01,0.23,0.02,0.01,0.15,0.01,0.16
    #Input sequence length: 119
#Number of binding residues predicted by HomPRIP: 0
#Number of binding residues predicted by SVM: 24
#Number of binding residues predicted by RNABindRPlus: 6
>Q9BWG6_distance
sequence:							M,S,F,K,R,E,G,D,D,W,S,Q,L,N,V,L,K,K,R,R,V,G,D,L,L,A,S,Y,I,P,E,D,E,A,L,M,L,R,D,G,R,F,A,C,A,I,C,P,H,R,P,V,L,D,T,L,A,M,L,T,A,H,R,A,G,K,K,H,L,S,S,L,Q,L,F,S,P,T,R,R,R,A,L,D,H,Y,L,T,L,R,S,S,G,W,I,P,D,G,R,G,R,W,V,K,D,E,N,V,E,F,D,S,D,E,E,E,P,P,D
Prediction from HomPRIP:			???????????????????????????????????????????????????????????????????????????????????????????????????????????????????????
Predicted score from HomPRIP:		?,?,?,?,?,?,?,?,?,?,?,?,?,?,?,?,?,?,?,?,?,?,?,?,?,?,?,?,?,?,?,?,?,?,?,?,?,?,?,?,?,?,?,?,?,?,?,?,?,?,?,?,?,?,?,?,?,?,?,?,?,?,?,?,?,?,?,?,?,?,?,?,?,?,?,?,?,?,?,?,?,?,?,?,?,?,?,?,?,?,?,?,?,?,?,?,?,?,?,?,?,?,?,?,?,?,?,?,?,?,?,?,?,?,?,?,?,?,?
Prediction from SVM:				0,1,1,1,1,0,0,1,1,1,1,0,0,0,0,0,0,1,1,1,0,0,0,0,0,0,0,0,0,0,0,0,0,0,0,0,0,0,0,0,1,0,0,0,0,0,0,1,0,0,0,0,0,0,0,0,0,0,0,0,0,1,0,0,1,1,1,0,0,0,0,0,0,0,0,0,0,0,0,0,0,0,0,0,0,0,0,0,0,1,0,0,0,1,1,1,1,1,1,0,0,0,0,0,0,0,0,0,0,0,0,0,0,0,0,0,0,0,0
Predicted score from SVM:			0.36,0.73,0.89,0.99,0.99,0.41,0.23,0.72,0.61,0.90,0.54,0.33,0.04,0.36,0.09,0.07,0.28,0.71,0.78,0.55,0.03,0.02,0.06,0.03,0.01,0.01,0.02,0.01,0.01,0.00,0.00,0.00,0.00,0.01,0.01,0.02,0.03,0.40,0.23,0.32,0.77,0.36,0.27,0.37,0.21,0.11,0.40,0.70,0.15,0.14,0.15,0.01,0.01,0.07,0.05,0.01,0.02,0.03,0.04,0.03,0.01,0.62,0.36,0.35,0.56,0.61,0.91,0.48,0.48,0.41,0.16,0.02,0.01,0.00,0.02,0.02,0.01,0.04,0.07,0.04,0.04,0.01,0.01,0.01,0.09,0.09,0.02,0.22,0.18,0.58,0.35,0.35,0.20,0.73,0.63,0.86,0.67,0.68,0.78,0.43,0.24,0.18,0.06,0.08,0.01,0.01,0.02,0.00,0.00,0.00,0.00,0.00,0.00,0.00,0.00,0.00,0.00,0.00,0.00
Prediction from RNABindRPlus:		0,0,1,1,1,0,0,0,0,1,0,0,0,0,0,0,0,0,0,0,0,0,0,0,0,0,0,0,0,0,0,0,0,0,0,0,0,0,0,0,0,0,0,0,0,0,0,0,0,0,0,0,0,0,0,0,0,0,0,0,0,0,0,0,0,0,1,0,0,0,0,0,0,0,0,0,0,0,0,0,0,0,0,0,0,0,0,0,0,0,0,0,0,0,0,1,0,0,0,0,0,0,0,0,0,0,0,0,0,0,0,0,0,0,0,0,0,0,0
Predicted score from RNABindRPlus:	0.06,0.34,0.56,0.69,0.69,0.08,0.03,0.33,0.21,0.57,0.15,0.05,0.01,0.06,0.02,0.01,0.04,0.32,0.41,0.16,0.01,0.01,0.01,0.01,0.01,0.01,0.01,0.01,0.01,0.01,0.01,0.01,0.01,0.01,0.01,0.01,0.01,0.08,0.03,0.05,0.39,0.06,0.04,0.07,0.03,0.02,0.08,0.31,0.02,0.02,0.02,0.01,0.01,0.01,0.01,0.01,0.01,0.01,0.01,0.01,0.01,0.22,0.06,0.06,0.17,0.21,0.58,0.11,0.11,0.08,0.02,0.01,0.01,0.01,0.01,0.01,0.01,0.01,0.01,0.01,0.01,0.01,0.01,0.01,0.02,0.02,0.01,0.03,0.02,0.19,0.06,0.06,0.03,0.34,0.23,0.52,0.27,0.28,0.41,0.09,0.03,0.02,0.01,0.01,0.01,0.01,0.01,0.01,0.01,0.01,0.01,0.01,0.01,0.01,0.01,0.01,0.01,0.01,0.01
    #Input sequence length: 58
#Number of binding residues predicted by HomPRIP: 21
#Number of binding residues predicted by SVM: 39
#Number of binding residues predicted by RNABindRPlus: 34
>Q9BVJ6_distance
sequence:							A,K,M,R,R,A,E,L,Q,R,A,R,A,L,Q,S,Y,Y,E,A,K,A,R,R,E,K,K,I,K,S,K,K,Y,H,K,V,V,K,K,G,K,A,K,K,T,L,P,G,W,G,E,W,G,G,V,G,L,K
Prediction from HomPRIP:			?,?,?,?,?,?,?,?,?,?,?,?,?,?,?,?,?,?,?,?,0,0,1,0,0,0,1,1,1,1,1,1,1,1,1,0,0,1,1,1,1,1,1,1,1,1,1,1,0,0,?,?,?,?,?,?,?,?
Predicted score from HomPRIP:		?,?,?,?,?,?,?,?,?,?,?,?,?,?,?,?,?,?,?,?,0.05,0.00,0.71,0.08,0.00,0.00,0.95,1.00,1.00,1.00,1.00,0.97,1.00,1.00,0.97,0.00,0.00,0.50,1.00,0.63,1.00,1.00,1.00,1.00,1.00,1.00,1.00,1.00,0.00,0.00,?,?,?,?,?,?,?,?
Prediction from SVM:				1,1,1,1,1,1,1,1,1,1,0,1,1,1,0,1,1,1,1,1,1,1,1,1,1,1,1,1,1,1,1,1,1,1,1,1,1,1,1,0,1,0,0,0,0,0,0,0,0,0,0,0,0,0,0,0,0,1
Predicted score from SVM:			0.99,1.00,0.95,1.00,1.00,0.83,0.91,0.78,0.98,0.99,0.19,0.97,0.64,0.97,0.14,0.88,1.00,0.89,0.86,0.98,1.00,1.00,1.00,1.00,1.00,1.00,1.00,1.00,1.00,1.00,1.00,1.00,1.00,1.00,1.00,0.97,0.95,0.99,0.98,0.11,0.66,0.05,0.12,0.27,0.01,0.00,0.03,0.01,0.00,0.00,0.00,0.00,0.00,0.00,0.00,0.01,0.00,0.98
Prediction from RNABindRPlus:		1,1,1,1,1,0,1,0,1,1,0,1,0,1,0,1,1,1,1,1,1,1,1,1,1,1,1,1,1,1,1,1,1,1,1,0,0,1,1,0,1,0,0,0,0,0,0,0,0,0,0,0,0,0,0,0,0,1
Predicted score from RNABindRPlus:	0.69,0.70,0.64,0.70,0.70,0.47,0.58,0.41,0.68,0.69,0.03,0.66,0.24,0.66,0.02,0.54,0.70,0.56,0.52,0.68,0.58,0.53,0.94,0.60,0.53,0.53,0.97,0.98,0.98,0.98,0.98,0.97,0.98,0.98,0.97,0.49,0.46,0.87,0.97,0.08,0.87,0.19,0.25,0.43,0.15,0.15,0.17,0.15,0.01,0.01,0.01,0.01,0.01,0.01,0.01,0.01,0.01,0.68
    #Input sequence length: 390
#Number of binding residues predicted by HomPRIP: 43
#Number of binding residues predicted by SVM: 87
#Number of binding residues predicted by RNABindRPlus: 45
>Q9BXR0_distance
sequence:							P,R,I,M,R,L,V,A,E,C,S,R,S,R,A,R,A,G,E,L,W,L,P,H,G,T,V,A,T,P,V,F,M,P,V,G,T,Q,A,T,M,K,G,I,T,T,E,Q,L,D,A,L,G,C,R,I,C,L,G,N,T,Y,H,L,G,L,R,P,G,P,E,L,I,Q,K,A,N,G,L,H,G,F,M,N,W,P,H,N,L,L,T,D,S,G,G,F,Q,M,V,S,L,V,S,L,S,E,V,T,E,E,G,V,R,F,R,S,P,Y,D,G,N,E,T,L,L,S,P,E,K,S,V,Q,I,Q,N,A,L,G,S,D,I,I,M,Q,L,D,D,V,V,S,S,T,V,T,G,P,R,V,E,E,A,M,Y,R,S,I,R,W,L,D,R,C,I,A,A,H,Q,R,P,D,K,Q,N,L,F,A,I,I,Q,G,G,L,D,A,D,L,R,A,T,C,L,E,E,M,T,K,R,D,V,P,G,F,A,I,G,G,L,S,G,G,E,S,K,S,Q,F,W,R,M,V,A,L,S,T,S,R,L,P,K,D,K,P,R,Y,L,M,G,V,G,Y,A,T,D,L,V,V,C,V,A,L,G,C,D,M,F,D,C,V,F,P,T,R,T,A,R,F,G,S,A,L,V,P,T,G,N,L,Q,L,R,K,K,V,F,E,K,D,F,G,P,I,D,P,E,C,T,C,P,T,C,Q,K,H,S,R,A,F,L,H,A,L,L,H,S,D,N,T,A,A,L,H,H,L,T,V,H,N,I,A,Y,Q,L,Q,L,M,S,A,V,R,T,S,I,V,E,K,R,F,P,D,F,V,R,D,F,M,G,A,M,Y,G,D,P,T,L,C,P,T,W,A,T,D,A,L,A,S,V,G,I,T,L,G
Prediction from HomPRIP:			?,?,?,?,?,?,?,?,?,?,?,?,?,0,0,0,0,0,0,0,0,0,0,0,0,0,0,0,0,0,0,0,0,0,1,0,1,0,0,0,0,1,0,0,0,0,0,0,0,0,0,0,0,0,0,0,0,1,0,1,0,0,1,0,0,0,1,0,0,0,0,0,0,0,0,0,0,0,0,0,0,0,0,0,0,0,0,0,0,0,0,1,0,0,0,1,1,0,0,1,1,0,1,1,0,0,0,0,0,0,0,0,0,0,0,0,1,1,1,0,0,0,0,0,0,0,0,0,0,0,0,0,0,0,0,0,0,0,0,0,0,0,0,0,0,0,0,0,0,0,0,0,0,0,0,0,0,0,0,0,0,0,0,0,0,0,0,0,0,0,0,0,0,0,0,0,0,0,0,0,0,0,0,0,0,0,0,0,0,0,0,0,0,0,0,0,0,0,0,0,0,0,0,0,0,0,0,0,0,0,0,0,0,0,0,0,0,1,0,0,0,0,0,0,0,0,0,0,0,0,0,0,0,0,0,0,0,0,0,0,0,0,0,0,0,1,1,1,1,1,0,0,1,0,0,0,0,0,0,0,0,0,0,0,0,1,1,1,1,0,1,1,1,0,1,1,0,1,0,0,0,0,0,0,0,0,1,0,1,1,1,1,0,0,0,0,0,0,0,0,0,0,0,0,0,0,0,0,0,0,0,0,0,0,0,0,0,0,0,0,0,1,0,1,1,1,0,0,0,0,0,0,0,0,0,0,0,0,0,0,0,0,0,0,0,0,0,0,0,0,0,0,0,0,0,0,0,0,0,0,0,0,0,?,?,?,?,?,?,?,?,?,?,?,?,?,?,?,?,?,?,?,?,?,?,?,?,?,?,?
Predicted score from HomPRIP:		?,?,?,?,?,?,?,?,?,?,?,?,?,0.00,0.00,0.00,0.00,0.00,0.00,0.00,0.00,0.00,0.00,0.00,0.00,0.00,0.00,0.00,0.00,0.00,0.00,0.00,0.00,0.00,0.50,0.00,0.50,0.00,0.00,0.00,0.00,0.50,0.00,0.00,0.00,0.00,0.00,0.00,0.00,0.00,0.00,0.00,0.00,0.00,0.00,0.00,0.00,0.50,0.00,0.50,0.00,0.00,0.50,0.00,0.00,0.00,0.50,0.00,0.00,0.00,0.00,0.00,0.00,0.00,0.00,0.00,0.00,0.00,0.00,0.00,0.00,0.00,0.00,0.00,0.00,0.00,0.00,0.00,0.00,0.00,0.00,0.50,0.12,0.12,0.12,0.50,0.50,0.00,0.00,0.50,0.50,0.00,0.50,0.50,0.00,0.00,0.00,0.00,0.00,0.00,0.00,0.00,0.00,0.00,0.00,0.12,0.88,0.50,0.50,0.12,0.00,0.00,0.00,0.00,0.00,0.00,0.00,0.00,0.00,0.00,0.00,0.00,0.00,0.00,0.00,0.00,0.00,0.00,0.00,0.00,0.00,0.00,0.00,0.00,0.00,0.12,0.00,0.12,0.00,0.00,0.00,0.00,0.00,0.00,0.00,0.00,0.00,0.00,0.00,0.00,0.00,0.00,0.00,0.00,0.00,0.00,0.00,0.00,0.00,0.00,0.00,0.00,0.00,0.00,0.00,0.00,0.00,0.00,0.00,0.00,0.00,0.00,0.00,0.00,0.00,0.00,0.12,0.00,0.12,0.00,0.00,0.00,0.00,0.00,0.00,0.00,0.00,0.00,0.00,0.00,0.00,0.00,0.00,0.00,0.00,0.00,0.00,0.00,0.00,0.00,0.00,0.00,0.00,0.00,0.12,0.12,0.25,0.50,0.25,0.00,0.00,0.00,0.00,0.00,0.00,0.00,0.00,0.00,0.00,0.00,0.00,0.00,0.00,0.00,0.00,0.00,0.00,0.00,0.00,0.00,0.00,0.00,0.00,0.38,0.00,0.50,0.50,0.50,0.50,0.50,0.00,0.00,0.50,0.00,0.00,0.00,0.00,0.00,0.00,0.00,0.00,0.00,0.00,0.00,0.00,0.50,0.50,0.50,0.50,0.00,0.50,0.50,0.50,0.00,0.75,0.50,0.00,0.50,0.00,0.00,0.00,0.00,0.00,0.00,0.00,0.00,0.50,0.00,0.50,0.50,0.50,0.50,0.00,0.00,0.00,0.00,0.00,0.00,0.00,0.00,0.00,0.00,0.00,0.00,0.00,0.00,0.00,0.00,0.00,0.00,0.00,0.00,0.00,0.00,0.00,0.00,0.00,0.00,0.00,0.00,0.00,0.50,0.00,0.62,0.50,1.00,0.00,0.00,0.12,0.00,0.00,0.00,0.00,0.00,0.00,0.00,0.00,0.00,0.00,0.00,0.00,0.00,0.00,0.00,0.00,0.00,0.00,0.00,0.00,0.00,0.00,0.00,0.00,0.00,0.00,0.00,0.00,0.00,0.00,0.00,0.00,0.00,0.00,?,?,?,?,?,?,?,?,?,?,?,?,?,?,?,?,?,?,?,?,?,?,?,?,?,?,?
Prediction from SVM:				1,1,1,1,1,0,0,1,1,1,1,1,1,1,1,1,1,1,1,0,1,0,0,0,0,0,0,0,0,0,0,0,0,0,1,0,1,0,0,0,0,1,0,0,0,0,0,0,0,0,0,0,0,0,0,0,0,0,0,1,0,1,1,0,0,1,0,0,0,0,0,0,0,0,0,0,0,0,0,0,1,0,0,0,0,0,1,0,0,0,0,1,1,0,0,1,1,0,0,0,0,0,0,0,0,0,0,0,0,0,0,0,0,0,0,0,1,0,0,0,0,0,0,0,0,0,0,0,0,0,0,0,0,0,0,0,0,0,0,0,0,0,0,0,0,0,0,0,0,0,0,0,0,0,0,0,0,0,0,0,0,0,0,1,1,0,1,1,0,0,1,1,0,0,0,0,0,0,0,0,0,0,0,0,0,0,1,0,1,0,0,0,0,0,0,0,0,0,0,0,0,0,0,0,0,0,0,0,0,0,0,0,0,0,1,1,0,1,1,0,0,0,0,0,0,0,0,0,0,0,0,0,0,0,0,0,0,0,0,0,0,0,0,0,0,1,1,1,1,1,0,0,0,0,0,0,0,0,0,0,0,0,0,0,0,0,1,1,1,0,1,1,1,1,1,1,1,1,1,1,1,1,1,1,1,0,1,0,1,1,1,1,0,0,0,0,0,0,0,0,0,0,0,0,0,0,0,0,0,1,1,1,1,1,1,1,0,1,1,0,0,1,0,0,0,1,0,0,0,1,0,0,0,0,1,1,0,0,0,0,0,0,0,0,0,0,0,0,0,0,0,0,0,0,0,0,0,0,0,0,0,0,0,0,0,0,0,0,0,0,0,0,0,0,0,0,0,0,0,0,0,0,0,0,0,0,0,1,0,0
Predicted score from SVM:			0.98,0.53,0.81,0.64,0.99,0.06,0.36,0.72,0.91,0.73,0.92,1.00,0.99,0.99,0.99,1.00,0.91,0.78,0.75,0.09,0.91,0.25,0.39,0.09,0.02,0.03,0.00,0.00,0.02,0.03,0.00,0.02,0.01,0.16,0.68,0.14,0.94,0.24,0.06,0.49,0.00,0.95,0.08,0.01,0.01,0.02,0.02,0.00,0.00,0.00,0.00,0.00,0.00,0.00,0.05,0.00,0.01,0.02,0.20,0.99,0.05,0.97,1.00,0.19,0.17,0.61,0.40,0.34,0.04,0.01,0.02,0.00,0.00,0.03,0.03,0.00,0.11,0.14,0.24,0.13,0.62,0.18,0.34,0.46,0.46,0.19,0.54,0.16,0.08,0.08,0.14,0.99,0.98,0.07,0.29,0.99,0.97,0.00,0.01,0.46,0.15,0.00,0.34,0.04,0.01,0.01,0.00,0.00,0.01,0.05,0.04,0.05,0.21,0.03,0.04,0.14,0.86,0.03,0.03,0.05,0.02,0.07,0.01,0.01,0.01,0.11,0.08,0.04,0.06,0.02,0.01,0.01,0.00,0.01,0.01,0.02,0.01,0.03,0.08,0.03,0.00,0.00,0.16,0.03,0.00,0.02,0.01,0.12,0.00,0.01,0.47,0.16,0.10,0.06,0.24,0.00,0.14,0.01,0.05,0.11,0.10,0.01,0.22,0.89,0.56,0.04,0.99,0.98,0.12,0.31,0.98,0.77,0.12,0.23,0.46,0.37,0.07,0.17,0.12,0.08,0.24,0.33,0.12,0.02,0.26,0.07,0.58,0.04,0.69,0.23,0.03,0.05,0.39,0.00,0.00,0.00,0.01,0.00,0.00,0.00,0.00,0.00,0.00,0.00,0.00,0.00,0.02,0.01,0.00,0.02,0.02,0.05,0.04,0.02,0.61,0.82,0.48,0.95,0.83,0.06,0.11,0.03,0.29,0.02,0.01,0.01,0.01,0.01,0.00,0.00,0.00,0.01,0.03,0.01,0.03,0.06,0.03,0.01,0.06,0.04,0.04,0.06,0.03,0.05,0.00,0.63,0.96,0.84,0.62,0.65,0.00,0.00,0.12,0.00,0.00,0.00,0.00,0.00,0.00,0.03,0.01,0.01,0.04,0.04,0.07,0.10,0.93,0.81,0.74,0.06,0.96,0.95,0.95,0.56,0.99,0.95,0.52,0.99,0.74,0.59,0.70,0.98,0.86,0.57,0.99,0.35,0.96,0.32,0.99,0.97,0.88,0.96,0.26,0.10,0.05,0.06,0.01,0.02,0.06,0.01,0.01,0.01,0.01,0.07,0.03,0.23,0.41,0.20,0.48,0.87,0.81,0.91,0.74,0.92,0.91,0.75,0.15,0.88,0.53,0.22,0.12,0.73,0.05,0.04,0.03,0.71,0.07,0.09,0.05,0.73,0.23,0.29,0.47,0.12,0.74,0.60,0.02,0.46,0.18,0.05,0.01,0.40,0.03,0.01,0.04,0.03,0.00,0.04,0.01,0.01,0.03,0.23,0.01,0.02,0.07,0.05,0.01,0.02,0.05,0.02,0.01,0.01,0.01,0.01,0.01,0.01,0.03,0.04,0.03,0.02,0.03,0.02,0.04,0.06,0.03,0.08,0.29,0.01,0.01,0.11,0.07,0.01,0.01,0.05,0.00,0.02,0.01,0.83,0.01,0.24
Prediction from RNABindRPlus:		1,0,0,0,1,0,0,0,1,0,1,1,1,1,1,1,0,0,0,0,0,0,0,0,0,0,0,0,0,0,0,0,0,0,1,0,1,0,0,0,0,1,0,0,0,0,0,0,0,0,0,0,0,0,0,0,0,0,0,1,0,0,1,0,0,0,0,0,0,0,0,0,0,0,0,0,0,0,0,0,0,0,0,0,0,0,0,0,0,0,0,1,1,0,0,1,1,0,0,0,0,0,0,0,0,0,0,0,0,0,0,0,0,0,0,0,1,0,0,0,0,0,0,0,0,0,0,0,0,0,0,0,0,0,0,0,0,0,0,0,0,0,0,0,0,0,0,0,0,0,0,0,0,0,0,0,0,0,0,0,0,0,0,0,0,0,1,1,0,0,1,0,0,0,0,0,0,0,0,0,0,0,0,0,0,0,0,0,0,0,0,0,0,0,0,0,0,0,0,0,0,0,0,0,0,0,0,0,0,0,0,0,0,0,0,0,0,1,1,0,0,0,0,0,0,0,0,0,0,0,0,0,0,0,0,0,0,0,0,0,0,0,0,0,0,0,1,1,0,1,0,0,0,0,0,0,0,0,0,0,0,0,0,0,0,0,1,1,1,0,1,1,1,0,1,1,0,1,0,0,0,1,0,0,1,0,1,0,1,1,1,1,0,0,0,0,0,0,0,0,0,0,0,0,0,0,0,0,0,0,0,0,0,0,0,0,0,0,0,0,0,1,0,0,0,1,0,0,0,0,0,0,0,0,0,0,0,0,0,0,0,0,0,0,0,0,0,0,0,0,0,0,0,0,0,0,0,0,0,0,0,0,0,0,0,0,0,0,0,0,0,0,0,0,0,0,0,0,0,0,0,0,0,0,0,0,0,0,0,0
Predicted score from RNABindRPlus:	0.68,0.15,0.45,0.24,0.69,0.01,0.06,0.33,0.58,0.34,0.60,0.70,0.69,0.52,0.52,0.53,0.41,0.25,0.22,0.01,0.41,0.02,0.04,0.01,0.01,0.01,0.01,0.01,0.01,0.01,0.01,0.01,0.01,0.01,0.54,0.01,0.83,0.02,0.01,0.06,0.01,0.84,0.01,0.01,0.01,0.01,0.01,0.01,0.01,0.01,0.01,0.01,0.01,0.01,0.01,0.01,0.01,0.03,0.01,0.87,0.01,0.49,0.88,0.01,0.01,0.12,0.20,0.03,0.01,0.01,0.01,0.01,0.01,0.01,0.01,0.01,0.01,0.01,0.02,0.01,0.12,0.01,0.03,0.06,0.06,0.01,0.08,0.01,0.01,0.01,0.01,0.87,0.61,0.01,0.03,0.87,0.86,0.01,0.01,0.26,0.06,0.01,0.16,0.03,0.01,0.01,0.01,0.01,0.01,0.01,0.01,0.01,0.01,0.01,0.01,0.02,0.93,0.03,0.03,0.01,0.01,0.01,0.01,0.01,0.01,0.01,0.01,0.01,0.01,0.01,0.01,0.01,0.01,0.01,0.01,0.01,0.01,0.01,0.01,0.01,0.01,0.01,0.01,0.01,0.01,0.01,0.01,0.01,0.01,0.01,0.06,0.01,0.01,0.01,0.02,0.01,0.01,0.01,0.01,0.01,0.01,0.01,0.02,0.38,0.09,0.01,0.52,0.51,0.01,0.03,0.51,0.24,0.01,0.02,0.06,0.03,0.01,0.01,0.01,0.01,0.02,0.03,0.01,0.01,0.02,0.01,0.15,0.01,0.24,0.02,0.01,0.01,0.04,0.01,0.01,0.01,0.01,0.01,0.01,0.01,0.01,0.01,0.01,0.01,0.01,0.01,0.01,0.01,0.01,0.01,0.01,0.01,0.01,0.01,0.17,0.40,0.14,0.84,0.53,0.01,0.01,0.01,0.02,0.01,0.01,0.01,0.01,0.01,0.01,0.01,0.01,0.01,0.01,0.01,0.01,0.01,0.01,0.01,0.01,0.01,0.01,0.01,0.01,0.02,0.01,0.48,0.85,0.74,0.46,0.50,0.01,0.01,0.05,0.01,0.01,0.01,0.01,0.01,0.01,0.01,0.01,0.01,0.01,0.01,0.01,0.05,0.83,0.71,0.63,0.01,0.85,0.84,0.84,0.09,0.94,0.84,0.07,0.87,0.21,0.11,0.18,0.51,0.34,0.10,0.52,0.03,0.85,0.03,0.87,0.86,0.78,0.85,0.02,0.01,0.01,0.01,0.01,0.01,0.01,0.01,0.01,0.01,0.01,0.01,0.01,0.02,0.04,0.01,0.06,0.36,0.29,0.41,0.21,0.42,0.41,0.22,0.01,0.37,0.08,0.02,0.01,0.61,0.01,0.05,0.03,0.90,0.01,0.01,0.01,0.20,0.02,0.02,0.06,0.01,0.21,0.11,0.01,0.06,0.01,0.01,0.01,0.04,0.01,0.01,0.01,0.01,0.01,0.01,0.01,0.01,0.01,0.02,0.01,0.01,0.01,0.01,0.01,0.01,0.01,0.01,0.01,0.01,0.01,0.01,0.01,0.01,0.01,0.01,0.01,0.01,0.01,0.01,0.01,0.01,0.01,0.01,0.04,0.01,0.01,0.02,0.01,0.01,0.01,0.01,0.01,0.01,0.01,0.47,0.01,0.03
    #Input sequence length: 108
#Number of binding residues predicted by HomPRIP: 0
#Number of binding residues predicted by SVM: 34
#Number of binding residues predicted by RNABindRPlus: 30
>Q9BYC8_distance
sequence:							A,A,P,K,N,R,R,T,I,E,V,N,R,C,R,R,R,N,P,Q,K,L,I,K,V,K,N,N,I,D,V,C,P,E,C,G,H,L,K,Q,K,H,V,L,C,A,Y,C,Y,E,K,V,C,K,E,T,A,E,I,R,R,Q,I,G,K,Q,E,G,G,P,F,K,A,P,T,I,E,T,V,V,L,Y,T,G,E,T,P,S,E,Q,D,Q,G,K,R,I,I,E,R,D,R,K,R,P,S,W,F,T
Prediction from HomPRIP:			????????????????????????????????????????????????????????????????????????????????????????????????????????????
Predicted score from HomPRIP:		?,?,?,?,?,?,?,?,?,?,?,?,?,?,?,?,?,?,?,?,?,?,?,?,?,?,?,?,?,?,?,?,?,?,?,?,?,?,?,?,?,?,?,?,?,?,?,?,?,?,?,?,?,?,?,?,?,?,?,?,?,?,?,?,?,?,?,?,?,?,?,?,?,?,?,?,?,?,?,?,?,?,?,?,?,?,?,?,?,?,?,?,?,?,?,?,?,?,?,?,?,?,?,?,?,?,?,?
Prediction from SVM:				1,1,1,1,1,1,1,1,1,1,1,1,1,1,1,1,1,1,1,1,1,0,0,0,0,0,0,0,0,0,0,0,0,0,0,0,0,0,1,0,0,0,1,0,0,0,0,0,0,0,0,0,0,0,0,0,0,0,0,0,0,0,0,0,0,0,0,0,0,0,0,0,0,0,0,0,0,0,0,0,0,0,0,0,0,0,0,0,0,0,0,0,0,0,1,0,0,0,1,1,1,1,1,1,1,1,1,1
Predicted score from SVM:			1.00,1.00,1.00,1.00,1.00,1.00,1.00,1.00,1.00,1.00,1.00,1.00,1.00,1.00,1.00,1.00,0.99,0.98,0.95,0.90,0.93,0.49,0.27,0.37,0.10,0.09,0.14,0.09,0.07,0.05,0.21,0.15,0.16,0.07,0.20,0.09,0.27,0.05,0.54,0.19,0.39,0.34,0.76,0.29,0.39,0.14,0.16,0.09,0.06,0.08,0.02,0.01,0.11,0.01,0.01,0.13,0.15,0.01,0.01,0.11,0.03,0.01,0.00,0.01,0.00,0.00,0.00,0.00,0.00,0.00,0.00,0.00,0.00,0.00,0.00,0.00,0.00,0.00,0.01,0.00,0.00,0.07,0.03,0.01,0.16,0.15,0.01,0.06,0.03,0.03,0.01,0.05,0.03,0.07,0.68,0.14,0.21,0.32,0.90,0.71,0.99,1.00,1.00,1.00,1.00,1.00,1.00,1.00
Prediction from RNABindRPlus:		1,1,1,1,1,1,1,1,1,1,1,1,1,1,1,1,1,1,1,1,1,0,0,0,0,0,0,0,0,0,0,0,0,0,0,0,0,0,0,0,0,0,0,0,0,0,0,0,0,0,0,0,0,0,0,0,0,0,0,0,0,0,0,0,0,0,0,0,0,0,0,0,0,0,0,0,0,0,0,0,0,0,0,0,0,0,0,0,0,0,0,0,0,0,0,0,0,0,1,0,1,1,1,1,1,1,1,1
Predicted score from RNABindRPlus:	0.70,0.70,0.70,0.70,0.70,0.70,0.70,0.70,0.70,0.70,0.70,0.70,0.70,0.70,0.70,0.70,0.69,0.68,0.64,0.57,0.61,0.12,0.04,0.07,0.02,0.02,0.02,0.02,0.01,0.01,0.03,0.02,0.02,0.01,0.03,0.02,0.04,0.01,0.15,0.03,0.07,0.06,0.38,0.04,0.07,0.02,0.02,0.02,0.01,0.01,0.01,0.01,0.02,0.01,0.01,0.02,0.02,0.01,0.01,0.02,0.01,0.01,0.01,0.01,0.01,0.01,0.01,0.01,0.01,0.01,0.01,0.01,0.01,0.01,0.01,0.01,0.01,0.01,0.01,0.01,0.01,0.01,0.01,0.01,0.02,0.02,0.01,0.01,0.01,0.01,0.01,0.01,0.01,0.01,0.28,0.02,0.03,0.05,0.57,0.32,0.69,0.70,0.70,0.70,0.70,0.70,0.70,0.70
    #Input sequence length: 140
#Number of binding residues predicted by HomPRIP: 56
#Number of binding residues predicted by SVM: 77
#Number of binding residues predicted by RNABindRPlus: 69
>Q9BYC9_distance
sequence:							L,R,N,R,V,T,D,R,Y,F,R,I,Q,E,V,L,K,H,A,R,H,F,R,G,R,K,N,R,C,Y,R,L,A,V,R,T,V,I,R,A,F,V,K,C,T,K,A,R,Y,L,K,K,K,N,M,R,T,L,W,I,N,R,I,T,A,A,S,Q,E,H,G,L,K,Y,P,A,L,I,G,N,L,V,K,C,Q,V,E,L,N,R,K,V,L,A,D,L,A,I,Y,E,P,K,T,F,K,S,L,A,A,L,A,S,R,R,R,H,E,G,F,A,A,A,L,G,D,G,K,E,P,E,G,I,F,S,R,V,V,Q,Y,H
Prediction from HomPRIP:			?,?,?,?,?,?,?,?,?,?,1,1,1,1,0,0,1,1,1,1,1,1,1,1,1,1,1,1,1,1,1,1,0,1,1,1,0,1,1,1,0,0,1,1,1,1,1,1,1,1,1,1,1,1,1,1,1,0,1,1,1,0,0,1,0,0,0,1,0,0,0,0,1,1,1,1,0,1,1,0,0,1,1,0,0,0,0,0,0,1,1,0,0,0,0,0,0,0,0,0,0,0,0,0,0,0,0,?,?,?,?,?,?,?,?,?,?,?,?,?,?,?,?,?,?,?,?,?,?,?,?,?,?,?,?,?,?,?,?,?
Predicted score from HomPRIP:		?,?,?,?,?,?,?,?,?,?,1.00,1.00,1.00,1.00,0.00,0.00,0.60,0.60,1.00,1.00,1.00,1.00,1.00,1.00,1.00,1.00,1.00,1.00,1.00,1.00,1.00,1.00,0.00,1.00,1.00,1.00,0.20,1.00,1.00,1.00,0.00,0.00,1.00,1.00,1.00,1.00,1.00,1.00,1.00,0.80,1.00,1.00,1.00,1.00,1.00,1.00,1.00,0.00,1.00,1.00,1.00,0.00,0.00,1.00,0.00,0.00,0.00,1.00,0.00,0.00,0.00,0.00,1.00,1.00,1.00,1.00,0.00,1.00,1.00,0.00,0.00,1.00,1.00,0.00,0.00,0.00,0.00,0.00,0.00,1.00,1.00,0.00,0.00,0.00,0.00,0.00,0.00,0.00,0.00,0.00,0.00,0.00,0.00,0.00,0.00,0.00,0.00,?,?,?,?,?,?,?,?,?,?,?,?,?,?,?,?,?,?,?,?,?,?,?,?,?,?,?,?,?,?,?,?,?
Prediction from SVM:				1,1,1,1,1,1,1,1,1,1,1,1,1,1,0,1,1,1,1,1,1,1,1,1,1,1,1,1,1,1,1,1,1,1,1,1,0,1,1,1,1,1,1,1,1,1,1,1,1,1,1,1,1,1,1,1,1,0,1,0,1,1,0,1,0,1,0,1,0,1,0,0,1,1,1,1,0,1,1,0,0,1,1,0,0,0,0,0,0,1,1,1,0,0,0,0,0,0,0,0,1,0,0,1,0,0,0,0,0,0,0,0,0,0,0,0,0,0,0,0,0,0,0,0,0,0,0,0,0,0,1,0,0,0,1,0,0,0,0,0
Predicted score from SVM:			0.99,1.00,1.00,1.00,1.00,1.00,1.00,1.00,1.00,1.00,1.00,0.98,1.00,0.98,0.37,0.98,1.00,1.00,0.98,1.00,1.00,1.00,1.00,1.00,1.00,1.00,1.00,1.00,1.00,1.00,1.00,1.00,0.98,0.99,1.00,1.00,0.35,0.99,1.00,1.00,0.95,1.00,1.00,1.00,1.00,1.00,0.99,1.00,1.00,0.99,1.00,1.00,1.00,0.98,0.99,1.00,0.94,0.41,0.94,0.30,0.96,0.83,0.11,0.94,0.07,0.55,0.10,0.98,0.37,0.78,0.09,0.35,0.98,0.99,0.99,0.99,0.34,0.52,0.81,0.44,0.19,0.95,0.83,0.11,0.15,0.12,0.11,0.27,0.42,0.99,0.99,0.96,0.18,0.04,0.33,0.06,0.27,0.06,0.42,0.06,0.55,0.15,0.10,0.76,0.47,0.21,0.05,0.05,0.02,0.01,0.04,0.21,0.07,0.17,0.10,0.17,0.09,0.12,0.09,0.02,0.04,0.03,0.01,0.01,0.01,0.01,0.01,0.03,0.03,0.18,0.90,0.01,0.00,0.12,0.73,0.00,0.00,0.07,0.03,0.03
Prediction from RNABindRPlus:		1,1,1,1,1,1,1,1,1,1,1,1,1,1,0,1,1,1,1,1,1,1,1,1,1,1,1,1,1,1,1,1,1,1,1,1,0,1,1,1,0,1,1,1,1,1,1,1,1,1,1,1,1,1,1,1,1,0,1,0,1,0,0,1,0,0,0,1,0,0,0,0,1,1,1,1,0,1,1,0,0,1,1,0,0,0,0,0,0,1,1,0,0,0,0,0,0,0,0,0,0,0,0,0,0,0,0,0,0,0,0,0,0,0,0,0,0,0,0,0,0,0,0,0,0,0,0,0,0,0,1,0,0,0,0,0,0,0,0,0
Predicted score from RNABindRPlus:	0.69,0.70,0.70,0.70,0.70,0.70,0.70,0.70,0.70,0.70,0.98,0.97,0.98,0.97,0.03,0.51,0.91,0.91,0.97,0.98,0.98,0.98,0.98,0.98,0.98,0.98,0.98,0.98,0.98,0.98,0.98,0.98,0.51,0.98,0.98,0.98,0.06,0.98,0.98,0.98,0.46,0.53,0.98,0.98,0.98,0.98,0.98,0.98,0.98,0.95,0.98,0.98,0.98,0.97,0.98,0.98,0.97,0.04,0.97,0.47,0.97,0.31,0.01,0.97,0.01,0.09,0.01,0.97,0.03,0.25,0.01,0.03,0.97,0.98,0.98,0.98,0.03,0.75,0.94,0.05,0.01,0.97,0.94,0.01,0.01,0.01,0.01,0.02,0.04,0.98,0.98,0.48,0.01,0.01,0.03,0.01,0.02,0.01,0.04,0.01,0.09,0.01,0.01,0.23,0.06,0.01,0.01,0.01,0.01,0.01,0.01,0.03,0.01,0.02,0.02,0.02,0.02,0.02,0.02,0.01,0.01,0.01,0.01,0.01,0.01,0.01,0.01,0.01,0.01,0.02,0.57,0.01,0.01,0.02,0.34,0.01,0.01,0.01,0.01,0.01
    #Input sequence length: 177
#Number of binding residues predicted by HomPRIP: 61
#Number of binding residues predicted by SVM: 80
#Number of binding residues predicted by RNABindRPlus: 66
>Q9BYD1_distance
sequence:							S,S,F,S,R,A,P,Q,Q,W,A,T,F,A,R,I,W,Y,L,L,D,G,K,M,Q,P,P,G,K,L,A,A,M,A,S,I,R,L,Q,G,L,H,K,P,V,Y,H,A,L,S,D,C,G,D,H,V,V,I,M,N,T,R,H,I,A,F,S,G,N,K,W,E,Q,K,V,Y,S,S,H,T,G,Y,P,G,G,F,R,Q,V,T,A,A,Q,L,H,L,R,D,P,V,A,I,V,K,L,A,I,Y,G,M,L,P,K,N,L,H,R,R,T,M,M,E,R,L,H,L,F,P,D,E,Y,I,P,E,D,I,L,K,N,L,V,E,E,L,P,Q,P,R,K,I,P,K,R,L,D,E,Y,T,Q,E,E,I,D,A,F,P,R,L,W,T,P,P,E,D,Y,R,L
Prediction from HomPRIP:			?,?,?,?,?,?,?,?,?,?,?,?,?,?,?,?,1,0,0,0,0,0,0,1,1,1,1,1,1,0,0,1,0,0,1,1,0,0,1,0,0,0,0,0,0,0,0,1,1,1,0,0,0,0,1,0,0,0,0,0,0,0,0,0,1,0,1,0,1,0,0,1,1,1,0,0,1,1,1,1,1,1,1,1,1,1,1,1,1,0,0,1,0,0,0,0,1,1,0,0,1,1,0,1,1,1,1,0,1,1,1,1,1,1,1,1,1,1,0,0,1,1,0,0,1,0,1,0,0,0,0,0,0,0,1,1,1,1,?,?,?,?,?,?,?,?,?,?,?,?,?,?,?,?,?,?,?,?,?,?,?,?,?,?,?,?,?,?,?,?,?,?,?,?,?,?,?
Predicted score from HomPRIP:		?,?,?,?,?,?,?,?,?,?,?,?,?,?,?,?,1.00,0.00,0.00,0.00,0.00,0.00,0.00,1.00,0.60,1.00,1.00,1.00,1.00,0.20,0.00,1.00,0.20,0.00,1.00,1.00,0.00,0.00,1.00,0.00,0.00,0.00,0.40,0.00,0.00,0.00,0.00,1.00,1.00,1.00,0.00,0.00,0.00,0.00,1.00,0.00,0.00,0.00,0.00,0.00,0.00,0.00,0.00,0.00,1.00,0.40,1.00,0.40,1.00,0.00,0.00,0.80,1.00,1.00,0.00,0.00,1.00,1.00,1.00,1.00,0.80,1.00,1.00,1.00,1.00,1.00,1.00,1.00,0.60,0.00,0.00,1.00,0.00,0.00,0.00,0.00,1.00,1.00,0.00,0.00,1.00,0.80,0.00,1.00,1.00,1.00,1.00,0.40,1.00,1.00,1.00,1.00,1.00,1.00,1.00,1.00,1.00,1.00,0.00,0.00,0.60,1.00,0.00,0.20,1.00,0.00,1.00,0.00,0.00,0.00,0.00,0.00,0.00,0.00,1.00,1.00,1.00,1.00,?,?,?,?,?,?,?,?,?,?,?,?,?,?,?,?,?,?,?,?,?,?,?,?,?,?,?,?,?,?,?,?,?,?,?,?,?,?,?
Prediction from SVM:				1,1,1,1,1,1,0,0,1,0,0,0,0,0,0,0,0,0,0,0,0,0,0,0,1,1,1,1,1,0,0,1,1,0,1,1,1,0,1,1,1,1,1,1,0,1,1,1,1,1,1,0,0,0,1,0,0,0,0,0,0,0,1,0,1,1,1,1,1,1,0,1,1,1,0,1,1,1,1,1,1,1,1,1,1,1,1,1,0,0,0,0,1,0,0,0,1,1,0,1,1,1,0,1,1,1,1,1,1,1,1,1,1,1,1,1,1,1,1,0,1,1,1,0,1,0,1,0,0,0,0,0,0,0,0,0,0,0,0,0,0,0,0,0,0,0,0,0,0,0,0,0,0,0,0,0,0,0,0,0,0,0,0,0,0,0,0,0,0,0,0,0,0,0,0,0,0
Predicted score from SVM:			1.00,1.00,0.99,0.70,0.99,0.99,0.09,0.38,0.66,0.16,0.08,0.11,0.06,0.09,0.12,0.04,0.06,0.04,0.04,0.02,0.03,0.08,0.14,0.17,0.69,0.87,0.83,0.96,0.96,0.21,0.26,0.97,0.97,0.12,0.88,0.97,0.65,0.46,0.99,0.90,1.00,0.94,0.98,0.73,0.46,0.83,0.99,0.98,0.89,0.71,0.57,0.02,0.10,0.02,0.90,0.03,0.02,0.02,0.11,0.35,0.07,0.38,0.53,0.20,0.68,0.93,0.99,0.95,0.97,0.94,0.21,0.93,0.93,0.99,0.05,0.97,0.99,0.99,0.99,0.99,1.00,1.00,1.00,1.00,0.98,0.96,0.99,0.58,0.31,0.30,0.10,0.21,0.82,0.10,0.20,0.21,0.76,0.91,0.19,0.56,0.93,0.78,0.05,0.99,1.00,0.99,0.99,1.00,1.00,1.00,1.00,1.00,1.00,1.00,1.00,1.00,1.00,1.00,1.00,0.47,0.91,0.99,0.97,0.46,0.94,0.17,0.51,0.06,0.08,0.01,0.00,0.05,0.05,0.03,0.04,0.00,0.01,0.00,0.02,0.00,0.00,0.04,0.03,0.01,0.29,0.22,0.01,0.07,0.06,0.01,0.04,0.14,0.22,0.01,0.03,0.01,0.03,0.00,0.00,0.01,0.00,0.00,0.01,0.00,0.00,0.01,0.04,0.01,0.00,0.01,0.05,0.01,0.00,0.01,0.01,0.00,0.00
Prediction from RNABindRPlus:		1,1,1,0,1,1,0,0,0,0,0,0,0,0,0,0,0,0,0,0,0,0,0,0,1,1,1,1,1,0,0,1,1,0,1,1,0,0,1,0,1,0,1,0,0,0,1,1,1,1,0,0,0,0,1,0,0,0,0,0,0,0,0,0,1,1,1,1,1,0,0,1,1,1,0,0,1,1,1,1,1,1,1,1,1,1,1,1,0,0,0,0,0,0,0,0,1,1,0,0,1,1,0,1,1,1,1,1,1,1,1,1,1,1,1,1,1,1,1,0,1,1,0,0,1,0,1,0,0,0,0,0,0,0,0,0,0,0,0,0,0,0,0,0,0,0,0,0,0,0,0,0,0,0,0,0,0,0,0,0,0,0,0,0,0,0,0,0,0,0,0,0,0,0,0,0,0
Predicted score from RNABindRPlus:	0.70,0.70,0.69,0.31,0.69,0.69,0.02,0.07,0.26,0.02,0.01,0.02,0.01,0.02,0.02,0.01,0.19,0.01,0.01,0.01,0.01,0.01,0.01,0.31,0.65,0.95,0.94,0.97,0.97,0.03,0.02,0.97,0.67,0.01,0.96,0.97,0.14,0.06,0.98,0.40,0.53,0.45,0.81,0.20,0.06,0.31,0.52,0.97,0.96,0.90,0.10,0.01,0.01,0.01,0.96,0.01,0.01,0.01,0.01,0.03,0.01,0.04,0.08,0.01,0.88,0.77,0.98,0.79,0.97,0.45,0.01,0.93,0.97,0.98,0.01,0.49,0.98,0.98,0.98,0.98,0.95,0.98,0.98,0.98,0.97,0.97,0.98,0.81,0.18,0.02,0.01,0.35,0.30,0.01,0.01,0.01,0.92,0.96,0.01,0.09,0.97,0.86,0.01,0.98,0.98,0.98,0.98,0.83,0.98,0.98,0.98,0.98,0.98,0.98,0.98,0.98,0.98,0.98,0.53,0.06,0.86,0.98,0.49,0.11,0.97,0.01,0.74,0.01,0.01,0.01,0.01,0.01,0.01,0.01,0.18,0.15,0.15,0.15,0.01,0.01,0.01,0.01,0.01,0.01,0.04,0.03,0.01,0.01,0.01,0.01,0.01,0.02,0.03,0.01,0.01,0.01,0.01,0.01,0.01,0.01,0.01,0.01,0.01,0.01,0.01,0.01,0.01,0.01,0.01,0.01,0.01,0.01,0.01,0.01,0.01,0.01,0.01
    #Input sequence length: 95
#Number of binding residues predicted by HomPRIP: 11
#Number of binding residues predicted by SVM: 37
#Number of binding residues predicted by RNABindRPlus: 20
>Q9BYD2_distance
sequence:							T,V,I,V,E,R,W,W,K,V,P,L,A,G,E,G,R,K,P,R,L,H,R,R,H,R,V,Y,K,L,V,E,D,T,K,H,R,P,K,E,N,L,E,L,I,L,T,Q,S,V,E,N,V,G,V,R,G,D,L,V,S,V,K,K,S,L,G,R,N,R,L,L,P,Q,G,L,A,V,Y,A,S,P,E,N,K,K,L,F,E,E,E,K,L,L,R
Prediction from HomPRIP:			1,0,0,0,0,0,0,0,0,0,1,1,1,0,0,1,1,1,0,0,0,0,0,0,0,0,0,0,0,0,0,0,0,0,1,1,1,1,?,?,?,?,?,?,?,?,?,?,?,?,?,?,?,?,?,?,?,?,?,?,?,?,?,?,?,?,?,?,?,?,?,?,?,?,?,?,?,?,?,?,?,?,?,?,?,?,?,?,?,?,?,?,?,?,?
Predicted score from HomPRIP:		1.00,0.00,0.00,0.00,0.00,0.00,0.00,0.00,0.00,0.00,1.00,1.00,1.00,0.00,0.00,1.00,1.00,1.00,0.00,0.00,0.00,0.00,0.00,0.00,0.00,0.00,0.00,0.00,0.00,0.00,0.00,0.00,0.00,0.00,1.00,1.00,1.00,1.00,?,?,?,?,?,?,?,?,?,?,?,?,?,?,?,?,?,?,?,?,?,?,?,?,?,?,?,?,?,?,?,?,?,?,?,?,?,?,?,?,?,?,?,?,?,?,?,?,?,?,?,?,?,?,?,?,?
Prediction from SVM:				1,1,0,0,1,1,1,1,1,0,1,1,1,1,1,1,1,1,1,1,1,1,1,1,1,1,1,1,0,0,0,0,0,0,0,0,0,0,0,0,0,0,0,0,0,0,0,0,0,0,0,0,0,0,0,0,0,0,0,0,0,0,1,1,1,1,0,1,1,1,0,0,0,1,1,1,1,0,0,0,0,0,0,0,0,0,0,0,0,0,0,0,0,0,1
Predicted score from SVM:			0.86,0.52,0.09,0.02,0.95,0.85,0.69,0.73,0.54,0.43,0.73,0.62,0.93,0.97,0.83,0.95,0.93,0.92,0.97,0.99,0.82,1.00,0.99,0.99,0.95,0.96,0.50,0.62,0.46,0.04,0.04,0.07,0.09,0.05,0.02,0.05,0.05,0.16,0.11,0.03,0.07,0.04,0.33,0.06,0.20,0.06,0.49,0.01,0.06,0.02,0.01,0.02,0.05,0.08,0.06,0.01,0.05,0.03,0.04,0.02,0.12,0.12,0.95,0.77,0.86,0.89,0.29,0.90,0.55,0.86,0.43,0.13,0.47,0.96,0.93,0.79,0.90,0.43,0.17,0.15,0.18,0.04,0.45,0.13,0.24,0.04,0.01,0.00,0.00,0.00,0.00,0.08,0.35,0.02,0.98
Prediction from RNABindRPlus:		1,0,0,0,0,0,0,0,0,0,1,1,1,0,0,1,1,1,0,1,0,1,1,1,0,0,0,0,0,0,0,0,0,0,0,0,0,0,0,0,0,0,0,0,0,0,0,0,0,0,0,0,0,0,0,0,0,0,0,0,0,0,1,0,1,1,0,1,0,1,0,0,0,1,1,0,1,0,0,0,0,0,0,0,0,0,0,0,0,0,0,0,0,0,1
Predicted score from RNABindRPlus:	0.95,0.07,0.01,0.01,0.46,0.33,0.17,0.20,0.08,0.05,0.91,0.84,0.97,0.49,0.31,0.97,0.97,0.96,0.49,0.52,0.30,0.53,0.52,0.52,0.46,0.48,0.07,0.12,0.06,0.01,0.01,0.01,0.01,0.01,0.16,0.19,0.19,0.29,0.02,0.01,0.01,0.01,0.05,0.01,0.03,0.01,0.12,0.01,0.01,0.01,0.01,0.01,0.01,0.01,0.01,0.01,0.01,0.01,0.01,0.01,0.02,0.02,0.64,0.39,0.52,0.56,0.04,0.57,0.16,0.52,0.09,0.02,0.11,0.65,0.61,0.42,0.57,0.09,0.02,0.02,0.02,0.01,0.10,0.02,0.03,0.01,0.01,0.01,0.01,0.01,0.01,0.01,0.06,0.01,0.68
    #Input sequence length: 250
#Number of binding residues predicted by HomPRIP: 84
#Number of binding residues predicted by SVM: 106
#Number of binding residues predicted by RNABindRPlus: 94
>Q9BYD3_distance
sequence:							E,P,V,L,R,K,V,E,L,P,V,P,T,H,R,R,P,V,Q,A,W,V,E,S,L,R,G,F,E,Q,E,R,V,G,L,A,D,L,H,P,D,V,F,A,T,A,P,R,L,D,I,L,H,Q,V,A,M,W,Q,K,N,F,K,R,I,S,Y,A,K,T,K,T,R,A,E,V,R,G,G,G,R,K,P,W,P,Q,K,G,T,G,R,A,R,H,G,S,I,R,S,P,L,W,R,G,G,G,V,A,H,G,P,R,G,P,T,S,Y,Y,Y,M,L,P,M,K,V,R,A,L,G,L,K,V,A,L,T,V,K,L,A,Q,D,D,L,H,I,M,D,S,L,E,L,P,T,G,D,P,Q,Y,L,T,E,L,A,H,Y,R,R,W,G,D,S,V,L,L,V,D,L,T,H,E,E,M,P,Q,S,I,V,E,A,T,S,R,L,K,T,F,N,L,I,P,A,V,G,L,N,V,H,S,M,L,K,H,Q,T,L,V,L,T,L,P,T,V,A,F,L,E,D,K,L,L,W,Q,D,S,R,Y,R,P,L,Y,P,F,S,L,P,Y,S,D,F,P
Prediction from HomPRIP:			?,?,?,?,?,?,?,?,?,?,?,?,?,?,?,?,?,?,?,?,?,?,?,?,?,?,?,?,?,?,?,?,?,?,?,?,?,?,?,?,?,?,?,?,?,?,?,?,?,?,1,0,1,1,0,0,1,1,1,1,1,1,1,1,1,1,1,1,1,1,1,1,1,1,1,1,1,1,1,1,1,1,0,0,0,1,1,1,1,1,1,1,1,1,1,1,0,0,1,1,1,1,1,1,1,0,1,1,1,1,1,0,?,1,1,0,1,0,1,1,1,1,1,1,1,1,1,1,0,0,0,0,0,0,0,0,0,0,0,0,0,0,0,0,0,0,0,0,0,0,0,0,0,1,1,1,1,0,0,1,0,0,0,0,0,0,0,0,0,0,0,0,1,0,0,0,0,0,0,0,0,0,0,0,?,?,?,1,0,1,1,1,1,0,0,0,0,0,1,1,0,0,1,1,1,0,1,1,0,0,1,0,0,0,0,0,0,?,?,?,?,?,?,?,?,?,?,?,?,?,?,?,?,?,?,?,?,?,?,?,?,?,?,?,?,?,?,?,?,?
Predicted score from HomPRIP:		?,?,?,?,?,?,?,?,?,?,?,?,?,?,?,?,?,?,?,?,?,?,?,?,?,?,?,?,?,?,?,?,?,?,?,?,?,?,?,?,?,?,?,?,?,?,?,?,?,?,1.00,0.00,1.00,1.00,0.00,0.00,1.00,1.00,0.80,1.00,1.00,1.00,1.00,1.00,1.00,1.00,1.00,1.00,1.00,1.00,1.00,1.00,1.00,1.00,1.00,0.60,1.00,1.00,1.00,1.00,1.00,1.00,0.00,0.00,0.00,1.00,1.00,1.00,0.80,1.00,1.00,1.00,1.00,1.00,1.00,1.00,0.40,0.00,1.00,1.00,1.00,1.00,1.00,1.00,0.80,0.00,1.00,1.00,1.00,1.00,1.00,0.40,?,1.00,1.00,0.00,1.00,0.00,1.00,1.00,1.00,1.00,1.00,1.00,1.00,1.00,0.80,1.00,0.00,0.00,0.00,0.00,0.00,0.00,0.00,0.00,0.00,0.00,0.00,0.00,0.00,0.00,0.00,0.00,0.00,0.00,0.00,0.00,0.00,0.00,0.00,0.00,0.00,1.00,1.00,1.00,1.00,0.00,0.00,1.00,0.00,0.00,0.00,0.00,0.00,0.00,0.00,0.00,0.00,0.00,0.00,0.00,1.00,0.00,0.00,0.00,0.00,0.00,0.00,0.00,0.00,0.00,0.00,0.00,?,?,?,1.00,0.40,0.80,1.00,1.00,1.00,0.00,0.20,0.00,0.20,0.20,1.00,1.00,0.20,0.00,1.00,1.00,1.00,0.00,1.00,0.80,0.00,0.00,1.00,0.00,0.00,0.00,0.00,0.00,0.00,?,?,?,?,?,?,?,?,?,?,?,?,?,?,?,?,?,?,?,?,?,?,?,?,?,?,?,?,?,?,?,?,?
Prediction from SVM:				0,0,0,0,1,0,0,0,0,0,0,0,0,0,0,0,0,0,0,0,0,0,0,0,0,0,0,0,0,0,0,0,0,0,0,0,0,0,0,0,0,0,0,0,0,0,0,1,0,1,1,0,0,1,0,0,1,1,1,1,1,1,1,1,1,1,1,1,1,1,1,1,1,1,1,1,1,1,1,1,1,1,1,1,1,1,1,1,1,1,1,1,1,1,1,1,1,1,1,1,1,1,1,1,1,1,1,1,1,1,1,1,1,1,1,1,1,1,1,1,1,1,1,1,1,1,1,1,1,1,1,1,1,0,1,0,0,0,0,0,0,0,0,0,0,0,0,0,0,0,0,0,0,0,0,0,1,0,0,0,0,0,0,0,0,0,0,0,0,0,0,0,0,0,0,0,0,0,0,0,0,0,0,0,0,0,0,0,0,0,1,1,1,1,0,0,0,0,0,0,0,1,1,1,1,0,1,1,0,0,1,0,0,0,0,0,0,0,0,0,0,0,0,0,0,0,0,0,0,0,0,0,0,1,1,1,0,1,0,0,1,1,1,0,1,1,1,0,0,1
Predicted score from SVM:			0.09,0.03,0.00,0.00,0.76,0.40,0.00,0.01,0.03,0.09,0.01,0.07,0.08,0.09,0.27,0.18,0.11,0.01,0.08,0.02,0.01,0.00,0.03,0.03,0.00,0.02,0.00,0.00,0.00,0.00,0.00,0.01,0.00,0.00,0.00,0.00,0.01,0.01,0.04,0.00,0.02,0.01,0.02,0.00,0.01,0.01,0.02,0.77,0.00,0.81,0.80,0.01,0.33,0.96,0.03,0.04,0.89,0.98,1.00,0.99,0.99,0.99,1.00,1.00,0.97,1.00,1.00,1.00,1.00,1.00,1.00,1.00,1.00,1.00,1.00,1.00,1.00,1.00,1.00,1.00,1.00,1.00,1.00,1.00,1.00,1.00,1.00,1.00,1.00,1.00,1.00,1.00,1.00,1.00,1.00,1.00,1.00,0.99,1.00,1.00,1.00,1.00,1.00,1.00,1.00,0.98,0.99,0.99,1.00,0.98,1.00,0.99,0.99,1.00,1.00,1.00,0.99,0.99,1.00,1.00,0.97,1.00,1.00,1.00,0.98,0.99,0.99,0.95,0.57,0.97,0.94,0.82,0.90,0.48,0.70,0.13,0.28,0.01,0.01,0.00,0.00,0.00,0.00,0.00,0.00,0.00,0.00,0.00,0.00,0.00,0.00,0.02,0.01,0.35,0.40,0.19,0.60,0.01,0.00,0.08,0.00,0.00,0.00,0.01,0.01,0.00,0.01,0.01,0.01,0.07,0.19,0.01,0.00,0.00,0.01,0.00,0.00,0.00,0.00,0.00,0.00,0.00,0.00,0.00,0.01,0.00,0.01,0.18,0.20,0.01,0.84,0.75,0.69,0.86,0.42,0.04,0.10,0.05,0.41,0.46,0.04,0.84,0.90,0.89,0.99,0.05,0.96,0.87,0.02,0.06,0.90,0.24,0.06,0.29,0.06,0.02,0.01,0.24,0.05,0.01,0.04,0.00,0.01,0.02,0.00,0.00,0.01,0.35,0.00,0.01,0.45,0.17,0.05,0.56,0.90,0.53,0.49,0.54,0.21,0.39,0.87,0.63,0.96,0.49,0.98,0.83,0.90,0.40,0.34,0.63
Prediction from RNABindRPlus:		0,0,0,0,0,0,0,0,0,0,0,0,0,0,0,0,0,0,0,0,0,0,0,0,0,0,0,0,0,0,0,0,0,0,0,0,0,0,0,0,0,0,0,0,0,0,0,0,0,0,1,0,1,1,0,0,1,1,1,1,1,1,1,1,1,1,1,1,1,1,1,1,1,1,1,1,1,1,1,1,1,1,1,1,1,1,1,1,1,1,1,1,1,1,1,1,1,1,1,1,1,1,1,1,1,1,1,1,1,1,1,1,1,1,1,1,1,1,1,1,1,1,1,1,1,1,1,1,0,0,0,0,0,0,0,0,0,0,0,0,0,0,0,0,0,0,0,0,0,0,0,0,0,1,1,0,1,0,0,0,0,0,0,0,0,0,0,0,0,0,0,0,0,0,0,0,0,0,0,0,0,0,0,0,0,0,0,0,0,0,1,1,1,0,0,0,0,0,1,1,0,0,1,1,1,0,1,1,0,0,1,0,0,0,0,0,0,0,0,0,0,0,0,0,0,0,0,0,0,0,0,0,0,0,1,0,0,0,0,0,1,0,1,0,1,0,1,0,0,0
Predicted score from RNABindRPlus:	0.02,0.01,0.01,0.01,0.38,0.08,0.01,0.01,0.01,0.02,0.01,0.01,0.01,0.02,0.04,0.02,0.02,0.01,0.01,0.01,0.01,0.01,0.01,0.01,0.01,0.01,0.01,0.01,0.01,0.01,0.01,0.01,0.01,0.01,0.01,0.01,0.01,0.01,0.01,0.01,0.01,0.01,0.01,0.01,0.01,0.01,0.01,0.39,0.01,0.45,0.94,0.01,0.52,0.97,0.01,0.01,0.96,0.97,0.95,0.98,0.98,0.98,0.98,0.98,0.97,0.98,0.98,0.98,0.98,0.98,0.98,0.98,0.98,0.98,0.98,0.91,0.98,0.98,0.98,0.98,0.98,0.98,0.53,0.53,0.53,0.98,0.98,0.98,0.95,0.98,0.98,0.98,0.98,0.98,0.98,0.98,0.83,0.52,0.98,0.98,0.98,0.98,0.98,0.98,0.95,0.51,0.98,0.98,0.98,0.97,0.98,0.82,0.69,0.98,0.98,0.53,0.98,0.52,0.98,0.98,0.97,0.98,0.98,0.98,0.97,0.98,0.95,0.97,0.10,0.49,0.45,0.30,0.40,0.06,0.18,0.01,0.02,0.01,0.01,0.01,0.01,0.01,0.01,0.01,0.01,0.01,0.01,0.01,0.01,0.01,0.01,0.01,0.01,0.54,0.61,0.33,0.83,0.01,0.01,0.21,0.01,0.01,0.01,0.01,0.01,0.01,0.01,0.01,0.01,0.01,0.01,0.01,0.15,0.01,0.01,0.01,0.01,0.01,0.01,0.01,0.01,0.01,0.01,0.01,0.01,0.01,0.01,0.32,0.06,0.08,0.95,0.92,0.89,0.34,0.09,0.01,0.02,0.01,0.62,0.69,0.01,0.32,0.96,0.96,0.98,0.01,0.97,0.91,0.01,0.01,0.96,0.02,0.01,0.02,0.01,0.01,0.01,0.03,0.01,0.01,0.01,0.01,0.01,0.01,0.01,0.01,0.01,0.06,0.01,0.01,0.10,0.02,0.01,0.17,0.57,0.15,0.12,0.15,0.03,0.07,0.53,0.23,0.65,0.12,0.68,0.47,0.57,0.08,0.06,0.23
