RESNR	RESTYPE	RESCHAIN	RESNR_LIG	RESTYPE_LIG	RESCHAIN_LIG	SIDECHAIN	DIST_H-A	DIST_D-A	DON_ANGLE	PROTISDON	DONORIDX	DONORTYPE	ACCEPTORIDX	ACCEPTORTYPE	LIGCOO	PROTCOO
63	ARG	n	127	U	L	True	2.03	3.00	170.02	True	7542	Ng+	6275	O3	(289.186, 329.606, 418.527)	(291.987, 330.128, 417.582)
64	GLY	n	127	U	L	False	2.72	3.10	102.91	True	7543	Nam	6283	O2	(288.432, 332.964, 417.119)	(288.335, 336.057, 417.227)
65	ASN	n	127	U	L	False	1.96	2.68	127.05	True	7547	Nam	6283	O2	(288.432, 332.964, 417.119)	(287.455, 334.428, 419.134)
39	ASN	n	127	U	L	True	2.03	3.01	172.40	True	7363	Nam	6286	O2	(291.368, 332.469, 413.748)	(290.054, 335.013, 412.829)
39	ASN	n	127	U	L	True	1.97	2.95	174.06	False	6284	Nar	7362	O2	(289.811, 332.652, 415.368)	(289.534, 335.551, 414.916)
