RESNR	RESTYPE	RESCHAIN	RESNR_LIG	RESTYPE_LIG	RESCHAIN_LIG	DIST	LIGCARBONIDX	PROTCARBONIDX	LIGCOO	PROTCOO
300	PHE	B	17	U	D	3.59	4498	2378	(8.52, 86.812, 32.191)	(5.507, 88.455, 33.239)
327	PHE	B	18	U	D	3.92	4518	2595	(7.732, 97.625, 29.385)	(4.091, 98.6, 28.319)
