RESNR	RESTYPE	RESCHAIN	PROT_IDX_LIST	RESNR_LIG	RESTYPE_LIG	RESCHAIN_LIG	DIST	PROTISPOS	LIG_GROUP	LIG_IDX_LIST	LIGCOO	PROTCOO
62	ARG	A	411,413,414	3	G	B	5.07	True	Phosphate	1494,1494,1480,1496,1497,1495	(-21.388, 19.831, 11.032)	(-17.76, 22.259, 13.608333333333333)
49	ASP	A	303,304	4	G	B	3.42	False	Guanidine	1535,1537,1538	(-10.162, 15.013, 8.041)	(-9.379, 11.695, 8.3585)
