RESNR	RESTYPE	RESCHAIN	RESNR_LIG	RESTYPE_LIG	RESCHAIN_LIG	PROT_IDX_LIST	CENTDIST	ANGLE	OFFSET	TYPE	LIG_IDX_LIST	LIGCOO	PROTCOO
108	HIS	A	1	A	B	756,757,758,759,760	3.61	9.01	0.87	P	1443,1444,1445,1446,1452	(-15.4708, 19.2962, -3.5509999999999997)	(-13.331799999999998, 21.216, -5.7318)
24	PHE	A	1	A	B	92,93,94,95,96,97	3.89	9.68	1.43	P	1443,1444,1445,1446,1452	(-15.4708, 19.2962, -3.5509999999999997)	(-16.55016666666667, 15.7155, -2.466)
66	PHE	A	2	G	B	447,448,449,450,451,452	4.07	25.30	0.43	P	1465,1466,1467,1468,1475	(-17.0828, 22.2134, 3.7321999999999997)	(-17.4685, 18.338166666666666, 2.555)
