RESNR	RESTYPE	RESCHAIN	RESNR_LIG	RESTYPE_LIG	RESCHAIN_LIG	PROT_IDX_LIST	CENTDIST	ANGLE	OFFSET	TYPE	LIG_IDX_LIST	LIGCOO	PROTCOO
108	HIS	A	2	A	B	791,792,793,794,795	3.67	2.73	0.33	P	1554,1555,1556,1557,1563	(22.4504, 26.2522, 20.837799999999998)	(23.321800000000003, 29.0288, 18.608)
108	HIS	A	2	A	B	791,792,793,794,795	4.06	1.60	1.71	P	1557,1558,1560,1561,1562,1563	(22.775666666666666, 25.044999999999998, 19.188999999999997)	(23.321800000000003, 29.0288, 18.608)
66	PHE	A	3	G	B	476,477,478,479,480,481	3.69	12.77	0.78	P	1576,1577,1578,1579,1586	(28.401999999999997, 20.743399999999998, 19.8572)	(24.921833333333336, 20.15866666666667, 20.925499999999996)
66	PHE	A	3	G	B	476,477,478,479,480,481	4.12	14.44	1.96	P	1579,1580,1582,1583,1585,1586	(27.6935, 22.4385, 18.892833333333336)	(24.921833333333336, 20.15866666666667, 20.925499999999996)
24	PHE	A	2	A	B	121,122,123,124,125,126	3.89	16.60	1.23	P	1554,1555,1556,1557,1563	(22.4504, 26.2522, 20.837799999999998)	(20.310333333333332, 23.307666666666666, 22.207333333333334)
24	PHE	A	1	A	B	121,122,123,124,125,126	5.00	66.28	1.89	T	1535,1536,1538,1539,1540,1541	(18.495499999999996, 26.465833333333336, 25.635833333333334)	(20.310333333333332, 23.307666666666666, 22.207333333333334)
