RESNR	RESTYPE	RESCHAIN	RESNR_LIG	RESTYPE_LIG	RESCHAIN_LIG	PROT_IDX_LIST	CENTDIST	ANGLE	OFFSET	TYPE	LIG_IDX_LIST	LIGCOO	PROTCOO
38	TYR	D	30	A	F	2166,2167,2168,2169,2170,2171	5.18	89.88	1.96	T	3189,3190,3191,3192,3198	(-0.7140000000000001, 28.5902, 3.2306)	(-4.910666666666667, 28.44216666666667, 0.19133333333333336)
38	TYR	D	30	A	F	2166,2167,2168,2169,2170,2171	5.03	89.38	1.54	T	3192,3193,3195,3196,3197,3198	(-0.9325, 30.513, 2.4650000000000003)	(-4.910666666666667, 28.44216666666667, 0.19133333333333336)
