RESNR	RESTYPE	RESCHAIN	PROT_IDX_LIST	RESNR_LIG	RESTYPE_LIG	RESCHAIN_LIG	DIST	PROTISPOS	LIG_GROUP	LIG_IDX_LIST	LIGCOO	PROTCOO
111	LYS	A	640	9	C	D	3.69	True	Phosphate	1455,1455,1441,1456,1457,1458	(41.518, 55.532, 44.021)	(45.188, 55.221, 43.828)
120	LYS	A	706	10	A	D	4.68	True	Phosphate	1475,1475,1476,1477,1478,1463	(39.145, 51.789, 40.403)	(42.775, 48.887, 40.985)
130	ARG	A	763,765,766	6	U	D	4.79	True	Phosphate	1391,1391,1392,1393,1394,1379	(43.514, 57.514, 60.423)	(39.763666666666666, 56.513666666666666, 57.62266666666667)
