RESNR	RESTYPE	RESCHAIN	PROT_IDX_LIST	RESNR_LIG	RESTYPE_LIG	RESCHAIN_LIG	DIST	OFFSET	PROTCHARGED	LIG_GROUP	LIG_IDX_LIST	LIGCOO	PROTCOO
15	ARG	D	1664,1666,1667	17	A	C	3.76	1.55	True	Aromatic	1206,1207,1208,1209,1215	(-9.3352, 81.5128, -3.8142000000000005)	(-9.936666666666667, 77.81033333333333, -4.022333333333333)
15	ARG	D	1664,1666,1667	17	A	C	3.69	1.40	True	Aromatic	1209,1210,1212,1213,1214,1215	(-11.307833333333333, 81.14266666666666, -3.249333333333334)	(-9.936666666666667, 77.81033333333333, -4.022333333333333)
15	ARG	D	1664,1666,1667	5	C	C	4.11	1.75	True	Aromatic	941,942,944,945,947,948	(-8.478, 74.35966666666667, -5.716333333333334)	(-9.936666666666667, 77.81033333333333, -4.022333333333333)
