RESNR	RESTYPE	RESCHAIN	RESNR_LIG	RESTYPE_LIG	RESCHAIN_LIG	PROT_IDX_LIST	CENTDIST	ANGLE	OFFSET	TYPE	LIG_IDX_LIST	LIGCOO	PROTCOO
27	PHE	A	2	C	P	65,66,67,68,69,70	3.99	9.14	1.50	P	1623,1624,1626,1627,1629,1630	(-40.84716666666667, 34.19133333333334, 51.742)	(-42.54149999999999, 30.605833333333333, 52.145833333333336)
65	PHE	A	3	A	P	370,371,372,373,374,375	3.50	4.82	1.07	P	1643,1644,1645,1646,1652	(-42.838, 35.5396, 58.620000000000005)	(-42.717833333333324, 32.2305, 57.47816666666666)
65	PHE	A	3	A	P	370,371,372,373,374,375	3.51	5.13	0.91	P	1646,1647,1649,1650,1651,1652	(-42.326, 34.3465, 60.24733333333333)	(-42.717833333333324, 32.2305, 57.47816666666666)
