RESNR	RESTYPE	RESCHAIN	PROT_IDX_LIST	RESNR_LIG	RESTYPE_LIG	RESCHAIN_LIG	DIST	PROTISPOS	LIG_GROUP	LIG_IDX_LIST	LIGCOO	PROTCOO
41	ARG	Q	4125,4127,4128	27	A	6	4.15	True	Phosphate	2672,2672,2673,2674,2675,2660	(242.71, 206.165, 285.576)	(241.63199999999998, 208.07466666666664, 289.1003333333333)
42	LYS	Q	4137	28	A	6	5.31	True	Phosphate	2694,2694,2696,2697,2680,2695	(243.058, 212.237, 283.489)	(239.639, 212.673, 279.446)
