RESNR	RESTYPE	RESCHAIN	RESNR_LIG	RESTYPE_LIG	RESCHAIN_LIG	DIST	LIGCARBONIDX	PROTCARBONIDX	LIGCOO	PROTCOO
118	ILE	T	23	U	d	3.63	1661	991	(216.02, 266.054, 225.187)	(212.827, 266.317, 223.48)
122	PRO	T	21	U	d	3.94	1619	1021	(211.258, 270.04, 211.031)	(208.618, 271.021, 213.789)
