RESNR	RESTYPE	RESCHAIN	PROT_IDX_LIST	RESNR_LIG	RESTYPE_LIG	RESCHAIN_LIG	DIST	PROTISPOS	LIG_GROUP	LIG_IDX_LIST	LIGCOO	PROTCOO
41	ARG	N	4469,4471,4472	27	A	F	4.68	True	Phosphate	2609,2609,2597,2610,2611,2612	(222.986, 275.316, 254.871)	(220.18966666666668, 278.87433333333337, 256.0596666666667)
42	LYS	N	4481	28	A	F	5.37	True	Phosphate	2631,2631,2632,2617,2634,2633	(225.001, 277.726, 261.101)	(230.269, 278.73, 260.863)
