RESNR	RESTYPE	RESCHAIN	RESNR_LIG	RESTYPE_LIG	RESCHAIN_LIG	SIDECHAIN	DIST_H-A	DIST_D-A	DON_ANGLE	PROTISDON	DONORIDX	DONORTYPE	ACCEPTORIDX	ACCEPTORTYPE	LIGCOO	PROTCOO
1103	LYS	B	2	U	I	False	2.08	2.92	167.95	True	7863	Nam	17877	O2	(-7.917, -89.129, -9.933)	(-10.115, -89.79, -8.125)
1101	THR	B	2	U	I	True	2.59	2.99	110.50	True	7844	O3	17892	O2	(-12.08, -86.124, -14.869)	(-13.664, -88.211, -13.436)
1164	SER	B	3	U	I	False	3.35	3.98	132.69	True	8860	Nam	17906	O2	(-5.226, -80.871, -8.798)	(-3.85, -82.294, -12.253)
1119	ASP	B	3	U	I	True	3.43	3.86	110.12	True	8147	O3	17913	O3	(-6.407, -79.573, -4.435)	(-9.313, -77.135, -5.126)
1124	ASN	B	3	U	I	True	1.83	2.59	146.48	True	8229	Nam	17919	O2	(-7.797, -84.023, -1.324)	(-9.426, -84.555, 0.619)
1050	ASN	B	4	U	I	True	3.34	3.83	118.61	True	7053	Nam	17943	O3	(-1.922, -80.171, 0.751)	(0.447, -77.821, 2.624)
1130	ASN	B	4	U	I	True	2.35	3.08	142.61	True	8322	Nam	17949	O2	(-3.636, -85.538, 0.379)	(-2.412, -85.416, 3.203)
1131	THR	B	4	U	I	True	3.13	3.53	111.48	True	8334	O3	17945	O3	(-3.536, -82.099, 2.012)	(-3.755, -80.478, 5.14)
1130	ASN	B	4	U	I	True	2.26	2.74	116.80	False	17945	O3	8321	O2	(-3.536, -82.099, 2.012)	(-1.821, -83.336, 3.754)
