RESNR	RESTYPE	RESCHAIN	RESNR_LIG	RESTYPE_LIG	RESCHAIN_LIG	SIDECHAIN	DIST_H-A	DIST_D-A	DON_ANGLE	PROTISDON	DONORIDX	DONORTYPE	ACCEPTORIDX	ACCEPTORTYPE	LIGCOO	PROTCOO
856	ASN	U	93	G	Y	False	3.03	3.99	164.61	True	7900	Nam	10402	O2	(331.703, 175.763, 255.634)	(334.701, 178.207, 256.611)
881	HIS	U	94	C	Y	False	3.56	4.08	114.92	True	8019	Nam	10414	O2	(328.691, 181.725, 253.271)	(327.824, 185.203, 255.21)
