RESNR	RESTYPE	RESCHAIN	RESNR_LIG	RESTYPE_LIG	RESCHAIN_LIG	SIDECHAIN	DIST_H-A	DIST_D-A	DON_ANGLE	PROTISDON	DONORIDX	DONORTYPE	ACCEPTORIDX	ACCEPTORTYPE	LIGCOO	PROTCOO
1	MET	8	210	G	G	False	3.01	3.83	138.14	True	5846	N3	4241	O3	(346.167, 326.052, 372.245)	(343.051, 324.801, 374.087)
3	ALA	8	210	G	G	False	3.05	3.36	100.24	False	4243	O3	5865	O2	(346.581, 323.335, 372.645)	(346.654, 321.853, 375.659)
