RESNR	RESTYPE	RESCHAIN	PROT_IDX_LIST	RESNR_LIG	RESTYPE_LIG	RESCHAIN_LIG	DIST	PROTISPOS	LIG_GROUP	LIG_IDX_LIST	LIGCOO	PROTCOO
235	ARG	B	3960,3962,3963	2	A	G	5.02	True	Phosphate	6498,6498,6483,6500,6501,6499	(7.831, 22.772, 24.356)	(9.871, 26.258666666666667, 21.37433333333333)
239	LYS	B	3990	2	A	G	3.62	True	Phosphate	6498,6498,6483,6500,6501,6499	(7.831, 22.772, 24.356)	(10.488, 21.386, 22.322)
