RESNR	RESTYPE	RESCHAIN	RESNR_LIG	RESTYPE_LIG	RESCHAIN_LIG	SIDECHAIN	DIST_H-A	DIST_D-A	DON_ANGLE	PROTISDON	DONORIDX	DONORTYPE	ACCEPTORIDX	ACCEPTORTYPE	LIGCOO	PROTCOO
836	THR	B	691	A	C	False	2.18	2.91	130.52	True	654	Nam	2161	O3	(69.038, 82.369, 52.884)	(68.162, 84.276, 54.905)
826	LYS	B	776	C	C	True	2.55	3.03	108.64	True	586	N3	3872	O3	(62.654, 73.911, 56.12)	(64.965, 75.872, 56.103)
836	THR	B	691	A	C	True	3.41	4.02	122.27	True	659	O3	2171	Nar	(66.239, 79.368, 53.023)	(68.3, 81.361, 55.835)
912	THR	B	723	G	C	True	2.72	3.53	140.58	True	1297	O3	2832	O3	(87.025, 71.145, 59.314)	(85.394, 71.869, 62.356)
826	LYS	B	777	G	C	False	3.43	3.83	106.24	True	578	Nam	3892	O3	(62.529, 78.218, 62.828)	(66.12, 78.814, 61.645)
786	LEU	B	777	G	C	False	2.03	2.74	127.58	False	3902	Npl	270	O2	(60.386, 78.023, 67.755)	(60.178, 79.965, 69.681)
826	LYS	B	777	G	C	False	2.51	3.45	164.08	False	3892	O3	581	O2	(62.529, 78.218, 62.828)	(64.281, 80.83, 61.403)
834	THR	B	690	G	C	False	2.11	3.00	149.27	False	2148	Npl	643	O2	(64.217, 82.748, 50.911)	(66.031, 85.136, 50.989)
836	THR	B	691	A	C	False	3.25	3.91	126.43	False	2161	O3	657	O2	(69.038, 82.369, 52.884)	(70.275, 83.554, 56.394)
