RESNR	RESTYPE	RESCHAIN	RESNR_LIG	RESTYPE_LIG	RESCHAIN_LIG	SIDECHAIN	DIST_H-A	DIST_D-A	DON_ANGLE	PROTISDON	DONORIDX	DONORTYPE	ACCEPTORIDX	ACCEPTORTYPE	LIGCOO	PROTCOO
203	SER	C	265	U	z	True	3.02	3.92	155.28	True	37704	O3	40020	O2	(136.796, 221.512, 154.473)	(138.5, 221.871, 157.982)
144	LYS	C	301	G	z	True	3.43	4.04	120.28	True	37218	N3	40786	O3	(133.128, 227.038, 175.652)	(135.86, 224.559, 174.007)
147	ASN	C	301	G	z	True	3.25	3.89	124.36	True	37246	Nam	40781	O2	(135.435, 222.554, 177.046)	(133.871, 219.352, 178.616)
