RESNR	RESTYPE	RESCHAIN	RESNR_LIG	RESTYPE_LIG	RESCHAIN_LIG	SIDECHAIN	DIST_H-A	DIST_D-A	DON_ANGLE	PROTISDON	DONORIDX	DONORTYPE	ACCEPTORIDX	ACCEPTORTYPE	LIGCOO	PROTCOO
203	SER	C	265	U	z	True	3.18	3.58	107.04	True	37704	O3	40023	O2	(136.891, 220.83, 157.987)	(140.292, 220.363, 159.019)
147	ASN	C	301	G	z	True	2.94	3.83	151.46	True	37246	Nam	40782	O3	(136.369, 223.92, 178.067)	(137.977, 220.452, 177.768)
