RESNR	RESTYPE	RESCHAIN	RESNR_LIG	RESTYPE_LIG	RESCHAIN_LIG	PROT_IDX_LIST	CENTDIST	ANGLE	OFFSET	TYPE	LIG_IDX_LIST	LIGCOO	PROTCOO
144	PHE	A	937	A	B	824,825,826,827,828,829	3.72	28.52	0.96	P	2596,2597,2598,2599,2605	(-12.1096, 37.040600000000005, -29.912599999999998)	(-12.689166666666665, 36.595000000000006, -33.55583333333333)
144	PHE	A	937	A	B	824,825,826,827,828,829	3.97	28.77	1.72	P	2599,2600,2602,2603,2604,2605	(-10.543666666666667, 35.737, -30.323499999999996)	(-12.689166666666665, 36.595000000000006, -33.55583333333333)
