RESNR	RESTYPE	RESCHAIN	RESNR_LIG	RESTYPE_LIG	RESCHAIN_LIG	SIDECHAIN	DIST_H-A	DIST_D-A	DON_ANGLE	PROTISDON	DONORIDX	DONORTYPE	ACCEPTORIDX	ACCEPTORTYPE	LIGCOO	PROTCOO
686	ARG	A	20	G	H	True	2.07	2.75	124.13	True	5476	Ng+	23791	O3	(282.948, 252.002, 256.049)	(284.616, 249.982, 255.223)
714	SER	A	21	C	H	True	2.43	2.90	109.30	True	5677	O3	23805	O2	(287.486, 252.49, 257.6)	(288.791, 250.374, 256.114)
682	ASP	A	21	C	H	True	3.10	3.99	159.36	True	5440	O3	23810	O3	(284.182, 256.14, 256.419)	(286.507, 257.534, 253.485)
1020	LYS	A	23	A	H	True	2.32	2.70	100.64	True	8234	N3	23854	O3	(292.621, 265.6, 263.887)	(294.667, 264.432, 265.204)
858	GLN	A	29	A	H	False	3.42	3.79	104.54	True	6866	Nam	23975	O2	(293.932, 266.137, 282.582)	(296.961, 268.322, 281.94)
855	ARG	A	30	A	H	True	3.65	4.09	110.03	True	6849	Ng+	23996	O3	(292.051, 266.482, 288.899)	(290.338, 269.929, 287.514)
858	GLN	A	30	A	H	True	3.05	4.00	162.98	True	6874	Nam	24009	Nar	(298.312, 265.726, 289.731)	(298.976, 265.728, 285.789)
679	SER	A	20	G	H	True	3.24	3.83	119.44	False	23801	Npl	5411	O3	(279.95, 256.373, 258.015)	(279.912, 258.635, 254.93)
1020	LYS	A	23	A	H	True	1.97	2.70	130.60	False	23854	O3	8234	N3	(292.621, 265.6, 263.887)	(294.667, 264.432, 265.204)
