RESNR	RESTYPE	RESCHAIN	PROT_IDX_LIST	RESNR_LIG	RESTYPE_LIG	RESCHAIN_LIG	DIST	PROTISPOS	LIG_GROUP	LIG_IDX_LIST	LIGCOO	PROTCOO
702	LYS	A	5621	14	C	H	4.72	True	Phosphate	22085,22085,22088,22073,22086,22087	(285.28, 233.875, 273.496)	(283.507, 234.76, 269.214)
718	ARG	A	5755,5757,5758	21	C	H	5.18	True	Phosphate	22231,22231,22216,22233,22234,22232	(286.248, 259.497, 274.625)	(289.6526666666667, 258.1583333333333, 278.289)
721	LYS	A	5787	24	A	H	3.50	True	Phosphate	22293,22293,22296,22295,22294,22279	(291.868, 268.616, 279.509)	(292.292, 266.454, 276.791)
721	LYS	A	5787	22	U	H	4.98	True	Phosphate	22251,22251,22239,22252,22253,22254	(288.291, 264.699, 274.397)	(292.292, 266.454, 276.791)
721	LYS	A	5787	23	A	H	4.67	True	Phosphate	22271,22271,22259,22272,22273,22274	(290.118, 270.407, 275.565)	(292.292, 266.454, 276.791)
746	LYS	A	5987	22	U	H	4.21	True	Phosphate	22251,22251,22239,22252,22253,22254	(288.291, 264.699, 274.397)	(289.519, 262.658, 270.929)
774	LYS	A	6224	23	A	H	3.51	True	Phosphate	22271,22271,22259,22272,22273,22274	(290.118, 270.407, 275.565)	(287.448, 272.378, 274.408)
778	ARG	A	6252,6254,6255	23	A	H	4.48	True	Phosphate	22271,22271,22259,22272,22273,22274	(290.118, 270.407, 275.565)	(291.41566666666665, 272.14899999999994, 271.64833333333337)
781	ARG	A	6278,6280,6281	24	A	H	4.63	True	Phosphate	22293,22293,22296,22295,22294,22279	(291.868, 268.616, 279.509)	(296.3713333333333, 267.5513333333333, 279.7083333333333)
861	ARG	A	6947,6949,6950	29	A	H	4.76	True	Phosphate	22400,22400,22388,22401,22402,22403	(289.498, 271.528, 300.484)	(289.92866666666663, 273.95700000000005, 304.551)
1020	LYS	A	8284	24	A	H	5.42	True	Phosphate	22293,22293,22296,22295,22294,22279	(291.868, 268.616, 279.509)	(292.779, 271.515, 283.994)
1020	LYS	A	8284	26	A	H	4.14	True	Phosphate	22338,22338,22323,22339,22340,22341	(289.413, 269.101, 284.102)	(292.779, 271.515, 283.994)
