RESNR	RESTYPE	RESCHAIN	PROT_IDX_LIST	RESNR_LIG	RESTYPE_LIG	RESCHAIN_LIG	DIST	PROTISPOS	LIG_GROUP	LIG_IDX_LIST	LIGCOO	PROTCOO
187	ARG	A	655,657,658	10	G	F	4.57	True	Phosphate	5635,5635,5636,5637,5638,5623	(-4.787, 182.121, 12.827)	(-1.0623333333333334, 181.65866666666668, 15.434333333333333)
216	ARG	A	867,869,870	8	G	F	4.87	True	Phosphate	5592,5592,5580,5593,5594,5595	(-15.964, 185.555, 9.941)	(-16.140333333333334, 183.66099999999997, 14.421333333333335)
217	LYS	A	879	6	C	F	4.43	True	Phosphate	5552,5552,5540,5553,5554,5555	(-21.734, 193.273, 17.629)	(-25.276, 191.29, 15.856)
248	ARG	A	1122,1124,1125	10	G	F	4.62	True	Phosphate	5635,5635,5636,5637,5638,5623	(-4.787, 182.121, 12.827)	(-4.1129999999999995, 177.86800000000002, 14.494333333333332)
