RESNR	RESTYPE	RESCHAIN	PROT_IDX_LIST	RESNR_LIG	RESTYPE_LIG	RESCHAIN_LIG	DIST	PROTISPOS	LIG_GROUP	LIG_IDX_LIST	LIGCOO	PROTCOO
185	ARG	A	125,127,128	2	A	B	5.14	True	Phosphate	1261,1261,1249,1264,1262,1263	(-25.51, 6.196, -27.868)	(-23.182666666666666, 5.593666666666667, -23.32166666666667)
185	ARG	A	125,127,128	3	A	B	4.06	True	Phosphate	1283,1283,1269,1284,1285,1286	(-25.626, 2.597, -22.08)	(-23.182666666666666, 5.593666666666667, -23.32166666666667)
216	ARG	A	370,372,373	9	G	B	4.72	True	Phosphate	1405,1405,1393,1408,1406,1407	(-5.007, -1.016, -14.619)	(-9.363666666666667, 0.7863333333333333, -14.476999999999999)
217	LYS	A	382	7	C	B	3.75	True	Phosphate	1365,1365,1368,1353,1366,1367	(-12.986, -10.179, -12.974)	(-12.616, -9.727, -9.267)
236	LYS	A	539	6	U	B	3.67	True	Phosphate	1345,1345,1346,1347,1348,1333	(-18.475, -8.71, -13.603)	(-20.377, -8.07, -10.531)
236	LYS	A	539	5	U	B	5.49	True	Phosphate	1325,1325,1313,1328,1326,1327	(-22.994, -5.643, -14.702)	(-20.377, -8.07, -10.531)
248	ARG	A	633,635,636	11	G	B	4.44	True	Phosphate	1448,1448,1449,1450,1451,1436	(-6.924, 5.942, -24.183)	(-8.421333333333333, 10.082333333333333, -23.646333333333335)
