RESNR	RESTYPE	RESCHAIN	RESNR_LIG	RESTYPE_LIG	RESCHAIN_LIG	PROT_IDX_LIST	CENTDIST	ANGLE	OFFSET	TYPE	LIG_IDX_LIST	LIGCOO	PROTCOO
103	PHE	B	2	G	R	2133,2134,2135,2136,2137,2138	4.09	8.27	1.96	P	12647,12648,12649,12650,12657	(11.976600000000001, 5.337400000000001, 23.768400000000003)	(9.112, 7.889500000000001, 22.3655)
103	PHE	B	2	G	R	2133,2134,2135,2136,2137,2138	3.58	8.40	0.17	P	12650,12651,12653,12654,12656,12657	(9.992666666666667, 5.034666666666666, 24.339333333333332)	(9.112, 7.889500000000001, 22.3655)
