RESNR	RESTYPE	RESCHAIN	RESNR_LIG	RESTYPE_LIG	RESCHAIN_LIG	PROT_IDX_LIST	CENTDIST	ANGLE	OFFSET	TYPE	LIG_IDX_LIST	LIGCOO	PROTCOO
103	PHE	E	2	G	S	3712,3713,3714,3715,3716,3717	4.13	10.71	1.98	P	12736,12737,12738,12739,12746	(21.7714, 0.6839999999999999, 61.29259999999999)	(22.450666666666667, -3.141666666666667, 62.68283333333334)
103	PHE	E	2	G	S	3712,3713,3714,3715,3716,3717	3.59	10.75	0.20	P	12739,12740,12742,12743,12745,12746	(22.168333333333333, 0.3821666666666667, 63.31283333333332)	(22.450666666666667, -3.141666666666667, 62.68283333333334)
