RESNR	RESTYPE	RESCHAIN	RESNR_LIG	RESTYPE_LIG	RESCHAIN_LIG	SIDECHAIN	DIST_H-A	DIST_D-A	DON_ANGLE	PROTISDON	DONORIDX	DONORTYPE	ACCEPTORIDX	ACCEPTORTYPE	LIGCOO	PROTCOO
209	GLY	E	1	U	S	False	3.09	3.45	103.23	True	4563	Nam	12710	O3	(21.979, -5.195, 55.469)	(24.768, -7.223, 55.415)
104	PHE	E	1	U	S	False	1.91	2.89	170.15	True	3718	Nam	12718	O2	(22.082, -6.495, 59.374)	(21.388, -7.0, 62.133)
63	ARG	E	3	U	S	True	2.17	2.71	113.07	True	3380	Ng+	12764	O2	(20.006, 3.575, 64.963)	(22.647, 3.257, 65.477)
58	SER	E	3	U	S	False	2.75	3.20	107.84	False	12762	Nar	3345	O2	(18.089, 2.972, 65.988)	(18.31, 5.829, 67.404)
104	PHE	E	1	U	S	False	1.78	2.77	175.80	False	12719	Nar	3721	O2	(24.074, -5.468, 59.667)	(24.181, -6.717, 62.134)
