RESNR	RESTYPE	RESCHAIN	RESNR_LIG	RESTYPE_LIG	RESCHAIN_LIG	SIDECHAIN	DIST_H-A	DIST_D-A	DON_ANGLE	PROTISDON	DONORIDX	DONORTYPE	ACCEPTORIDX	ACCEPTORTYPE	LIGCOO	PROTCOO
18	TYR	S	233	C	Z	False	2.69	3.39	128.61	True	4848	Nam	4941	O3	(254.081, 291.004, 230.16)	(255.19, 290.055, 233.225)
2	TYR	S	233	C	Z	False	2.82	3.73	154.20	True	4773	Nam	4948	Npl	(259.156, 294.765, 228.281)	(258.277, 294.163, 224.707)
