RESNR	RESTYPE	RESCHAIN	RESNR_LIG	RESTYPE_LIG	RESCHAIN_LIG	DIST	LIGCARBONIDX	PROTCARBONIDX	LIGCOO	PROTCOO
185	LYS	T	1	U	E	3.90	16	930	(8.123, -69.821, -8.186)	(9.962, -70.596, -11.541)
188	PHE	T	2	U	E	3.63	36	951	(8.64, -60.285, -8.675)	(10.253, -61.538, -11.674)
