RESNR	RESTYPE	RESCHAIN	RESNR_LIG	RESTYPE_LIG	RESCHAIN_LIG	SIDECHAIN	DIST_H-A	DIST_D-A	DON_ANGLE	PROTISDON	DONORIDX	DONORTYPE	ACCEPTORIDX	ACCEPTORTYPE	LIGCOO	PROTCOO
90	LYS	H	10	A	A	False	1.86	2.79	154.64	True	584	Nam	2327	O3	(-14.079, -16.144, -22.858)	(-14.241, -17.157, -20.268)
90	LYS	H	10	A	A	True	3.28	3.84	116.44	True	592	N3	2331	Nar	(-9.351, -15.329, -21.93)	(-9.108, -12.816, -19.031)
240	ARG	H	11	G	A	True	3.32	3.88	118.48	True	1808	Ng+	2360	Nar	(-22.205, -13.081, -24.901)	(-20.481, -12.861, -21.429)
63	ARG	H	21	A	A	True	3.45	4.00	116.88	True	377	Ng+	2497	O2	(-6.182, -18.62, -27.681)	(-7.432, -22.18, -26.363)
93	ARG	H	31	G	A	True	3.59	3.94	103.64	True	621	Ng+	2578	Nar	(-19.609, -2.917, -13.889)	(-16.718, -4.171, -16.253)
93	ARG	H	31	G	A	True	3.36	3.68	101.08	True	620	Ng+	2585	Nar	(-16.301, -1.522, -13.779)	(-14.544, -4.244, -15.516)
59	LEU	H	10	A	A	False	2.60	3.55	161.57	False	2334	Npl	328	O2	(-6.95, -17.193, -21.442)	(-4.806, -19.899, -20.611)
90	LYS	H	10	A	A	False	3.28	3.86	120.09	False	2327	O3	587	O2	(-14.079, -16.144, -22.858)	(-14.846, -14.603, -19.401)
