RESNR	RESTYPE	RESCHAIN	PROT_IDX_LIST	RESNR_LIG	RESTYPE_LIG	RESCHAIN_LIG	DIST	PROTISPOS	LIG_GROUP	LIG_IDX_LIST	LIGCOO	PROTCOO
246	LYS	R	5706	13	C	H	5.19	True	Phosphate	7733,7733,7736,7734,7718,7735	(290.61, 230.14, 273.59)	(291.624, 235.09, 272.409)
255	LYS	R	5779	25	G	H	4.68	True	Phosphate	7983,7983,7969,7984,7985,7986	(288.296, 264.471, 282.411)	(286.159, 260.338, 281.891)
258	LYS	R	5801	19	G	H	4.55	True	Phosphate	7853,7853,7841,7856,7854,7855	(281.253, 248.557, 278.308)	(278.402, 248.536, 281.857)
