RESNR	RESTYPE	RESCHAIN	RESNR_LIG	RESTYPE_LIG	RESCHAIN_LIG	PROT_IDX_LIST	CENTDIST	ANGLE	OFFSET	TYPE	LIG_IDX_LIST	LIGCOO	PROTCOO
289	PHE	A	39	C	C	2109,2110,2111,2112,2113,2114	3.45	12.01	0.49	P	3290,3291,3293,3294,3296,3297	(13.458999999999998, -18.216666666666665, 20.563666666666666)	(16.513666666666666, -18.650333333333332, 22.105166666666666)
263	TYR	A	33	U	C	1912,1913,1914,1915,1916,1917	3.71	13.18	0.87	P	3172,3173,3175,3176,3178,3179	(23.3245, -15.257, 33.6325)	(24.66416666666667, -14.140666666666666, 30.361833333333333)
