RESNR	RESTYPE	RESCHAIN	PROT_IDX_LIST	RESNR_LIG	RESTYPE_LIG	RESCHAIN_LIG	DIST	OFFSET	PROTCHARGED	LIG_GROUP	LIG_IDX_LIST	LIGCOO	PROTCOO
285	ARG	A	2077,2079,2080	37	A	C	3.54	1.06	True	Aromatic	3246,3247,3248,3249,3255	(14.458400000000001, -22.7244, 27.656599999999997)	(17.837333333333333, -21.686333333333334, 27.91133333333333)
55	LYS	A	321	35	U	C	4.58	0.60	True	Aromatic	3204,3205,3207,3208,3210,3211	(19.99716666666667, -26.090166666666665, 25.99366666666667)	(17.772, -29.036, 23.277)
285	ARG	A	2077,2079,2080	37	A	C	3.59	1.19	True	Aromatic	3249,3250,3252,3253,3254,3255	(14.396166666666666, -20.685999999999996, 28.075)	(17.837333333333333, -21.686333333333334, 27.91133333333333)
