RESNR	RESTYPE	RESCHAIN	PROT_IDX_LIST	RESNR_LIG	RESTYPE_LIG	RESCHAIN_LIG	DIST	PROTISPOS	LIG_GROUP	LIG_IDX_LIST	LIGCOO	PROTCOO
212	ARG	B	8014,8016,8017	7	U	D	5.07	True	Phosphate	13909,13909,13912,13897,13910,13911	(-96.062, -18.517, 115.301)	(-97.73733333333332, -13.729333333333335, 115.33733333333335)
463	HIS	B	9962,9965	4	U	D	4.22	True	Phosphate	13849,13849,13850,13851,13852,13837	(-106.374, -17.485, 130.207)	(-110.0205, -15.4815, 130.9175)
463	HIS	B	9962,9965	3	U	D	4.84	True	Phosphate	13829,13829,13832,13817,13830,13831	(-111.391, -19.734, 132.782)	(-110.0205, -15.4815, 130.9175)
511	LYS	B	10333	3	U	D	3.89	True	Phosphate	13829,13829,13832,13817,13830,13831	(-111.391, -19.734, 132.782)	(-112.699, -22.345, 135.345)
511	LYS	B	10333	2	U	D	5.08	True	Phosphate	13809,13809,13797,13810,13811,13812	(-116.479, -23.546, 132.166)	(-112.699, -22.345, 135.345)
809	HIS	B	12671,12674	2	U	D	5.11	True	Phosphate	13809,13809,13797,13810,13811,13812	(-116.479, -23.546, 132.166)	(-118.374, -22.884999999999998, 127.47149999999999)
