#Chain_ID	ResNum_ResIcode	AA	AC	AG	AU	CA	CC	CG	CU	GA	GC	GG	GU	UA	UC	UG	UU
A	78	0.060	0.054	0.080	0.036	0.051	0.066	0.082	0.041	0.089	0.076	0.091	0.059	0.034	0.043	0.061	0.035
A	79	0.050	0.039	0.063	0.027	0.039	0.052	0.063	0.031	0.071	0.063	0.072	0.046	0.026	0.035	0.050	0.028
A	80	0.081	0.072	0.099	0.044	0.065	0.083	0.109	0.055	0.114	0.103	0.116	0.078	0.043	0.054	0.081	0.043
A	81	0.053	0.048	0.072	0.030	0.044	0.057	0.068	0.037	0.076	0.068	0.084	0.053	0.028	0.035	0.057	0.028
A	82	0.026	0.020	0.030	0.015	0.021	0.027	0.029	0.017	0.032	0.029	0.034	0.022	0.015	0.019	0.026	0.017
A	83	0.022	0.017	0.025	0.013	0.019	0.022	0.022	0.015	0.026	0.023	0.026	0.020	0.015	0.017	0.021	0.015
A	84	0.043	0.034	0.044	0.025	0.035	0.045	0.042	0.027	0.048	0.043	0.051	0.036	0.024	0.031	0.039	0.026
A	85	0.020	0.015	0.022	0.011	0.017	0.020	0.020	0.013	0.021	0.020	0.023	0.017	0.013	0.015	0.019	0.013
A	86	0.031	0.025	0.030	0.015	0.025	0.029	0.029	0.020	0.032	0.029	0.034	0.025	0.017	0.021	0.026	0.018
A	87	0.019	0.015	0.020	0.011	0.017	0.020	0.020	0.013	0.021	0.020	0.022	0.016	0.011	0.014	0.018	0.013
A	88	0.019	0.015	0.020	0.011	0.016	0.019	0.020	0.013	0.021	0.020	0.022	0.016	0.011	0.014	0.018	0.013
A	89	0.020	0.015	0.022	0.011	0.017	0.020	0.020	0.013	0.021	0.020	0.023	0.017	0.013	0.015	0.019	0.013
A	90	0.020	0.015	0.022	0.011	0.017	0.020	0.020	0.013	0.021	0.020	0.023	0.017	0.013	0.015	0.019	0.013
A	91	0.020	0.015	0.020	0.011	0.016	0.020	0.020	0.013	0.021	0.020	0.022	0.016	0.011	0.014	0.018	0.013
A	92	0.028	0.023	0.030	0.020	0.025	0.029	0.029	0.020	0.029	0.029	0.034	0.027	0.019	0.024	0.029	0.024
A	93	0.022	0.017	0.025	0.013	0.019	0.022	0.022	0.015	0.023	0.023	0.026	0.020	0.013	0.017	0.021	0.017
A	94	0.019	0.015	0.020	0.011	0.016	0.019	0.020	0.013	0.021	0.020	0.022	0.016	0.011	0.014	0.018	0.013
A	95	0.019	0.014	0.020	0.011	0.016	0.019	0.019	0.013	0.020	0.019	0.022	0.016	0.011	0.014	0.018	0.013
A	96	0.019	0.015	0.020	0.011	0.016	0.019	0.020	0.013	0.021	0.020	0.022	0.016	0.011	0.014	0.018	0.013
A	97	0.019	0.015	0.020	0.011	0.016	0.019	0.020	0.013	0.021	0.020	0.023	0.016	0.011	0.014	0.019	0.013
A	98	0.018	0.014	0.020	0.011	0.016	0.019	0.019	0.013	0.020	0.019	0.021	0.015	0.011	0.014	0.017	0.013
A	99	0.018	0.014	0.020	0.011	0.016	0.019	0.019	0.013	0.020	0.019	0.021	0.015	0.011	0.014	0.017	0.013
A	100	0.019	0.015	0.020	0.011	0.016	0.020	0.020	0.013	0.021	0.020	0.023	0.016	0.011	0.014	0.018	0.013
A	101	0.020	0.015	0.020	0.011	0.016	0.020	0.020	0.013	0.021	0.020	0.023	0.016	0.011	0.014	0.018	0.013
A	102	0.019	0.014	0.020	0.011	0.016	0.019	0.019	0.013	0.020	0.019	0.022	0.016	0.011	0.014	0.018	0.013
A	103	0.019	0.014	0.020	0.011	0.016	0.019	0.020	0.013	0.021	0.020	0.022	0.016	0.011	0.014	0.018	0.013
A	104	0.022	0.017	0.025	0.013	0.019	0.022	0.022	0.015	0.026	0.026	0.028	0.020	0.013	0.017	0.021	0.015
A	105	0.020	0.015	0.022	0.011	0.017	0.020	0.020	0.013	0.021	0.020	0.023	0.017	0.011	0.015	0.019	0.013
A	106	0.019	0.014	0.020	0.011	0.016	0.019	0.019	0.013	0.021	0.019	0.022	0.016	0.011	0.014	0.018	0.013
A	107	0.026	0.020	0.030	0.015	0.023	0.029	0.029	0.020	0.032	0.029	0.034	0.022	0.017	0.021	0.026	0.018
A	108	0.026	0.020	0.030	0.015	0.021	0.027	0.029	0.017	0.029	0.029	0.034	0.022	0.015	0.019	0.026	0.017
A	109	0.024	0.020	0.027	0.013	0.021	0.024	0.025	0.017	0.026	0.026	0.028	0.020	0.015	0.017	0.023	0.015
A	110	0.019	0.015	0.020	0.011	0.016	0.019	0.020	0.013	0.021	0.020	0.023	0.016	0.011	0.014	0.018	0.013
A	111	0.028	0.023	0.033	0.017	0.023	0.032	0.032	0.020	0.035	0.032	0.037	0.025	0.017	0.021	0.029	0.018
A	112	0.040	0.031	0.047	0.022	0.035	0.042	0.045	0.027	0.048	0.046	0.051	0.033	0.024	0.028	0.039	0.024
A	113	0.020	0.015	0.022	0.011	0.017	0.020	0.020	0.013	0.023	0.020	0.023	0.017	0.011	0.015	0.019	0.013
A	114	0.031	0.025	0.039	0.017	0.025	0.032	0.035	0.022	0.038	0.036	0.043	0.027	0.017	0.021	0.031	0.018
A	115	0.040	0.034	0.044	0.025	0.035	0.042	0.045	0.029	0.045	0.046	0.051	0.036	0.024	0.033	0.042	0.028
A	116	0.024	0.020	0.030	0.015	0.021	0.024	0.025	0.017	0.029	0.026	0.034	0.022	0.015	0.019	0.023	0.017
A	117	0.043	0.036	0.049	0.025	0.035	0.045	0.045	0.029	0.051	0.046	0.054	0.036	0.026	0.028	0.042	0.026
A	118	0.028	0.023	0.030	0.015	0.023	0.029	0.029	0.020	0.032	0.032	0.034	0.022	0.017	0.019	0.026	0.018
A	119	0.024	0.020	0.027	0.013	0.021	0.024	0.025	0.017	0.026	0.026	0.028	0.020	0.015	0.017	0.023	0.017
A	120	0.031	0.023	0.033	0.017	0.025	0.032	0.032	0.020	0.035	0.032	0.037	0.025	0.017	0.021	0.029	0.020
A	121	0.019	0.014	0.020	0.011	0.016	0.019	0.019	0.013	0.021	0.019	0.022	0.016	0.011	0.014	0.018	0.013
A	122	0.026	0.020	0.027	0.015	0.021	0.027	0.025	0.017	0.029	0.026	0.031	0.022	0.015	0.019	0.026	0.018
A	123	0.019	0.015	0.020	0.011	0.016	0.019	0.020	0.013	0.021	0.020	0.022	0.016	0.011	0.014	0.018	0.013
A	124	0.019	0.015	0.020	0.011	0.016	0.019	0.020	0.013	0.021	0.020	0.022	0.016	0.011	0.014	0.018	0.013
A	125	0.020	0.015	0.020	0.011	0.017	0.020	0.020	0.013	0.021	0.020	0.022	0.016	0.011	0.014	0.018	0.013
A	126	0.024	0.017	0.025	0.013	0.019	0.024	0.022	0.015	0.026	0.023	0.028	0.020	0.015	0.017	0.021	0.017
A	127	0.020	0.015	0.022	0.011	0.017	0.020	0.020	0.013	0.021	0.020	0.023	0.016	0.011	0.014	0.019	0.013
A	128	0.028	0.023	0.033	0.015	0.023	0.027	0.029	0.020	0.032	0.029	0.034	0.025	0.015	0.019	0.026	0.018
A	129	0.022	0.017	0.025	0.013	0.017	0.022	0.022	0.015	0.023	0.023	0.026	0.017	0.013	0.015	0.021	0.013
A	130	0.050	0.039	0.060	0.032	0.044	0.055	0.063	0.037	0.063	0.063	0.067	0.048	0.030	0.039	0.055	0.033
A	131	0.050	0.039	0.060	0.030	0.042	0.052	0.061	0.034	0.063	0.060	0.067	0.044	0.028	0.035	0.050	0.030
A	132	0.090	0.078	0.109	0.054	0.077	0.097	0.119	0.066	0.120	0.111	0.126	0.090	0.053	0.074	0.089	0.048
A	133	0.050	0.039	0.052	0.027	0.042	0.050	0.055	0.034	0.054	0.054	0.059	0.041	0.028	0.035	0.047	0.030
A	134	0.024	0.017	0.027	0.013	0.021	0.024	0.025	0.017	0.026	0.026	0.031	0.020	0.015	0.019	0.023	0.017
A	135	0.038	0.031	0.049	0.022	0.035	0.042	0.051	0.027	0.051	0.052	0.059	0.038	0.022	0.028	0.042	0.024
A	136	0.024	0.020	0.030	0.015	0.021	0.027	0.029	0.017	0.029	0.029	0.034	0.022	0.015	0.019	0.026	0.017
A	137	0.020	0.015	0.022	0.013	0.017	0.020	0.022	0.015	0.023	0.023	0.023	0.017	0.013	0.015	0.019	0.015
A	138	0.020	0.015	0.022	0.011	0.017	0.020	0.020	0.013	0.021	0.020	0.023	0.017	0.011	0.015	0.019	0.013
A	139	0.033	0.025	0.042	0.020	0.030	0.037	0.042	0.022	0.042	0.043	0.049	0.030	0.019	0.026	0.034	0.022
A	140	0.020	0.015	0.025	0.013	0.017	0.022	0.022	0.015	0.023	0.023	0.026	0.017	0.013	0.015	0.021	0.015
A	141	0.020	0.015	0.022	0.011	0.017	0.020	0.020	0.013	0.023	0.020	0.023	0.017	0.011	0.015	0.019	0.013
A	142	0.033	0.025	0.044	0.020	0.030	0.037	0.042	0.024	0.045	0.043	0.051	0.033	0.019	0.028	0.037	0.022
A	143	0.024	0.017	0.030	0.013	0.021	0.024	0.029	0.017	0.029	0.029	0.031	0.020	0.013	0.017	0.023	0.015
A	144	0.026	0.023	0.036	0.015	0.023	0.029	0.032	0.020	0.035	0.032	0.040	0.025	0.015	0.021	0.029	0.018
A	145	0.020	0.015	0.022	0.011	0.017	0.020	0.020	0.013	0.023	0.020	0.023	0.016	0.011	0.015	0.019	0.013
A	146	0.028	0.023	0.036	0.015	0.023	0.029	0.032	0.020	0.035	0.032	0.040	0.025	0.015	0.021	0.029	0.017
A	147	0.036	0.031	0.044	0.020	0.030	0.037	0.042	0.027	0.048	0.046	0.049	0.030	0.019	0.026	0.037	0.022
A	148	0.022	0.017	0.025	0.013	0.019	0.022	0.022	0.015	0.026	0.023	0.026	0.017	0.013	0.015	0.021	0.015
A	149	0.031	0.025	0.036	0.017	0.025	0.032	0.035	0.020	0.038	0.036	0.040	0.025	0.017	0.021	0.031	0.018
A	150	0.036	0.025	0.039	0.020	0.028	0.037	0.039	0.024	0.038	0.039	0.043	0.027	0.022	0.026	0.034	0.022
A	151	0.028	0.023	0.033	0.017	0.023	0.027	0.032	0.020	0.035	0.032	0.037	0.025	0.017	0.019	0.029	0.018
A	152	0.022	0.017	0.025	0.013	0.019	0.022	0.022	0.015	0.026	0.023	0.028	0.020	0.013	0.017	0.021	0.015
A	153	0.022	0.017	0.025	0.013	0.019	0.022	0.022	0.015	0.023	0.023	0.026	0.017	0.013	0.015	0.021	0.015
A	154	0.022	0.017	0.025	0.013	0.019	0.022	0.022	0.015	0.026	0.023	0.028	0.020	0.013	0.017	0.021	0.015
A	155	0.020	0.015	0.020	0.011	0.017	0.020	0.020	0.013	0.021	0.020	0.023	0.016	0.011	0.014	0.019	0.013
A	156	0.022	0.017	0.022	0.013	0.019	0.022	0.020	0.015	0.023	0.023	0.023	0.017	0.013	0.015	0.019	0.015
A	157	0.028	0.023	0.027	0.015	0.023	0.027	0.025	0.020	0.029	0.026	0.031	0.022	0.017	0.019	0.026	0.020
A	158	0.019	0.015	0.020	0.011	0.016	0.019	0.020	0.013	0.021	0.020	0.022	0.016	0.011	0.014	0.018	0.013
A	159	0.033	0.025	0.036	0.020	0.030	0.034	0.032	0.024	0.035	0.032	0.037	0.030	0.022	0.026	0.031	0.024
A	160	0.020	0.015	0.022	0.013	0.017	0.020	0.020	0.015	0.023	0.020	0.023	0.017	0.013	0.015	0.019	0.015
A	161	0.038	0.031	0.047	0.022	0.032	0.040	0.045	0.027	0.048	0.046	0.049	0.033	0.024	0.028	0.039	0.024
A	162	0.028	0.023	0.033	0.015	0.023	0.029	0.032	0.020	0.035	0.032	0.034	0.025	0.017	0.021	0.029	0.018
A	163	0.056	0.045	0.065	0.032	0.048	0.061	0.063	0.039	0.071	0.063	0.070	0.048	0.032	0.042	0.055	0.033
A	164	0.050	0.042	0.057	0.032	0.044	0.055	0.058	0.034	0.060	0.057	0.062	0.048	0.030	0.037	0.053	0.033
A	165	0.026	0.020	0.027	0.015	0.021	0.027	0.029	0.017	0.029	0.029	0.031	0.020	0.015	0.019	0.023	0.017
A	166	0.036	0.028	0.039	0.020	0.028	0.034	0.039	0.024	0.042	0.043	0.046	0.030	0.019	0.024	0.037	0.022
A	167	0.031	0.025	0.039	0.017	0.025	0.032	0.039	0.022	0.042	0.039	0.043	0.027	0.019	0.024	0.034	0.020
A	168	0.040	0.031	0.044	0.022	0.030	0.040	0.045	0.027	0.045	0.049	0.051	0.033	0.022	0.026	0.039	0.022
A	169	0.020	0.015	0.022	0.011	0.017	0.020	0.020	0.013	0.021	0.020	0.023	0.016	0.011	0.015	0.019	0.013
A	170	0.026	0.020	0.027	0.015	0.021	0.024	0.025	0.017	0.029	0.026	0.031	0.020	0.015	0.017	0.023	0.017
A	171	0.020	0.015	0.022	0.011	0.017	0.020	0.020	0.013	0.023	0.020	0.023	0.017	0.013	0.015	0.019	0.013
A	172	0.020	0.015	0.022	0.011	0.017	0.020	0.020	0.013	0.021	0.020	0.023	0.017	0.013	0.015	0.019	0.015
A	173	0.020	0.015	0.022	0.011	0.017	0.020	0.020	0.013	0.021	0.020	0.023	0.017	0.013	0.015	0.019	0.013
A	174	0.024	0.017	0.025	0.015	0.021	0.024	0.022	0.017	0.026	0.023	0.028	0.020	0.015	0.017	0.023	0.017
A	175	0.020	0.015	0.022	0.011	0.017	0.020	0.020	0.013	0.021	0.020	0.023	0.017	0.013	0.015	0.019	0.015
A	176	0.031	0.023	0.033	0.020	0.025	0.032	0.032	0.022	0.032	0.029	0.037	0.027	0.019	0.024	0.029	0.022
A	177	0.040	0.028	0.042	0.025	0.035	0.042	0.042	0.027	0.045	0.046	0.049	0.036	0.024	0.031	0.039	0.026
A	178	0.022	0.015	0.022	0.013	0.017	0.020	0.020	0.015	0.023	0.023	0.023	0.017	0.013	0.015	0.019	0.015
A	179	0.026	0.020	0.027	0.017	0.023	0.027	0.025	0.020	0.026	0.026	0.031	0.022	0.017	0.021	0.026	0.022
A	180	0.022	0.017	0.025	0.013	0.019	0.022	0.022	0.015	0.023	0.023	0.026	0.020	0.013	0.017	0.021	0.015
A	181	0.033	0.023	0.036	0.020	0.028	0.032	0.035	0.022	0.035	0.036	0.043	0.027	0.019	0.024	0.031	0.022
A	182	0.019	0.015	0.020	0.011	0.016	0.019	0.020	0.013	0.021	0.020	0.023	0.016	0.011	0.014	0.018	0.013
A	183	0.020	0.015	0.022	0.013	0.017	0.020	0.020	0.013	0.023	0.020	0.026	0.017	0.013	0.015	0.019	0.015
A	184	0.024	0.017	0.027	0.013	0.021	0.024	0.025	0.015	0.026	0.026	0.031	0.020	0.013	0.017	0.023	0.017
A	185	0.020	0.015	0.020	0.011	0.016	0.020	0.020	0.013	0.021	0.020	0.023	0.016	0.011	0.014	0.018	0.013
A	186	0.019	0.014	0.020	0.011	0.016	0.019	0.019	0.013	0.020	0.019	0.022	0.016	0.011	0.014	0.018	0.013
A	187	0.022	0.017	0.025	0.013	0.019	0.022	0.022	0.015	0.023	0.023	0.026	0.020	0.013	0.017	0.021	0.017
A	188	0.020	0.015	0.022	0.013	0.017	0.020	0.020	0.013	0.021	0.020	0.023	0.017	0.013	0.015	0.019	0.013
A	189	0.019	0.014	0.020	0.011	0.016	0.019	0.019	0.013	0.020	0.019	0.022	0.016	0.011	0.014	0.018	0.013
A	190	0.019	0.014	0.020	0.011	0.016	0.019	0.019	0.013	0.021	0.019	0.022	0.016	0.011	0.014	0.018	0.013
A	191	0.026	0.017	0.027	0.015	0.021	0.027	0.025	0.017	0.029	0.029	0.031	0.022	0.015	0.019	0.023	0.018
A	192	0.019	0.014	0.020	0.011	0.016	0.019	0.019	0.013	0.020	0.019	0.022	0.016	0.011	0.014	0.018	0.013
A	193	0.019	0.014	0.020	0.011	0.016	0.019	0.019	0.013	0.021	0.019	0.022	0.016	0.011	0.014	0.018	0.013
A	194	0.019	0.015	0.020	0.011	0.017	0.020	0.020	0.013	0.021	0.020	0.023	0.016	0.013	0.015	0.019	0.013
A	195	0.020	0.015	0.022	0.011	0.017	0.020	0.020	0.013	0.021	0.020	0.023	0.017	0.013	0.015	0.019	0.013
A	196	0.020	0.015	0.022	0.011	0.017	0.020	0.020	0.013	0.021	0.020	0.023	0.016	0.011	0.014	0.019	0.013
A	197	0.026	0.020	0.030	0.015	0.023	0.027	0.029	0.020	0.029	0.029	0.031	0.022	0.017	0.021	0.026	0.018
A	198	0.019	0.014	0.020	0.011	0.016	0.019	0.019	0.013	0.020	0.019	0.022	0.016	0.011	0.014	0.018	0.013
A	199	0.020	0.015	0.022	0.013	0.017	0.020	0.022	0.015	0.023	0.023	0.023	0.017	0.013	0.015	0.019	0.015
A	200	0.020	0.015	0.022	0.011	0.017	0.020	0.020	0.015	0.023	0.023	0.023	0.017	0.013	0.015	0.019	0.013
A	201	0.020	0.015	0.020	0.011	0.016	0.020	0.020	0.013	0.021	0.020	0.023	0.016	0.011	0.014	0.018	0.013
A	202	0.026	0.020	0.027	0.015	0.021	0.027	0.025	0.017	0.029	0.026	0.031	0.022	0.015	0.019	0.023	0.017
A	203	0.033	0.028	0.039	0.020	0.028	0.034	0.035	0.024	0.038	0.036	0.043	0.030	0.022	0.026	0.034	0.024
A	204	0.024	0.020	0.025	0.013	0.019	0.024	0.025	0.017	0.026	0.026	0.028	0.020	0.015	0.017	0.023	0.017
A	205	0.019	0.015	0.020	0.011	0.016	0.019	0.020	0.013	0.021	0.020	0.022	0.016	0.011	0.014	0.018	0.013
A	206	0.020	0.015	0.022	0.011	0.017	0.020	0.020	0.013	0.021	0.020	0.023	0.016	0.011	0.015	0.019	0.013
A	207	0.020	0.015	0.020	0.011	0.017	0.020	0.020	0.013	0.021	0.020	0.023	0.016	0.011	0.014	0.019	0.013
A	208	0.022	0.017	0.025	0.013	0.019	0.022	0.022	0.015	0.023	0.023	0.026	0.020	0.013	0.017	0.021	0.015
A	209	0.019	0.015	0.020	0.011	0.016	0.019	0.020	0.013	0.021	0.020	0.022	0.016	0.011	0.014	0.018	0.013
A	210	0.036	0.028	0.042	0.022	0.030	0.034	0.035	0.024	0.038	0.039	0.043	0.030	0.022	0.026	0.034	0.024
A	211	0.022	0.017	0.025	0.013	0.019	0.022	0.022	0.015	0.023	0.023	0.026	0.017	0.013	0.015	0.021	0.015
A	212	0.024	0.020	0.027	0.015	0.021	0.024	0.025	0.017	0.026	0.026	0.028	0.022	0.015	0.019	0.023	0.017
A	213	0.040	0.034	0.044	0.025	0.037	0.042	0.045	0.027	0.048	0.046	0.049	0.036	0.026	0.031	0.039	0.028
A	214	0.024	0.020	0.027	0.015	0.023	0.024	0.025	0.017	0.026	0.026	0.031	0.022	0.017	0.019	0.023	0.018
A	215	0.031	0.025	0.036	0.020	0.028	0.032	0.035	0.022	0.038	0.032	0.040	0.030	0.019	0.024	0.031	0.022
A	216	0.040	0.034	0.047	0.027	0.035	0.042	0.048	0.029	0.048	0.046	0.054	0.038	0.026	0.031	0.042	0.028
A	217	0.031	0.025	0.039	0.022	0.028	0.034	0.039	0.022	0.038	0.039	0.043	0.033	0.022	0.026	0.037	0.024
A	218	0.019	0.015	0.020	0.011	0.016	0.019	0.020	0.013	0.021	0.020	0.022	0.016	0.011	0.014	0.018	0.013
A	219	0.036	0.028	0.042	0.022	0.030	0.037	0.042	0.024	0.045	0.043	0.046	0.033	0.022	0.028	0.037	0.024
A	220	0.031	0.023	0.036	0.020	0.025	0.032	0.035	0.022	0.035	0.036	0.040	0.027	0.019	0.024	0.031	0.020
A	221	0.036	0.031	0.047	0.030	0.035	0.042	0.045	0.029	0.045	0.046	0.054	0.041	0.028	0.035	0.044	0.031
A	222	0.019	0.015	0.020	0.011	0.016	0.019	0.020	0.013	0.021	0.020	0.023	0.016	0.011	0.014	0.018	0.013
A	223	0.024	0.020	0.030	0.015	0.021	0.024	0.029	0.017	0.029	0.026	0.034	0.022	0.015	0.019	0.026	0.017
A	224	0.022	0.017	0.025	0.013	0.019	0.024	0.025	0.015	0.026	0.026	0.028	0.020	0.013	0.017	0.021	0.017
A	225	0.026	0.020	0.033	0.017	0.023	0.027	0.029	0.020	0.029	0.029	0.037	0.025	0.017	0.021	0.029	0.020
A	226	0.019	0.015	0.020	0.011	0.017	0.020	0.020	0.013	0.021	0.020	0.023	0.016	0.011	0.015	0.019	0.013
A	227	0.022	0.017	0.025	0.013	0.019	0.022	0.022	0.015	0.023	0.023	0.026	0.020	0.013	0.017	0.021	0.015
A	228	0.033	0.025	0.042	0.022	0.030	0.037	0.042	0.024	0.042	0.043	0.051	0.036	0.022	0.028	0.039	0.024
A	229	0.020	0.015	0.022	0.013	0.017	0.020	0.020	0.013	0.021	0.020	0.023	0.017	0.013	0.015	0.019	0.013
A	230	0.019	0.014	0.020	0.011	0.016	0.019	0.020	0.013	0.021	0.019	0.022	0.016	0.011	0.014	0.018	0.013
A	231	0.020	0.017	0.025	0.013	0.019	0.022	0.022	0.015	0.023	0.023	0.026	0.020	0.013	0.017	0.021	0.017
A	232	0.020	0.015	0.022	0.011	0.017	0.020	0.020	0.013	0.023	0.020	0.023	0.017	0.011	0.015	0.019	0.013
A	233	0.019	0.015	0.020	0.011	0.016	0.019	0.020	0.013	0.021	0.020	0.022	0.016	0.011	0.014	0.018	0.013
A	234	0.019	0.014	0.020	0.011	0.016	0.019	0.019	0.013	0.020	0.019	0.022	0.016	0.011	0.014	0.018	0.013
A	235	0.020	0.017	0.025	0.013	0.019	0.022	0.022	0.015	0.023	0.023	0.026	0.020	0.013	0.017	0.021	0.015
A	236	0.019	0.015	0.022	0.011	0.017	0.020	0.020	0.013	0.021	0.020	0.023	0.017	0.011	0.015	0.019	0.013
A	237	0.020	0.015	0.022	0.013	0.017	0.020	0.022	0.013	0.023	0.020	0.023	0.017	0.013	0.015	0.019	0.015
A	238	0.026	0.020	0.030	0.017	0.023	0.029	0.029	0.020	0.029	0.029	0.034	0.025	0.017	0.021	0.026	0.018
A	239	0.022	0.017	0.025	0.013	0.019	0.022	0.022	0.015	0.023	0.023	0.026	0.020	0.013	0.017	0.021	0.017
A	240	0.022	0.017	0.025	0.015	0.019	0.022	0.022	0.015	0.026	0.023	0.028	0.020	0.015	0.017	0.023	0.017
A	241	0.033	0.025	0.039	0.020	0.028	0.034	0.039	0.022	0.038	0.039	0.046	0.030	0.019	0.026	0.034	0.022
A	242	0.020	0.015	0.022	0.011	0.017	0.020	0.020	0.013	0.021	0.020	0.023	0.016	0.011	0.014	0.019	0.013
A	243	0.019	0.015	0.020	0.011	0.016	0.019	0.020	0.013	0.021	0.020	0.023	0.016	0.011	0.014	0.019	0.013
A	244	0.020	0.017	0.022	0.013	0.017	0.020	0.022	0.015	0.023	0.023	0.026	0.017	0.013	0.015	0.021	0.015
A	245	0.038	0.034	0.044	0.027	0.035	0.042	0.039	0.029	0.042	0.039	0.046	0.038	0.028	0.031	0.042	0.030
A	246	0.019	0.015	0.020	0.011	0.016	0.019	0.020	0.013	0.021	0.020	0.023	0.016	0.011	0.014	0.019	0.013
A	247	0.028	0.025	0.036	0.020	0.028	0.032	0.029	0.022	0.032	0.032	0.037	0.027	0.022	0.026	0.031	0.022
A	248	0.020	0.017	0.022	0.013	0.019	0.022	0.022	0.015	0.023	0.023	0.026	0.017	0.013	0.017	0.021	0.015
A	249	0.028	0.023	0.036	0.017	0.025	0.032	0.032	0.022	0.035	0.032	0.040	0.027	0.019	0.024	0.031	0.020
A	250	0.031	0.025	0.033	0.020	0.028	0.032	0.032	0.022	0.035	0.032	0.040	0.027	0.019	0.021	0.031	0.022
A	251	0.020	0.015	0.022	0.011	0.017	0.020	0.020	0.013	0.023	0.020	0.023	0.017	0.013	0.015	0.019	0.013
A	252	0.038	0.031	0.049	0.025	0.035	0.042	0.045	0.029	0.048	0.046	0.051	0.036	0.024	0.031	0.039	0.026
A	253	0.022	0.017	0.025	0.013	0.019	0.022	0.022	0.015	0.026	0.023	0.026	0.017	0.013	0.017	0.021	0.015
A	254	0.045	0.039	0.060	0.030	0.042	0.050	0.058	0.034	0.063	0.057	0.065	0.044	0.028	0.033	0.053	0.030
A	255	0.028	0.023	0.033	0.017	0.023	0.029	0.032	0.020	0.035	0.032	0.037	0.025	0.017	0.021	0.029	0.018
A	256	0.036	0.028	0.044	0.022	0.030	0.040	0.042	0.027	0.045	0.043	0.049	0.033	0.022	0.028	0.039	0.024
A	257	0.072	0.061	0.085	0.043	0.060	0.073	0.087	0.050	0.092	0.088	0.096	0.064	0.041	0.050	0.077	0.040
A	258	0.043	0.036	0.052	0.027	0.037	0.047	0.048	0.031	0.051	0.052	0.057	0.038	0.028	0.033	0.044	0.028
A	259	0.043	0.034	0.049	0.025	0.035	0.042	0.048	0.031	0.054	0.052	0.057	0.038	0.024	0.033	0.044	0.026
A	260	0.031	0.025	0.039	0.020	0.028	0.032	0.035	0.024	0.038	0.036	0.040	0.030	0.022	0.026	0.034	0.022
A	261	0.043	0.036	0.052	0.027	0.037	0.045	0.051	0.029	0.056	0.049	0.057	0.041	0.026	0.033	0.044	0.028
A	262	0.022	0.017	0.025	0.013	0.019	0.022	0.022	0.015	0.026	0.023	0.026	0.020	0.013	0.017	0.021	0.015
A	263	0.043	0.039	0.049	0.025	0.037	0.042	0.048	0.029	0.054	0.049	0.054	0.038	0.026	0.031	0.044	0.028
A	264	0.024	0.020	0.025	0.013	0.019	0.024	0.025	0.015	0.026	0.026	0.028	0.020	0.013	0.017	0.023	0.015
A	265	0.076	0.069	0.086	0.044	0.065	0.079	0.089	0.052	0.099	0.088	0.099	0.070	0.044	0.052	0.077	0.041
