RESNR	RESTYPE	RESCHAIN	PROT_IDX_LIST	RESNR_LIG	RESTYPE_LIG	RESCHAIN_LIG	DIST	PROTISPOS	LIG_GROUP	LIG_IDX_LIST	LIGCOO	PROTCOO
927	ARG	A	1267,1269,1270	15	U	B	4.09	True	Phosphate	2487,2487,2488,2489,2490,2475	(-18.471, -1.525, 17.238)	(-16.794333333333334, 1.4816666666666667, 15.029333333333334)
965	LYS	A	1598	14	U	B	3.57	True	Phosphate	2467,2467,2455,2468,2469,2470	(-14.136, -5.887, 16.068)	(-15.924, -6.556, 19.08)
