RESNR	RESTYPE	RESCHAIN	RESNR_LIG	RESTYPE_LIG	RESCHAIN_LIG	PROT_IDX_LIST	CENTDIST	ANGLE	OFFSET	TYPE	LIG_IDX_LIST	LIGCOO	PROTCOO
35	PHE	B	-1	U	D	1791,1792,1793,1794,1795,1796	3.83	7.38	0.97	P	3338,3339,3341,3342,3344,3345	(-13.3175, -29.37133333333333, -37.24633333333333)	(-16.172, -28.405166666666663, -34.88916666666667)
55	PHE	B	-1	U	D	1961,1962,1963,1964,1965,1966	4.79	69.25	1.37	T	3338,3339,3341,3342,3344,3345	(-13.3175, -29.37133333333333, -37.24633333333333)	(-10.24, -28.87833333333333, -33.60916666666667)
23	TYR	B	-2	U	D	1682,1683,1684,1685,1686,1687	3.80	7.17	1.44	P	3318,3319,3321,3322,3324,3325	(-2.7618333333333336, -20.6125, -37.23316666666667)	(-4.0360000000000005, -20.16916666666667, -33.684999999999995)
