RESNR	RESTYPE	RESCHAIN	RESNR_LIG	RESTYPE_LIG	RESCHAIN_LIG	PROT_IDX_LIST	CENTDIST	ANGLE	OFFSET	TYPE	LIG_IDX_LIST	LIGCOO	PROTCOO
35	PHE	B	9	U	C	2089,2090,2091,2092,2093,2094	3.94	9.64	1.33	P	176,177,179,180,182,183	(29.776333333333337, 13.557, -54.076)	(32.35883333333333, 15.5085, -51.82716666666666)
55	PHE	B	9	U	C	2251,2252,2253,2254,2255,2256	5.06	66.33	1.64	T	176,177,179,180,182,183	(29.776333333333337, 13.557, -54.076)	(26.563, 14.2055, -50.219500000000004)
23	TYR	B	8	U	C	1980,1981,1982,1983,1984,1985	3.78	7.34	1.25	P	156,157,159,160,162,163	(21.979333333333333, 3.7143333333333337, -47.654500000000006)	(23.026, 5.836666666666666, -44.70916666666667)
