RESNR	RESTYPE	RESCHAIN	RESNR_LIG	RESTYPE_LIG	RESCHAIN_LIG	PROT_IDX_LIST	CENTDIST	ANGLE	OFFSET	TYPE	LIG_IDX_LIST	LIGCOO	PROTCOO
23	TYR	A	-2	U	C	139,140,141,142,143,144	3.87	5.48	1.50	P	3144,3145,3147,3148,3150,3151	(23.174833333333336, -14.585833333333333, -7.432666666666667)	(21.340833333333332, -15.085499999999998, -4.058833333333333)
55	PHE	A	-1	U	C	418,419,420,421,422,423	4.87	68.80	1.68	T	3164,3165,3167,3168,3170,3171	(30.088333333333335, -5.846166666666666, 0.5938333333333333)	(25.234666666666666, -6.262, 0.6678333333333333)
35	PHE	A	-1	U	C	248,249,250,251,252,253	3.67	6.54	1.03	P	3164,3165,3167,3168,3170,3171	(30.088333333333335, -5.846166666666666, 0.5938333333333333)	(30.21466666666667, -6.622166666666665, 4.182833333333333)
