RESNR	RESTYPE	RESCHAIN	RESNR_LIG	RESTYPE_LIG	RESCHAIN_LIG	PROT_IDX_LIST	CENTDIST	ANGLE	OFFSET	TYPE	LIG_IDX_LIST	LIGCOO	PROTCOO
270	HIS	B	39	A	C	2785,2786,2787,2788,2789	3.56	1.47	0.85	P	415,416,417,418,424	(-18.9368, -32.7696, 15.3162)	(-19.9908, -33.485800000000005, 18.6404)
270	HIS	B	39	A	C	2785,2786,2787,2788,2789	3.67	0.65	1.29	P	418,419,421,422,423,424	(-17.584333333333333, -31.7105, 16.510166666666667)	(-19.9908, -33.485800000000005, 18.6404)
