RESNR	RESTYPE	RESCHAIN	RESNR_LIG	RESTYPE_LIG	RESCHAIN_LIG	SIDECHAIN	DIST_H-A	DIST_D-A	DON_ANGLE	PROTISDON	DONORIDX	DONORTYPE	ACCEPTORIDX	ACCEPTORTYPE	LIGCOO	PROTCOO
270	HIS	E	41	G	F	True	1.96	2.92	165.24	True	3787	Nar	4576	O3	(5.849, 17.092, 71.608)	(6.259, 14.314, 70.801)
289	ARG	E	41	G	F	True	3.05	3.48	107.87	True	3946	Ng+	4576	O3	(5.849, 17.092, 71.608)	(3.59, 19.525, 72.662)
293	ARG	E	41	G	F	True	2.21	3.00	136.45	True	3977	Ng+	4580	Nar	(3.044, 17.111, 75.514)	(1.241, 18.558, 77.421)
248	ASN	E	46	G	F	True	3.06	3.99	157.44	True	3711	Nam	4675	O3	(5.924, 1.312, 76.267)	(2.274, 2.648, 75.36)
234	VAL	E	45	A	F	False	2.02	2.78	131.67	False	4668	Npl	3615	O2	(-0.41, -0.188, 67.503)	(-2.746, -0.742, 66.11)
