RESNR	RESTYPE	RESCHAIN	PROT_IDX_LIST	RESNR_LIG	RESTYPE_LIG	RESCHAIN_LIG	DIST	PROTISPOS	LIG_GROUP	LIG_IDX_LIST	LIGCOO	PROTCOO
270	HIS	E	4673,4676	38	U	F	4.95	True	Phosphate	1086,1086,1088,1089,1074,1087	(-26.732, -79.401, 21.574)	(-24.2715, -77.15299999999999, 25.235)
290	LYS	E	4842	34	G	F	5.37	True	Phosphate	1000,1000,1001,1002,1003,986	(-22.866, -91.9, 34.523)	(-17.519, -91.613, 34.09)
298	LYS	E	4897	32	G	F	3.60	True	Phosphate	955,955,956,957,958,943	(-24.226, -84.483, 43.612)	(-21.201, -85.531, 45.253)
