RESNR	RESTYPE	RESCHAIN	PROT_IDX_LIST	RESNR_LIG	RESTYPE_LIG	RESCHAIN_LIG	DIST	PROTISPOS	LIG_GROUP	LIG_IDX_LIST	LIGCOO	PROTCOO
270	HIS	E	3890,3893	42	C	C	4.91	True	Phosphate	2198,2198,2200,2201,2199,2183	(37.597, 27.717, -65.229)	(37.768, 24.938499999999998, -69.2745)
289	ARG	E	4047,4049,4050	40	C	C	4.97	True	Phosphate	2155,2155,2156,2157,2158,2140	(26.006, 25.229, -63.443)	(28.048000000000002, 27.577333333333332, -67.31500000000001)
289	ARG	E	4047,4049,4050	41	G	C	5.02	True	Phosphate	2175,2175,2163,2176,2177,2178	(31.018, 27.883, -63.281)	(28.048000000000002, 27.577333333333332, -67.31500000000001)
293	ARG	E	4077,4079,4080	40	C	C	4.76	True	Phosphate	2155,2155,2156,2157,2158,2140	(26.006, 25.229, -63.443)	(27.135333333333335, 22.614, -67.25366666666666)
298	LYS	E	4114	37	G	C	3.78	True	Phosphate	2087,2087,2088,2089,2090,2075	(23.381, 11.467, -70.487)	(20.382, 11.612, -72.778)
327	LYS	E	4345	34	A	C	4.35	True	Phosphate	2023,2023,2024,2025,2026,2011	(15.435, 13.908, -67.603)	(17.08, 15.399, -71.341)
330	LYS	E	4373	33	C	C	4.28	True	Phosphate	2003,2003,2004,2005,2006,1991	(9.826, 16.314, -67.401)	(8.308, 19.433, -69.909)
