RESNR	RESTYPE	RESCHAIN	RESNR_LIG	RESTYPE_LIG	RESCHAIN_LIG	SIDECHAIN	DIST_H-A	DIST_D-A	DON_ANGLE	PROTISDON	DONORIDX	DONORTYPE	ACCEPTORIDX	ACCEPTORTYPE	LIGCOO	PROTCOO
293	ARG	B	35	G	C	True	3.18	3.65	111.08	True	2975	Ng+	334	Nar	(-14.725, -27.297, 16.048)	(-13.929, -25.909, 19.327)
248	ASN	B	40	U	C	True	3.68	4.05	105.61	True	2701	Nam	433	O3	(-14.272, -40.041, 10.067)	(-10.621, -38.294, 10.312)
247	CYS	B	41	C	C	False	1.96	2.92	165.33	False	462	Npl	2691	O2	(-13.636, -32.883, 14.149)	(-11.349, -34.675, 14.459)
270	HIS	B	39	A	C	True	1.94	2.66	128.80	False	413	O3	2786	N2	(-18.004, -36.132, 16.954)	(-19.475, -34.472, 18.421)
293	ARG	B	34	G	C	True	3.41	4.02	123.16	False	307	O3	2973	Ng+	(-14.503, -22.644, 17.249)	(-11.859, -25.495, 18.278)
