#Chain_ID	ResNum_ResIcode	AA	AC	AG	AU	CA	CC	CG	CU	GA	GC	GG	GU	UA	UC	UG	UU
c	31	0.114	0.101	0.155	0.061	0.098	0.124	0.161	0.083	0.171	0.158	0.160	0.112	0.058	0.083	0.114	0.052
c	32	0.137	0.118	0.188	0.071	0.106	0.141	0.193	0.096	0.201	0.189	0.187	0.133	0.065	0.096	0.131	0.056
c	33	0.112	0.101	0.151	0.059	0.093	0.124	0.165	0.079	0.174	0.158	0.161	0.112	0.058	0.079	0.116	0.051
c	34	0.065	0.054	0.085	0.036	0.051	0.066	0.092	0.044	0.094	0.088	0.099	0.059	0.032	0.045	0.066	0.033
c	35	0.088	0.078	0.125	0.052	0.077	0.097	0.132	0.068	0.131	0.130	0.143	0.094	0.048	0.071	0.099	0.046
c	36	0.146	0.123	0.205	0.082	0.114	0.157	0.217	0.110	0.222	0.215	0.207	0.153	0.073	0.111	0.156	0.068
c	37	0.074	0.063	0.103	0.038	0.060	0.075	0.115	0.052	0.110	0.109	0.118	0.072	0.034	0.050	0.081	0.037
c	38	0.052	0.048	0.085	0.036	0.048	0.059	0.089	0.041	0.089	0.083	0.097	0.062	0.032	0.045	0.070	0.035
c	39	0.050	0.042	0.072	0.027	0.044	0.055	0.071	0.034	0.074	0.068	0.081	0.051	0.026	0.037	0.055	0.028
c	40	0.082	0.069	0.118	0.048	0.070	0.090	0.121	0.060	0.125	0.123	0.139	0.086	0.044	0.063	0.089	0.043
c	41	0.048	0.042	0.075	0.030	0.044	0.055	0.068	0.037	0.076	0.068	0.081	0.051	0.026	0.039	0.057	0.030
c	42	0.040	0.034	0.065	0.030	0.039	0.047	0.061	0.031	0.063	0.057	0.075	0.046	0.026	0.037	0.050	0.028
c	43	0.038	0.028	0.052	0.020	0.032	0.042	0.055	0.024	0.054	0.052	0.059	0.036	0.019	0.028	0.039	0.022
c	44	0.024	0.017	0.030	0.015	0.021	0.024	0.029	0.017	0.029	0.029	0.034	0.022	0.015	0.019	0.026	0.015
c	45	0.022	0.017	0.027	0.013	0.019	0.024	0.029	0.015	0.029	0.029	0.031	0.020	0.013	0.017	0.023	0.015
c	46	0.024	0.017	0.030	0.015	0.021	0.024	0.029	0.017	0.029	0.029	0.034	0.022	0.015	0.019	0.023	0.015
c	47	0.038	0.028	0.049	0.022	0.032	0.042	0.055	0.027	0.054	0.054	0.059	0.038	0.022	0.031	0.042	0.024
c	48	0.033	0.025	0.047	0.020	0.028	0.034	0.042	0.022	0.045	0.043	0.054	0.033	0.017	0.024	0.037	0.020
c	49	0.038	0.031	0.055	0.022	0.035	0.045	0.055	0.027	0.056	0.054	0.062	0.038	0.022	0.031	0.044	0.022
c	50	0.028	0.023	0.036	0.017	0.023	0.029	0.032	0.020	0.035	0.032	0.040	0.025	0.015	0.021	0.029	0.018
c	51	0.026	0.023	0.036	0.017	0.023	0.029	0.035	0.020	0.038	0.032	0.040	0.025	0.015	0.021	0.029	0.017
c	52	0.063	0.061	0.097	0.038	0.060	0.073	0.094	0.048	0.104	0.088	0.103	0.067	0.034	0.050	0.072	0.035
c	53	0.028	0.025	0.039	0.015	0.025	0.029	0.035	0.020	0.038	0.036	0.043	0.027	0.015	0.021	0.031	0.017
c	54	0.031	0.028	0.044	0.017	0.028	0.032	0.039	0.022	0.045	0.039	0.046	0.030	0.017	0.024	0.034	0.018
c	55	0.036	0.028	0.044	0.020	0.030	0.037	0.045	0.024	0.048	0.043	0.049	0.033	0.019	0.026	0.037	0.020
c	56	0.048	0.036	0.060	0.025	0.039	0.050	0.061	0.031	0.066	0.060	0.065	0.044	0.024	0.033	0.047	0.026
c	57	0.036	0.025	0.036	0.020	0.028	0.034	0.035	0.022	0.038	0.036	0.040	0.027	0.019	0.024	0.031	0.022
c	58	0.028	0.023	0.030	0.015	0.023	0.029	0.032	0.020	0.032	0.029	0.034	0.025	0.017	0.021	0.026	0.018
c	59	0.043	0.031	0.049	0.025	0.035	0.045	0.051	0.029	0.051	0.049	0.054	0.038	0.024	0.031	0.039	0.026
c	60	0.043	0.031	0.044	0.025	0.032	0.045	0.045	0.027	0.048	0.046	0.049	0.036	0.024	0.031	0.039	0.026
c	61	0.028	0.020	0.030	0.015	0.023	0.029	0.029	0.020	0.032	0.029	0.034	0.025	0.017	0.021	0.026	0.018
c	62	0.033	0.025	0.036	0.020	0.028	0.034	0.035	0.022	0.038	0.036	0.040	0.030	0.022	0.026	0.031	0.022
c	63	0.031	0.025	0.036	0.020	0.028	0.034	0.035	0.022	0.038	0.036	0.040	0.030	0.022	0.026	0.031	0.022
c	64	0.031	0.025	0.039	0.017	0.028	0.034	0.035	0.022	0.038	0.039	0.043	0.027	0.019	0.024	0.031	0.020
c	65	0.070	0.057	0.075	0.038	0.055	0.068	0.082	0.048	0.081	0.081	0.086	0.059	0.039	0.048	0.068	0.038
c	66	0.031	0.023	0.033	0.017	0.025	0.032	0.035	0.020	0.035	0.036	0.040	0.027	0.017	0.021	0.029	0.018
c	67	0.031	0.023	0.036	0.017	0.025	0.032	0.035	0.020	0.035	0.036	0.040	0.027	0.017	0.021	0.031	0.018
c	68	0.031	0.023	0.033	0.017	0.025	0.032	0.032	0.022	0.035	0.032	0.037	0.027	0.019	0.024	0.029	0.020
c	69	0.040	0.031	0.044	0.025	0.035	0.042	0.048	0.027	0.048	0.046	0.054	0.038	0.026	0.033	0.039	0.028
c	70	0.022	0.017	0.022	0.013	0.019	0.022	0.022	0.015	0.023	0.023	0.026	0.017	0.013	0.015	0.021	0.015
c	71	0.022	0.017	0.025	0.013	0.019	0.022	0.022	0.015	0.026	0.023	0.028	0.020	0.013	0.017	0.021	0.015
c	72	0.020	0.015	0.022	0.011	0.017	0.020	0.022	0.013	0.023	0.023	0.026	0.017	0.011	0.015	0.019	0.013
c	73	0.028	0.023	0.033	0.020	0.025	0.032	0.032	0.020	0.032	0.032	0.037	0.027	0.019	0.024	0.029	0.022
c	74	0.020	0.015	0.022	0.013	0.017	0.020	0.022	0.015	0.023	0.023	0.026	0.017	0.013	0.015	0.019	0.015
c	75	0.022	0.017	0.025	0.013	0.019	0.022	0.022	0.015	0.023	0.023	0.026	0.017	0.013	0.017	0.021	0.015
c	76	0.022	0.017	0.025	0.013	0.019	0.022	0.022	0.015	0.023	0.023	0.026	0.020	0.013	0.017	0.021	0.015
c	77	0.031	0.023	0.036	0.017	0.025	0.032	0.035	0.020	0.035	0.036	0.043	0.027	0.017	0.024	0.031	0.020
c	78	0.028	0.023	0.033	0.017	0.025	0.029	0.032	0.020	0.032	0.032	0.037	0.025	0.017	0.021	0.029	0.020
c	79	0.022	0.017	0.025	0.013	0.019	0.022	0.022	0.015	0.023	0.023	0.026	0.017	0.013	0.015	0.021	0.015
c	80	0.026	0.023	0.033	0.020	0.025	0.029	0.032	0.020	0.032	0.029	0.034	0.025	0.019	0.024	0.029	0.020
c	81	0.020	0.015	0.022	0.011	0.017	0.020	0.022	0.015	0.023	0.023	0.023	0.017	0.013	0.015	0.019	0.013
c	82	0.033	0.023	0.039	0.017	0.025	0.032	0.035	0.022	0.038	0.039	0.046	0.027	0.017	0.024	0.031	0.018
c	83	0.020	0.015	0.022	0.011	0.017	0.020	0.020	0.013	0.021	0.020	0.023	0.017	0.013	0.015	0.019	0.013
c	84	0.020	0.015	0.022	0.011	0.017	0.020	0.020	0.013	0.021	0.020	0.023	0.017	0.013	0.015	0.019	0.013
c	85	0.019	0.015	0.020	0.011	0.016	0.019	0.020	0.013	0.021	0.020	0.022	0.016	0.011	0.014	0.018	0.013
c	86	0.024	0.017	0.027	0.015	0.021	0.024	0.025	0.017	0.026	0.029	0.031	0.022	0.015	0.017	0.023	0.017
c	87	0.020	0.015	0.022	0.011	0.017	0.020	0.022	0.013	0.023	0.023	0.026	0.017	0.011	0.015	0.019	0.013
c	88	0.019	0.014	0.020	0.011	0.016	0.019	0.020	0.013	0.021	0.020	0.022	0.016	0.011	0.014	0.018	0.013
c	89	0.024	0.017	0.027	0.015	0.021	0.024	0.025	0.017	0.029	0.026	0.031	0.022	0.015	0.019	0.023	0.017
c	90	0.020	0.015	0.022	0.013	0.017	0.020	0.022	0.015	0.023	0.023	0.026	0.017	0.013	0.015	0.019	0.015
c	91	0.020	0.015	0.022	0.011	0.017	0.020	0.020	0.013	0.021	0.020	0.023	0.016	0.011	0.015	0.019	0.013
c	92	0.019	0.015	0.020	0.011	0.017	0.020	0.020	0.013	0.021	0.020	0.022	0.016	0.011	0.014	0.018	0.013
c	93	0.020	0.015	0.020	0.011	0.016	0.019	0.020	0.013	0.021	0.020	0.022	0.016	0.011	0.014	0.018	0.013
c	94	0.026	0.020	0.030	0.015	0.023	0.027	0.029	0.020	0.029	0.029	0.034	0.022	0.015	0.021	0.026	0.018
c	95	0.036	0.025	0.042	0.022	0.030	0.037	0.039	0.024	0.042	0.039	0.046	0.033	0.024	0.028	0.037	0.026
c	96	0.024	0.017	0.025	0.015	0.021	0.024	0.025	0.017	0.026	0.026	0.028	0.020	0.015	0.019	0.021	0.018
c	97	0.043	0.031	0.049	0.027	0.037	0.047	0.048	0.031	0.048	0.049	0.054	0.041	0.028	0.033	0.042	0.030
c	98	0.026	0.017	0.030	0.015	0.021	0.027	0.032	0.017	0.032	0.032	0.034	0.025	0.015	0.019	0.026	0.017
c	99	0.038	0.031	0.049	0.025	0.035	0.045	0.051	0.027	0.054	0.049	0.057	0.038	0.022	0.031	0.042	0.024
c	100	0.020	0.015	0.022	0.013	0.017	0.020	0.022	0.013	0.023	0.020	0.023	0.017	0.013	0.015	0.019	0.015
c	101	0.022	0.017	0.025	0.013	0.019	0.022	0.022	0.015	0.023	0.023	0.026	0.017	0.013	0.015	0.021	0.015
c	102	0.024	0.017	0.027	0.013	0.021	0.024	0.025	0.015	0.026	0.026	0.031	0.020	0.013	0.017	0.023	0.015
c	103	0.019	0.015	0.020	0.011	0.016	0.019	0.020	0.013	0.021	0.020	0.023	0.016	0.011	0.014	0.019	0.013
c	104	0.024	0.020	0.027	0.015	0.021	0.024	0.029	0.017	0.029	0.026	0.031	0.022	0.015	0.019	0.026	0.017
c	105	0.031	0.025	0.042	0.020	0.028	0.034	0.042	0.022	0.042	0.039	0.046	0.030	0.017	0.026	0.034	0.020
c	106	0.024	0.020	0.027	0.015	0.021	0.024	0.025	0.017	0.029	0.026	0.031	0.022	0.015	0.017	0.026	0.017
c	107	0.031	0.025	0.039	0.017	0.028	0.034	0.039	0.022	0.038	0.036	0.040	0.027	0.019	0.024	0.031	0.020
c	119	0.024	0.017	0.027	0.013	0.019	0.024	0.025	0.017	0.029	0.026	0.031	0.020	0.015	0.017	0.023	0.017
c	120	0.038	0.031	0.052	0.025	0.035	0.045	0.055	0.029	0.054	0.054	0.059	0.038	0.022	0.031	0.047	0.024
c	121	0.028	0.023	0.036	0.017	0.025	0.032	0.035	0.020	0.035	0.036	0.040	0.027	0.017	0.021	0.029	0.018
c	122	0.020	0.015	0.022	0.013	0.017	0.020	0.022	0.015	0.023	0.023	0.026	0.017	0.013	0.015	0.019	0.015
c	123	0.026	0.020	0.030	0.015	0.023	0.027	0.032	0.017	0.029	0.032	0.034	0.025	0.017	0.019	0.026	0.018
c	124	0.022	0.015	0.025	0.013	0.019	0.022	0.022	0.015	0.023	0.023	0.026	0.020	0.013	0.015	0.021	0.015
c	125	0.020	0.015	0.022	0.011	0.017	0.020	0.022	0.013	0.023	0.020	0.023	0.017	0.013	0.015	0.019	0.013
c	126	0.020	0.015	0.022	0.013	0.017	0.020	0.020	0.013	0.021	0.020	0.023	0.017	0.013	0.015	0.019	0.013
c	127	0.022	0.015	0.022	0.013	0.017	0.022	0.022	0.015	0.023	0.023	0.026	0.017	0.013	0.015	0.021	0.015
c	128	0.022	0.015	0.022	0.013	0.019	0.022	0.022	0.015	0.023	0.023	0.026	0.020	0.013	0.017	0.021	0.015
c	129	0.020	0.015	0.022	0.013	0.017	0.020	0.022	0.015	0.023	0.023	0.023	0.017	0.013	0.015	0.019	0.015
c	130	0.020	0.015	0.022	0.013	0.017	0.022	0.022	0.015	0.023	0.023	0.026	0.017	0.013	0.015	0.019	0.015
c	131	0.026	0.020	0.027	0.015	0.021	0.027	0.025	0.017	0.026	0.026	0.031	0.022	0.015	0.019	0.023	0.018
c	132	0.020	0.015	0.022	0.013	0.017	0.020	0.020	0.015	0.023	0.023	0.023	0.017	0.013	0.015	0.019	0.015
c	133	0.019	0.015	0.020	0.011	0.016	0.019	0.020	0.013	0.021	0.020	0.022	0.016	0.011	0.014	0.018	0.013
c	134	0.028	0.020	0.030	0.017	0.023	0.029	0.029	0.020	0.029	0.029	0.034	0.025	0.017	0.021	0.026	0.020
c	135	0.026	0.017	0.027	0.015	0.021	0.024	0.025	0.017	0.029	0.029	0.031	0.022	0.015	0.019	0.023	0.018
c	136	0.020	0.015	0.020	0.011	0.017	0.020	0.020	0.013	0.021	0.020	0.023	0.016	0.011	0.015	0.019	0.013
c	137	0.019	0.015	0.020	0.011	0.016	0.019	0.020	0.013	0.021	0.020	0.022	0.016	0.011	0.014	0.018	0.013
c	138	0.022	0.017	0.025	0.013	0.019	0.024	0.025	0.015	0.026	0.026	0.028	0.020	0.015	0.017	0.023	0.017
c	139	0.028	0.023	0.033	0.017	0.025	0.029	0.032	0.020	0.032	0.032	0.037	0.025	0.017	0.021	0.029	0.020
c	140	0.020	0.015	0.022	0.013	0.017	0.020	0.022	0.015	0.023	0.023	0.026	0.017	0.013	0.015	0.019	0.015
c	141	0.019	0.015	0.020	0.011	0.016	0.019	0.020	0.013	0.021	0.020	0.022	0.016	0.011	0.014	0.018	0.013
c	142	0.020	0.015	0.020	0.011	0.017	0.020	0.020	0.013	0.021	0.020	0.023	0.016	0.011	0.015	0.019	0.013
c	143	0.020	0.015	0.022	0.011	0.017	0.020	0.020	0.013	0.023	0.020	0.023	0.017	0.013	0.015	0.019	0.013
c	144	0.019	0.015	0.020	0.011	0.016	0.019	0.020	0.013	0.021	0.020	0.022	0.016	0.011	0.014	0.018	0.013
c	145	0.019	0.015	0.020	0.011	0.016	0.019	0.020	0.013	0.021	0.020	0.022	0.016	0.011	0.014	0.018	0.013
c	146	0.020	0.015	0.022	0.013	0.017	0.020	0.020	0.013	0.021	0.020	0.023	0.017	0.013	0.015	0.019	0.015
c	147	0.022	0.017	0.025	0.013	0.019	0.022	0.022	0.015	0.023	0.023	0.026	0.020	0.013	0.017	0.021	0.017
c	148	0.019	0.015	0.020	0.011	0.016	0.019	0.020	0.013	0.021	0.020	0.022	0.016	0.011	0.014	0.018	0.013
c	149	0.022	0.015	0.022	0.013	0.017	0.022	0.020	0.015	0.023	0.023	0.023	0.017	0.013	0.015	0.019	0.015
c	150	0.036	0.025	0.036	0.022	0.030	0.037	0.039	0.024	0.038	0.039	0.043	0.033	0.022	0.028	0.034	0.026
c	151	0.024	0.017	0.025	0.015	0.021	0.024	0.025	0.017	0.026	0.026	0.028	0.020	0.015	0.017	0.021	0.017
c	152	0.020	0.015	0.020	0.011	0.017	0.020	0.020	0.013	0.021	0.020	0.023	0.017	0.011	0.015	0.019	0.013
c	153	0.019	0.015	0.020	0.011	0.016	0.019	0.020	0.013	0.021	0.020	0.022	0.016	0.011	0.014	0.018	0.013
c	154	0.031	0.023	0.036	0.020	0.025	0.032	0.035	0.022	0.035	0.036	0.043	0.027	0.019	0.024	0.031	0.022
c	155	0.022	0.017	0.025	0.013	0.019	0.022	0.022	0.015	0.023	0.023	0.026	0.017	0.013	0.017	0.021	0.015
c	156	0.020	0.015	0.020	0.011	0.016	0.019	0.020	0.013	0.021	0.020	0.022	0.016	0.011	0.015	0.018	0.013
c	157	0.020	0.015	0.020	0.011	0.017	0.020	0.020	0.013	0.021	0.020	0.023	0.016	0.011	0.015	0.019	0.013
c	158	0.022	0.015	0.022	0.013	0.017	0.022	0.022	0.015	0.023	0.023	0.026	0.017	0.013	0.015	0.019	0.015
c	159	0.022	0.015	0.022	0.013	0.019	0.022	0.022	0.015	0.023	0.023	0.026	0.017	0.013	0.015	0.021	0.015
c	160	0.019	0.015	0.020	0.011	0.016	0.019	0.020	0.013	0.021	0.020	0.022	0.016	0.011	0.014	0.018	0.013
c	161	0.020	0.015	0.022	0.013	0.019	0.022	0.022	0.015	0.023	0.023	0.023	0.017	0.013	0.017	0.019	0.015
c	162	0.022	0.015	0.022	0.013	0.019	0.022	0.020	0.015	0.023	0.023	0.023	0.017	0.013	0.017	0.019	0.015
c	163	0.024	0.017	0.027	0.015	0.021	0.024	0.025	0.017	0.026	0.026	0.028	0.022	0.015	0.019	0.023	0.018
c	164	0.031	0.020	0.030	0.017	0.025	0.032	0.029	0.020	0.029	0.032	0.034	0.025	0.019	0.021	0.029	0.020
c	165	0.022	0.017	0.022	0.013	0.019	0.022	0.022	0.015	0.023	0.023	0.026	0.017	0.013	0.015	0.019	0.015
c	166	0.020	0.015	0.020	0.011	0.017	0.020	0.020	0.013	0.021	0.020	0.023	0.016	0.011	0.015	0.019	0.013
c	167	0.022	0.015	0.022	0.013	0.017	0.022	0.022	0.015	0.023	0.023	0.026	0.017	0.013	0.015	0.019	0.015
c	168	0.048	0.036	0.049	0.030	0.042	0.050	0.051	0.031	0.054	0.054	0.057	0.041	0.028	0.033	0.044	0.031
c	169	0.020	0.015	0.022	0.013	0.017	0.020	0.020	0.015	0.023	0.020	0.023	0.017	0.013	0.015	0.019	0.015
c	170	0.024	0.017	0.025	0.013	0.019	0.024	0.022	0.015	0.026	0.023	0.028	0.020	0.015	0.017	0.021	0.017
c	171	0.058	0.045	0.060	0.036	0.051	0.064	0.063	0.041	0.063	0.063	0.067	0.051	0.037	0.043	0.055	0.038
c	172	0.072	0.057	0.080	0.040	0.060	0.075	0.084	0.050	0.087	0.089	0.091	0.062	0.041	0.050	0.070	0.041
c	173	0.031	0.023	0.036	0.017	0.025	0.032	0.032	0.022	0.035	0.036	0.037	0.027	0.019	0.024	0.029	0.020
c	174	0.026	0.020	0.027	0.015	0.023	0.027	0.025	0.017	0.026	0.026	0.031	0.022	0.017	0.021	0.023	0.018
c	175	0.020	0.015	0.022	0.013	0.017	0.020	0.020	0.015	0.023	0.020	0.023	0.017	0.013	0.015	0.019	0.015
c	176	0.024	0.017	0.027	0.015	0.021	0.024	0.025	0.017	0.026	0.026	0.031	0.022	0.015	0.017	0.023	0.017
c	177	0.031	0.025	0.039	0.020	0.028	0.032	0.035	0.022	0.038	0.036	0.043	0.027	0.019	0.024	0.031	0.022
c	178	0.019	0.015	0.020	0.011	0.016	0.019	0.020	0.013	0.021	0.020	0.022	0.016	0.011	0.014	0.018	0.013
c	179	0.019	0.014	0.020	0.011	0.016	0.019	0.019	0.013	0.021	0.020	0.022	0.016	0.011	0.014	0.018	0.013
c	180	0.019	0.014	0.020	0.011	0.016	0.019	0.019	0.013	0.020	0.019	0.022	0.016	0.011	0.014	0.018	0.013
c	181	0.019	0.015	0.020	0.011	0.016	0.019	0.020	0.013	0.021	0.020	0.022	0.016	0.011	0.014	0.018	0.013
c	182	0.019	0.015	0.020	0.011	0.016	0.019	0.020	0.013	0.021	0.020	0.022	0.016	0.011	0.014	0.018	0.013
c	183	0.020	0.017	0.022	0.013	0.019	0.022	0.020	0.015	0.023	0.020	0.026	0.017	0.015	0.017	0.021	0.017
c	184	0.024	0.017	0.025	0.015	0.021	0.024	0.025	0.017	0.026	0.026	0.028	0.020	0.015	0.017	0.023	0.017
c	185	0.026	0.020	0.030	0.017	0.023	0.027	0.029	0.020	0.029	0.029	0.034	0.025	0.017	0.021	0.026	0.020
c	186	0.019	0.015	0.020	0.011	0.016	0.019	0.020	0.013	0.021	0.020	0.022	0.016	0.011	0.014	0.018	0.013
c	187	0.024	0.017	0.025	0.015	0.019	0.024	0.022	0.017	0.023	0.023	0.026	0.020	0.015	0.017	0.021	0.017
c	188	0.028	0.020	0.030	0.017	0.023	0.029	0.029	0.020	0.029	0.029	0.034	0.025	0.017	0.021	0.026	0.020
c	189	0.024	0.017	0.025	0.015	0.019	0.024	0.022	0.017	0.023	0.023	0.028	0.020	0.015	0.017	0.023	0.018
c	190	0.022	0.017	0.022	0.013	0.019	0.022	0.022	0.015	0.023	0.023	0.026	0.020	0.015	0.017	0.021	0.017
c	191	0.022	0.015	0.022	0.013	0.017	0.022	0.022	0.015	0.023	0.023	0.026	0.017	0.013	0.015	0.019	0.015
c	192	0.024	0.017	0.027	0.015	0.021	0.024	0.025	0.017	0.026	0.026	0.028	0.022	0.015	0.019	0.023	0.018
c	193	0.024	0.017	0.027	0.015	0.021	0.024	0.025	0.017	0.026	0.026	0.031	0.022	0.017	0.019	0.023	0.018
c	194	0.019	0.015	0.020	0.011	0.016	0.019	0.020	0.013	0.021	0.020	0.022	0.016	0.011	0.014	0.018	0.013
c	195	0.019	0.015	0.020	0.011	0.017	0.020	0.020	0.013	0.021	0.020	0.022	0.016	0.011	0.015	0.018	0.013
c	196	0.019	0.015	0.020	0.011	0.016	0.019	0.020	0.013	0.021	0.020	0.022	0.016	0.011	0.014	0.018	0.013
c	197	0.020	0.015	0.020	0.011	0.017	0.020	0.020	0.013	0.021	0.020	0.022	0.016	0.011	0.015	0.018	0.013
c	198	0.019	0.015	0.020	0.011	0.016	0.019	0.020	0.013	0.021	0.020	0.022	0.016	0.011	0.014	0.018	0.013
c	199	0.020	0.015	0.020	0.011	0.017	0.020	0.020	0.013	0.021	0.020	0.023	0.017	0.013	0.015	0.019	0.013
c	200	0.022	0.017	0.025	0.013	0.019	0.022	0.022	0.015	0.023	0.023	0.026	0.020	0.013	0.017	0.021	0.017
c	201	0.022	0.015	0.022	0.013	0.019	0.022	0.022	0.015	0.023	0.023	0.026	0.017	0.013	0.017	0.021	0.017
c	202	0.020	0.015	0.022	0.011	0.017	0.020	0.020	0.013	0.021	0.020	0.023	0.017	0.013	0.015	0.019	0.015
c	203	0.020	0.015	0.022	0.013	0.017	0.020	0.022	0.015	0.023	0.023	0.026	0.017	0.013	0.015	0.019	0.015
c	204	0.028	0.023	0.039	0.022	0.028	0.034	0.035	0.022	0.038	0.036	0.043	0.030	0.022	0.028	0.034	0.022
c	205	0.020	0.015	0.022	0.013	0.017	0.020	0.022	0.015	0.023	0.023	0.026	0.017	0.013	0.015	0.019	0.015
c	206	0.020	0.015	0.022	0.013	0.017	0.022	0.022	0.015	0.023	0.023	0.026	0.017	0.013	0.015	0.019	0.015
c	207	0.022	0.015	0.022	0.013	0.017	0.022	0.022	0.015	0.023	0.023	0.026	0.017	0.013	0.015	0.019	0.015
c	208	0.020	0.015	0.022	0.013	0.017	0.020	0.020	0.013	0.021	0.023	0.023	0.017	0.013	0.015	0.019	0.013
c	209	0.022	0.015	0.022	0.013	0.019	0.022	0.022	0.015	0.023	0.023	0.026	0.017	0.013	0.017	0.021	0.015
c	210	0.028	0.020	0.030	0.017	0.023	0.029	0.029	0.020	0.029	0.029	0.034	0.025	0.017	0.021	0.026	0.018
c	211	0.020	0.015	0.022	0.011	0.017	0.020	0.020	0.013	0.021	0.020	0.023	0.017	0.011	0.015	0.019	0.013
c	212	0.020	0.015	0.020	0.011	0.016	0.020	0.020	0.013	0.021	0.020	0.023	0.016	0.011	0.014	0.018	0.013
c	213	0.022	0.015	0.022	0.013	0.017	0.020	0.022	0.015	0.023	0.023	0.023	0.017	0.013	0.015	0.019	0.015
c	214	0.022	0.017	0.025	0.013	0.019	0.022	0.022	0.015	0.023	0.023	0.026	0.017	0.013	0.017	0.021	0.015
c	215	0.020	0.015	0.022	0.011	0.017	0.020	0.020	0.013	0.021	0.020	0.023	0.017	0.011	0.015	0.019	0.013
c	216	0.024	0.017	0.025	0.015	0.021	0.024	0.022	0.015	0.026	0.023	0.028	0.020	0.015	0.017	0.023	0.017
c	217	0.022	0.017	0.025	0.013	0.019	0.022	0.022	0.015	0.026	0.026	0.028	0.020	0.013	0.017	0.021	0.015
c	218	0.028	0.020	0.030	0.015	0.023	0.029	0.029	0.020	0.032	0.029	0.034	0.022	0.017	0.021	0.026	0.018
c	219	0.020	0.015	0.022	0.011	0.017	0.020	0.020	0.013	0.021	0.020	0.023	0.017	0.013	0.015	0.019	0.013
c	220	0.022	0.015	0.022	0.013	0.019	0.022	0.022	0.015	0.023	0.023	0.023	0.017	0.013	0.017	0.021	0.015
c	221	0.031	0.023	0.036	0.020	0.028	0.032	0.032	0.022	0.035	0.036	0.040	0.027	0.019	0.024	0.031	0.020
c	222	0.028	0.023	0.033	0.020	0.025	0.032	0.032	0.022	0.035	0.029	0.037	0.027	0.019	0.024	0.029	0.022
c	223	0.020	0.015	0.022	0.011	0.017	0.020	0.020	0.013	0.021	0.020	0.023	0.017	0.013	0.015	0.019	0.015
c	224	0.031	0.023	0.033	0.020	0.028	0.032	0.032	0.022	0.032	0.032	0.037	0.027	0.019	0.026	0.029	0.022
c	225	0.043	0.034	0.042	0.025	0.035	0.045	0.045	0.029	0.048	0.046	0.049	0.036	0.026	0.033	0.039	0.026
c	226	0.036	0.025	0.036	0.020	0.028	0.037	0.035	0.024	0.038	0.036	0.040	0.027	0.022	0.024	0.031	0.024
c	227	0.031	0.023	0.033	0.017	0.025	0.032	0.032	0.020	0.035	0.032	0.037	0.025	0.017	0.021	0.029	0.018
c	228	0.024	0.017	0.025	0.013	0.019	0.024	0.022	0.015	0.023	0.023	0.026	0.020	0.015	0.017	0.021	0.017
c	229	0.024	0.020	0.027	0.015	0.021	0.024	0.025	0.017	0.029	0.026	0.031	0.022	0.015	0.019	0.023	0.017
c	230	0.031	0.023	0.036	0.017	0.025	0.032	0.035	0.022	0.038	0.036	0.040	0.027	0.019	0.024	0.029	0.020
c	231	0.019	0.015	0.020	0.011	0.016	0.019	0.020	0.013	0.021	0.020	0.022	0.016	0.011	0.014	0.018	0.013
c	232	0.020	0.017	0.022	0.013	0.017	0.020	0.020	0.015	0.023	0.023	0.023	0.017	0.013	0.015	0.019	0.015
c	233	0.048	0.036	0.049	0.027	0.042	0.052	0.051	0.031	0.054	0.052	0.057	0.041	0.028	0.037	0.044	0.030
c	234	0.024	0.017	0.025	0.015	0.021	0.024	0.022	0.017	0.026	0.023	0.026	0.020	0.015	0.017	0.021	0.017
c	235	0.036	0.025	0.039	0.020	0.030	0.034	0.039	0.024	0.038	0.039	0.043	0.030	0.022	0.026	0.034	0.022
c	236	0.040	0.031	0.044	0.025	0.035	0.045	0.042	0.029	0.045	0.043	0.049	0.038	0.026	0.033	0.039	0.028
c	237	0.022	0.017	0.022	0.013	0.019	0.022	0.022	0.015	0.023	0.023	0.026	0.017	0.013	0.017	0.021	0.015
c	238	0.022	0.017	0.025	0.013	0.019	0.022	0.022	0.015	0.023	0.023	0.026	0.020	0.013	0.017	0.021	0.015
c	239	0.024	0.017	0.025	0.015	0.019	0.024	0.025	0.017	0.026	0.026	0.028	0.020	0.015	0.017	0.023	0.017
c	240	0.022	0.015	0.022	0.013	0.017	0.022	0.022	0.015	0.023	0.023	0.023	0.017	0.013	0.015	0.019	0.015
c	241	0.020	0.015	0.022	0.011	0.017	0.020	0.020	0.013	0.021	0.020	0.023	0.016	0.011	0.015	0.019	0.013
c	242	0.020	0.015	0.022	0.013	0.017	0.020	0.022	0.013	0.023	0.020	0.023	0.017	0.013	0.015	0.019	0.013
c	243	0.024	0.020	0.030	0.015	0.021	0.027	0.029	0.017	0.029	0.029	0.034	0.022	0.015	0.019	0.026	0.018
c	244	0.019	0.015	0.020	0.011	0.016	0.019	0.020	0.013	0.021	0.020	0.023	0.016	0.011	0.014	0.018	0.013
c	245	0.019	0.015	0.020	0.011	0.016	0.019	0.020	0.013	0.021	0.020	0.023	0.016	0.011	0.014	0.018	0.013
c	246	0.026	0.023	0.033	0.017	0.025	0.029	0.032	0.020	0.032	0.029	0.037	0.027	0.019	0.021	0.029	0.020
c	247	0.026	0.020	0.030	0.017	0.023	0.029	0.032	0.020	0.032	0.029	0.034	0.025	0.017	0.024	0.029	0.020
c	248	0.024	0.020	0.030	0.015	0.021	0.027	0.025	0.017	0.029	0.026	0.031	0.022	0.015	0.019	0.026	0.017
c	249	0.028	0.023	0.033	0.017	0.025	0.029	0.032	0.020	0.032	0.029	0.034	0.025	0.019	0.021	0.029	0.020
c	250	0.019	0.015	0.020	0.011	0.016	0.019	0.020	0.013	0.021	0.020	0.022	0.016	0.011	0.014	0.018	0.013
c	251	0.024	0.020	0.027	0.015	0.021	0.024	0.025	0.017	0.029	0.026	0.031	0.022	0.015	0.019	0.023	0.017
c	252	0.020	0.015	0.022	0.011	0.017	0.020	0.020	0.013	0.021	0.020	0.023	0.017	0.011	0.015	0.019	0.013
c	253	0.020	0.015	0.022	0.011	0.017	0.020	0.020	0.013	0.021	0.020	0.023	0.016	0.011	0.015	0.019	0.013
c	254	0.020	0.015	0.022	0.011	0.017	0.020	0.020	0.013	0.021	0.020	0.023	0.017	0.011	0.015	0.019	0.013
c	255	0.019	0.015	0.020	0.011	0.016	0.019	0.020	0.013	0.021	0.020	0.022	0.016	0.011	0.014	0.018	0.013
c	256	0.028	0.023	0.033	0.017	0.025	0.029	0.032	0.022	0.032	0.032	0.037	0.027	0.019	0.021	0.029	0.022
c	257	0.019	0.015	0.020	0.011	0.016	0.019	0.020	0.013	0.021	0.020	0.022	0.016	0.011	0.014	0.018	0.013
c	258	0.020	0.015	0.022	0.013	0.017	0.020	0.022	0.015	0.023	0.020	0.026	0.017	0.013	0.015	0.019	0.015
c	259	0.040	0.031	0.044	0.025	0.035	0.042	0.042	0.029	0.045	0.043	0.046	0.036	0.026	0.031	0.039	0.028
c	260	0.028	0.023	0.036	0.020	0.025	0.029	0.032	0.022	0.035	0.032	0.037	0.027	0.019	0.024	0.031	0.022
c	261	0.031	0.025	0.039	0.020	0.028	0.034	0.035	0.022	0.038	0.036	0.040	0.030	0.019	0.024	0.034	0.022
c	262	0.031	0.025	0.039	0.020	0.028	0.034	0.035	0.022	0.038	0.036	0.043	0.030	0.019	0.024	0.031	0.020
c	263	0.022	0.017	0.025	0.013	0.019	0.022	0.022	0.015	0.023	0.023	0.026	0.020	0.013	0.017	0.021	0.015
c	264	0.033	0.028	0.042	0.020	0.030	0.034	0.039	0.024	0.042	0.036	0.046	0.030	0.022	0.026	0.034	0.022
c	265	0.028	0.023	0.033	0.017	0.023	0.029	0.029	0.020	0.035	0.029	0.037	0.025	0.017	0.021	0.029	0.018
c	266	0.026	0.023	0.030	0.015	0.023	0.027	0.029	0.020	0.032	0.029	0.034	0.022	0.015	0.019	0.026	0.017
c	267	0.028	0.025	0.036	0.017	0.025	0.029	0.032	0.022	0.035	0.032	0.040	0.027	0.019	0.024	0.031	0.020
c	268	0.024	0.020	0.027	0.015	0.021	0.024	0.025	0.017	0.026	0.026	0.031	0.020	0.015	0.017	0.023	0.017
c	269	0.022	0.017	0.025	0.013	0.019	0.022	0.022	0.015	0.023	0.023	0.026	0.020	0.013	0.017	0.021	0.015
c	270	0.022	0.017	0.025	0.015	0.021	0.022	0.022	0.015	0.026	0.023	0.026	0.020	0.015	0.017	0.021	0.017
c	271	0.024	0.020	0.027	0.015	0.021	0.024	0.025	0.017	0.026	0.026	0.028	0.022	0.017	0.019	0.023	0.018
c	272	0.020	0.015	0.022	0.011	0.017	0.020	0.020	0.013	0.021	0.020	0.023	0.017	0.013	0.015	0.019	0.015
c	273	0.022	0.017	0.022	0.013	0.019	0.022	0.022	0.015	0.023	0.023	0.026	0.017	0.013	0.017	0.019	0.015
c	274	0.020	0.015	0.022	0.013	0.017	0.020	0.020	0.015	0.023	0.020	0.023	0.017	0.013	0.015	0.019	0.015
c	275	0.038	0.031	0.047	0.025	0.037	0.042	0.042	0.027	0.045	0.043	0.051	0.038	0.028	0.031	0.039	0.028
c	276	0.022	0.017	0.025	0.013	0.019	0.022	0.022	0.015	0.026	0.023	0.028	0.020	0.015	0.017	0.021	0.017
c	277	0.031	0.028	0.039	0.022	0.030	0.034	0.032	0.024	0.038	0.036	0.043	0.030	0.022	0.026	0.034	0.024
c	278	0.038	0.034	0.044	0.025	0.035	0.042	0.045	0.027	0.045	0.043	0.051	0.036	0.026	0.031	0.042	0.030
c	279	0.033	0.028	0.036	0.022	0.030	0.034	0.035	0.024	0.035	0.036	0.040	0.030	0.022	0.026	0.034	0.024
c	280	0.028	0.023	0.030	0.017	0.025	0.029	0.029	0.020	0.032	0.029	0.034	0.025	0.019	0.021	0.029	0.020
c	281	0.026	0.023	0.033	0.017	0.025	0.029	0.029	0.020	0.032	0.029	0.034	0.025	0.019	0.024	0.029	0.020
c	282	0.024	0.020	0.030	0.015	0.021	0.024	0.025	0.017	0.029	0.026	0.031	0.022	0.017	0.019	0.026	0.018
c	283	0.026	0.023	0.033	0.020	0.025	0.029	0.029	0.020	0.032	0.029	0.034	0.027	0.019	0.021	0.029	0.022
c	284	0.043	0.036	0.052	0.030	0.039	0.045	0.045	0.031	0.051	0.049	0.057	0.041	0.030	0.035	0.044	0.031
c	285	0.050	0.045	0.057	0.038	0.051	0.057	0.051	0.041	0.054	0.052	0.059	0.051	0.043	0.045	0.055	0.043
c	286	0.060	0.054	0.067	0.044	0.058	0.071	0.071	0.048	0.071	0.068	0.075	0.064	0.045	0.056	0.066	0.045
c	287	0.052	0.042	0.057	0.036	0.047	0.055	0.051	0.039	0.054	0.052	0.062	0.051	0.039	0.042	0.053	0.040
c	288	0.084	0.078	0.103	0.057	0.077	0.093	0.109	0.066	0.108	0.099	0.114	0.094	0.058	0.070	0.089	0.052
c	289	0.063	0.051	0.067	0.046	0.055	0.068	0.071	0.048	0.068	0.071	0.075	0.059	0.045	0.054	0.068	0.046
c	290	0.053	0.042	0.057	0.038	0.048	0.059	0.066	0.041	0.056	0.063	0.067	0.054	0.041	0.045	0.061	0.043
c	291	0.028	0.023	0.033	0.017	0.023	0.029	0.032	0.020	0.032	0.032	0.037	0.027	0.019	0.021	0.029	0.020
c	292	0.038	0.031	0.047	0.025	0.032	0.042	0.045	0.027	0.048	0.043	0.051	0.038	0.026	0.031	0.039	0.028
c	293	0.026	0.020	0.030	0.020	0.023	0.029	0.032	0.020	0.029	0.029	0.034	0.027	0.019	0.024	0.029	0.022
c	294	0.028	0.023	0.033	0.020	0.025	0.029	0.032	0.020	0.032	0.032	0.037	0.027	0.019	0.024	0.031	0.022
c	295	0.024	0.017	0.027	0.015	0.021	0.024	0.025	0.017	0.026	0.026	0.031	0.022	0.015	0.017	0.023	0.017
c	296	0.024	0.020	0.027	0.015	0.021	0.027	0.025	0.017	0.026	0.026	0.031	0.022	0.017	0.019	0.026	0.018
c	297	0.026	0.020	0.027	0.017	0.023	0.027	0.025	0.017	0.026	0.029	0.031	0.022	0.017	0.021	0.026	0.020
c	298	0.036	0.025	0.039	0.022	0.032	0.040	0.042	0.024	0.038	0.043	0.046	0.033	0.024	0.028	0.037	0.026
c	299	0.022	0.015	0.022	0.013	0.019	0.022	0.022	0.015	0.023	0.023	0.026	0.017	0.013	0.015	0.021	0.015
c	300	0.026	0.020	0.033	0.017	0.023	0.027	0.029	0.020	0.032	0.029	0.034	0.025	0.017	0.021	0.029	0.020
c	301	0.026	0.020	0.033	0.017	0.025	0.029	0.032	0.020	0.032	0.032	0.037	0.025	0.019	0.024	0.029	0.020
c	302	0.036	0.025	0.047	0.022	0.032	0.040	0.045	0.024	0.045	0.049	0.054	0.036	0.022	0.028	0.039	0.024
c	303	0.048	0.039	0.060	0.030	0.042	0.052	0.058	0.034	0.060	0.060	0.067	0.046	0.028	0.035	0.050	0.031
c	304	0.022	0.017	0.027	0.015	0.019	0.024	0.025	0.015	0.026	0.026	0.028	0.020	0.015	0.017	0.023	0.017
c	305	0.026	0.023	0.033	0.017	0.025	0.032	0.032	0.020	0.032	0.032	0.037	0.025	0.017	0.021	0.029	0.018
c	306	0.022	0.017	0.025	0.013	0.019	0.022	0.022	0.015	0.023	0.023	0.026	0.017	0.013	0.017	0.021	0.015
c	307	0.022	0.017	0.027	0.013	0.019	0.022	0.022	0.015	0.026	0.023	0.028	0.020	0.013	0.017	0.021	0.015
c	308	0.028	0.023	0.039	0.017	0.025	0.032	0.035	0.020	0.038	0.036	0.040	0.027	0.017	0.024	0.031	0.018
c	309	0.081	0.067	0.101	0.046	0.070	0.088	0.097	0.059	0.108	0.099	0.108	0.070	0.044	0.063	0.078	0.043
c	310	0.109	0.101	0.137	0.061	0.096	0.116	0.143	0.083	0.149	0.142	0.147	0.103	0.059	0.078	0.113	0.052
c	311	0.063	0.057	0.079	0.034	0.051	0.066	0.080	0.044	0.084	0.076	0.086	0.057	0.034	0.042	0.063	0.033
c	312	0.123	0.111	0.150	0.065	0.102	0.136	0.160	0.091	0.167	0.165	0.158	0.111	0.064	0.084	0.122	0.052
c	313	0.084	0.069	0.095	0.048	0.067	0.084	0.101	0.060	0.106	0.099	0.103	0.075	0.045	0.061	0.078	0.045
c	314	0.056	0.045	0.060	0.030	0.044	0.057	0.061	0.037	0.066	0.057	0.067	0.048	0.030	0.037	0.050	0.031
c	315	0.108	0.095	0.116	0.058	0.086	0.107	0.129	0.073	0.131	0.118	0.130	0.099	0.058	0.077	0.095	0.052
c	316	0.105	0.091	0.115	0.054	0.081	0.105	0.129	0.071	0.133	0.124	0.129	0.091	0.054	0.066	0.095	0.050
