RESNR	RESTYPE	RESCHAIN	RESNR_LIG	RESTYPE_LIG	RESCHAIN_LIG	SIDECHAIN	DIST_H-A	DIST_D-A	DON_ANGLE	PROTISDON	DONORIDX	DONORTYPE	ACCEPTORIDX	ACCEPTORTYPE	LIGCOO	PROTCOO
71	ARG	A	113	G	E	True	3.02	3.90	149.12	True	579	Ng+	1483	O3	(19.448, 15.729, 62.5)	(18.347, 14.704, 66.099)
71	ARG	A	114	G	E	True	3.48	3.98	113.93	True	580	Ng+	1506	O3	(21.848, 14.706, 68.8)	(18.532, 12.896, 67.532)
63	GLU	A	113	G	E	True	2.94	3.69	134.75	False	1475	O3	508	O3	(24.49, 19.775, 59.26)	(23.079, 20.037, 55.858)
68	GLN	A	114	G	E	True	3.45	4.03	120.09	False	1497	O3	552	O2	(20.968, 20.23, 64.225)	(17.61, 21.077, 62.169)
71	ARG	A	113	G	E	True	2.74	3.69	163.17	False	1493	Npl	577	Ng+	(21.554, 10.983, 64.645)	(18.273, 12.554, 65.274)
