RESNR	RESTYPE	RESCHAIN	RESNR_LIG	RESTYPE_LIG	RESCHAIN_LIG	SIDECHAIN	DIST_H-A	DIST_D-A	DON_ANGLE	PROTISDON	DONORIDX	DONORTYPE	ACCEPTORIDX	ACCEPTORTYPE	LIGCOO	PROTCOO
73	ARG	P	128	U	3	True	2.74	3.66	154.49	True	4306	Ng+	5191	O3	(-89.394, 21.653, -27.458)	(-92.053, 19.95, -29.301)
37	HIS	P	129	U	3	True	1.83	2.65	138.64	True	4006	Nar	5211	O3	(-88.505, 17.965, -34.016)	(-87.837, 20.493, -34.418)
75	GLU	P	129	U	3	False	2.25	3.13	148.45	True	4311	Nam	5215	O2	(-92.219, 19.079, -33.577)	(-93.809, 16.622, -34.683)
39	ASN	P	129	U	3	True	1.95	2.90	162.76	True	4025	Nam	5218	O2	(-91.52, 23.404, -32.493)	(-92.38, 23.408, -35.264)
73	ARG	P	129	U	3	True	3.22	3.59	104.32	True	4305	Ng+	5218	O2	(-91.52, 23.404, -32.493)	(-93.432, 21.602, -30.048)
22	GLN	P	134	U	3	True	3.06	3.53	110.83	True	3885	Nam	5316	O3	(-97.904, 7.934, -30.863)	(-96.628, 9.863, -33.528)
39	ASN	P	129	U	3	True	2.16	3.10	158.22	False	5216	Nar	4024	O2	(-91.835, 21.236, -32.99)	(-93.94, 21.8, -35.192)
