RESNR	RESTYPE	RESCHAIN	RESNR_LIG	RESTYPE_LIG	RESCHAIN_LIG	PROT_IDX_LIST	CENTDIST	ANGLE	OFFSET	TYPE	LIG_IDX_LIST	LIGCOO	PROTCOO
37	HIS	P	129	U	3	4005,4006,4007,4008,4009	3.52	3.58	1.01	P	5213,5214,5216,5217,5219,5220	(-90.77333333333333, 20.88, -32.294333333333334)	(-87.97560000000001, 21.606, -34.2956)
37	HIS	P	130	G	3	4005,4006,4007,4008,4009	4.84	66.50	1.81	T	5236,5237,5239,5240,5242,5243	(-84.12816666666667, 18.72583333333333, -33.708666666666666)	(-87.97560000000001, 21.606, -34.2956)
