RESNR	RESTYPE	RESCHAIN	PROT_IDX_LIST	RESNR_LIG	RESTYPE_LIG	RESCHAIN_LIG	DIST	OFFSET	PROTCHARGED	LIG_GROUP	LIG_IDX_LIST	LIGCOO	PROTCOO
395	TRP	w	9899,9900,9901,9902,9903	132	G	G	4.38	1.01	False	guanidine	4663,4665,4666	(315.508, 233.058, 308.663)	(315.746, 228.88899999999998, 307.3326)
395	TRP	w	9901,9903,9904,9905,9906,9907	132	G	G	4.51	1.67	False	guanidine	4663,4665,4666	(315.508, 233.058, 308.663)	(313.60883333333334, 229.2156666666667, 307.27349999999996)
