RESNR	RESTYPE	RESCHAIN	RESNR_LIG	RESTYPE_LIG	RESCHAIN_LIG	SIDECHAIN	DIST_H-A	DIST_D-A	DON_ANGLE	PROTISDON	DONORIDX	DONORTYPE	ACCEPTORIDX	ACCEPTORTYPE	LIGCOO	PROTCOO
406	TYR	9	57	A	2	True	3.28	3.83	119.05	True	1001	O3	665	O3	(215.806, 182.007, 188.921)	(215.8, 178.18, 188.838)
403	ASN	9	59	A	2	True	2.30	3.09	136.40	True	973	Nam	698	O2	(218.578, 184.062, 180.783)	(217.972, 181.732, 178.852)
398	LYS	9	58	U	2	False	3.09	3.67	120.03	False	687	O3	930	O2	(214.528, 184.341, 183.599)	(212.977, 185.435, 180.46)
