RESNR	RESTYPE	RESCHAIN	PROT_IDX_LIST	RESNR_LIG	RESTYPE_LIG	RESCHAIN_LIG	DIST	PROTISPOS	LIG_GROUP	LIG_IDX_LIST	LIGCOO	PROTCOO
175	ARG	B	4514,4516,4517	6	U	D	4.90	True	Phosphate	7142,7142,7144,7145,7130,7143	(-47.944, -43.365, -1.29)	(-47.71866666666667, -38.550666666666665, -0.4026666666666667)
175	ARG	B	4514,4516,4517	7	U	D	4.80	True	Phosphate	7162,7162,7150,7163,7164,7165	(-43.388, -40.269, 0.735)	(-47.71866666666667, -38.550666666666665, -0.4026666666666667)
225	ARG	B	4891,4893,4894	8	U	D	4.70	True	Phosphate	7182,7182,7184,7185,7170,7183	(-43.79, -34.147, -0.732)	(-43.29866666666667, -34.03633333333334, 3.938333333333334)
349	LYS	B	5918	5	U	D	5.40	True	Phosphate	7122,7122,7123,7124,7125,7110	(-51.269, -45.364, -6.655)	(-50.064, -42.037, -10.737)
349	LYS	B	5918	4	U	D	4.72	True	Phosphate	7102,7102,7090,7104,7105,7103	(-50.966, -46.306, -12.53)	(-50.064, -42.037, -10.737)
378	ARG	B	6159,6161,6162	6	U	D	4.29	True	Phosphate	7142,7142,7144,7145,7130,7143	(-47.944, -43.365, -1.29)	(-51.73766666666666, -41.428000000000004, -0.7560000000000001)
