RESNR	RESTYPE	RESCHAIN	PROT_IDX_LIST	RESNR_LIG	RESTYPE_LIG	RESCHAIN_LIG	DIST	PROTISPOS	LIG_GROUP	LIG_IDX_LIST	LIGCOO	PROTCOO
175	ARG	A	1010,1012,1013	6	C	B	4.90	True	Phosphate	3480,3480,3481,3482,3483,3466	(48.693, -30.332, -35.233)	(50.78733333333333, -33.54333333333333, -38.28666666666667)
175	ARG	A	1010,1012,1013	7	C	B	4.79	True	Phosphate	3500,3500,3488,3501,3502,3503	(54.178, -32.468, -35.079)	(50.78733333333333, -33.54333333333333, -38.28666666666667)
225	ARG	A	1387,1389,1390	8	U	B	4.65	True	Phosphate	3520,3520,3521,3522,3523,3508	(54.735, -37.867, -37.809)	(57.95233333333334, -35.393, -40.08133333333333)
349	LYS	A	2414	4	C	B	4.94	True	Phosphate	3438,3438,3424,3440,3441,3439	(39.082, -34.283, -29.837)	(41.933, -36.94, -32.877)
378	ARG	A	2655,2657,2658	6	C	B	4.26	True	Phosphate	3480,3480,3481,3482,3483,3466	(48.693, -30.332, -35.233)	(46.766999999999996, -30.865, -38.99166666666667)
