#Chain_ID	ResNum_ResIcode	Propensity
U	2	0.01414
U	3	0.13419
U	4	0.14472
U	5	0.06377
U	6	0.05668
U	7	0.12648
U	8	0.11574
U	9	0.11800
U	10	0.24561
U	11	0.42445
U	12	0.08267
U	13	0.05430
U	14	0.04690
U	15	0.06815
U	16	0.20063
U	17	0.02417
U	18	0.16165
U	19	0.04494
U	20	0.20551
U	21	0.27954
U	22	0.02644
U	23	0.09712
U	24	0.01261
U	25	0.05452
U	26	0.04733
U	27	0.17787
U	28	0.04899
U	29	0.01412
U	30	0.08255
U	31	0.01097
U	32	0.03675
U	33	0.03792
U	34	0.03138
U	35	0.01649
U	36	0.02146
U	37	0.01081
U	38	0.00484
U	39	0.00422
U	40	0.00354
U	41	0.08068
U	42	0.07626
U	43	0.18852
U	44	0.00789
U	45	0.03162
U	46	0.06138
U	47	0.03386
U	48	0.05593
U	49	0.17936
U	50	0.23439
U	51	0.01430
U	52	0.01382
U	53	0.00356
U	54	0.14292
U	55	0.11785
U	56	0.04816
U	57	0.00938
U	58	0.01881
U	59	0.03478
U	60	0.03833
U	61	0.08844
U	62	0.06979
U	63	0.02719
U	64	0.02018
U	65	0.01924
U	66	0.03685
U	67	0.13519
U	68	0.23233
U	69	0.89543
U	70	0.61187
U	71	0.56675
U	72	0.36145
U	73	0.48976
U	74	0.60015
U	75	0.33363
U	76	0.51744
U	77	0.64970
U	78	0.84234
U	79	0.79859
U	80	0.72627
U	81	0.53917
U	82	0.67479
U	83	0.72625
U	84	0.61911
U	85	0.40013
U	86	0.86760
U	87	0.40390
U	88	0.72682
U	89	0.88651
U	90	0.80683
U	91	0.59940
U	92	0.68491
U	93	0.82497
U	94	0.29928
U	95	0.14083
U	96	0.34282
U	97	0.10875
U	98	0.04216
U	99	0.01233
U	100	0.01252
U	101	0.01948
U	102	0.01408
U	103	0.01186
U	104	0.03115
U	105	0.03332
U	106	0.01331
U	107	0.00740
U	108	0.03991
U	109	0.02003
U	110	0.04633
U	111	0.52577
U	112	0.14759
U	126	0.12355
U	127	0.35734
U	128	0.16625
U	129	0.11509
U	130	0.03675
U	131	0.04008
U	132	0.08419
U	133	0.02936
U	134	0.17734
U	135	0.20480
U	136	0.14674
U	137	0.37488
U	138	0.32282
U	139	0.20108
U	140	0.47192
U	141	0.27629
U	142	0.20037
U	143	0.53381
U	144	0.41857
U	145	0.09999
U	146	0.31538
U	147	0.17723
U	148	0.16847
U	149	0.20547
U	150	0.38277
U	151	0.14624
U	152	0.12524
U	153	0.16954
