RESNR	RESTYPE	RESCHAIN	PROT_IDX_LIST	RESNR_LIG	RESTYPE_LIG	RESCHAIN_LIG	DIST	PROTISPOS	LIG_GROUP	LIG_IDX_LIST	LIGCOO	PROTCOO
395	LYS	A	267	5	U	B	3.73	True	Phosphate	1613,1613,1616,1601,1614,1615	(-0.175, -18.447, -13.837)	(-2.378, -15.465, -14.216)
506	ARG	A	1170,1172,1173	4	C	B	5.09	True	Phosphate	1593,1593,1594,1595,1596	(3.788, -12.722, -12.172)	(7.603333333333333, -14.809, -14.812666666666667)
