RESNR	RESTYPE	RESCHAIN	RESNR_LIG	RESTYPE_LIG	RESCHAIN_LIG	SIDECHAIN	DIST_H-A	DIST_D-A	DON_ANGLE	PROTISDON	DONORIDX	DONORTYPE	ACCEPTORIDX	ACCEPTORTYPE	LIGCOO	PROTCOO
734	ARG	F	1	G	I	True	2.56	3.52	164.44	True	15256	Ng+	18119	O3	(36.654, 44.954, 43.982)	(37.941, 47.518, 46.017)
606	SER	F	1	G	I	True	2.60	3.19	119.53	True	14244	O3	18123	Nar	(36.624, 41.025, 39.79)	(35.806, 43.549, 38.019)
