RESNR	RESTYPE	RESCHAIN	PROT_IDX_LIST	RESNR_LIG	RESTYPE_LIG	RESCHAIN_LIG	DIST	OFFSET	PROTCHARGED	LIG_GROUP	LIG_IDX_LIST	LIGCOO	PROTCOO
1008	ARG	B	4237,4239,4240	4	A	D	3.59	0.72	True	Aromatic	5711,5712,5714,5715,5716,5717	(34.75416666666667, 10.316666666666666, 16.733)	(33.79333333333333, 7.567333333333333, 18.829666666666665)
1008	ARG	B	4237,4239,4240	5	C	D	3.39	0.10	True	Aromatic	5730,5731,5733,5734,5736,5737	(32.16466666666667, 5.2571666666666665, 20.706)	(33.79333333333333, 7.567333333333333, 18.829666666666665)
1123	TYR	B	5115,5116,5117,5118,5119,5120	2	G	D	4.23	1.92	False	guanidine	5671,5673,5674	(28.632, 19.83, 8.039)	(25.039666666666662, 21.4505, 6.4975)
