RESNR	RESTYPE	RESCHAIN	PROT_IDX_LIST	RESNR_LIG	RESTYPE_LIG	RESCHAIN_LIG	DIST	PROTISPOS	LIG_GROUP	LIG_IDX_LIST	LIGCOO	PROTCOO
1076	LYS	B	4753	3	U	D	5.02	True	Phosphate	5696,5696,5697,5698,5699,5681	(8.539, -12.178, 5.966)	(4.353, -11.342, 3.317)
1083	GLU	B	4805,4806	2	G	D	4.34	False	Guanidine	5691,5693,5694	(5.785, -19.769, 7.945)	(5.394, -22.7035, 11.125)
