RESNR	RESTYPE	RESCHAIN	RESNR_LIG	RESTYPE_LIG	RESCHAIN_LIG	PROT_IDX_LIST	CENTDIST	ANGLE	OFFSET	TYPE	LIG_IDX_LIST	LIGCOO	PROTCOO
1159	HIS	B	1	U	D	5414,5415,5416,5417,5418	3.51	9.21	1.32	P	5665,5666,5668,5669,5671,5672	(13.356, -21.823333333333334, 5.107500000000001)	(14.9964, -24.784599999999998, 4.1736)
972	HIS	B	6	A	D	3908,3909,3910,3911,3912	3.68	15.82	1.10	P	5773,5774,5775,5776,5782	(3.2646, 2.9539999999999997, 21.4558)	(0.02899999999999999, 1.2912, 20.911199999999997)
972	HIS	B	6	A	D	3908,3909,3910,3911,3912	3.42	16.87	0.58	P	5776,5777,5779,5780,5781,5782	(1.8765, 3.3668333333333327, 22.908333333333335)	(0.02899999999999999, 1.2912, 20.911199999999997)
1123	TYR	B	2	G	D	5115,5116,5117,5118,5119,5120	3.55	9.25	1.18	P	5685,5686,5687,5688,5695	(8.6644, -18.212799999999998, 7.9626)	(9.505666666666666, -21.50833333333333, 6.9355)
1123	TYR	B	2	G	D	5115,5116,5117,5118,5119,5120	3.58	9.14	0.76	P	5688,5689,5691,5692,5694,5695	(6.998, -19.378833333333333, 8.338333333333333)	(9.505666666666666, -21.50833333333333, 6.9355)
1044	TYR	B	4	A	D	4492,4493,4494,4495,4496,4497	3.58	12.62	1.46	P	5728,5729,5730,5731,5737	(2.2047999999999996, -9.096599999999999, 14.0322)	(0.25533333333333336, -11.9895, 13.236833333333335)
1044	TYR	B	4	A	D	4492,4493,4494,4495,4496,4497	3.40	12.44	0.44	P	5731,5732,5734,5735,5736,5737	(0.5661666666666666, -9.311166666666667, 15.302666666666667)	(0.25533333333333336, -11.9895, 13.236833333333335)
900	TYR	B	8	A	D	3327,3328,3329,3330,3331,3332	3.80	10.32	0.91	P	5818,5819,5821,5822,5823,5824	(12.9705, 12.7845, 27.38366666666667)	(9.461166666666665, 11.398833333333334, 27.87183333333333)
