RESNR	RESTYPE	RESCHAIN	PROT_IDX_LIST	RESNR_LIG	RESTYPE_LIG	RESCHAIN_LIG	DIST	PROTISPOS	LIG_GROUP	LIG_IDX_LIST	LIGCOO	PROTCOO
1076	LYS	B	5220	15	U	D	3.49	True	Phosphate	297,297,282,299,298,300	(27.555, 12.036, 5.719)	(30.74, 12.431, 4.36)
1083	GLU	B	5272,5273	14	G	D	4.38	False	Guanidine	292,294,295	(28.891, 19.616, 7.681)	(28.9255, 23.0365, 10.41)
