RESNR	RESTYPE	RESCHAIN	RESNR_LIG	RESTYPE_LIG	RESCHAIN_LIG	PROT_IDX_LIST	CENTDIST	ANGLE	OFFSET	TYPE	LIG_IDX_LIST	LIGCOO	PROTCOO
972	HIS	A	6	A	C	1181,1182,1183,1184,1185	3.57	13.73	1.08	P	5604,5605,5606,5607,5613	(9.3, -1.7351999999999996, 53.221000000000004)	(11.8548, -0.752, 55.51180000000001)
972	HIS	A	6	A	C	1181,1182,1183,1184,1185	3.52	14.54	0.97	P	5607,5608,5610,5611,5612,5613	(10.292166666666667, -3.4151666666666665, 53.816)	(11.8548, -0.752, 55.51180000000001)
1159	HIS	A	1	U	C	2687,2688,2689,2690,2691	3.52	12.20	0.42	P	5496,5497,5499,5500,5502,5503	(-3.0675000000000003, 24.9105, 65.57316666666667)	(-5.1588, 27.7144, 65.981)
900	TYR	A	8	A	C	600,601,602,603,604,605	3.76	2.43	1.89	P	5649,5650,5652,5653,5654,5655	(0.30983333333333335, -11.638666666666667, 46.78366666666667)	(3.595, -11.677666666666667, 48.61666666666667)
1044	TYR	A	4	A	C	1765,1766,1767,1768,1769,1770	3.30	4.53	0.83	P	5559,5560,5561,5562,5568	(9.3442, 10.042, 60.779999999999994)	(10.447166666666666, 12.6325, 62.50599999999999)
1044	TYR	A	4	A	C	1765,1766,1767,1768,1769,1770	3.55	4.47	1.38	P	5562,5563,5565,5566,5567,5568	(11.039, 9.235166666666666, 61.67333333333334)	(10.447166666666666, 12.6325, 62.50599999999999)
1123	TYR	A	2	G	C	2388,2389,2390,2391,2392,2393	3.72	3.64	1.68	P	5516,5517,5518,5519,5526	(1.9174000000000002, 20.8228, 64.25179999999999)	(0.8156666666666667, 23.343333333333334, 66.75550000000001)
1123	TYR	A	2	G	C	2388,2389,2390,2391,2392,2393	3.53	3.84	1.21	P	5519,5520,5522,5523,5525,5526	(3.266833333333333, 20.97833333333333, 65.82216666666666)	(0.8156666666666667, 23.343333333333334, 66.75550000000001)
