RESNR	RESTYPE	RESCHAIN	PROT_IDX_LIST	RESNR_LIG	RESTYPE_LIG	RESCHAIN_LIG	DIST	PROTISPOS	LIG_GROUP	LIG_IDX_LIST	LIGCOO	PROTCOO
348	ARG	A	314,316,317	5	G	C	4.59	True	Phosphate	3622,3622,3624,3625,3610,3623	(-30.197, -8.39, 52.971)	(-32.69233333333334, -8.943, 49.15433333333334)
348	ARG	A	314,316,317	6	A	C	5.46	True	Phosphate	3645,3645,3630,3648,3646,3647	(-33.964, -3.823, 50.542)	(-32.69233333333334, -8.943, 49.15433333333334)
471	HIS	A	1289,1292	17	U	C	5.09	True	Phosphate	3881,3881,3866,3883,3882,3884	(-22.137, 5.11, 22.562)	(-19.5415, 5.1405, 18.182000000000002)
474	ARG	A	1315,1317,1318	16	G	C	4.33	True	Phosphate	3858,3858,3859,3860,3861,3846	(-17.616, 3.324, 25.604)	(-17.42, 4.777, 21.534666666666666)
474	ARG	A	1315,1317,1318	17	U	C	4.84	True	Phosphate	3881,3881,3866,3883,3882,3884	(-22.137, 5.11, 22.562)	(-17.42, 4.777, 21.534666666666666)
477	ARG	A	1340,1342,1343	16	G	C	4.72	True	Phosphate	3858,3858,3859,3860,3861,3846	(-17.616, 3.324, 25.604)	(-17.442, -0.2836666666666667, 22.564666666666668)
481	ARG	A	1372,1374,1375	15	U	C	4.68	True	Phosphate	3838,3838,3840,3841,3824,3839	(-12.752, 2.475, 29.411)	(-13.151000000000002, -2.1926666666666668, 29.423000000000002)
510	ARG	A	1591,1593,1594	13	A	C	4.50	True	Phosphate	3794,3794,3795,3796,3797,3782	(-10.563, 6.133, 41.427)	(-9.266666666666667, 2.5033333333333334, 43.74666666666667)
594	LYS	A	2249	5	G	C	4.88	True	Phosphate	3622,3622,3624,3625,3610,3623	(-30.197, -8.39, 52.971)	(-27.151, -4.584, 52.846)
