RESNR	RESTYPE	RESCHAIN	RESNR_LIG	RESTYPE_LIG	RESCHAIN_LIG	SIDECHAIN	DIST_H-A	DIST_D-A	DON_ANGLE	PROTISDON	DONORIDX	DONORTYPE	ACCEPTORIDX	ACCEPTORTYPE	LIGCOO	PROTCOO
41	TYR	c	232	C	z	True	2.62	3.27	127.29	True	36555	O3	38227	O2	(128.225, 190.406, 127.869)	(127.42, 193.489, 128.603)
80	ARG	c	233	G	z	True	3.21	3.61	106.44	True	36837	Ng+	38256	O3	(132.208, 188.815, 140.397)	(129.837, 188.4, 143.089)
80	ARG	c	233	G	z	True	2.52	3.06	113.75	True	36838	Ng+	38267	Nar	(129.244, 192.067, 140.238)	(128.589, 189.319, 141.404)
41	TYR	c	231	G	z	True	3.79	4.07	100.14	False	38213	O3	36555	O3	(126.545, 192.232, 132.379)	(127.42, 193.489, 128.603)
