RESNR	RESTYPE	RESCHAIN	RESNR_LIG	RESTYPE_LIG	RESCHAIN_LIG	SIDECHAIN	DIST_H-A	DIST_D-A	DON_ANGLE	PROTISDON	DONORIDX	DONORTYPE	ACCEPTORIDX	ACCEPTORTYPE	LIGCOO	PROTCOO
36	LYS	c	164	U	z	True	2.65	3.52	143.50	True	36520	N3	37835	O2	(124.714, 199.392, 135.047)	(127.175, 199.64, 137.558)
80	ARG	c	233	G	z	True	3.32	3.93	121.95	True	36838	Ng+	38267	Nar	(129.938, 193.806, 140.319)	(128.227, 190.338, 141.032)
80	ARG	c	236	C	z	True	2.72	3.55	142.13	True	36837	Ng+	38318	O3	(124.461, 188.11, 143.448)	(127.365, 190.122, 143.142)
78	SER	c	233	G	z	True	2.97	3.63	125.59	False	38266	Npl	36816	O3	(129.464, 195.682, 141.573)	(128.32, 197.198, 144.67)
