#Chain_ID	ResNum_ResIcode	Propensity
I	10	0.21554
I	11	0.04222
I	12	0.00652
I	13	0.01952
I	14	0.05327
I	15	0.03588
I	16	0.01171
I	17	0.05507
I	18	0.05993
I	26	0.06225
I	27	0.35609
I	28	0.25436
I	29	0.02412
I	30	0.07883
I	31	0.48018
I	32	0.25372
I	33	0.00974
I	34	0.13370
I	35	0.02200
I	36	0.08576
I	37	0.12078
I	38	0.08294
I	39	0.26157
I	40	0.24424
I	41	0.05028
I	42	0.07070
I	43	0.00420
I	44	0.02627
I	45	0.01339
I	46	0.00977
I	47	0.01353
I	48	0.03968
I	49	0.00867
I	50	0.00304
I	51	0.00910
I	52	0.00747
I	53	0.00576
I	54	0.00784
I	55	0.00452
I	56	0.00836
I	57	0.01735
I	58	0.00538
I	59	0.03447
I	60	0.07586
I	61	0.03289
I	62	0.00738
I	63	0.00329
I	64	0.00644
I	65	0.01461
I	66	0.01364
I	67	0.00652
I	68	0.01334
I	69	0.05503
I	70	0.05326
I	71	0.00793
I	72	0.00850
I	73	0.02073
I	74	0.04387
I	75	0.07793
I	76	0.01628
I	77	0.00388
I	78	0.00302
I	79	0.01393
I	80	0.01341
I	81	0.01031
I	82	0.00484
I	83	0.00364
I	84	0.00793
I	85	0.00596
I	86	0.01926
I	87	0.00164
I	88	0.00237
I	89	0.00167
I	90	0.00430
I	91	0.00295
I	92	0.00414
I	93	0.01104
I	94	0.01228
I	95	0.04254
I	96	0.14861
I	97	0.01424
I	98	0.08068
I	99	0.03815
I	100	0.08536
I	101	0.21687
I	102	0.03345
I	103	0.06277
I	104	0.07208
I	105	0.11008
I	106	0.10956
I	107	0.01973
I	108	0.04808
I	109	0.01906
I	110	0.04639
I	111	0.05501
I	112	0.03046
I	113	0.01554
I	114	0.01815
I	115	0.00923
I	116	0.08666
I	117	0.01168
I	118	0.26661
I	119	0.06473
I	120	0.04126
I	121	0.12384
I	122	0.01914
I	123	0.01562
I	124	0.04259
I	125	0.01352
I	126	0.01143
I	127	0.04791
I	128	0.03659
I	129	0.01282
I	130	0.00461
I	131	0.01745
I	132	0.21080
I	133	0.04351
I	134	0.02558
I	135	0.03195
I	136	0.08048
I	137	0.09021
I	138	0.26665
I	139	0.05851
I	140	0.00781
I	141	0.07096
I	142	0.00885
I	143	0.01257
I	144	0.14468
