RESNR	RESTYPE	RESCHAIN	RESNR_LIG	RESTYPE_LIG	RESCHAIN_LIG	PROT_IDX_LIST	CENTDIST	ANGLE	OFFSET	TYPE	LIG_IDX_LIST	LIGCOO	PROTCOO
456	HIS	A	112	U	B	1108,1109,1110,1111,1112	3.56	7.02	1.35	P	648,649,651,652,654,655	(30.280166666666663, 43.3945, 50.877833333333335)	(32.906, 43.791, 48.510200000000005)
424	TYR	A	109	A	B	864,865,866,867,868,869	4.86	61.74	1.30	T	586,587,589,590,591,592	(45.81016666666667, 48.07366666666667, 56.38983333333332)	(42.95766666666666, 49.058, 52.5785)
