RESNR	RESTYPE	RESCHAIN	PROT_IDX_LIST	RESNR_LIG	RESTYPE_LIG	RESCHAIN_LIG	DIST	PROTISPOS	LIG_GROUP	LIG_IDX_LIST	LIGCOO	PROTCOO
22	LYS	A	1716	144	C	B	3.29	True	Phosphate	937,937,923,938,939,940	(33.196, 65.533, 82.709)	(33.723, 63.463, 85.217)
50	LYS	A	1944	153	A	B	4.30	True	Phosphate	1124,1124,1112,1125,1126,1127	(47.917, 42.761, 78.245)	(47.878, 46.236, 75.706)
19	GLU	A	1689,1690	151	G	B	4.06	False	Guanidine	1099,1101,1102	(36.12, 48.318, 76.025)	(34.0595, 51.765, 76.63050000000001)
