RESNR	RESTYPE	RESCHAIN	PROT_IDX_LIST	RESNR_LIG	RESTYPE_LIG	RESCHAIN_LIG	DIST	PROTISPOS	LIG_GROUP	LIG_IDX_LIST	LIGCOO	PROTCOO
22	LYS	A	134	14	G	X	4.19	True	Phosphate	3208,3208,3209,3194,3211,3210	(11.619, 14.116, -45.172)	(7.912, 13.28, -43.403)
22	LYS	A	134	15	C	X	4.48	True	Phosphate	3231,3231,3216,3233,3234,3232	(9.973, 9.394, -42.532)	(7.912, 13.28, -43.403)
50	LYS	A	362	23	C	X	5.25	True	Phosphate	3399,3399,3384,3401,3402,3400	(4.939, 31.438, -25.446)	(9.309, 32.603, -28.107)
50	LYS	A	362	24	A	X	4.60	True	Phosphate	3419,3419,3407,3420,3421,3422	(6.258, 35.807, -29.381)	(9.309, 32.603, -28.107)
88	LYS	A	671	23	C	X	4.89	True	Phosphate	3399,3399,3384,3401,3402,3400	(4.939, 31.438, -25.446)	(1.996, 35.049, -23.961)
19	GLU	A	110,111	22	G	X	4.57	False	Guanidine	3394,3396,3397	(6.695, 22.838, -27.611)	(7.2345, 18.604999999999997, -29.258)
