RESNR	RESTYPE	RESCHAIN	RESNR_LIG	RESTYPE_LIG	RESCHAIN_LIG	PROT_IDX_LIST	CENTDIST	ANGLE	OFFSET	TYPE	LIG_IDX_LIST	LIGCOO	PROTCOO
56	PHE	A	153	A	B	1977,1978,1979,1980,1981,1982	3.76	12.50	1.41	P	1113,1114,1115,1116,1122	(13.7436, 63.53399999999999, 10.1904)	(16.091, 60.74549999999999, 9.264166666666666)
56	PHE	A	153	A	B	1977,1978,1979,1980,1981,1982	3.65	11.82	1.05	P	1116,1117,1119,1120,1121,1122	(14.138, 63.61416666666667, 8.147)	(16.091, 60.74549999999999, 9.264166666666666)
13	TYR	A	152	C	B	1612,1613,1614,1615,1616,1617	3.70	4.37	0.92	P	1093,1094,1096,1097,1099,1100	(12.511000000000001, 57.36666666666667, 13.080499999999999)	(15.9405, 56.30833333333334, 12.173166666666665)
