RESNR	RESTYPE	RESCHAIN	RESNR_LIG	RESTYPE_LIG	RESCHAIN_LIG	DIST	LIGCARBONIDX	PROTCARBONIDX	LIGCOO	PROTCOO
567	LEU	B	35	C	C	3.67	8586	7037	(427.788, 195.128, 68.198)	(425.396, 192.5, 69.13)
619	ASP	B	35	C	C	3.71	8586	7421	(427.788, 195.128, 68.198)	(424.443, 195.138, 66.586)
672	PHE	B	35	C	C	3.85	8586	7851	(427.788, 195.128, 68.198)	(428.744, 198.838, 68.603)
