RESNR	RESTYPE	RESCHAIN	RESNR_LIG	RESTYPE_LIG	RESCHAIN_LIG	DIST	LIGCARBONIDX	PROTCARBONIDX	LIGCOO	PROTCOO
672	PHE	A	35	C	C	3.60	4933	4183	(-19.077, 22.882, 26.929)	(-20.556, 20.166, 28.777)
675	GLN	A	35	C	C	3.82	4933	4199	(-19.077, 22.882, 26.929)	(-19.106, 24.751, 30.261)
