RESNR	RESTYPE	RESCHAIN	PROT_IDX_LIST	RESNR_LIG	RESTYPE_LIG	RESCHAIN_LIG	DIST	PROTISPOS	LIG_GROUP	LIG_IDX_LIST	LIGCOO	PROTCOO
72	HIS	B	258,261	41	U	H	4.78	True	Phosphate	947,947,935,948,949,950	(249.045, 274.299, 237.333)	(244.5695, 272.789, 236.6255)
77	LYS	B	299	42	G	H	4.83	True	Phosphate	967,967,968,969,970,955	(251.642, 276.542, 232.969)	(251.201, 272.38, 235.377)
77	LYS	B	299	41	U	H	3.49	True	Phosphate	947,947,935,948,949,950	(249.045, 274.299, 237.333)	(251.201, 272.38, 235.377)
