RESNR	RESTYPE	RESCHAIN	PROT_IDX_LIST	RESNR_LIG	RESTYPE_LIG	RESCHAIN_LIG	DIST	OFFSET	PROTCHARGED	LIG_GROUP	LIG_IDX_LIST	LIGCOO	PROTCOO
47	ARG	R	4284,4286,4287	132	G	3	4.07	1.22	True	Aromatic	5634,5635,5636,5637,5644	(-90.11160000000001, 3.7114000000000003, -31.255399999999998)	(-90.57633333333332, 1.3539999999999999, -27.974)
47	ARG	R	4284,4286,4287	132	G	3	3.97	0.82	True	Aromatic	5637,5638,5640,5641,5643,5644	(-92.13383333333333, 3.3605000000000005, -31.018999999999995)	(-90.57633333333332, 1.3539999999999999, -27.974)
