RESNR	RESTYPE	RESCHAIN	RESNR_LIG	RESTYPE_LIG	RESCHAIN_LIG	SIDECHAIN	DIST_H-A	DIST_D-A	DON_ANGLE	PROTISDON	DONORIDX	DONORTYPE	ACCEPTORIDX	ACCEPTORTYPE	LIGCOO	PROTCOO
103	GLY	a	104	U	H	False	2.48	3.07	118.81	True	3068	Nam	1038	O2	(277.367, 230.83, 179.575)	(277.176, 231.811, 176.669)
104	ASP	a	104	U	H	False	2.59	3.23	122.65	True	3072	Nam	1038	O2	(277.367, 230.83, 179.575)	(278.508, 229.393, 176.921)
88	LYS	a	136	G	H	False	2.06	2.97	147.34	True	3005	N3	1739	Npl	(267.329, 210.467, 150.091)	(268.986, 209.32, 152.278)
88	LYS	a	136	G	H	False	3.54	3.92	105.82	False	1729	O3	3005	N3	(272.712, 208.361, 151.526)	(268.986, 209.32, 152.278)
88	LYS	a	136	G	H	False	3.09	3.91	140.63	False	1739	Npl	3008	O2	(267.329, 210.467, 150.091)	(268.256, 211.579, 153.718)
88	LYS	a	136	G	H	False	2.27	2.78	111.13	False	1740	Nar	3005	N3	(269.026, 209.008, 149.519)	(268.986, 209.32, 152.278)
