RESNR	RESTYPE	RESCHAIN	RESNR_LIG	RESTYPE_LIG	RESCHAIN_LIG	SIDECHAIN	DIST_H-A	DIST_D-A	DON_ANGLE	PROTISDON	DONORIDX	DONORTYPE	ACCEPTORIDX	ACCEPTORTYPE	LIGCOO	PROTCOO
103	GLY	a	104	U	H	False	2.47	3.07	118.88	True	3456	Nam	1426	O2	(189.078, 165.368, 97.321)	(188.914, 166.573, 94.498)
104	ASP	a	104	U	H	False	2.59	3.23	122.64	True	3460	Nam	1426	O2	(189.078, 165.368, 97.321)	(190.158, 164.097, 94.559)
88	LYS	a	136	G	H	False	2.06	2.97	147.25	True	3393	N3	2127	Npl	(178.213, 147.677, 66.439)	(179.834, 146.309, 68.524)
88	LYS	a	136	G	H	False	3.54	3.92	105.84	False	2117	O3	3393	N3	(183.52, 145.276, 67.679)	(179.834, 146.309, 68.524)
88	LYS	a	136	G	H	False	3.09	3.91	140.64	False	2127	Npl	3396	O2	(178.213, 147.677, 66.439)	(179.191, 148.476, 70.135)
88	LYS	a	136	G	H	False	2.27	2.78	111.16	False	2128	Nar	3393	N3	(179.854, 146.205, 65.748)	(179.834, 146.309, 68.524)
