RESNR	RESTYPE	RESCHAIN	PROT_IDX_LIST	RESNR_LIG	RESTYPE_LIG	RESCHAIN_LIG	DIST	PROTISPOS	LIG_GROUP	LIG_IDX_LIST	LIGCOO	PROTCOO
186	ARG	A	7521,7523,7524	3	A	D	4.73	True	Phosphate	12541,12541,12529,12544,12542,12543	(-25.51, -4.845, -0.993)	(-21.575000000000003, -5.342666666666666, 1.5793333333333333)
467	ARG	A	9613,9615,9616	4	A	D	4.96	True	Phosphate	12563,12563,12549,12564,12565,12566	(-24.5, -9.186, -4.16)	(-24.925, -8.427, -9.046333333333333)
