RESNR	RESTYPE	RESCHAIN	PROT_IDX_LIST	RESNR_LIG	RESTYPE_LIG	RESCHAIN_LIG	DIST	PROTISPOS	LIG_GROUP	LIG_IDX_LIST	LIGCOO	PROTCOO
636	ARG	B	4657,4659,4660	5	C	C	4.75	True	Phosphate	12624,12624,12625,12626,12627,12612	(-67.392, -7.953, -7.195)	(-68.02199999999999, -7.239666666666667, -2.5396666666666667)
186	ARG	A	7548,7550,7551	3	C	C	4.59	True	Phosphate	12584,12584,12585,12586,12587,12572	(-74.938, -4.841, -0.977)	(-71.18566666666665, -5.296, 1.6280000000000001)
