RESNR	RESTYPE	RESCHAIN	RESNR_LIG	RESTYPE_LIG	RESCHAIN_LIG	SIDECHAIN	DIST_H-A	DIST_D-A	DON_ANGLE	PROTISDON	DONORIDX	DONORTYPE	ACCEPTORIDX	ACCEPTORTYPE	LIGCOO	PROTCOO
316	GLY	A	9	A	R	False	2.89	3.34	108.45	True	2287	Nam	12436	O2	(84.151, 136.001, 123.7)	(83.363, 136.931, 120.594)
313	SER	A	10	C	R	True	3.45	4.00	117.91	True	2267	O3	12467	O3	(87.022, 126.949, 117.455)	(84.624, 129.21, 115.191)
552	ARG	A	19	G	R	True	2.09	3.03	158.79	True	4000	Ng+	12659	O3	(113.134, 115.413, 127.621)	(112.834, 112.416, 127.33)
313	SER	A	10	C	R	True	3.32	4.00	128.45	False	12467	O3	2267	O3	(87.022, 126.949, 117.455)	(84.624, 129.21, 115.191)
553	GLN	A	19	G	R	False	2.51	3.32	139.63	False	12669	Npl	4004	O2	(109.083, 114.542, 123.821)	(109.084, 111.978, 125.936)
